[
  {
    "link_thumb": "https://live.staticflickr.com/65535/48611377162_e2f98ee1c9_n.jpg",
    "id_album": "1855448316",
    "description": "SeireiGensouki_1004301,[isBoyAnime],[isSadAnime],[isSadAnimeBoy],[Seirei Gensouki],[SeireiGensouki]",
    "title": "SeireiGensouki_1004301",
    "link_img": "https://live.staticflickr.com/65535/48611377162_9bb3994475_o.jpg",
    "id_image": "SeireiGensouki_1004301",
    "count_view": 0
  },
  {
    "link_thumb": "https://live.staticflickr.com/65535/48611224566_cdb74e06ca_n.jpg",
    "id_album": "1855448316",
    "description": "SeireiGensouki_1004303,[isGirlAnime],[isBoyAnime],[isSadAnime],[isSadAnimeGirl],[isSadAnimeBoy],[isCoupleAnime],[isCuteAnime],[isGirlsHatsHoodieAnime],[isGirlsLoliAnime],[Seirei Gensouki],[SeireiGensouki]",
    "title": "SeireiGensouki_1004303",
    "link_img": "https://live.staticflickr.com/65535/48611224566_c15cdd809b_o.jpg",
    "id_image": "SeireiGensouki_1004303",
    "count_view": 0
  },
  {
    "link_thumb": "https://live.staticflickr.com/65535/48611377597_7b0723b9bd_n.jpg",
    "id_album": "1855448316",
    "description": "SeireiGensouki_1004304,[isGirlAnime],[isSadAnime],[isSadAnimeGirl],[isCuteAnime],[isGirlsLoliAnime],[Seirei Gensouki],[SeireiGensouki]",
    "title": "SeireiGensouki_1004304",
    "link_img": "https://live.staticflickr.com/65535/48611377597_b525b512f1_o.jpg",
    "id_image": "SeireiGensouki_1004304",
    "count_view": 0
  },
  {
    "link_thumb": "https://live.staticflickr.com/65535/48610864243_80bbb840db_n.jpg",
    "id_album": "1855448316",
    "description": "SeireiGensouki_1004305,[isGirlAnime],[isBoyAnime],[isSadAnime],[isSadAnimeGirl],[isSadAnimeBoy],[isCoupleAnime],[isCuteAnime],[isGirlsLoliAnime],[isGirlsSharpCanineToothAnime],[Seirei Gensouki],[SeireiGensouki]",
    "title": "SeireiGensouki_1004305",
    "link_img": "https://live.staticflickr.com/65535/48610864243_c2955dc28a_o.jpg",
    "id_image": "SeireiGensouki_1004305",
    "count_view": 0
  },
  {
    "link_thumb": "https://live.staticflickr.com/65535/48610864368_ec252f47cf_n.jpg",
    "id_album": "1855448316",
    "description": "SeireiGensouki_1004306,[isGirlAnime],[isBoyAnime],[isSadAnime],[isSadAnimeGirl],[isSadAnimeBoy],[isCoupleAnime],[isCuteAnime],[isGirlsLoliAnime],[Seirei Gensouki],[SeireiGensouki]",
    "title": "SeireiGensouki_1004306",
    "link_img": "https://live.staticflickr.com/65535/48610864368_b4ab6553f2_o.jpg",
    "id_image": "SeireiGensouki_1004306",
    "count_view": 0
  },
  {
    "link_thumb": "https://live.staticflickr.com/65535/48611378242_3d4aa597dd_n.jpg",
    "id_album": "1855448316",
    "description": "SeireiGensouki_1004308,[isGirlAnime],[isBoyAnime],[isSadAnime],[isSadAnimeGirl],[isSadAnimeBoy],[isCoupleAnime],[isCuteAnime],[isGirlsLoliAnime],[Seirei Gensouki],[SeireiGensouki]",
    "title": "SeireiGensouki_1004308",
    "link_img": "https://live.staticflickr.com/65535/48611378242_5f1d9bff6f_o.jpg",
    "id_image": "SeireiGensouki_1004308",
    "count_view": 0
  },
  {
    "link_thumb": "https://live.staticflickr.com/65535/48610864848_1604fbdd83_n.jpg",
    "id_album": "1855448316",
    "description": "SeireiGensouki_1004309,[isGirlAnime],[isBoyAnime],[isSadAnime],[isSadAnimeGirl],[isSadAnimeBoy],[isCoupleAnime],[isCuteAnime],[isGirlsLoliAnime],[Seirei Gensouki],[SeireiGensouki]",
    "title": "SeireiGensouki_1004309",
    "link_img": "https://live.staticflickr.com/65535/48610864848_ecef0ed2d5_o.jpg",
    "id_image": "SeireiGensouki_1004309",
    "count_view": 0
  },
  {
    "link_thumb": "https://live.staticflickr.com/65535/48611378502_84fdf06157_n.jpg",
    "id_album": "1855448316",
    "description": "SeireiGensouki_1004310,[isGirlAnime],[isBoyAnime],[isSadAnime],[isSadAnimeGirl],[isSadAnimeBoy],[isCoupleAnime],[isCuteAnime],[isGirlEarsNekoAnime],[isGirlsHatsHoodieAnime],[isGirlsLoliAnime],[isGirlsSharpCanineToothAnime],[Seirei Gensouki],[SeireiGensouki]",
    "title": "SeireiGensouki_1004310",
    "link_img": "https://live.staticflickr.com/65535/48611378502_01643fb550_o.jpg",
    "id_image": "SeireiGensouki_1004310",
    "count_view": 0
  },
  {
    "link_thumb": "https://live.staticflickr.com/65535/48611225891_bcd42290c8_n.jpg",
    "id_album": "1855448316",
    "description": "SeireiGensouki_1004311,[isGirlAnime],[isSadAnime],[isSadAnimeGirl],[isCuteAnime],[isGirlsLoliAnime],[Seirei Gensouki],[SeireiGensouki]",
    "title": "SeireiGensouki_1004311",
    "link_img": "https://live.staticflickr.com/65535/48611225891_aaca31c45b_o.jpg",
    "id_image": "SeireiGensouki_1004311",
    "count_view": 0
  },
  {
    "link_thumb": "https://live.staticflickr.com/65535/48611378862_322f2c280c_n.jpg",
    "id_album": "1855448316",
    "description": "SeireiGensouki_1004312,[isGirlAnime],[isBoyAnime],[isSadAnime],[isSadAnimeGirl],[isSadAnimeBoy],[isCoupleAnime],[isCuteAnime],[isGirlEarsNekoAnime],[isGirlsHatsHoodieAnime],[isGirlsLoliAnime],[Seirei Gensouki],[SeireiGensouki]",
    "title": "SeireiGensouki_1004312",
    "link_img": "https://live.staticflickr.com/65535/48611378862_26e6141415_o.jpg",
    "id_image": "SeireiGensouki_1004312",
    "count_view": 0
  },
  {
    "link_thumb": "https://live.staticflickr.com/65535/48611226216_bf441e4830_n.jpg",
    "id_album": "1855448316",
    "description": "SeireiGensouki_1004313,[isGirlAnime],[isBoyAnime],[isSadAnime],[isSadAnimeGirl],[isSadAnimeBoy],[isCoupleAnime],[isCuteAnime],[isGirlsLoliAnime],[Seirei Gensouki],[SeireiGensouki]",
    "title": "SeireiGensouki_1004313",
    "link_img": "https://live.staticflickr.com/65535/48611226216_0e08e1c2b8_o.jpg",
    "id_image": "SeireiGensouki_1004313",
    "count_view": 0
  }
]