[
  {
    "total_img": 22,
    "number_page": 1,
    "title": "FateExtra",
    "tag": "Sky, Water, Green Eyes, Lancer FateExtra, Saber Nero, Twinitails, Weapon, Blood, Long Hair, Thigh Highs, Anime, Sword, Kimono, Bikini, Headdress, Hakuno Kishinami, Braid, Arrow, Glove, Saber Fate Series, Euryale FateGrand Order, Smile, Yellow Eyes, Skirt, Blush, Caster FateExtra, Saber of Red FateApocrypha, Surfboard, Saber Bride, Sitting, Berserker FateGrand Order, Shadow, Elizabeth Bathory FateGrand Order, Blonde, Fate Series, Japanese Clothes, Armor, Tail, bow Clothing, Nero Claudius, Short Hair, Lamp, FateExtra, Bed, Necklace, Flower, Dress, Blue, Pink Hair, Sweater, Fan, Tamamo no Mae FateGrand Order, Lying Down, Fateextra, Red Saber, Suzuka Gozen, Hat, Animal Ears, Petal, Mordred FateApocrypha, Pillow",
    "description": "FateExtra",
    "link_thumb": "https://live.staticflickr.com/65535/47975795462_ba31cb361a_n.jpg",
    "id_album": "-1695450289",
    "total_view": 22
  },
  {
    "total_img": 5,
    "number_page": 1,
    "title": "Euryale FateGrand Order",
    "tag": "Euryale FateGrand Order,",
    "description": "Euryale FateGrand Order",
    "link_thumb": "https://live.staticflickr.com/65535/47976685107_ecb122ca46_n.jpg",
    "id_album": "-2003066015",
    "total_view": 5
  }
]