[
  {
    "total_img": 23,
    "number_page": 1,
    "title": "BanG Dream",
    "tag": "Arisa Ichigaya, Tae Hanazono, Lisa Imai, Eve Wakamiya, Kokoro Tsurumaki, Yukina Minato, Ako Udagawa, Rinko Shirokane, Band, Rinko Shirogane, Shirasagi Chisato, Rimi Ushigome, Concert, Yuri Ushigome, Sayo Hikawa, Saaya Yamabuki, Tsugumi Hazawa, Kasumi Toyama, Roselia BanG Dream, Cat, Aya Maruyama, Ran Mitake, BanG Dream",
    "description": "BanG Dream",
    "link_thumb": "https://live.staticflickr.com/65535/40928905673_dec3521164_n.jpg",
    "id_album": "2143311594",
    "total_view": 23
  }
]