[
  {
    "total_img": 623,
    "number_page": 4,
    "title": "Original 10",
    "tag": "Water, Heart, Green Hair, Creature, Wink, Black Hair, Staff, Monochrome, Clock, Blood, Weapon, Throne, Bouquet, Goggles, Umbrella, Shorts, Bikini, Street, Pool, Veil, Fence, Eagle, Bike, Cup, Space, Arrow, Glove, Chibi, Black Dress, Smile, Snail, Sun, Sea, Skirt, Original 10, Comet, Bunny Ears, Statue, Jungle, Spoon, Clockwork, Kawasaki, Building, Miko Outfit, Orange Hair, Mount Fuji, Paper Plane, Cake, Dragon, Train Station, Earbuds, Cassette, Cloak, Japanese Clothes, Star, Tail, Stairs, Yuri, Fish, Wolf, Traffic Light, Food, Nature, Original Anime, Motorcycle, Nekomimi, Blue, Watermelon, Brown Hair, Chocolate, Ice, Couch, Pink Hair, Baseball Bat, Tie, Blue Eyes, Hoodie, Teddy Bear, Ghost, Boots, Fire, Hat, Sunrise, Ship, Animal Ears, Parasol, Elf, Ice Cream, Whistle, Green Eyes, Sand, Nails, Stars, Scythe, Spaceship, Underwater, Snowfall, Long Hair, Shore, Beret, Vehicle, Thigh Highs, Beach, Winter, Town, Light, Kimono, Snowflake, Blur, Desk, Heterochromia, Headdress, Camera, Purple Hair, Clover, Stuffed Animal, Paint, Glasses, Dove, Twins, Eye Patch, Sunflower, Orb, Bunny, Laptop, Bird, Blonde, Twintails, Field, Knife, Plant, Botanic Garden, Mountain, Branch, Armor, Rainbow, Peace, TwoToned Hair, Room, Katana, Scenery, Hut, Meteor, Universe, Pink Eyes, Merlin Fate Series, Apron, School Uniform, Bicycle, Gothic, Ruin, Sunset, Ski, Jellyfish, Airplane, Apple, Fan, Sleeping, Pointed Ears, Grey Hair, Tears, Sky, Moon, Flute, Schoolgirl, Cigarette, Sword, Aquarium, Ribbon, White Hair, Book, Pistol, Fangs, Windmill, Horns, Planet, Braid, Dog, Dandelion, Earrings, Gun, Purple Eyes, Jacket, Cold, Scarf, Sewing Machine, Gondola, Mask, House, Reflection, Aqua Eyes, Red Hair, Sci Fi, Shop, Blush, Grapes, Pantyhose, Animal, Man, Bell, Train, Lantern, Warship, Rose, Silhouette, Tiara, Coffee, Space Station, Wings, Sunbeam, River, Leaf, Teacup, Fireworks, Neptune Hyperdimension Neptunia, Wreath, Warrior, Owl, Headband, Pencil, Lunch, Sweater, Crown, Beans, Wedding, Temple, Plush, Grey Eyes, Steampunk, Ferris Wheel, Galaxy, Hologram, Night, Snow, Uniform, Grass, Lake, Smoke, Drink, Wedding Dress, Rain, Bubble, Anime, Raincoat, Ramen, Tree, Goldfish, Woman, Mug, Coat, Rock, Balcony, Violin, Bow, Sakura, Yellow Eyes, Boy, Red Eyes, Cap, Car, Love, Cat, Fantasy, Death, Fall, Chopsticks, Library, Giant, Ponytail, Groom, Fairy, Orange Eyes, Cherry Blossom, Butterfly, Cross, Upside Down, Sunshine, Earth, Yawn, Phone, bow Clothing, Horizon, Short Hair, Swimsuit, USS Enterprise NCC1701, Necklace, Flower, Dress, Cat Girl, Brown Eyes, Magic, Corn, Bag, Maid, Confetti, Bride, Painting, Coastline, Blue Hair, Whale, Bat, Treehouse, Cloud, Starship, Carnation, Skull, Forest, Sign, Yukata, Sweets, Petal, Wizard, Lute",
    "description": "Original 10",
    "link_thumb": "https://live.staticflickr.com/65535/48085438221_41a3326fea_n.jpg",
    "id_album": "-435840145",
    "total_view": 623
  },
  {
    "total_img": 25,
    "number_page": 1,
    "title": "Apple",
    "tag": "Apple,",
    "description": "Apple",
    "link_thumb": "https://live.staticflickr.com/65535/48066096428_8c97af6af4_n.jpg",
    "id_album": "1657859532",
    "total_view": 25
  },
  {
    "total_img": 363,
    "number_page": 2,
    "title": "Brown Eyes",
    "tag": "Brown Eyes,",
    "description": "Brown Eyes",
    "link_thumb": "https://live.staticflickr.com/65535/48609891276_d6beb9cf73_n.jpg",
    "id_album": "-346700115",
    "total_view": 363
  },
  {
    "total_img": 718,
    "number_page": 4,
    "title": "Brown Hair",
    "tag": "Brown Hair,",
    "description": "Brown Hair",
    "link_thumb": "https://live.staticflickr.com/65535/48609891276_d6beb9cf73_n.jpg",
    "id_album": "119672248",
    "total_view": 718
  },
  {
    "total_img": 61,
    "number_page": 1,
    "title": "Fish",
    "tag": "Fish,",
    "description": "Fish",
    "link_thumb": "https://live.staticflickr.com/65535/48065463512_849263e80a_n.jpg",
    "id_album": "-1118073211",
    "total_view": 61
  },
  {
    "total_img": 191,
    "number_page": 1,
    "title": "Kimono",
    "tag": "Kimono,",
    "description": "Kimono",
    "link_thumb": "https://live.staticflickr.com/65535/48066764371_7c6ce14d3b_n.jpg",
    "id_album": "35576254",
    "total_view": 191
  },
  {
    "total_img": 900,
    "number_page": 5,
    "title": "Short Hair",
    "tag": "Short Hair,",
    "description": "Short Hair",
    "link_thumb": "https://live.staticflickr.com/65535/48066522393_1c85dd9992_n.jpg",
    "id_album": "1749242000",
    "total_view": 900
  },
  {
    "total_img": 807,
    "number_page": 5,
    "title": "Smile",
    "tag": "Smile,",
    "description": "Smile",
    "link_thumb": "https://live.staticflickr.com/65535/48066953706_2771a62522_n.jpg",
    "id_album": "419891285",
    "total_view": 807
  }
]