[
  {
    "total_img": 23859,
    "number_page": 120,
    "title": "Girls Cute Cool",
    "tag": "Girls Cute Cool,",
    "description": "Girls Cute Cool",
    "link_thumb": "https://live.staticflickr.com/65535/51542199025_2343ce2f5b_n.jpg",
    "id_album": "-89234980",
    "total_view": 23859
  },
  {
    "total_img": 6163,
    "number_page": 31,
    "title": "Girls Hats Hoodie",
    "tag": "Girls Hats Hoodie,",
    "description": "Girls Hats Hoodie",
    "link_thumb": "https://live.staticflickr.com/65535/49998137463_3c222b8f53_n.jpg",
    "id_album": "1409782213",
    "total_view": 6163
  },
  {
    "total_img": 1063,
    "number_page": 6,
    "title": "Girls Sharp Canine Tooth",
    "tag": "Girls Sharp Canine Tooth,",
    "description": "Girls Sharp Canine Tooth",
    "link_thumb": "https://live.staticflickr.com/65535/51541280396_75d06cec3a_n.jpg",
    "id_album": "732099563",
    "total_view": 1063
  }
]