[
  {
    "link_thumb": "https://live.staticflickr.com/65535/48046391423_0962ff46d1_n.jpg",
    "id_album": "1395557572",
    "description": "InuYasha_677737",
    "title": "InuYasha_677737",
    "link_img": "https://live.staticflickr.com/65535/48046391423_9a2bd31c2c_o.jpg",
    "id_image": "InuYasha_677737",
    "count_view": 0
  },
  {
    "link_thumb": "https://live.staticflickr.com/65535/48046464992_f0becd7d3d_n.jpg",
    "id_album": "1395557572",
    "description": "InuYasha_970175",
    "title": "InuYasha_970175",
    "link_img": "https://live.staticflickr.com/65535/48046464992_f182c96720_o.jpg",
    "id_image": "InuYasha_970175",
    "count_view": 0
  },
  {
    "link_thumb": "https://live.staticflickr.com/65535/48046378391_c3fce72a6f_n.jpg",
    "id_album": "1395557572",
    "description": "InuYasha_975144",
    "title": "InuYasha_975144",
    "link_img": "https://live.staticflickr.com/65535/48046378391_748f679926_o.jpg",
    "id_image": "InuYasha_975144",
    "count_view": 0
  },
  {
    "link_thumb": "https://live.staticflickr.com/65535/48046378756_232752ab45_n.jpg",
    "id_album": "1395557572",
    "description": "InuYasha_975146",
    "title": "InuYasha_975146",
    "link_img": "https://live.staticflickr.com/65535/48046378756_cc2612ef37_o.jpg",
    "id_image": "InuYasha_975146",
    "count_view": 0
  }
]