[
  {
    "total_img": 3863,
    "number_page": 20,
    "title": "Girls Ears Neko",
    "tag": "Girls Ears Neko,",
    "description": "Girls Ears Neko",
    "link_thumb": "https://live.staticflickr.com/65535/51542199025_2343ce2f5b_n.jpg",
    "id_album": "-2118541861",
    "total_view": 3863
  },
  {
    "total_img": 367,
    "number_page": 2,
    "title": "Girls Uniform",
    "tag": "Girls Uniform,",
    "description": "Girls Uniform",
    "link_thumb": "https://live.staticflickr.com/65535/49987864077_10895a743e_n.jpg",
    "id_album": "1843411262",
    "total_view": 367
  }
]