[
  {
    "link_thumb": "https://live.staticflickr.com/65535/48048611001_b0e08b6782_n.jpg",
    "id_album": "-1085667740",
    "description": "LoveLive_594075",
    "title": "LoveLive_594075",
    "link_img": "https://live.staticflickr.com/65535/48048611001_55551f1bc1_o.jpg",
    "id_image": "LoveLive_594075",
    "count_view": 0
  },
  {
    "link_thumb": "https://live.staticflickr.com/65535/48075440111_20b9c7385d_n.jpg",
    "id_album": "-1085667740",
    "description": "Original_670907",
    "title": "Original_670907",
    "link_img": "https://live.staticflickr.com/65535/48075440111_0dac89deae_o.jpg",
    "id_image": "Original_670907",
    "count_view": 0
  },
  {
    "link_thumb": "https://live.staticflickr.com/65535/48075573413_5cd75dea83_n.jpg",
    "id_album": "-1085667740",
    "description": "Original_684892",
    "title": "Original_684892",
    "link_img": "https://live.staticflickr.com/65535/48075573413_e6fdee461b_o.jpg",
    "id_image": "Original_684892",
    "count_view": 0
  },
  {
    "link_thumb": "https://live.staticflickr.com/65535/48092178881_da7b67aa13_n.jpg",
    "id_album": "-1085667740",
    "description": "Original_906367",
    "title": "Original_906367",
    "link_img": "https://live.staticflickr.com/65535/48092178881_955bed2cdd_o.jpg",
    "id_image": "Original_906367",
    "count_view": 0
  },
  {
    "link_thumb": "https://live.staticflickr.com/65535/48064378886_143fe9e7f1_n.jpg",
    "id_album": "-1085667740",
    "description": "Vocaloid_352420",
    "title": "Vocaloid_352420",
    "link_img": "https://live.staticflickr.com/65535/48064378886_df05fb6c27_o.jpg",
    "id_image": "Vocaloid_352420",
    "count_view": 0
  }
]