[
  {
    "link_thumb": "https://live.staticflickr.com/65535/48073536306_273c4190fa_n.jpg",
    "id_album": "-538855613",
    "description": "NyarukoCrawlingwithLove_731171",
    "title": "NyarukoCrawlingwithLove_731171",
    "link_img": "https://live.staticflickr.com/65535/48073536306_1d99411936_o.jpg",
    "id_image": "NyarukoCrawlingwithLove_731171",
    "count_view": 0
  },
  {
    "link_thumb": "https://live.staticflickr.com/65535/48073644792_40af9fa5f4_n.jpg",
    "id_album": "-538855613",
    "description": "NyarukoCrawlingwithLove_731505",
    "title": "NyarukoCrawlingwithLove_731505",
    "link_img": "https://live.staticflickr.com/65535/48073644792_64eba2ee4b_o.jpg",
    "id_image": "NyarukoCrawlingwithLove_731505",
    "count_view": 0
  }
]