[
  {
    "link_thumb": "https://live.staticflickr.com/65535/47955798436_0b83b6419d_n.jpg",
    "id_album": "463118992",
    "description": "Crossover_739415",
    "title": "Crossover_739415",
    "link_img": "https://live.staticflickr.com/65535/47955798436_75b5b961b7_o.jpg",
    "id_image": "Crossover_739415",
    "count_view": 0
  },
  {
    "link_thumb": "https://live.staticflickr.com/65535/48074180296_9353baf25c_n.jpg",
    "id_album": "463118992",
    "description": "OnePunchMan_656715",
    "title": "OnePunchMan_656715",
    "link_img": "https://live.staticflickr.com/65535/48074180296_310e510dd6_o.jpg",
    "id_image": "OnePunchMan_656715",
    "count_view": 0
  },
  {
    "link_thumb": "https://live.staticflickr.com/65535/48074229653_1bafc3c3b1_n.jpg",
    "id_album": "463118992",
    "description": "OnePunchMan_656724",
    "title": "OnePunchMan_656724",
    "link_img": "https://live.staticflickr.com/65535/48074229653_8a06b57a1f_o.jpg",
    "id_image": "OnePunchMan_656724",
    "count_view": 0
  },
  {
    "link_thumb": "https://live.staticflickr.com/65535/48074185341_8a055daf6a_n.jpg",
    "id_album": "463118992",
    "description": "OnePunchMan_657203",
    "title": "OnePunchMan_657203",
    "link_img": "https://live.staticflickr.com/65535/48074185341_dcb9d82a31_o.jpg",
    "id_image": "OnePunchMan_657203",
    "count_view": 0
  },
  {
    "link_thumb": "https://live.staticflickr.com/65535/48074188246_e0d63f852a_n.jpg",
    "id_album": "463118992",
    "description": "OnePunchMan_657955",
    "title": "OnePunchMan_657955",
    "link_img": "https://live.staticflickr.com/65535/48074188246_6bc1428897_o.jpg",
    "id_image": "OnePunchMan_657955",
    "count_view": 0
  },
  {
    "link_thumb": "https://live.staticflickr.com/65535/48074299557_d7e62b7fb3_n.jpg",
    "id_album": "463118992",
    "description": "OnePunchMan_660725",
    "title": "OnePunchMan_660725",
    "link_img": "https://live.staticflickr.com/65535/48074299557_5748b29266_o.jpg",
    "id_image": "OnePunchMan_660725",
    "count_view": 0
  },
  {
    "link_thumb": "https://live.staticflickr.com/65535/48074243538_b50b774333_n.jpg",
    "id_album": "463118992",
    "description": "OnePunchMan_662808",
    "title": "OnePunchMan_662808",
    "link_img": "https://live.staticflickr.com/65535/48074243538_5705838183_o.jpg",
    "id_image": "OnePunchMan_662808",
    "count_view": 0
  },
  {
    "link_thumb": "https://live.staticflickr.com/65535/48074307692_47954396d0_n.jpg",
    "id_album": "463118992",
    "description": "OnePunchMan_664410",
    "title": "OnePunchMan_664410",
    "link_img": "https://live.staticflickr.com/65535/48074307692_1d15e3b978_o.jpg",
    "id_image": "OnePunchMan_664410",
    "count_view": 0
  },
  {
    "link_thumb": "https://live.staticflickr.com/65535/48074308292_0275507753_n.jpg",
    "id_album": "463118992",
    "description": "OnePunchMan_664415",
    "title": "OnePunchMan_664415",
    "link_img": "https://live.staticflickr.com/65535/48074308292_a24ce6676f_o.jpg",
    "id_image": "OnePunchMan_664415",
    "count_view": 0
  },
  {
    "link_thumb": "https://live.staticflickr.com/65535/48074257343_860d8066a7_n.jpg",
    "id_album": "463118992",
    "description": "OnePunchMan_667604",
    "title": "OnePunchMan_667604",
    "link_img": "https://live.staticflickr.com/65535/48074257343_10e7e0e306_o.jpg",
    "id_image": "OnePunchMan_667604",
    "count_view": 0
  },
  {
    "link_thumb": "https://live.staticflickr.com/65535/48074319512_4d053ff0dd_n.jpg",
    "id_album": "463118992",
    "description": "OnePunchMan_667876",
    "title": "OnePunchMan_667876",
    "link_img": "https://live.staticflickr.com/65535/48074319512_aa1779747d_o.jpg",
    "id_image": "OnePunchMan_667876",
    "count_view": 0
  },
  {
    "link_thumb": "https://live.staticflickr.com/65535/48074218051_e3ca7a1510_n.jpg",
    "id_album": "463118992",
    "description": "OnePunchMan_669214",
    "title": "OnePunchMan_669214",
    "link_img": "https://live.staticflickr.com/65535/48074218051_2cddc9f40e_o.jpg",
    "id_image": "OnePunchMan_669214",
    "count_view": 0
  },
  {
    "link_thumb": "https://live.staticflickr.com/65535/48074248196_c025728f3e_n.jpg",
    "id_album": "463118992",
    "description": "OnePunchMan_677083",
    "title": "OnePunchMan_677083",
    "link_img": "https://live.staticflickr.com/65535/48074248196_bae49aa760_o.jpg",
    "id_image": "OnePunchMan_677083",
    "count_view": 0
  },
  {
    "link_thumb": "https://live.staticflickr.com/65535/48074255526_a57817d834_n.jpg",
    "id_album": "463118992",
    "description": "OnePunchMan_682569",
    "title": "OnePunchMan_682569",
    "link_img": "https://live.staticflickr.com/65535/48074255526_e96df2d1a5_o.jpg",
    "id_image": "OnePunchMan_682569",
    "count_view": 0
  },
  {
    "link_thumb": "https://live.staticflickr.com/65535/48074380487_1c364b0224_n.jpg",
    "id_album": "463118992",
    "description": "OnePunchMan_741093",
    "title": "OnePunchMan_741093",
    "link_img": "https://live.staticflickr.com/65535/48074380487_a671820a86_o.jpg",
    "id_image": "OnePunchMan_741093",
    "count_view": 0
  },
  {
    "link_thumb": "https://live.staticflickr.com/65535/48074293791_51b9c878f0_n.jpg",
    "id_album": "463118992",
    "description": "OnePunchMan_856376",
    "title": "OnePunchMan_856376",
    "link_img": "https://live.staticflickr.com/65535/48074293791_60f9368fc1_o.jpg",
    "id_image": "OnePunchMan_856376",
    "count_view": 0
  },
  {
    "link_thumb": "https://live.staticflickr.com/65535/48074353023_0507d7a849_n.jpg",
    "id_album": "463118992",
    "description": "OnePunchMan_948181",
    "title": "OnePunchMan_948181",
    "link_img": "https://live.staticflickr.com/65535/48074353023_65231f46c4_o.jpg",
    "id_image": "OnePunchMan_948181",
    "count_view": 0
  },
  {
    "link_thumb": "https://live.staticflickr.com/65535/48074417252_da9dd245d6_n.jpg",
    "id_album": "463118992",
    "description": "OnePunchMan_950031",
    "title": "OnePunchMan_950031",
    "link_img": "https://live.staticflickr.com/65535/48074417252_3fdbf302fc_o.jpg",
    "id_image": "OnePunchMan_950031",
    "count_view": 0
  }
]