[
  {
    "total_img": 109,
    "number_page": 1,
    "title": "Is the Order a Rabbit",
    "tag": "Cocoa Hoto, Green Eyes, Snow, Wink, Long Hair, Thigh Highs, Chiya Ujimatsu, Anime, Snowflake, Megumi Natsu, Braid, Cup, Purple Eyes, Purple Hair, Kokoa Hoto, Scarf, Rize Tedeza, Tippy Is The Order A Rabbit, Smile, Skirt, Blush, Belt, Pantyhose, Maya Jouga, Cat, Santa Hat, Bench, Orange Hair, Sitting, Rabbit, Socks, Blonde, Twintails, bow Clothing, Yuri, Leaf, Short Hair, Is the Order a Rabbit, Face, Chino Kafu, Food, Flower, Gochuumon wa Usagi Desu ka, Mocha Hoto, Cheerleader, Dress, Brown Eyes, Brown Hair, Red Dress, Pink Eyes, Sharo Kirima, Blue Eyes, Sweater, Blue Hair, Sleeping, Hoodie, Anko Is the Order a Rabbit, Hat, Halloween",
    "description": "Is the Order a Rabbit",
    "link_thumb": "https://live.staticflickr.com/65535/48046466733_d7720d739e_n.jpg",
    "id_album": "-553983168",
    "total_view": 109
  },
  {
    "total_img": 1083,
    "number_page": 6,
    "title": "Anime",
    "tag": "Anime,",
    "description": "Anime",
    "link_thumb": "https://live.staticflickr.com/65535/48066953706_2771a62522_n.jpg",
    "id_album": "-1920923841",
    "total_view": 1083
  },
  {
    "total_img": 48,
    "number_page": 1,
    "title": "Belt",
    "tag": "Belt,",
    "description": "Belt",
    "link_thumb": "https://live.staticflickr.com/65535/48064724673_93cf68577f_n.jpg",
    "id_album": "-1564039172",
    "total_view": 48
  },
  {
    "total_img": 771,
    "number_page": 4,
    "title": "Blonde",
    "tag": "Blonde,",
    "description": "Blonde",
    "link_thumb": "https://live.staticflickr.com/65535/48066912028_16d8f475b6_n.jpg",
    "id_album": "-768622073",
    "total_view": 771
  },
  {
    "total_img": 690,
    "number_page": 4,
    "title": "Blush",
    "tag": "Blush,",
    "description": "Blush",
    "link_thumb": "https://live.staticflickr.com/65535/48066945096_efda4835b6_n.jpg",
    "id_album": "1964454893",
    "total_view": 690
  },
  {
    "total_img": 320,
    "number_page": 2,
    "title": "Dress",
    "tag": "Dress,",
    "description": "Dress",
    "link_thumb": "https://live.staticflickr.com/65535/48066945096_efda4835b6_n.jpg",
    "id_album": "-1596424748",
    "total_view": 320
  },
  {
    "total_img": 297,
    "number_page": 2,
    "title": "Hat",
    "tag": "Hat,",
    "description": "Hat",
    "link_thumb": "https://live.staticflickr.com/65535/48609886896_3658155406_n.jpg",
    "id_album": "-1741487314",
    "total_view": 297
  },
  {
    "total_img": 17,
    "number_page": 1,
    "title": "Kokoa Hoto",
    "tag": "Kokoa Hoto,",
    "description": "Kokoa Hoto",
    "link_thumb": "https://live.staticflickr.com/65535/48046482656_ef2b14fe4a_n.jpg",
    "id_album": "-1814491146",
    "total_view": 17
  },
  {
    "total_img": 14,
    "number_page": 1,
    "title": "Red Dress",
    "tag": "Red Dress,",
    "description": "Red Dress",
    "link_thumb": "https://live.staticflickr.com/65535/48063951391_02b54bddda_n.jpg",
    "id_album": "-792462917",
    "total_view": 14
  },
  {
    "total_img": 6,
    "number_page": 1,
    "title": "Santa Hat",
    "tag": "Santa Hat,",
    "description": "Santa Hat",
    "link_thumb": "https://live.staticflickr.com/65535/48061205537_b442354d36_n.jpg",
    "id_album": "-75328609",
    "total_view": 6
  },
  {
    "total_img": 807,
    "number_page": 5,
    "title": "Smile",
    "tag": "Smile,",
    "description": "Smile",
    "link_thumb": "https://live.staticflickr.com/65535/48066953706_2771a62522_n.jpg",
    "id_album": "419891285",
    "total_view": 807
  },
  {
    "total_img": 197,
    "number_page": 1,
    "title": "Thigh Highs",
    "tag": "Thigh Highs,",
    "description": "Thigh Highs",
    "link_thumb": "https://live.staticflickr.com/65535/48066953706_2771a62522_n.jpg",
    "id_album": "-489929797",
    "total_view": 197
  }
]