[
  {
    "link_thumb": "https://live.staticflickr.com/65535/47976630511_35d71d498a_n.jpg",
    "id_album": "1906240387",
    "description": "FateGrandOrder_870307",
    "title": "FateGrandOrder_870307",
    "link_img": "https://live.staticflickr.com/65535/47976630511_e4fd30b0cb_o.jpg",
    "id_image": "FateGrandOrder_870307",
    "count_view": 0
  },
  {
    "link_thumb": "https://live.staticflickr.com/65535/47976708941_b7bc47c403_n.jpg",
    "id_album": "1906240387",
    "description": "FateGrandOrder_896830",
    "title": "FateGrandOrder_896830",
    "link_img": "https://live.staticflickr.com/65535/47976708941_9e227b0cee_o.jpg",
    "id_image": "FateGrandOrder_896830",
    "count_view": 0
  },
  {
    "link_thumb": "https://live.staticflickr.com/65535/47976665642_b107f92f3e_n.jpg",
    "id_album": "1906240387",
    "description": "FateGrandOrder_902230",
    "title": "FateGrandOrder_902230",
    "link_img": "https://live.staticflickr.com/65535/47976665642_2f41fdd47f_o.jpg",
    "id_image": "FateGrandOrder_902230",
    "count_view": 0
  },
  {
    "link_thumb": "https://live.staticflickr.com/65535/47976725886_9a1b064495_n.jpg",
    "id_album": "1906240387",
    "description": "FateGrandOrder_903201",
    "title": "FateGrandOrder_903201",
    "link_img": "https://live.staticflickr.com/65535/47976725886_efdf05570b_o.jpg",
    "id_image": "FateGrandOrder_903201",
    "count_view": 0
  },
  {
    "link_thumb": "https://live.staticflickr.com/65535/47977040952_fe83352772_n.jpg",
    "id_album": "1906240387",
    "description": "FateGrandOrder_915394",
    "title": "FateGrandOrder_915394",
    "link_img": "https://live.staticflickr.com/65535/47977040952_2701805b7b_o.jpg",
    "id_image": "FateGrandOrder_915394",
    "count_view": 0
  },
  {
    "link_thumb": "https://live.staticflickr.com/65535/47977092703_352eca95b7_n.jpg",
    "id_album": "1906240387",
    "description": "FateGrandOrder_919819",
    "title": "FateGrandOrder_919819",
    "link_img": "https://live.staticflickr.com/65535/47977092703_cee5d9bde1_o.jpg",
    "id_image": "FateGrandOrder_919819",
    "count_view": 0
  },
  {
    "link_thumb": "https://live.staticflickr.com/65535/47977164396_4cb925d19c_n.jpg",
    "id_album": "1906240387",
    "description": "FateGrandOrder_922113",
    "title": "FateGrandOrder_922113",
    "link_img": "https://live.staticflickr.com/65535/47977164396_2531631ac6_o.jpg",
    "id_image": "FateGrandOrder_922113",
    "count_view": 0
  },
  {
    "link_thumb": "https://live.staticflickr.com/65535/47977231861_3b6e8ff782_n.jpg",
    "id_album": "1906240387",
    "description": "FateGrandOrder_939543",
    "title": "FateGrandOrder_939543",
    "link_img": "https://live.staticflickr.com/65535/47977231861_ca06c15fc3_o.jpg",
    "id_image": "FateGrandOrder_939543",
    "count_view": 0
  }
]