[
  {
    "total_img": 73,
    "number_page": 1,
    "title": "Little Witch Academia",
    "tag": "Green Hair, Stars, Broom, Long Hair, Little Witch Academia, Amanda ONeill, White Hair, Horse, Witch, Space, Cat Girl, Magic, Diana Cavendish, Sun, Logo, Skirt, Lotte Yanson, Blue Eyes, Akko Kagari, Sucy Manbavaran, Cat, Atsuko Kagari, Hat, Professor Ursula, Ursula Callistis",
    "description": "Little Witch Academia",
    "link_thumb": "https://live.staticflickr.com/65535/48048591007_49e86364d2_n.jpg",
    "id_album": "1927509",
    "total_view": 73
  },
  {
    "total_img": 8,
    "number_page": 1,
    "title": "Akko Kagari",
    "tag": "Akko Kagari,",
    "description": "Akko Kagari",
    "link_thumb": "https://live.staticflickr.com/65535/48048539506_42d9dfeffe_n.jpg",
    "id_album": "-575398299",
    "total_view": 8
  },
  {
    "total_img": 18,
    "number_page": 1,
    "title": "Diana Cavendish",
    "tag": "Diana Cavendish,",
    "description": "Diana Cavendish",
    "link_thumb": "https://live.staticflickr.com/65535/48048619747_ae5c6475d9_n.jpg",
    "id_album": "2111129199",
    "total_view": 18
  }
]