[
  {
    "total_img": 6,
    "number_page": 1,
    "title": "Medabots",
    "tag": "Medabots",
    "description": "Medabots",
    "link_thumb": "https://live.staticflickr.com/65535/48070658402_0382962f13_n.jpg",
    "id_album": "922039107",
    "total_view": 6
  }
]