[
  {
    "link_thumb": "https://live.staticflickr.com/65535/48609773636_a2a23d9a05_n.jpg",
    "id_album": "-1551398477",
    "description": "FireForce_1000700",
    "title": "FireForce_1000700",
    "link_img": "https://live.staticflickr.com/65535/48609773636_863902dbce_o.jpg",
    "id_image": "FireForce_1000700",
    "count_view": 0
  },
  {
    "link_thumb": "https://live.staticflickr.com/65535/48609925287_bc953fccc9_n.jpg",
    "id_album": "-1551398477",
    "description": "FireForce_1000704",
    "title": "FireForce_1000704",
    "link_img": "https://live.staticflickr.com/65535/48609925287_a17df3a314_o.jpg",
    "id_image": "FireForce_1000704",
    "count_view": 0
  },
  {
    "link_thumb": "https://live.staticflickr.com/65535/48609774331_b7d0212a0c_n.jpg",
    "id_album": "-1551398477",
    "description": "FireForce_1000714",
    "title": "FireForce_1000714",
    "link_img": "https://live.staticflickr.com/65535/48609774331_7f2da7a3db_o.jpg",
    "id_image": "FireForce_1000714",
    "count_view": 0
  },
  {
    "link_thumb": "https://live.staticflickr.com/65535/48609925897_fa58d311f2_n.jpg",
    "id_album": "-1551398477",
    "description": "FireForce_1000715",
    "title": "FireForce_1000715",
    "link_img": "https://live.staticflickr.com/65535/48609925897_9c036093ce_o.jpg",
    "id_image": "FireForce_1000715",
    "count_view": 0
  },
  {
    "link_thumb": "https://live.staticflickr.com/65535/48609776976_aba67848fc_n.jpg",
    "id_album": "-1551398477",
    "description": "FireForce_1028682",
    "title": "FireForce_1028682",
    "link_img": "https://live.staticflickr.com/65535/48609776976_a065250e47_o.jpg",
    "id_image": "FireForce_1028682",
    "count_view": 0
  },
  {
    "link_thumb": "https://live.staticflickr.com/65535/48609778306_2e75e2b592_n.jpg",
    "id_album": "-1551398477",
    "description": "FireForce_1031095",
    "title": "FireForce_1031095",
    "link_img": "https://live.staticflickr.com/65535/48609778306_8ee2790988_o.jpg",
    "id_image": "FireForce_1031095",
    "count_view": 0
  },
  {
    "link_thumb": "https://live.staticflickr.com/65535/48609418243_274489dc06_n.jpg",
    "id_album": "-1551398477",
    "description": "FireForce_720685",
    "title": "FireForce_720685",
    "link_img": "https://live.staticflickr.com/65535/48609418243_3ab8ae5c2a_o.jpg",
    "id_image": "FireForce_720685",
    "count_view": 0
  }
]