[
  {
    "link_thumb": "https://live.staticflickr.com/65535/40940675733_76da7dc611_n.jpg",
    "id_album": "-1790635952",
    "description": "Bleach_563815,[isBoyAnime],[Bleach 2],[Bleach2]",
    "title": "Bleach_563815",
    "link_img": "https://live.staticflickr.com/65535/40940675733_f81c0d193a_o.jpg",
    "id_image": "Bleach_563815",
    "count_view": 0
  },
  {
    "link_thumb": "https://live.staticflickr.com/65535/47855184442_b7331d645c_n.jpg",
    "id_album": "-1790635952",
    "description": "Bleach_563835,[isBoyAnime],[Bleach 2],[Bleach2]",
    "title": "Bleach_563835",
    "link_img": "https://live.staticflickr.com/65535/47855184442_4411007b89_o.jpg",
    "id_image": "Bleach_563835",
    "count_view": 0
  },
  {
    "link_thumb": "https://live.staticflickr.com/65535/47117832194_1c2fdfbf52_n.jpg",
    "id_album": "-1790635952",
    "description": "Bleach_563846,[isGirlAnime],[isBoyAnime],[isCoupleAnime],[Bleach 2],[Bleach2]",
    "title": "Bleach_563846",
    "link_img": "https://live.staticflickr.com/65535/47117832194_5fc3c3919f_o.jpg",
    "id_image": "Bleach_563846",
    "count_view": 0
  },
  {
    "link_thumb": "https://live.staticflickr.com/65535/47855200492_1449c906e8_n.jpg",
    "id_album": "-1790635952",
    "description": "Bleach_563882,[isGirlAnime],[isBoyAnime],[Bleach 2],[Bleach2]",
    "title": "Bleach_563882",
    "link_img": "https://live.staticflickr.com/65535/47855200492_8150178379_o.jpg",
    "id_image": "Bleach_563882",
    "count_view": 0
  },
  {
    "link_thumb": "https://live.staticflickr.com/65535/46991188655_bd77e8e852_n.jpg",
    "id_album": "-1790635952",
    "description": "Bleach_563944,[isBoyAnime],[isBlackAnime],[Bleach 2],[Bleach2]",
    "title": "Bleach_563944",
    "link_img": "https://live.staticflickr.com/65535/46991188655_9074a857c5_o.jpg",
    "id_image": "Bleach_563944",
    "count_view": 0
  },
  {
    "link_thumb": "https://live.staticflickr.com/65535/47855222022_790da3cbf7_n.jpg",
    "id_album": "-1790635952",
    "description": "Bleach_563945,[isGirlAnime],[isSadAnime],[isSadAnimeGirl],[Bleach 2],[Bleach2]",
    "title": "Bleach_563945",
    "link_img": "https://live.staticflickr.com/65535/47855222022_792efe5315_o.jpg",
    "id_image": "Bleach_563945",
    "count_view": 0
  },
  {
    "link_thumb": "https://live.staticflickr.com/65535/47855222392_3a5e952523_n.jpg",
    "id_album": "-1790635952",
    "description": "Bleach_563946,[isGirlAnime],[isBoyAnime],[isCoupleAnime],[Bleach 2],[Bleach2]",
    "title": "Bleach_563946",
    "link_img": "https://live.staticflickr.com/65535/47855222392_75d3d33802_o.jpg",
    "id_image": "Bleach_563946",
    "count_view": 0
  },
  {
    "link_thumb": "https://live.staticflickr.com/65535/47907302201_6cfcaf5b5d_n.jpg",
    "id_album": "-1790635952",
    "description": "Bleach_563947,[isGirlAnime],[isBoyAnime],[Bleach 2],[Bleach2]",
    "title": "Bleach_563947",
    "link_img": "https://live.staticflickr.com/65535/47907302201_8a93f3b4c1_o.jpg",
    "id_image": "Bleach_563947",
    "count_view": 0
  },
  {
    "link_thumb": "https://live.staticflickr.com/65535/47855223202_107586c344_n.jpg",
    "id_album": "-1790635952",
    "description": "Bleach_563951,[isGirlAnime],[isSadAnime],[isSadAnimeGirl],[isKimonoAnime],[Bleach 2],[Bleach2]",
    "title": "Bleach_563951",
    "link_img": "https://live.staticflickr.com/65535/47855223202_8b1edac49c_o.jpg",
    "id_image": "Bleach_563951",
    "count_view": 0
  },
  {
    "link_thumb": "https://live.staticflickr.com/65535/47855223622_1da2d13ded_n.jpg",
    "id_album": "-1790635952",
    "description": "Bleach_563956,[isGirlAnime],[Bleach 2],[Bleach2]",
    "title": "Bleach_563956",
    "link_img": "https://live.staticflickr.com/65535/47855223622_ca00dd20a6_o.jpg",
    "id_image": "Bleach_563956",
    "count_view": 0
  },
  {
    "link_thumb": "https://live.staticflickr.com/65535/47855223942_5fce5db741_n.jpg",
    "id_album": "-1790635952",
    "description": "Bleach_563957,[isGirlAnime],[isBoyAnime],[isCoupleAnime],[Bleach 2],[Bleach2]",
    "title": "Bleach_563957",
    "link_img": "https://live.staticflickr.com/65535/47855223942_4b6cd96ae5_o.jpg",
    "id_image": "Bleach_563957",
    "count_view": 0
  },
  {
    "link_thumb": "https://live.staticflickr.com/65535/47907304751_aaa7cfb22d_n.jpg",
    "id_album": "-1790635952",
    "description": "Bleach_563958,[isBoyAnime],[isBlackAnime],[Bleach 2],[Bleach2]",
    "title": "Bleach_563958",
    "link_img": "https://live.staticflickr.com/65535/47907304751_8c9c45e026_o.jpg",
    "id_image": "Bleach_563958",
    "count_view": 0
  },
  {
    "link_thumb": "https://live.staticflickr.com/65535/47855229442_65bd6fc928_n.jpg",
    "id_album": "-1790635952",
    "description": "Bleach_563970,[isBoyAnime],[Bleach 2],[Bleach2]",
    "title": "Bleach_563970",
    "link_img": "https://live.staticflickr.com/65535/47855229442_39cd5e0ca8_o.jpg",
    "id_image": "Bleach_563970",
    "count_view": 0
  },
  {
    "link_thumb": "https://live.staticflickr.com/65535/47907309661_5cc98c06ec_n.jpg",
    "id_album": "-1790635952",
    "description": "Bleach_563971,[isGirlAnime],[Bleach 2],[Bleach2]",
    "title": "Bleach_563971",
    "link_img": "https://live.staticflickr.com/65535/47907309661_de21c0a22c_o.jpg",
    "id_image": "Bleach_563971",
    "count_view": 0
  },
  {
    "link_thumb": "https://live.staticflickr.com/65535/47855231822_9790c40437_n.jpg",
    "id_album": "-1790635952",
    "description": "Bleach_563975,[isGirlAnime],[isBoyAnime],[isCoupleAnime],[Bleach 2],[Bleach2]",
    "title": "Bleach_563975",
    "link_img": "https://live.staticflickr.com/65535/47855231822_e9c1129b86_o.jpg",
    "id_image": "Bleach_563975",
    "count_view": 0
  },
  {
    "link_thumb": "https://live.staticflickr.com/65535/47855234582_193d0dd67e_n.jpg",
    "id_album": "-1790635952",
    "description": "Bleach_563980,[isBoyAnime],[Bleach 2],[Bleach2]",
    "title": "Bleach_563980",
    "link_img": "https://live.staticflickr.com/65535/47855234582_bb32673550_o.jpg",
    "id_image": "Bleach_563980",
    "count_view": 0
  },
  {
    "link_thumb": "https://live.staticflickr.com/65535/47117897114_b4f34f5031_n.jpg",
    "id_album": "-1790635952",
    "description": "Bleach_563997,[isBoyAnime],[isBlackAnime],[Bleach 2],[Bleach2]",
    "title": "Bleach_563997",
    "link_img": "https://live.staticflickr.com/65535/47117897114_c075c27632_o.jpg",
    "id_image": "Bleach_563997",
    "count_view": 0
  },
  {
    "link_thumb": "https://live.staticflickr.com/65535/46991199795_8b0424f101_n.jpg",
    "id_album": "-1790635952",
    "description": "Bleach_563998,[isBoyAnime],[Bleach 2],[Bleach2]",
    "title": "Bleach_563998",
    "link_img": "https://live.staticflickr.com/65535/46991199795_f102b54c84_o.jpg",
    "id_image": "Bleach_563998",
    "count_view": 0
  },
  {
    "link_thumb": "https://live.staticflickr.com/65535/47907321331_fda2d8eab7_n.jpg",
    "id_album": "-1790635952",
    "description": "Bleach_564003,[isGirlAnime],[isBoyAnime],[Bleach 2],[Bleach2]",
    "title": "Bleach_564003",
    "link_img": "https://live.staticflickr.com/65535/47907321331_7888d3a408_o.jpg",
    "id_image": "Bleach_564003",
    "count_view": 0
  },
  {
    "link_thumb": "https://live.staticflickr.com/65535/47117904454_4383c9786c_n.jpg",
    "id_album": "-1790635952",
    "description": "Bleach_564018,[isGirlAnime],[isBoyAnime],[isCoupleAnime],[Bleach 2],[Bleach2]",
    "title": "Bleach_564018",
    "link_img": "https://live.staticflickr.com/65535/47117904454_b60c04e065_o.jpg",
    "id_image": "Bleach_564018",
    "count_view": 0
  },
  {
    "link_thumb": "https://live.staticflickr.com/65535/46991220605_4ffe7772b1_n.jpg",
    "id_album": "-1790635952",
    "description": "Bleach_564053,[isGirlAnime],[isBlackAnime],[Bleach 2],[Bleach2]",
    "title": "Bleach_564053",
    "link_img": "https://live.staticflickr.com/65535/46991220605_33d8f59202_o.jpg",
    "id_image": "Bleach_564053",
    "count_view": 0
  },
  {
    "link_thumb": "https://live.staticflickr.com/65535/47907341201_f193f7e959_n.jpg",
    "id_album": "-1790635952",
    "description": "Bleach_564054,[isBoyAnime],[isBlackAnime],[Bleach 2],[Bleach2]",
    "title": "Bleach_564054",
    "link_img": "https://live.staticflickr.com/65535/47907341201_3e4dd36012_o.jpg",
    "id_image": "Bleach_564054",
    "count_view": 0
  },
  {
    "link_thumb": "https://live.staticflickr.com/65535/40940742303_48358f94c4_n.jpg",
    "id_album": "-1790635952",
    "description": "Bleach_564056,[isBoyAnime],[Bleach 2],[Bleach2]",
    "title": "Bleach_564056",
    "link_img": "https://live.staticflickr.com/65535/40940742303_a37cb63179_o.jpg",
    "id_image": "Bleach_564056",
    "count_view": 0
  },
  {
    "link_thumb": "https://live.staticflickr.com/65535/46991224075_6c3040a7e5_n.jpg",
    "id_album": "-1790635952",
    "description": "Bleach_564062,[isGirlAnime],[Bleach 2],[Bleach2]",
    "title": "Bleach_564062",
    "link_img": "https://live.staticflickr.com/65535/46991224075_394c47eb6e_o.jpg",
    "id_image": "Bleach_564062",
    "count_view": 0
  },
  {
    "link_thumb": "https://live.staticflickr.com/65535/47855262402_87d3a59098_n.jpg",
    "id_album": "-1790635952",
    "description": "Bleach_564066,[isBoyAnime],[isSadAnime],[isSadAnimeBoy],[isBlackAnime],[Bleach 2],[Bleach2]",
    "title": "Bleach_564066",
    "link_img": "https://live.staticflickr.com/65535/47855262402_2d0bf5b96c_o.jpg",
    "id_image": "Bleach_564066",
    "count_view": 0
  },
  {
    "link_thumb": "https://live.staticflickr.com/65535/47855263312_113b62fc33_n.jpg",
    "id_album": "-1790635952",
    "description": "Bleach_564068,[isBoyAnime],[Bleach 2],[Bleach2]",
    "title": "Bleach_564068",
    "link_img": "https://live.staticflickr.com/65535/47855263312_267a181f65_o.jpg",
    "id_image": "Bleach_564068",
    "count_view": 0
  },
  {
    "link_thumb": "https://live.staticflickr.com/65535/47855281022_0d2af8c2ac_n.jpg",
    "id_album": "-1790635952",
    "description": "Bleach_564119,[isBoyAnime],[Bleach 2],[Bleach2]",
    "title": "Bleach_564119",
    "link_img": "https://live.staticflickr.com/65535/47855281022_c75c53c7d7_o.jpg",
    "id_image": "Bleach_564119",
    "count_view": 0
  },
  {
    "link_thumb": "https://live.staticflickr.com/65535/46991254935_51b7c15876_n.jpg",
    "id_album": "-1790635952",
    "description": "Bleach_564141,[isRandom],[Bleach 2],[Bleach2]",
    "title": "Bleach_564141",
    "link_img": "https://live.staticflickr.com/65535/46991254935_2916651a17_o.jpg",
    "id_image": "Bleach_564141",
    "count_view": 0
  },
  {
    "link_thumb": "https://live.staticflickr.com/65535/47117950094_61ff2a5bd1_n.jpg",
    "id_album": "-1790635952",
    "description": "Bleach_564142,[isBoyAnime],[Bleach 2],[Bleach2]",
    "title": "Bleach_564142",
    "link_img": "https://live.staticflickr.com/65535/47117950094_0256bf6874_o.jpg",
    "id_image": "Bleach_564142",
    "count_view": 0
  },
  {
    "link_thumb": "https://live.staticflickr.com/65535/46991279335_f3f1c62513_n.jpg",
    "id_album": "-1790635952",
    "description": "Bleach_564313,[isGirlAnime],[Bleach 2],[Bleach2]",
    "title": "Bleach_564313",
    "link_img": "https://live.staticflickr.com/65535/46991279335_de7a33f368_o.jpg",
    "id_image": "Bleach_564313",
    "count_view": 0
  },
  {
    "link_thumb": "https://live.staticflickr.com/65535/47855316772_e7772a84de_n.jpg",
    "id_album": "-1790635952",
    "description": "Bleach_564320,[isBoyAnime],[Bleach 2],[Bleach2]",
    "title": "Bleach_564320",
    "link_img": "https://live.staticflickr.com/65535/47855316772_b7088fd946_o.jpg",
    "id_image": "Bleach_564320",
    "count_view": 0
  },
  {
    "link_thumb": "https://live.staticflickr.com/65535/40940810223_04b3a3c1f4_n.jpg",
    "id_album": "-1790635952",
    "description": "Bleach_564326,[isBoyAnime],[Bleach 2],[Bleach2]",
    "title": "Bleach_564326",
    "link_img": "https://live.staticflickr.com/65535/40940810223_dc8826ecbc_o.jpg",
    "id_image": "Bleach_564326",
    "count_view": 0
  },
  {
    "link_thumb": "https://live.staticflickr.com/65535/40940810923_455e4f308d_n.jpg",
    "id_album": "-1790635952",
    "description": "Bleach_564327,[isBoyAnime],[isBlackAnime],[Bleach 2],[Bleach2]",
    "title": "Bleach_564327",
    "link_img": "https://live.staticflickr.com/65535/40940810923_b484a6efa8_o.jpg",
    "id_image": "Bleach_564327",
    "count_view": 0
  },
  {
    "link_thumb": "https://live.staticflickr.com/65535/47855328222_ff636b516a_n.jpg",
    "id_album": "-1790635952",
    "description": "Bleach_564361,[isBoyAnime],[isBlackAnime],[Bleach 2],[Bleach2]",
    "title": "Bleach_564361",
    "link_img": "https://live.staticflickr.com/65535/47855328222_bf2aa397c9_o.jpg",
    "id_image": "Bleach_564361",
    "count_view": 0
  },
  {
    "link_thumb": "https://live.staticflickr.com/65535/40940819693_0bde4e9cd9_n.jpg",
    "id_album": "-1790635952",
    "description": "Bleach_564367,[isBoyAnime],[isSadAnime],[isSadAnimeBoy],[Bleach 2],[Bleach2]",
    "title": "Bleach_564367",
    "link_img": "https://live.staticflickr.com/65535/40940819693_95ff02492a_o.jpg",
    "id_image": "Bleach_564367",
    "count_view": 0
  },
  {
    "link_thumb": "https://live.staticflickr.com/65535/47118009614_47b4e0b0d5_n.jpg",
    "id_album": "-1790635952",
    "description": "Bleach_564394,[isBoyAnime],[Bleach 2],[Bleach2]",
    "title": "Bleach_564394",
    "link_img": "https://live.staticflickr.com/65535/47118009614_6e35453bf1_o.jpg",
    "id_image": "Bleach_564394",
    "count_view": 0
  },
  {
    "link_thumb": "https://live.staticflickr.com/65535/47907414041_b41d3bbd7e_n.jpg",
    "id_album": "-1790635952",
    "description": "Bleach_564395,[isBoyAnime],[Bleach 2],[Bleach2]",
    "title": "Bleach_564395",
    "link_img": "https://live.staticflickr.com/65535/47907414041_ce25eb4782_o.jpg",
    "id_image": "Bleach_564395",
    "count_view": 0
  },
  {
    "link_thumb": "https://live.staticflickr.com/65535/47118012274_0de18cd738_n.jpg",
    "id_album": "-1790635952",
    "description": "Bleach_564401,[isGirlAnime],[isBoyAnime],[isCoupleAnime],[Bleach 2],[Bleach2]",
    "title": "Bleach_564401",
    "link_img": "https://live.staticflickr.com/65535/47118012274_870efc04f6_o.jpg",
    "id_image": "Bleach_564401",
    "count_view": 0
  },
  {
    "link_thumb": "https://live.staticflickr.com/65535/47855342142_4f4289e153_n.jpg",
    "id_album": "-1790635952",
    "description": "Bleach_564410,[isBoyAnime],[Bleach 2],[Bleach2]",
    "title": "Bleach_564410",
    "link_img": "https://live.staticflickr.com/65535/47855342142_dbdcda56cb_o.jpg",
    "id_image": "Bleach_564410",
    "count_view": 0
  },
  {
    "link_thumb": "https://live.staticflickr.com/65535/47118018844_dc04af08da_n.jpg",
    "id_album": "-1790635952",
    "description": "Bleach_564486,[isGirlAnime],[Bleach 2],[Bleach2]",
    "title": "Bleach_564486",
    "link_img": "https://live.staticflickr.com/65535/47118018844_d664bdcc38_o.jpg",
    "id_image": "Bleach_564486",
    "count_view": 0
  },
  {
    "link_thumb": "https://live.staticflickr.com/65535/40940839723_9dac2d859d_n.jpg",
    "id_album": "-1790635952",
    "description": "Bleach_564499,[isBoyAnime],[isBlackAnime],[Bleach 2],[Bleach2]",
    "title": "Bleach_564499",
    "link_img": "https://live.staticflickr.com/65535/40940839723_69f74a0297_o.jpg",
    "id_image": "Bleach_564499",
    "count_view": 0
  },
  {
    "link_thumb": "https://live.staticflickr.com/65535/47855350422_aa8d7b026e_n.jpg",
    "id_album": "-1790635952",
    "description": "Bleach_564500,[isBoyAnime],[Bleach 2],[Bleach2]",
    "title": "Bleach_564500",
    "link_img": "https://live.staticflickr.com/65535/47855350422_ba7b5f3072_o.jpg",
    "id_image": "Bleach_564500",
    "count_view": 0
  },
  {
    "link_thumb": "https://live.staticflickr.com/65535/46991328095_2f53c30c0c_n.jpg",
    "id_album": "-1790635952",
    "description": "Bleach_564506,[isGirlAnime],[isBlackAnime],[Bleach 2],[Bleach2]",
    "title": "Bleach_564506",
    "link_img": "https://live.staticflickr.com/65535/46991328095_afb30e6fa3_o.jpg",
    "id_image": "Bleach_564506",
    "count_view": 0
  },
  {
    "link_thumb": "https://live.staticflickr.com/65535/47855351852_592ba2c14f_n.jpg",
    "id_album": "-1790635952",
    "description": "Bleach_564509,[isBoyAnime],[Bleach 2],[Bleach2]",
    "title": "Bleach_564509",
    "link_img": "https://live.staticflickr.com/65535/47855351852_3ec23f7b14_o.jpg",
    "id_image": "Bleach_564509",
    "count_view": 0
  },
  {
    "link_thumb": "https://live.staticflickr.com/65535/40940843503_162bfd6391_n.jpg",
    "id_album": "-1790635952",
    "description": "Bleach_564516,[isBoyAnime],[Bleach 2],[Bleach2]",
    "title": "Bleach_564516",
    "link_img": "https://live.staticflickr.com/65535/40940843503_cf8e0c55ca_o.jpg",
    "id_image": "Bleach_564516",
    "count_view": 0
  },
  {
    "link_thumb": "https://live.staticflickr.com/65535/40940852843_0171ba7f12_n.jpg",
    "id_album": "-1790635952",
    "description": "Bleach_564536,[isGirlAnime],[Bleach 2],[Bleach2]",
    "title": "Bleach_564536",
    "link_img": "https://live.staticflickr.com/65535/40940852843_d157785ee3_o.jpg",
    "id_image": "Bleach_564536",
    "count_view": 0
  },
  {
    "link_thumb": "https://live.staticflickr.com/65535/47118076894_f36850b97d_n.jpg",
    "id_album": "-1790635952",
    "description": "Bleach_578685,[isGirlAnime],[isBoyAnime],[Bleach 2],[Bleach2]",
    "title": "Bleach_578685",
    "link_img": "https://live.staticflickr.com/65535/47118076894_8456e86593_o.jpg",
    "id_image": "Bleach_578685",
    "count_view": 0
  },
  {
    "link_thumb": "https://live.staticflickr.com/65535/46991380455_170da5d3e6_n.jpg",
    "id_album": "-1790635952",
    "description": "Bleach_578695,[isGirlAnime],[isCuteAnime],[isGirlsHatsHoodieAnime],[isGirlsLoliAnime],[isGirlsSharpCanineToothAnime],[Bleach 2],[Bleach2]",
    "title": "Bleach_578695",
    "link_img": "https://live.staticflickr.com/65535/46991380455_fface63f95_o.jpg",
    "id_image": "Bleach_578695",
    "count_view": 0
  },
  {
    "link_thumb": "https://live.staticflickr.com/65535/47855408662_87227e10d6_n.jpg",
    "id_album": "-1790635952",
    "description": "Bleach_578710,[isGirlAnime],[Bleach 2],[Bleach2]",
    "title": "Bleach_578710",
    "link_img": "https://live.staticflickr.com/65535/47855408662_52704f2d8d_o.jpg",
    "id_image": "Bleach_578710",
    "count_view": 0
  },
  {
    "link_thumb": "https://live.staticflickr.com/65535/47118087224_80f33455a3_n.jpg",
    "id_album": "-1790635952",
    "description": "Bleach_578711,[isGirlAnime],[isSadAnime],[isSadAnimeGirl],[Bleach 2],[Bleach2]",
    "title": "Bleach_578711",
    "link_img": "https://live.staticflickr.com/65535/47118087224_71cb6fa12d_o.jpg",
    "id_image": "Bleach_578711",
    "count_view": 0
  },
  {
    "link_thumb": "https://live.staticflickr.com/65535/40940908083_dc2eb3f2e7_n.jpg",
    "id_album": "-1790635952",
    "description": "Bleach_578728,[isGirlAnime],[isBlackAnime],[Bleach 2],[Bleach2]",
    "title": "Bleach_578728",
    "link_img": "https://live.staticflickr.com/65535/40940908083_0822097ba1_o.jpg",
    "id_image": "Bleach_578728",
    "count_view": 0
  },
  {
    "link_thumb": "https://live.staticflickr.com/65535/40940909663_6213e35a78_n.jpg",
    "id_album": "-1790635952",
    "description": "Bleach_578734,[isGirlAnime],[Bleach 2],[Bleach2]",
    "title": "Bleach_578734",
    "link_img": "https://live.staticflickr.com/65535/40940909663_859a64807a_o.jpg",
    "id_image": "Bleach_578734",
    "count_view": 0
  },
  {
    "link_thumb": "https://live.staticflickr.com/65535/47118098384_584fdf9b1e_n.jpg",
    "id_album": "-1790635952",
    "description": "Bleach_578739,[isGirlAnime],[isGirlsHatsHoodieAnime],[isBlackAnime],[Bleach 2],[Bleach2]",
    "title": "Bleach_578739",
    "link_img": "https://live.staticflickr.com/65535/47118098384_d924309c53_o.jpg",
    "id_image": "Bleach_578739",
    "count_view": 0
  },
  {
    "link_thumb": "https://live.staticflickr.com/65535/46991392245_22f4401986_n.jpg",
    "id_album": "-1790635952",
    "description": "Bleach_578745,[isGirlAnime],[Bleach 2],[Bleach2]",
    "title": "Bleach_578745",
    "link_img": "https://live.staticflickr.com/65535/46991392245_460b25a7d6_o.jpg",
    "id_image": "Bleach_578745",
    "count_view": 0
  },
  {
    "link_thumb": "https://live.staticflickr.com/65535/47118103324_f103c07e0a_n.jpg",
    "id_album": "-1790635952",
    "description": "Bleach_578760,[isGirlAnime],[Bleach 2],[Bleach2]",
    "title": "Bleach_578760",
    "link_img": "https://live.staticflickr.com/65535/47118103324_16a9b016dd_o.jpg",
    "id_image": "Bleach_578760",
    "count_view": 0
  },
  {
    "link_thumb": "https://live.staticflickr.com/65535/46991407885_ca07fd6cbd_n.jpg",
    "id_album": "-1790635952",
    "description": "Bleach_578803,[isBoyAnime],[Bleach 2],[Bleach2]",
    "title": "Bleach_578803",
    "link_img": "https://live.staticflickr.com/65535/46991407885_7195e290e8_o.jpg",
    "id_image": "Bleach_578803",
    "count_view": 0
  },
  {
    "link_thumb": "https://live.staticflickr.com/65535/47118131724_3951276c72_n.jpg",
    "id_album": "-1790635952",
    "description": "Bleach_578872,[isBoyAnime],[isBlackAnime],[Bleach 2],[Bleach2]",
    "title": "Bleach_578872",
    "link_img": "https://live.staticflickr.com/65535/47118131724_9a55c9a8e8_o.jpg",
    "id_image": "Bleach_578872",
    "count_view": 0
  },
  {
    "link_thumb": "https://live.staticflickr.com/65535/47855467062_1550165326_n.jpg",
    "id_album": "-1790635952",
    "description": "Bleach_578898,[isBoyAnime],[isCoupleAnime],[isGirlsLoliAnime],[Bleach 2],[Bleach2]",
    "title": "Bleach_578898",
    "link_img": "https://live.staticflickr.com/65535/47855467062_57392750bd_o.jpg",
    "id_image": "Bleach_578898",
    "count_view": 0
  },
  {
    "link_thumb": "https://live.staticflickr.com/65535/47118157524_0d08eb5fac_n.jpg",
    "id_album": "-1790635952",
    "description": "Bleach_579000,[isBoyAnime],[Bleach 2],[Bleach2]",
    "title": "Bleach_579000",
    "link_img": "https://live.staticflickr.com/65535/47118157524_5dd325e07f_o.jpg",
    "id_image": "Bleach_579000",
    "count_view": 0
  },
  {
    "link_thumb": "https://live.staticflickr.com/65535/47855507462_16f0b5a04f_n.jpg",
    "id_album": "-1790635952",
    "description": "Bleach_579056,[isGirlAnime],[Bleach 2],[Bleach2]",
    "title": "Bleach_579056",
    "link_img": "https://live.staticflickr.com/65535/47855507462_ded8e1a177_o.jpg",
    "id_image": "Bleach_579056",
    "count_view": 0
  },
  {
    "link_thumb": "https://live.staticflickr.com/65535/47907584831_e4ac9d3078_n.jpg",
    "id_album": "-1790635952",
    "description": "Bleach_579089,[isBoyAnime],[Bleach 2],[Bleach2]",
    "title": "Bleach_579089",
    "link_img": "https://live.staticflickr.com/65535/47907584831_81ed8bb8ee_o.jpg",
    "id_image": "Bleach_579089",
    "count_view": 0
  },
  {
    "link_thumb": "https://live.staticflickr.com/65535/40940992423_09422c6c73_n.jpg",
    "id_album": "-1790635952",
    "description": "Bleach_579108,[isGirlAnime],[Bleach 2],[Bleach2]",
    "title": "Bleach_579108",
    "link_img": "https://live.staticflickr.com/65535/40940992423_c0cae38061_o.jpg",
    "id_image": "Bleach_579108",
    "count_view": 0
  },
  {
    "link_thumb": "https://live.staticflickr.com/65535/47855529632_72ce05b1f1_n.jpg",
    "id_album": "-1790635952",
    "description": "Bleach_579116,[isGirlAnime],[isBlackAnime],[Bleach 2],[Bleach2]",
    "title": "Bleach_579116",
    "link_img": "https://live.staticflickr.com/65535/47855529632_9226122239_o.jpg",
    "id_image": "Bleach_579116",
    "count_view": 0
  },
  {
    "link_thumb": "https://live.staticflickr.com/65535/40940997623_33d9a3ca66_n.jpg",
    "id_album": "-1790635952",
    "description": "Bleach_579118,[isBoyAnime],[Bleach 2],[Bleach2]",
    "title": "Bleach_579118",
    "link_img": "https://live.staticflickr.com/65535/40940997623_166f908fc3_o.jpg",
    "id_image": "Bleach_579118",
    "count_view": 0
  },
  {
    "link_thumb": "https://live.staticflickr.com/65535/46991502325_4b2e3079b8_n.jpg",
    "id_album": "-1790635952",
    "description": "Bleach_579140,[isGirlAnime],[isBoyAnime],[isCoupleAnime],[isCuteAnime],[isGirlsLoliAnime],[Bleach 2],[Bleach2]",
    "title": "Bleach_579140",
    "link_img": "https://live.staticflickr.com/65535/46991502325_351161757f_o.jpg",
    "id_image": "Bleach_579140",
    "count_view": 0
  },
  {
    "link_thumb": "https://live.staticflickr.com/65535/47118206324_3842a3496e_n.jpg",
    "id_album": "-1790635952",
    "description": "Bleach_579146,[isRandom],[Bleach 2],[Bleach2]",
    "title": "Bleach_579146",
    "link_img": "https://live.staticflickr.com/65535/47118206324_25f5c1661e_o.jpg",
    "id_image": "Bleach_579146",
    "count_view": 0
  },
  {
    "link_thumb": "https://live.staticflickr.com/65535/47855539992_88734c02f0_n.jpg",
    "id_album": "-1790635952",
    "description": "Bleach_579161,[isBoyAnime],[Bleach 2],[Bleach2]",
    "title": "Bleach_579161",
    "link_img": "https://live.staticflickr.com/65535/47855539992_4081242ddb_o.jpg",
    "id_image": "Bleach_579161",
    "count_view": 0
  },
  {
    "link_thumb": "https://live.staticflickr.com/65535/47855540572_7252321157_n.jpg",
    "id_album": "-1790635952",
    "description": "Bleach_579162,[isBoyAnime],[Bleach 2],[Bleach2]",
    "title": "Bleach_579162",
    "link_img": "https://live.staticflickr.com/65535/47855540572_e2f1f65583_o.jpg",
    "id_image": "Bleach_579162",
    "count_view": 0
  },
  {
    "link_thumb": "https://live.staticflickr.com/65535/47118210324_5bc5d7fde1_n.jpg",
    "id_album": "-1790635952",
    "description": "Bleach_579163,[isBoyAnime],[Bleach 2],[Bleach2]",
    "title": "Bleach_579163",
    "link_img": "https://live.staticflickr.com/65535/47118210324_c919f089f3_o.jpg",
    "id_image": "Bleach_579163",
    "count_view": 0
  },
  {
    "link_thumb": "https://live.staticflickr.com/65535/40941021153_c4074b7da8_n.jpg",
    "id_album": "-1790635952",
    "description": "Bleach_579172,[isBoyAnime],[Bleach 2],[Bleach2]",
    "title": "Bleach_579172",
    "link_img": "https://live.staticflickr.com/65535/40941021153_ac5474d6e6_o.jpg",
    "id_image": "Bleach_579172",
    "count_view": 0
  },
  {
    "link_thumb": "https://live.staticflickr.com/65535/47907623911_4242a426a8_n.jpg",
    "id_album": "-1790635952",
    "description": "Bleach_579208,[isBoyAnime],[Bleach 2],[Bleach2]",
    "title": "Bleach_579208",
    "link_img": "https://live.staticflickr.com/65535/47907623911_c56e292439_o.jpg",
    "id_image": "Bleach_579208",
    "count_view": 0
  },
  {
    "link_thumb": "https://live.staticflickr.com/65535/46991527575_ea984b33bd_n.jpg",
    "id_album": "-1790635952",
    "description": "Bleach_579215,[isGirlAnime],[isBoyAnime],[Bleach 2],[Bleach2]",
    "title": "Bleach_579215",
    "link_img": "https://live.staticflickr.com/65535/46991527575_f02f625806_o.jpg",
    "id_image": "Bleach_579215",
    "count_view": 0
  },
  {
    "link_thumb": "https://live.staticflickr.com/65535/47118240564_a9c94a5420_n.jpg",
    "id_album": "-1790635952",
    "description": "Bleach_579233,[isBoyAnime],[isBlackAnime],[Bleach 2],[Bleach2]",
    "title": "Bleach_579233",
    "link_img": "https://live.staticflickr.com/65535/47118240564_4547d7b67b_o.jpg",
    "id_image": "Bleach_579233",
    "count_view": 0
  },
  {
    "link_thumb": "https://live.staticflickr.com/65535/47907670031_5fb7b9f5bb_n.jpg",
    "id_album": "-1790635952",
    "description": "Bleach_579329,[isBoyAnime],[isBlackAnime],[Bleach 2],[Bleach2]",
    "title": "Bleach_579329",
    "link_img": "https://live.staticflickr.com/65535/47907670031_af281babb0_o.jpg",
    "id_image": "Bleach_579329",
    "count_view": 0
  },
  {
    "link_thumb": "https://live.staticflickr.com/65535/46991582305_6e2f669744_n.jpg",
    "id_album": "-1790635952",
    "description": "Bleach_579368,[isBoyAnime],[Bleach 2],[Bleach2]",
    "title": "Bleach_579368",
    "link_img": "https://live.staticflickr.com/65535/46991582305_c683d9f0a7_o.jpg",
    "id_image": "Bleach_579368",
    "count_view": 0
  },
  {
    "link_thumb": "https://live.staticflickr.com/65535/47855632722_371143ba6e_n.jpg",
    "id_album": "-1790635952",
    "description": "Bleach_579369,[isBoyAnime],[Bleach 2],[Bleach2]",
    "title": "Bleach_579369",
    "link_img": "https://live.staticflickr.com/65535/47855632722_c68358c21f_o.jpg",
    "id_image": "Bleach_579369",
    "count_view": 0
  },
  {
    "link_thumb": "https://live.staticflickr.com/65535/46991584255_026896cdf6_n.jpg",
    "id_album": "-1790635952",
    "description": "Bleach_579376,[isBoyAnime],[Bleach 2],[Bleach2]",
    "title": "Bleach_579376",
    "link_img": "https://live.staticflickr.com/65535/46991584255_4a912b1527_o.jpg",
    "id_image": "Bleach_579376",
    "count_view": 0
  },
  {
    "link_thumb": "https://live.staticflickr.com/65535/47907686561_1fe19200bd_n.jpg",
    "id_album": "-1790635952",
    "description": "Bleach_579382,[isGirlAnime],[isBoyAnime],[Bleach 2],[Bleach2]",
    "title": "Bleach_579382",
    "link_img": "https://live.staticflickr.com/65535/47907686561_25d331fcf2_o.jpg",
    "id_image": "Bleach_579382",
    "count_view": 0
  },
  {
    "link_thumb": "https://live.staticflickr.com/65535/46991589035_ef68ff87f0_n.jpg",
    "id_album": "-1790635952",
    "description": "Bleach_579399,[isBoyAnime],[Bleach 2],[Bleach2]",
    "title": "Bleach_579399",
    "link_img": "https://live.staticflickr.com/65535/46991589035_da99623a49_o.jpg",
    "id_image": "Bleach_579399",
    "count_view": 0
  },
  {
    "link_thumb": "https://live.staticflickr.com/65535/46991709135_8a9c4be8c5_n.jpg",
    "id_album": "-1790635952",
    "description": "Bleach_579695,[isBoyAnime],[isBlackAnime],[Bleach 2],[Bleach2]",
    "title": "Bleach_579695",
    "link_img": "https://live.staticflickr.com/65535/46991709135_f3fb19a010_o.jpg",
    "id_image": "Bleach_579695",
    "count_view": 0
  },
  {
    "link_thumb": "https://live.staticflickr.com/65535/47118430844_50fd1a8deb_n.jpg",
    "id_album": "-1790635952",
    "description": "Bleach_579766,[isRandom],[Bleach 2],[Bleach2]",
    "title": "Bleach_579766",
    "link_img": "https://live.staticflickr.com/65535/47118430844_8aed4123f4_o.jpg",
    "id_image": "Bleach_579766",
    "count_view": 0
  },
  {
    "link_thumb": "https://live.staticflickr.com/65535/46991742005_24e85efbe7_n.jpg",
    "id_album": "-1790635952",
    "description": "Bleach_579768,[isGirlAnime],[isBoyAnime],[Bleach 2],[Bleach2]",
    "title": "Bleach_579768",
    "link_img": "https://live.staticflickr.com/65535/46991742005_6228709359_o.jpg",
    "id_image": "Bleach_579768",
    "count_view": 0
  },
  {
    "link_thumb": "https://live.staticflickr.com/65535/46991747625_8243d3d915_n.jpg",
    "id_album": "-1790635952",
    "description": "Bleach_579777,[isGirlAnime],[isBoyAnime],[Bleach 2],[Bleach2]",
    "title": "Bleach_579777",
    "link_img": "https://live.staticflickr.com/65535/46991747625_4d3b3e939c_o.jpg",
    "id_image": "Bleach_579777",
    "count_view": 0
  },
  {
    "link_thumb": "https://live.staticflickr.com/65535/47118437574_1abbef7656_n.jpg",
    "id_album": "-1790635952",
    "description": "Bleach_579781,[isGirlAnime],[isBoyAnime],[isCoupleAnime],[Bleach 2],[Bleach2]",
    "title": "Bleach_579781",
    "link_img": "https://live.staticflickr.com/65535/47118437574_6a2d415829_o.jpg",
    "id_image": "Bleach_579781",
    "count_view": 0
  },
  {
    "link_thumb": "https://live.staticflickr.com/65535/47855793342_ec67521de1_n.jpg",
    "id_album": "-1790635952",
    "description": "Bleach_579786,[isGirlAnime],[isBlackAnime],[Bleach 2],[Bleach2]",
    "title": "Bleach_579786",
    "link_img": "https://live.staticflickr.com/65535/47855793342_a7bb3630fb_o.jpg",
    "id_image": "Bleach_579786",
    "count_view": 0
  },
  {
    "link_thumb": "https://live.staticflickr.com/65535/46991772035_7ee82823d9_n.jpg",
    "id_album": "-1790635952",
    "description": "Bleach_579840,[isBoyAnime],[Bleach 2],[Bleach2]",
    "title": "Bleach_579840",
    "link_img": "https://live.staticflickr.com/65535/46991772035_54b0e6308b_o.jpg",
    "id_image": "Bleach_579840",
    "count_view": 0
  },
  {
    "link_thumb": "https://live.staticflickr.com/65535/46991776465_2819afd48d_n.jpg",
    "id_album": "-1790635952",
    "description": "Bleach_579861,[isBoyAnime],[isBlackAnime],[Bleach 2],[Bleach2]",
    "title": "Bleach_579861",
    "link_img": "https://live.staticflickr.com/65535/46991776465_31d8c2a07f_o.jpg",
    "id_image": "Bleach_579861",
    "count_view": 0
  },
  {
    "link_thumb": "https://live.staticflickr.com/65535/47118513504_a913e1c683_n.jpg",
    "id_album": "-1790635952",
    "description": "Bleach_579981,[isGirlAnime],[isBlackAnime],[Bleach 2],[Bleach2]",
    "title": "Bleach_579981",
    "link_img": "https://live.staticflickr.com/65535/47118513504_99811400dd_o.jpg",
    "id_image": "Bleach_579981",
    "count_view": 0
  },
  {
    "link_thumb": "https://live.staticflickr.com/65535/47908010621_563c9e3a34_n.jpg",
    "id_album": "-1790635952",
    "description": "Bleach_580197,[isBoyAnime],[Bleach 2],[Bleach2]",
    "title": "Bleach_580197",
    "link_img": "https://live.staticflickr.com/65535/47908010621_080e980bac_o.jpg",
    "id_image": "Bleach_580197",
    "count_view": 0
  },
  {
    "link_thumb": "https://live.staticflickr.com/65535/47118611234_58a5cd3f30_n.jpg",
    "id_album": "-1790635952",
    "description": "Bleach_580199,[isBoyAnime],[Bleach 2],[Bleach2]",
    "title": "Bleach_580199",
    "link_img": "https://live.staticflickr.com/65535/47118611234_6ca1f585a1_o.jpg",
    "id_image": "Bleach_580199",
    "count_view": 0
  },
  {
    "link_thumb": "https://live.staticflickr.com/65535/47855977702_2b43e1313c_n.jpg",
    "id_album": "-1790635952",
    "description": "Bleach_580207,[isGirlAnime],[isBoyAnime],[Bleach 2],[Bleach2]",
    "title": "Bleach_580207",
    "link_img": "https://live.staticflickr.com/65535/47855977702_2e2dbe319a_o.jpg",
    "id_image": "Bleach_580207",
    "count_view": 0
  },
  {
    "link_thumb": "https://live.staticflickr.com/65535/40941536393_953a4fa452_n.jpg",
    "id_album": "-1790635952",
    "description": "Bleach_580439,[isBoyAnime],[Bleach 2],[Bleach2]",
    "title": "Bleach_580439",
    "link_img": "https://live.staticflickr.com/65535/40941536393_9e013d3f4a_o.jpg",
    "id_image": "Bleach_580439",
    "count_view": 0
  },
  {
    "link_thumb": "https://live.staticflickr.com/65535/46992176845_98e59dd2a5_n.jpg",
    "id_album": "-1790635952",
    "description": "Bleach_580744,[isBoyAnime],[isBlackAnime],[Bleach 2],[Bleach2]",
    "title": "Bleach_580744",
    "link_img": "https://live.staticflickr.com/65535/46992176845_501736e78e_o.jpg",
    "id_image": "Bleach_580744",
    "count_view": 0
  },
  {
    "link_thumb": "https://live.staticflickr.com/65535/40941675163_bdd9da7374_n.jpg",
    "id_album": "-1790635952",
    "description": "Bleach_580750,[isBoyAnime],[Bleach 2],[Bleach2]",
    "title": "Bleach_580750",
    "link_img": "https://live.staticflickr.com/65535/40941675163_feafb5d96e_o.jpg",
    "id_image": "Bleach_580750",
    "count_view": 0
  },
  {
    "link_thumb": "https://live.staticflickr.com/65535/47856260502_9049444d7e_n.jpg",
    "id_album": "-1790635952",
    "description": "Bleach_598856,[isBoyAnime],[Bleach 2],[Bleach2]",
    "title": "Bleach_598856",
    "link_img": "https://live.staticflickr.com/65535/47856260502_69e35544be_o.jpg",
    "id_image": "Bleach_598856",
    "count_view": 0
  },
  {
    "link_thumb": "https://live.staticflickr.com/65535/46992190465_b8d917b8b4_n.jpg",
    "id_album": "-1790635952",
    "description": "Bleach_603510,[isGirlAnime],[isBoyAnime],[Bleach 2],[Bleach2]",
    "title": "Bleach_603510",
    "link_img": "https://live.staticflickr.com/65535/46992190465_6fca365fb7_o.jpg",
    "id_image": "Bleach_603510",
    "count_view": 0
  },
  {
    "link_thumb": "https://live.staticflickr.com/65535/46992191055_7587cb56f5_n.jpg",
    "id_album": "-1790635952",
    "description": "Bleach_603511,[isBoyAnime],[Bleach 2],[Bleach2]",
    "title": "Bleach_603511",
    "link_img": "https://live.staticflickr.com/65535/46992191055_ece00f367d_o.jpg",
    "id_image": "Bleach_603511",
    "count_view": 0
  },
  {
    "link_thumb": "https://live.staticflickr.com/65535/47908262681_3c185b5837_n.jpg",
    "id_album": "-1790635952",
    "description": "Bleach_603512,[isGirlAnime],[isBoyAnime],[isCoupleAnime],[Bleach 2],[Bleach2]",
    "title": "Bleach_603512",
    "link_img": "https://live.staticflickr.com/65535/47908262681_dd1dda697f_o.jpg",
    "id_image": "Bleach_603512",
    "count_view": 0
  },
  {
    "link_thumb": "https://live.staticflickr.com/65535/47118887604_8106d6af39_n.jpg",
    "id_album": "-1790635952",
    "description": "Bleach_603520,[isBoyAnime],[Bleach 2],[Bleach2]",
    "title": "Bleach_603520",
    "link_img": "https://live.staticflickr.com/65535/47118887604_e2810446c0_o.jpg",
    "id_image": "Bleach_603520",
    "count_view": 0
  },
  {
    "link_thumb": "https://live.staticflickr.com/65535/47856266312_f416c60f9b_n.jpg",
    "id_album": "-1790635952",
    "description": "Bleach_603521,[isGirlAnime],[isBoyAnime],[Bleach 2],[Bleach2]",
    "title": "Bleach_603521",
    "link_img": "https://live.staticflickr.com/65535/47856266312_34babffca9_o.jpg",
    "id_image": "Bleach_603521",
    "count_view": 0
  },
  {
    "link_thumb": "https://live.staticflickr.com/65535/47908275451_6075945174_n.jpg",
    "id_album": "-1790635952",
    "description": "Bleach_603535,[isBoyAnime],[isBlackAnime],[Bleach 2],[Bleach2]",
    "title": "Bleach_603535",
    "link_img": "https://live.staticflickr.com/65535/47908275451_1a3dd62a81_o.jpg",
    "id_image": "Bleach_603535",
    "count_view": 0
  },
  {
    "link_thumb": "https://live.staticflickr.com/65535/47118898164_d89c4c501f_n.jpg",
    "id_album": "-1790635952",
    "description": "Bleach_603539,[isBoyAnime],[Bleach 2],[Bleach2]",
    "title": "Bleach_603539",
    "link_img": "https://live.staticflickr.com/65535/47118898164_55d3ab27c4_o.jpg",
    "id_image": "Bleach_603539",
    "count_view": 0
  },
  {
    "link_thumb": "https://live.staticflickr.com/65535/47908279751_4e5f682e40_n.jpg",
    "id_album": "-1790635952",
    "description": "Bleach_603543,[isBoyAnime],[Bleach 2],[Bleach2]",
    "title": "Bleach_603543",
    "link_img": "https://live.staticflickr.com/65535/47908279751_c3663dec0c_o.jpg",
    "id_image": "Bleach_603543",
    "count_view": 0
  },
  {
    "link_thumb": "https://live.staticflickr.com/65535/46992216395_10fd0db52f_n.jpg",
    "id_album": "-1790635952",
    "description": "Bleach_603545,[isBoyAnime],[Bleach 2],[Bleach2]",
    "title": "Bleach_603545",
    "link_img": "https://live.staticflickr.com/65535/46992216395_143ce99672_o.jpg",
    "id_image": "Bleach_603545",
    "count_view": 0
  },
  {
    "link_thumb": "https://live.staticflickr.com/65535/47118903514_4cb1f4088b_n.jpg",
    "id_album": "-1790635952",
    "description": "Bleach_603553,[isRandom],[Bleach 2],[Bleach2]",
    "title": "Bleach_603553",
    "link_img": "https://live.staticflickr.com/65535/47118903514_0d3be8deb6_o.jpg",
    "id_image": "Bleach_603553",
    "count_view": 0
  },
  {
    "link_thumb": "https://live.staticflickr.com/65535/47908283171_70b3b3c92d_n.jpg",
    "id_album": "-1790635952",
    "description": "Bleach_603557,[isRandom],[Bleach 2],[Bleach2]",
    "title": "Bleach_603557",
    "link_img": "https://live.staticflickr.com/65535/47908283171_336140fbd5_o.jpg",
    "id_image": "Bleach_603557",
    "count_view": 0
  },
  {
    "link_thumb": "https://live.staticflickr.com/65535/40941716313_03067d4f70_n.jpg",
    "id_album": "-1790635952",
    "description": "Bleach_603560,[isRandom],[Bleach 2],[Bleach2]",
    "title": "Bleach_603560",
    "link_img": "https://live.staticflickr.com/65535/40941716313_5360b7faee_o.jpg",
    "id_image": "Bleach_603560",
    "count_view": 0
  },
  {
    "link_thumb": "https://live.staticflickr.com/65535/47856290322_a5415bd3e1_n.jpg",
    "id_album": "-1790635952",
    "description": "Bleach_603561,[isRandom],[Bleach 2],[Bleach2]",
    "title": "Bleach_603561",
    "link_img": "https://live.staticflickr.com/65535/47856290322_a6149501dc_o.jpg",
    "id_image": "Bleach_603561",
    "count_view": 0
  },
  {
    "link_thumb": "https://live.staticflickr.com/65535/46992232675_79838a13c0_n.jpg",
    "id_album": "-1790635952",
    "description": "Bleach_604203,[isBoyAnime],[isBlackAnime],[Bleach 2],[Bleach2]",
    "title": "Bleach_604203",
    "link_img": "https://live.staticflickr.com/65535/46992232675_3cd67e526c_o.jpg",
    "id_image": "Bleach_604203",
    "count_view": 0
  },
  {
    "link_thumb": "https://live.staticflickr.com/65535/40941741383_5101fd6956_n.jpg",
    "id_album": "-1790635952",
    "description": "Bleach_670680,[isBoyAnime],[Bleach 2],[Bleach2]",
    "title": "Bleach_670680",
    "link_img": "https://live.staticflickr.com/65535/40941741383_0b0d93d1d6_o.jpg",
    "id_image": "Bleach_670680",
    "count_view": 0
  },
  {
    "link_thumb": "https://live.staticflickr.com/65535/47856317822_3d77b06aaa_n.jpg",
    "id_album": "-1790635952",
    "description": "Bleach_672602,[isGirlAnime],[isKimonoAnime],[Bleach 2],[Bleach2]",
    "title": "Bleach_672602",
    "link_img": "https://live.staticflickr.com/65535/47856317822_8d144e095b_o.jpg",
    "id_image": "Bleach_672602",
    "count_view": 0
  },
  {
    "link_thumb": "https://live.staticflickr.com/65535/47856319942_36d033ce32_n.jpg",
    "id_album": "-1790635952",
    "description": "Bleach_677086,[isBoyAnime],[isBlackAnime],[Bleach 2],[Bleach2]",
    "title": "Bleach_677086",
    "link_img": "https://live.staticflickr.com/65535/47856319942_a3d16d860e_o.jpg",
    "id_image": "Bleach_677086",
    "count_view": 0
  },
  {
    "link_thumb": "https://live.staticflickr.com/65535/47908321161_9d7a106e62_n.jpg",
    "id_album": "-1790635952",
    "description": "Bleach_678797,[isBoyAnime],[Bleach 2],[Bleach2]",
    "title": "Bleach_678797",
    "link_img": "https://live.staticflickr.com/65535/47908321161_601bcb26b4_o.jpg",
    "id_image": "Bleach_678797",
    "count_view": 0
  },
  {
    "link_thumb": "https://live.staticflickr.com/65535/47908321791_4b860d28a2_n.jpg",
    "id_album": "-1790635952",
    "description": "Bleach_678798,[isBoyAnime],[Bleach 2],[Bleach2]",
    "title": "Bleach_678798",
    "link_img": "https://live.staticflickr.com/65535/47908321791_441404a117_o.jpg",
    "id_image": "Bleach_678798",
    "count_view": 0
  },
  {
    "link_thumb": "https://live.staticflickr.com/65535/47908322561_93438a5918_n.jpg",
    "id_album": "-1790635952",
    "description": "Bleach_680413,[isBoyAnime],[Bleach 2],[Bleach2]",
    "title": "Bleach_680413",
    "link_img": "https://live.staticflickr.com/65535/47908322561_8246b669b2_o.jpg",
    "id_image": "Bleach_680413",
    "count_view": 0
  },
  {
    "link_thumb": "https://live.staticflickr.com/65535/40941753113_b8293db310_n.jpg",
    "id_album": "-1790635952",
    "description": "Bleach_689467,[isBoyAnime],[Bleach 2],[Bleach2]",
    "title": "Bleach_689467",
    "link_img": "https://live.staticflickr.com/65535/40941753113_4b0c63de48_o.jpg",
    "id_image": "Bleach_689467",
    "count_view": 0
  },
  {
    "link_thumb": "https://live.staticflickr.com/65535/40941753993_9838968ca9_n.jpg",
    "id_album": "-1790635952",
    "description": "Bleach_689468,[isBoyAnime],[isBlackAnime],[Bleach 2],[Bleach2]",
    "title": "Bleach_689468",
    "link_img": "https://live.staticflickr.com/65535/40941753993_6334e7b906_o.jpg",
    "id_image": "Bleach_689468",
    "count_view": 0
  },
  {
    "link_thumb": "https://live.staticflickr.com/65535/47118945924_4c1819e324_n.jpg",
    "id_album": "-1790635952",
    "description": "Bleach_710611,[isBoyAnime],[Bleach 2],[Bleach2]",
    "title": "Bleach_710611",
    "link_img": "https://live.staticflickr.com/65535/47118945924_b1aa6dcef4_o.jpg",
    "id_image": "Bleach_710611",
    "count_view": 0
  },
  {
    "link_thumb": "https://live.staticflickr.com/65535/47908332101_5b5ef21821_n.jpg",
    "id_album": "-1790635952",
    "description": "Bleach_710627,[isBoyAnime],[isBlackAnime],[Bleach 2],[Bleach2]",
    "title": "Bleach_710627",
    "link_img": "https://live.staticflickr.com/65535/47908332101_a68c06526c_o.jpg",
    "id_image": "Bleach_710627",
    "count_view": 0
  },
  {
    "link_thumb": "https://live.staticflickr.com/65535/47118947844_1e44a41b21_n.jpg",
    "id_album": "-1790635952",
    "description": "Bleach_713010,[isBoyAnime],[isBlackAnime],[Bleach 2],[Bleach2]",
    "title": "Bleach_713010",
    "link_img": "https://live.staticflickr.com/65535/47118947844_58bb86eb6b_o.jpg",
    "id_image": "Bleach_713010",
    "count_view": 0
  },
  {
    "link_thumb": "https://live.staticflickr.com/65535/47118948594_e245411729_n.jpg",
    "id_album": "-1790635952",
    "description": "Bleach_713012,[isBoyAnime],[isSadAnime],[isSadAnimeBoy],[isBlackAnime],[Bleach 2],[Bleach2]",
    "title": "Bleach_713012",
    "link_img": "https://live.staticflickr.com/65535/47118948594_2463c2945a_o.jpg",
    "id_image": "Bleach_713012",
    "count_view": 0
  },
  {
    "link_thumb": "https://live.staticflickr.com/65535/47856334902_d1d053ca25_n.jpg",
    "id_album": "-1790635952",
    "description": "Bleach_713015,[isBoyAnime],[isSadAnime],[isSadAnimeBoy],[isBlackAnime],[Bleach 2],[Bleach2]",
    "title": "Bleach_713015",
    "link_img": "https://live.staticflickr.com/65535/47856334902_bea2373df2_o.jpg",
    "id_image": "Bleach_713015",
    "count_view": 0
  },
  {
    "link_thumb": "https://live.staticflickr.com/65535/46992257565_eb16011b15_n.jpg",
    "id_album": "-1790635952",
    "description": "Bleach_713057,[isBoyAnime],[isSadAnime],[isSadAnimeBoy],[isBlackAnime],[Bleach 2],[Bleach2]",
    "title": "Bleach_713057",
    "link_img": "https://live.staticflickr.com/65535/46992257565_e6558f12b7_o.jpg",
    "id_image": "Bleach_713057",
    "count_view": 0
  },
  {
    "link_thumb": "https://live.staticflickr.com/65535/47118953924_38a0a10f46_n.jpg",
    "id_album": "-1790635952",
    "description": "Bleach_727474,[isBoyAnime],[Bleach 2],[Bleach2]",
    "title": "Bleach_727474",
    "link_img": "https://live.staticflickr.com/65535/47118953924_547586591f_o.jpg",
    "id_image": "Bleach_727474",
    "count_view": 0
  },
  {
    "link_thumb": "https://live.staticflickr.com/65535/47908334171_107999fbdd_n.jpg",
    "id_album": "-1790635952",
    "description": "Bleach_727475,[isGirlAnime],[isBoyAnime],[isSadAnime],[isSadAnimeBoy],[Bleach 2],[Bleach2]",
    "title": "Bleach_727475",
    "link_img": "https://live.staticflickr.com/65535/47908334171_c2637bfdd7_o.jpg",
    "id_image": "Bleach_727475",
    "count_view": 0
  },
  {
    "link_thumb": "https://live.staticflickr.com/65535/40941778653_3274b36b37_n.jpg",
    "id_album": "-1790635952",
    "description": "Bleach_734563,[isGirlAnime],[isBoyAnime],[isCoupleAnime],[Bleach 2],[Bleach2]",
    "title": "Bleach_734563",
    "link_img": "https://live.staticflickr.com/65535/40941778653_fc8aa26cdf_o.jpg",
    "id_image": "Bleach_734563",
    "count_view": 0
  },
  {
    "link_thumb": "https://live.staticflickr.com/65535/40941786313_75487fe6b9_n.jpg",
    "id_album": "-1790635952",
    "description": "Bleach_744652,[isBoyAnime],[isBlackAnime],[Bleach 2],[Bleach2]",
    "title": "Bleach_744652",
    "link_img": "https://live.staticflickr.com/65535/40941786313_173bcf0343_o.jpg",
    "id_image": "Bleach_744652",
    "count_view": 0
  },
  {
    "link_thumb": "https://live.staticflickr.com/65535/47856356382_d69d1ab22f_n.jpg",
    "id_album": "-1790635952",
    "description": "Bleach_745542,[isBoyAnime],[isBlackAnime],[Bleach 2],[Bleach2]",
    "title": "Bleach_745542",
    "link_img": "https://live.staticflickr.com/65535/47856356382_602536b92b_o.jpg",
    "id_image": "Bleach_745542",
    "count_view": 0
  },
  {
    "link_thumb": "https://live.staticflickr.com/65535/47908349251_eb99c13569_n.jpg",
    "id_album": "-1790635952",
    "description": "Bleach_746037,[isBoyAnime],[isBlackAnime],[Bleach 2],[Bleach2]",
    "title": "Bleach_746037",
    "link_img": "https://live.staticflickr.com/65535/47908349251_221fdce968_o.jpg",
    "id_image": "Bleach_746037",
    "count_view": 0
  },
  {
    "link_thumb": "https://live.staticflickr.com/65535/46992281275_14435768bd_n.jpg",
    "id_album": "-1790635952",
    "description": "Bleach_746038,[isBoyAnime],[isBlackAnime],[Bleach 2],[Bleach2]",
    "title": "Bleach_746038",
    "link_img": "https://live.staticflickr.com/65535/46992281275_76c2a6b118_o.jpg",
    "id_image": "Bleach_746038",
    "count_view": 0
  },
  {
    "link_thumb": "https://live.staticflickr.com/65535/40941792083_a4aab846f7_n.jpg",
    "id_album": "-1790635952",
    "description": "Bleach_746040,[isGirlAnime],[isBoyAnime],[isCoupleAnime],[isBlackAnime],[Bleach 2],[Bleach2]",
    "title": "Bleach_746040",
    "link_img": "https://live.staticflickr.com/65535/40941792083_73fc13d381_o.jpg",
    "id_image": "Bleach_746040",
    "count_view": 0
  },
  {
    "link_thumb": "https://live.staticflickr.com/65535/47118983184_24d989fcd4_n.jpg",
    "id_album": "-1790635952",
    "description": "Bleach_759145,[isBoyAnime],[isBlackAnime],[Bleach 2],[Bleach2]",
    "title": "Bleach_759145",
    "link_img": "https://live.staticflickr.com/65535/47118983184_1d27db09d6_o.jpg",
    "id_image": "Bleach_759145",
    "count_view": 0
  },
  {
    "link_thumb": "https://live.staticflickr.com/65535/47856376352_fb66c8dfc9_n.jpg",
    "id_album": "-1790635952",
    "description": "Bleach_769920,[isBoyAnime],[isBlackAnime],[Bleach 2],[Bleach2]",
    "title": "Bleach_769920",
    "link_img": "https://live.staticflickr.com/65535/47856376352_89a7fd127f_o.jpg",
    "id_image": "Bleach_769920",
    "count_view": 0
  },
  {
    "link_thumb": "https://live.staticflickr.com/65535/47856382962_0559c5d953_n.jpg",
    "id_album": "-1790635952",
    "description": "Bleach_769931,[isBoyAnime],[isBlackAnime],[Bleach 2],[Bleach2]",
    "title": "Bleach_769931",
    "link_img": "https://live.staticflickr.com/65535/47856382962_30d64c8b73_o.jpg",
    "id_image": "Bleach_769931",
    "count_view": 0
  },
  {
    "link_thumb": "https://live.staticflickr.com/65535/47908368761_b27a34cd19_n.jpg",
    "id_album": "-1790635952",
    "description": "Bleach_771321,[isGirlAnime],[isBoyAnime],[Bleach 2],[Bleach2]",
    "title": "Bleach_771321",
    "link_img": "https://live.staticflickr.com/65535/47908368761_10982c9ed5_o.jpg",
    "id_image": "Bleach_771321",
    "count_view": 0
  },
  {
    "link_thumb": "https://live.staticflickr.com/65535/47908369231_3905743640_n.jpg",
    "id_album": "-1790635952",
    "description": "Bleach_771323,[isBoyAnime],[Bleach 2],[Bleach2]",
    "title": "Bleach_771323",
    "link_img": "https://live.staticflickr.com/65535/47908369231_29ee8b3f87_o.jpg",
    "id_image": "Bleach_771323",
    "count_view": 0
  },
  {
    "link_thumb": "https://live.staticflickr.com/65535/40941814473_b18ab81c86_n.jpg",
    "id_album": "-1790635952",
    "description": "Bleach_771326,[isBoyAnime],[Bleach 2],[Bleach2]",
    "title": "Bleach_771326",
    "link_img": "https://live.staticflickr.com/65535/40941814473_f283c63a35_o.jpg",
    "id_image": "Bleach_771326",
    "count_view": 0
  },
  {
    "link_thumb": "https://live.staticflickr.com/65535/46992305925_68511dca4a_n.jpg",
    "id_album": "-1790635952",
    "description": "Bleach_778400,[isBoyAnime],[Bleach 2],[Bleach2]",
    "title": "Bleach_778400",
    "link_img": "https://live.staticflickr.com/65535/46992305925_07ba395b1d_o.jpg",
    "id_image": "Bleach_778400",
    "count_view": 0
  },
  {
    "link_thumb": "https://live.staticflickr.com/65535/47119006884_ac02181324_n.jpg",
    "id_album": "-1790635952",
    "description": "Bleach_782188,[isBoyAnime],[isSadAnime],[isSadAnimeBoy],[Bleach 2],[Bleach2]",
    "title": "Bleach_782188",
    "link_img": "https://live.staticflickr.com/65535/47119006884_8cb5b9fb41_o.jpg",
    "id_image": "Bleach_782188",
    "count_view": 0
  },
  {
    "link_thumb": "https://live.staticflickr.com/65535/47856403932_d053564fc1_n.jpg",
    "id_album": "-1790635952",
    "description": "Bleach_783182,[isBoyAnime],[Bleach 2],[Bleach2]",
    "title": "Bleach_783182",
    "link_img": "https://live.staticflickr.com/65535/47856403932_6655106e0c_o.jpg",
    "id_image": "Bleach_783182",
    "count_view": 0
  },
  {
    "link_thumb": "https://live.staticflickr.com/65535/40941824183_5cf436c314_n.jpg",
    "id_album": "-1790635952",
    "description": "Bleach_783184,[isBoyAnime],[Bleach 2],[Bleach2]",
    "title": "Bleach_783184",
    "link_img": "https://live.staticflickr.com/65535/40941824183_cfa33bf433_o.jpg",
    "id_image": "Bleach_783184",
    "count_view": 0
  },
  {
    "link_thumb": "https://live.staticflickr.com/65535/40941829793_1775fb1672_n.jpg",
    "id_album": "-1790635952",
    "description": "Bleach_788720,[isBoyAnime],[isBlackAnime],[Bleach 2],[Bleach2]",
    "title": "Bleach_788720",
    "link_img": "https://live.staticflickr.com/65535/40941829793_62edb260f1_o.jpg",
    "id_image": "Bleach_788720",
    "count_view": 0
  },
  {
    "link_thumb": "https://live.staticflickr.com/65535/46992326885_9a9f464e96_n.jpg",
    "id_album": "-1790635952",
    "description": "Bleach_806986,[isBoyAnime],[isBlackAnime],[Bleach 2],[Bleach2]",
    "title": "Bleach_806986",
    "link_img": "https://live.staticflickr.com/65535/46992326885_29d5f4f083_o.jpg",
    "id_image": "Bleach_806986",
    "count_view": 0
  },
  {
    "link_thumb": "https://live.staticflickr.com/65535/47856414962_c0b9e800ea_n.jpg",
    "id_album": "-1790635952",
    "description": "Bleach_806991,[isBoyAnime],[isBlackAnime],[Bleach 2],[Bleach2]",
    "title": "Bleach_806991",
    "link_img": "https://live.staticflickr.com/65535/47856414962_9cc69a56d8_o.jpg",
    "id_image": "Bleach_806991",
    "count_view": 0
  },
  {
    "link_thumb": "https://live.staticflickr.com/65535/47856417412_6db19f9acf_n.jpg",
    "id_album": "-1790635952",
    "description": "Bleach_807240,[isGirlAnime],[isBoyAnime],[isCoupleAnime],[Bleach 2],[Bleach2]",
    "title": "Bleach_807240",
    "link_img": "https://live.staticflickr.com/65535/47856417412_4dae10ec8b_o.jpg",
    "id_image": "Bleach_807240",
    "count_view": 0
  },
  {
    "link_thumb": "https://live.staticflickr.com/65535/47856418212_198a055025_n.jpg",
    "id_album": "-1790635952",
    "description": "Bleach_812563,[isBoyAnime],[Bleach 2],[Bleach2]",
    "title": "Bleach_812563",
    "link_img": "https://live.staticflickr.com/65535/47856418212_b4e0c11125_o.jpg",
    "id_image": "Bleach_812563",
    "count_view": 0
  },
  {
    "link_thumb": "https://live.staticflickr.com/65535/47908397761_d00497c8bc_n.jpg",
    "id_album": "-1790635952",
    "description": "Bleach_820670,[isBoyAnime],[Bleach 2],[Bleach2]",
    "title": "Bleach_820670",
    "link_img": "https://live.staticflickr.com/65535/47908397761_8ed2bd80e5_o.jpg",
    "id_image": "Bleach_820670",
    "count_view": 0
  },
  {
    "link_thumb": "https://live.staticflickr.com/65535/40941854953_c47cc55d04_n.jpg",
    "id_album": "-1790635952",
    "description": "Bleach_857355,[isGirlAnime],[isBoyAnime],[Bleach 2],[Bleach2]",
    "title": "Bleach_857355",
    "link_img": "https://live.staticflickr.com/65535/40941854953_d5a9a06fd1_o.jpg",
    "id_image": "Bleach_857355",
    "count_view": 0
  },
  {
    "link_thumb": "https://live.staticflickr.com/65535/47908413341_9ae5070ec5_n.jpg",
    "id_album": "-1790635952",
    "description": "Bleach_857464,[isGirlAnime],[isSadAnime],[isSadAnimeGirl],[isCuteAnime],[isGirlsLoliAnime],[Bleach 2],[Bleach2]",
    "title": "Bleach_857464",
    "link_img": "https://live.staticflickr.com/65535/47908413341_9bd4f0a59b_o.jpg",
    "id_image": "Bleach_857464",
    "count_view": 0
  },
  {
    "link_thumb": "https://live.staticflickr.com/65535/46992351125_74d907927b_n.jpg",
    "id_album": "-1790635952",
    "description": "Bleach_857560,[isGirlAnime],[isBoyAnime],[isCoupleAnime],[Bleach 2],[Bleach2]",
    "title": "Bleach_857560",
    "link_img": "https://live.staticflickr.com/65535/46992351125_12498e10b3_o.jpg",
    "id_image": "Bleach_857560",
    "count_view": 0
  },
  {
    "link_thumb": "https://live.staticflickr.com/65535/47908416411_09d25d807e_n.jpg",
    "id_album": "-1790635952",
    "description": "Bleach_897422,[isBoyAnime],[Bleach 2],[Bleach2]",
    "title": "Bleach_897422",
    "link_img": "https://live.staticflickr.com/65535/47908416411_b8d0a467fb_o.jpg",
    "id_image": "Bleach_897422",
    "count_view": 0
  },
  {
    "link_thumb": "https://live.staticflickr.com/65535/46992360045_0c96a2b1fb_n.jpg",
    "id_album": "-1790635952",
    "description": "Bleach_906571,[isGirlAnime],[isBlackAnime],[Bleach 2],[Bleach2]",
    "title": "Bleach_906571",
    "link_img": "https://live.staticflickr.com/65535/46992360045_0f6417811c_o.jpg",
    "id_image": "Bleach_906571",
    "count_view": 0
  },
  {
    "link_thumb": "https://live.staticflickr.com/65535/47908425101_0793b943d4_n.jpg",
    "id_album": "-1790635952",
    "description": "Bleach_922614,[isBlackAnime],[isRandom],[Bleach 2],[Bleach2]",
    "title": "Bleach_922614",
    "link_img": "https://live.staticflickr.com/65535/47908425101_f586350b18_o.jpg",
    "id_image": "Bleach_922614",
    "count_view": 0
  },
  {
    "link_thumb": "https://live.staticflickr.com/65535/47119064004_5e03159774_n.jpg",
    "id_album": "-1790635952",
    "description": "Bleach_942997,[isBoyAnime],[Bleach 2],[Bleach2]",
    "title": "Bleach_942997",
    "link_img": "https://live.staticflickr.com/65535/47119064004_dcd22e65d4_o.jpg",
    "id_image": "Bleach_942997",
    "count_view": 0
  },
  {
    "link_thumb": "https://live.staticflickr.com/65535/47119064514_c26207f834_n.jpg",
    "id_album": "-1790635952",
    "description": "Bleach_943220,[isBoyAnime],[Bleach 2],[Bleach2]",
    "title": "Bleach_943220",
    "link_img": "https://live.staticflickr.com/65535/47119064514_c766af4c09_o.jpg",
    "id_image": "Bleach_943220",
    "count_view": 0
  },
  {
    "link_thumb": "https://live.staticflickr.com/65535/40941882913_6b8265e929_n.jpg",
    "id_album": "-1790635952",
    "description": "Bleach_944272,[isBoyAnime],[Bleach 2],[Bleach2]",
    "title": "Bleach_944272",
    "link_img": "https://live.staticflickr.com/65535/40941882913_b0abbf7db0_o.jpg",
    "id_image": "Bleach_944272",
    "count_view": 0
  },
  {
    "link_thumb": "https://live.staticflickr.com/65535/47908492421_7d6a38d7d6_n.jpg",
    "id_album": "-1790635952",
    "description": "Bleach_947135,[isBoyAnime],[isBlackAnime],[Bleach 2],[Bleach2]",
    "title": "Bleach_947135",
    "link_img": "https://live.staticflickr.com/65535/47908492421_f64146d3f7_o.jpg",
    "id_image": "Bleach_947135",
    "count_view": 0
  },
  {
    "link_thumb": "https://live.staticflickr.com/65535/47908496181_634c194737_n.jpg",
    "id_album": "-1790635952",
    "description": "Bleach_947154,[isBoyAnime],[isBlackAnime],[Bleach 2],[Bleach2]",
    "title": "Bleach_947154",
    "link_img": "https://live.staticflickr.com/65535/47908496181_2eac5607b3_o.jpg",
    "id_image": "Bleach_947154",
    "count_view": 0
  },
  {
    "link_thumb": "https://live.staticflickr.com/65535/40941967733_e9edbc683e_n.jpg",
    "id_album": "-1790635952",
    "description": "Bleach_950349,[isGirlAnime],[Bleach 2],[Bleach2]",
    "title": "Bleach_950349",
    "link_img": "https://live.staticflickr.com/65535/40941967733_a7c0bbe663_o.jpg",
    "id_image": "Bleach_950349",
    "count_view": 0
  },
  {
    "link_thumb": "https://live.staticflickr.com/65535/47119166224_630177475a_n.jpg",
    "id_album": "-1790635952",
    "description": "Bleach_950479,[isBoyAnime],[Bleach 2],[Bleach2]",
    "title": "Bleach_950479",
    "link_img": "https://live.staticflickr.com/65535/47119166224_34ccfa792b_o.jpg",
    "id_image": "Bleach_950479",
    "count_view": 0
  },
  {
    "link_thumb": "https://live.staticflickr.com/65535/40941970163_ce5a65179d_n.jpg",
    "id_album": "-1790635952",
    "description": "Bleach_950489,[isBoyAnime],[isBlackAnime],[Bleach 2],[Bleach2]",
    "title": "Bleach_950489",
    "link_img": "https://live.staticflickr.com/65535/40941970163_f0b27599ac_o.jpg",
    "id_image": "Bleach_950489",
    "count_view": 0
  },
  {
    "link_thumb": "https://live.staticflickr.com/65535/47856559542_c30a60fd20_n.jpg",
    "id_album": "-1790635952",
    "description": "Bleach_950523,[isBoyAnime],[Bleach 2],[Bleach2]",
    "title": "Bleach_950523",
    "link_img": "https://live.staticflickr.com/65535/47856559542_7a73fd0050_o.jpg",
    "id_image": "Bleach_950523",
    "count_view": 0
  },
  {
    "link_thumb": "https://live.staticflickr.com/65535/47856573782_f812faba4b_n.jpg",
    "id_album": "-1790635952",
    "description": "Bleach_950701,[isBoyAnime],[Bleach 2],[Bleach2]",
    "title": "Bleach_950701",
    "link_img": "https://live.staticflickr.com/65535/47856573782_7e88b32aea_o.jpg",
    "id_image": "Bleach_950701",
    "count_view": 0
  },
  {
    "link_thumb": "https://live.staticflickr.com/65535/47119179724_7943c62cd7_n.jpg",
    "id_album": "-1790635952",
    "description": "Bleach_951066,[isGirlAnime],[isSadAnime],[isSadAnimeGirl],[Bleach 2],[Bleach2]",
    "title": "Bleach_951066",
    "link_img": "https://live.staticflickr.com/65535/47119179724_07750cf391_o.jpg",
    "id_image": "Bleach_951066",
    "count_view": 0
  },
  {
    "link_thumb": "https://live.staticflickr.com/65535/46992504945_0d0539c717_n.jpg",
    "id_album": "-1790635952",
    "description": "Bleach_952174,[isBoyAnime],[Bleach 2],[Bleach2]",
    "title": "Bleach_952174",
    "link_img": "https://live.staticflickr.com/65535/46992504945_6dacc20f77_o.jpg",
    "id_image": "Bleach_952174",
    "count_view": 0
  },
  {
    "link_thumb": "https://live.staticflickr.com/65535/47119195464_cbdcef75f5_n.jpg",
    "id_album": "-1790635952",
    "description": "Bleach_952386,[isBoyAnime],[Bleach 2],[Bleach2]",
    "title": "Bleach_952386",
    "link_img": "https://live.staticflickr.com/65535/47119195464_e4e479662e_o.jpg",
    "id_image": "Bleach_952386",
    "count_view": 0
  },
  {
    "link_thumb": "https://live.staticflickr.com/65535/47908562441_29601a94ea_n.jpg",
    "id_album": "-1790635952",
    "description": "Bleach_952398,[isBoyAnime],[Bleach 2],[Bleach2]",
    "title": "Bleach_952398",
    "link_img": "https://live.staticflickr.com/65535/47908562441_17a9d7a705_o.jpg",
    "id_image": "Bleach_952398",
    "count_view": 0
  },
  {
    "link_thumb": "https://live.staticflickr.com/65535/47119201164_f1b721bc7b_n.jpg",
    "id_album": "-1790635952",
    "description": "Bleach_953762,[isBoyAnime],[Bleach 2],[Bleach2]",
    "title": "Bleach_953762",
    "link_img": "https://live.staticflickr.com/65535/47119201164_d811ee2441_o.jpg",
    "id_image": "Bleach_953762",
    "count_view": 0
  },
  {
    "link_thumb": "https://live.staticflickr.com/65535/40942024093_86377e9ee3_n.jpg",
    "id_album": "-1790635952",
    "description": "Bleach_954080,[isBoyAnime],[Bleach 2],[Bleach2]",
    "title": "Bleach_954080",
    "link_img": "https://live.staticflickr.com/65535/40942024093_6a1d94e31e_o.jpg",
    "id_image": "Bleach_954080",
    "count_view": 0
  },
  {
    "link_thumb": "https://live.staticflickr.com/65535/47908591611_b2959c6136_n.jpg",
    "id_album": "-1790635952",
    "description": "Bleach_956311,[isGirlAnime],[isBoyAnime],[isBlackAnime],[Bleach 2],[Bleach2]",
    "title": "Bleach_956311",
    "link_img": "https://live.staticflickr.com/65535/47908591611_83b3606e7f_o.jpg",
    "id_image": "Bleach_956311",
    "count_view": 0
  },
  {
    "link_thumb": "https://live.staticflickr.com/65535/47856625792_e9874b60c9_n.jpg",
    "id_album": "-1790635952",
    "description": "Bleach_956318,[isBoyAnime],[isBlackAnime],[Bleach 2],[Bleach2]",
    "title": "Bleach_956318",
    "link_img": "https://live.staticflickr.com/65535/47856625792_79eacc39cf_o.jpg",
    "id_image": "Bleach_956318",
    "count_view": 0
  },
  {
    "link_thumb": "https://live.staticflickr.com/65535/47908593451_ba9081f7e6_n.jpg",
    "id_album": "-1790635952",
    "description": "Bleach_956319,[isBoyAnime],[isBlackAnime],[Bleach 2],[Bleach2]",
    "title": "Bleach_956319",
    "link_img": "https://live.staticflickr.com/65535/47908593451_0ebb3948ab_o.jpg",
    "id_image": "Bleach_956319",
    "count_view": 0
  },
  {
    "link_thumb": "https://live.staticflickr.com/65535/47119252854_c45a96b115_n.jpg",
    "id_album": "-1790635952",
    "description": "Bleach_963906,[isBoyAnime],[isBlackAnime],[Bleach 2],[Bleach2]",
    "title": "Bleach_963906",
    "link_img": "https://live.staticflickr.com/65535/47119252854_5dbb1956ec_o.jpg",
    "id_image": "Bleach_963906",
    "count_view": 0
  },
  {
    "link_thumb": "https://live.staticflickr.com/65535/47119273244_e5e80feda9_n.jpg",
    "id_album": "-1790635952",
    "description": "Bleach_966152,[isBoyAnime],[isBlackAnime],[Bleach 2],[Bleach2]",
    "title": "Bleach_966152",
    "link_img": "https://live.staticflickr.com/65535/47119273244_7d9ccc2341_o.jpg",
    "id_image": "Bleach_966152",
    "count_view": 0
  },
  {
    "link_thumb": "https://live.staticflickr.com/65535/47119273754_bac8df2d75_n.jpg",
    "id_album": "-1790635952",
    "description": "Bleach_966153,[isBoyAnime],[Bleach 2],[Bleach2]",
    "title": "Bleach_966153",
    "link_img": "https://live.staticflickr.com/65535/47119273754_afe3431666_o.jpg",
    "id_image": "Bleach_966153",
    "count_view": 0
  },
  {
    "link_thumb": "https://live.staticflickr.com/65535/47856672902_073c936fcd_n.jpg",
    "id_album": "-1790635952",
    "description": "Bleach_966155,[isBoyAnime],[Bleach 2],[Bleach2]",
    "title": "Bleach_966155",
    "link_img": "https://live.staticflickr.com/65535/47856672902_786d974fe0_o.jpg",
    "id_image": "Bleach_966155",
    "count_view": 0
  },
  {
    "link_thumb": "https://live.staticflickr.com/65535/40942108753_4710b443b7_n.jpg",
    "id_album": "-1790635952",
    "description": "Bleach_974227,[isRandom],[Bleach 2],[Bleach2]",
    "title": "Bleach_974227",
    "link_img": "https://live.staticflickr.com/65535/40942108753_1d71c84340_o.jpg",
    "id_image": "Bleach_974227",
    "count_view": 0
  },
  {
    "link_thumb": "https://live.staticflickr.com/65535/47856685462_9bd135bc4c_n.jpg",
    "id_album": "-1790635952",
    "description": "Bleach_974236,[isRandom],[Bleach 2],[Bleach2]",
    "title": "Bleach_974236",
    "link_img": "https://live.staticflickr.com/65535/47856685462_eb97b3176b_o.jpg",
    "id_image": "Bleach_974236",
    "count_view": 0
  },
  {
    "link_thumb": "https://live.staticflickr.com/65535/46992599915_60ed103314_n.jpg",
    "id_album": "-1790635952",
    "description": "Bleach_974239,[isRandom],[Bleach 2],[Bleach2]",
    "title": "Bleach_974239",
    "link_img": "https://live.staticflickr.com/65535/46992599915_1f9217bdf7_o.jpg",
    "id_image": "Bleach_974239",
    "count_view": 0
  },
  {
    "link_thumb": "https://live.staticflickr.com/65535/47908655981_365fd03694_n.jpg",
    "id_album": "-1790635952",
    "description": "Bleach_974240,[isRandom],[Bleach 2],[Bleach2]",
    "title": "Bleach_974240",
    "link_img": "https://live.staticflickr.com/65535/47908655981_367f0c25e7_o.jpg",
    "id_image": "Bleach_974240",
    "count_view": 0
  }
]