[
  {
    "total_img": 7,
    "number_page": 1,
    "title": "Log Horizon",
    "tag": "Karashin Log Horizon, Krusty Log Horizon, Dragon, Tohya Log Horizon, Long Hair, Soujiro Log Horizon, Isuzu Log Horizon, Akatsuki Log Horizon, Anime, Sword, Nyanta Log Horizon, Rayneshia Log Horizon, Shouryuu Log Horizon, Naotsugu Log Horizon, Purple Eyes, Purple Hair, Maryelle Log Horizon, Shiroe Log Horizon, Log Horizon, Minori Log Horizon, Rundelhaus Code, Henrietta Log Horizon, Kawara Log Horizon, Serara Log Horizon, Misa Takayama",
    "description": "Log Horizon",
    "link_thumb": "https://live.staticflickr.com/65535/48048638412_43085367e3_n.jpg",
    "id_album": "-353528638",
    "total_view": 7
  }
]