[
  {
    "link_thumb": "https://live.staticflickr.com/65535/47992537682_975ea00e1c_n.jpg",
    "id_album": "-689864037",
    "description": "GlassHeartPrincess_776394,[isGirlAnime],[isBoyAnime],[isSadAnime],[isSadAnimeGirl],[isSadAnimeBoy],[isCoupleAnime],[isCuteAnime],[isGirlsLoliAnime],[Glass Heart Princess],[GlassHeartPrincess]",
    "title": "GlassHeartPrincess_776394",
    "link_img": "https://live.staticflickr.com/65535/47992537682_3aeebf631f_o.jpg",
    "id_image": "GlassHeartPrincess_776394",
    "count_view": 0
  },
  {
    "link_thumb": "https://live.staticflickr.com/65535/47992540468_a1a09e16ee_n.jpg",
    "id_album": "-689864037",
    "description": "GlassHeartPrincess_776395,[isGirlAnime],[isBoyAnime],[isSadAnime],[isSadAnimeGirl],[isSadAnimeBoy],[isCoupleAnime],[isCuteAnime],[isGirlsLoliAnime],[Glass Heart Princess],[GlassHeartPrincess]",
    "title": "GlassHeartPrincess_776395",
    "link_img": "https://live.staticflickr.com/65535/47992540468_cbc15dd184_o.jpg",
    "id_image": "GlassHeartPrincess_776395",
    "count_view": 0
  },
  {
    "link_thumb": "https://live.staticflickr.com/65535/47992538407_b61bcf0e41_n.jpg",
    "id_album": "-689864037",
    "description": "GlassHeartPrincess_776396,[isGirlAnime],[isBoyAnime],[isSadAnime],[isSadAnimeGirl],[isSadAnimeBoy],[isCoupleAnime],[isCuteAnime],[isGirlsLoliAnime],[isBlackAnime],[Glass Heart Princess],[GlassHeartPrincess]",
    "title": "GlassHeartPrincess_776396",
    "link_img": "https://live.staticflickr.com/65535/47992538407_d7551f517c_o.jpg",
    "id_image": "GlassHeartPrincess_776396",
    "count_view": 0
  },
  {
    "link_thumb": "https://live.staticflickr.com/65535/47992542723_f35c1a5380_n.jpg",
    "id_album": "-689864037",
    "description": "GlassHeartPrincess_776398,[isBoyAnime],[isSadAnime],[isSadAnimeBoy],[Glass Heart Princess],[GlassHeartPrincess]",
    "title": "GlassHeartPrincess_776398",
    "link_img": "https://live.staticflickr.com/65535/47992542723_73abb064bf_o.jpg",
    "id_image": "GlassHeartPrincess_776398",
    "count_view": 0
  },
  {
    "link_thumb": "https://live.staticflickr.com/65535/47992544513_dea89dbb82_n.jpg",
    "id_album": "-689864037",
    "description": "GlassHeartPrincess_776402,[isGirlAnime],[isBoyAnime],[isSadAnime],[isSadAnimeGirl],[isSadAnimeBoy],[isCoupleAnime],[isCuteAnime],[isGirlsLoliAnime],[Glass Heart Princess],[GlassHeartPrincess]",
    "title": "GlassHeartPrincess_776402",
    "link_img": "https://live.staticflickr.com/65535/47992544513_346cbc2f55_o.jpg",
    "id_image": "GlassHeartPrincess_776402",
    "count_view": 0
  },
  {
    "link_thumb": "https://live.staticflickr.com/65535/47992592116_7637988f9f_n.jpg",
    "id_album": "-689864037",
    "description": "GlassHeartPrincess_776403,[isGirlAnime],[isBoyAnime],[isSadAnime],[isSadAnimeGirl],[isSadAnimeBoy],[isCoupleAnime],[isCuteAnime],[isGirlsLoliAnime],[Glass Heart Princess],[GlassHeartPrincess]",
    "title": "GlassHeartPrincess_776403",
    "link_img": "https://live.staticflickr.com/65535/47992592116_9cfa624d53_o.jpg",
    "id_image": "GlassHeartPrincess_776403",
    "count_view": 0
  }
]