[
  {
    "link_thumb": "https://live.staticflickr.com/65535/48066905523_9b41a839c4_n.jpg",
    "id_album": "-389894623",
    "description": "YuruYuri_213953,[isGirlAnime],[isSadAnime],[isSadAnimeGirl],[isCuteAnime],[isGirlsLoliAnime],[Yuru Yuri],[YuruYuri]",
    "title": "YuruYuri_213953",
    "link_img": "https://live.staticflickr.com/65535/48066905523_f251b45c8e_o.jpg",
    "id_image": "YuruYuri_213953",
    "count_view": 0
  },
  {
    "link_thumb": "https://live.staticflickr.com/65535/48066905833_e802d598a7_n.jpg",
    "id_album": "-389894623",
    "description": "YuruYuri_213954,[isGirlAnime],[isSadAnime],[isSadAnimeGirl],[isCuteAnime],[isGirlsLoliAnime],[Yuru Yuri],[YuruYuri]",
    "title": "YuruYuri_213954",
    "link_img": "https://live.staticflickr.com/65535/48066905833_9e93dc7c4c_o.jpg",
    "id_image": "YuruYuri_213954",
    "count_view": 0
  },
  {
    "link_thumb": "https://live.staticflickr.com/65535/48066853846_824ee54889_n.jpg",
    "id_album": "-389894623",
    "description": "YuruYuri_213955,[isGirlAnime],[isSadAnime],[isSadAnimeGirl],[isCuteAnime],[isGirlsLoliAnime],[Yuru Yuri],[YuruYuri]",
    "title": "YuruYuri_213955",
    "link_img": "https://live.staticflickr.com/65535/48066853846_c0b3a6360f_o.jpg",
    "id_image": "YuruYuri_213955",
    "count_view": 0
  },
  {
    "link_thumb": "https://live.staticflickr.com/65535/48066854146_87ea73e55d_n.jpg",
    "id_album": "-389894623",
    "description": "YuruYuri_213957,[isGirlAnime],[isSadAnime],[isSadAnimeGirl],[isCuteAnime],[Yuru Yuri],[YuruYuri]",
    "title": "YuruYuri_213957",
    "link_img": "https://live.staticflickr.com/65535/48066854146_0c262fcc66_o.jpg",
    "id_image": "YuruYuri_213957",
    "count_view": 0
  },
  {
    "link_thumb": "https://live.staticflickr.com/65535/48066906858_e87d34db03_n.jpg",
    "id_album": "-389894623",
    "description": "YuruYuri_213958,[isGirlAnime],[isSadAnime],[isSadAnimeGirl],[isCuteAnime],[Yuru Yuri],[YuruYuri]",
    "title": "YuruYuri_213958",
    "link_img": "https://live.staticflickr.com/65535/48066906858_c72e76a68f_o.jpg",
    "id_image": "YuruYuri_213958",
    "count_view": 0
  },
  {
    "link_thumb": "https://live.staticflickr.com/65535/48066907158_bce5c42161_n.jpg",
    "id_album": "-389894623",
    "description": "YuruYuri_267481,[isGirlAnime],[isSadAnime],[isSadAnimeGirl],[isCuteAnime],[isGirlsLoliAnime],[Yuru Yuri],[YuruYuri]",
    "title": "YuruYuri_267481",
    "link_img": "https://live.staticflickr.com/65535/48066907158_bc650892b7_o.jpg",
    "id_image": "YuruYuri_267481",
    "count_view": 0
  },
  {
    "link_thumb": "https://live.staticflickr.com/65535/48066961272_92c2a71ce8_n.jpg",
    "id_album": "-389894623",
    "description": "YuruYuri_287591,[isGirlAnime],[isSadAnime],[isSadAnimeGirl],[isCuteAnime],[isGirlsLoliAnime],[Yuru Yuri],[YuruYuri]",
    "title": "YuruYuri_287591",
    "link_img": "https://live.staticflickr.com/65535/48066961272_ab22d97fec_o.jpg",
    "id_image": "YuruYuri_287591",
    "count_view": 0
  },
  {
    "link_thumb": "https://live.staticflickr.com/65535/48066962307_30dd954644_n.jpg",
    "id_album": "-389894623",
    "description": "YuruYuri_557865,[isGirlAnime],[isSadAnime],[isSadAnimeGirl],[isCuteAnime],[isGirlsLoliAnime],[Yuru Yuri],[YuruYuri]",
    "title": "YuruYuri_557865",
    "link_img": "https://live.staticflickr.com/65535/48066962307_e3a52b3302_o.jpg",
    "id_image": "YuruYuri_557865",
    "count_view": 0
  },
  {
    "link_thumb": "https://live.staticflickr.com/65535/48066856601_d993ee20a6_n.jpg",
    "id_album": "-389894623",
    "description": "YuruYuri_557892,[isGirlAnime],[isSadAnime],[isSadAnimeGirl],[isCuteAnime],[isGirlsLoliAnime],[Yuru Yuri],[YuruYuri]",
    "title": "YuruYuri_557892",
    "link_img": "https://live.staticflickr.com/65535/48066856601_e84ea2d03d_o.jpg",
    "id_image": "YuruYuri_557892",
    "count_view": 0
  },
  {
    "link_thumb": "https://live.staticflickr.com/65535/48066910813_7aed954994_n.jpg",
    "id_album": "-389894623",
    "description": "YuruYuri_659550,[isGirlAnime],[isSadAnime],[isSadAnimeGirl],[isCuteAnime],[isGirlsHatsHoodieAnime],[isGirlsLoliAnime],[Yuru Yuri],[YuruYuri]",
    "title": "YuruYuri_659550",
    "link_img": "https://live.staticflickr.com/65535/48066910813_09341b5823_o.jpg",
    "id_image": "YuruYuri_659550",
    "count_view": 0
  },
  {
    "link_thumb": "https://live.staticflickr.com/65535/48066911043_374b656e83_n.jpg",
    "id_album": "-389894623",
    "description": "YuruYuri_661316,[isGirlAnime],[isSadAnime],[isSadAnimeGirl],[isCuteAnime],[isGirlsLoliAnime],[Yuru Yuri],[YuruYuri]",
    "title": "YuruYuri_661316",
    "link_img": "https://live.staticflickr.com/65535/48066911043_ff6b731490_o.jpg",
    "id_image": "YuruYuri_661316",
    "count_view": 0
  },
  {
    "link_thumb": "https://live.staticflickr.com/65535/48066912028_16d8f475b6_n.jpg",
    "id_album": "-389894623",
    "description": "YuruYuri_695848,[isGirlAnime],[isSadAnime],[isSadAnimeGirl],[isCuteAnime],[isGirlsLoliAnime],[Yuru Yuri],[YuruYuri]",
    "title": "YuruYuri_695848",
    "link_img": "https://live.staticflickr.com/65535/48066912028_84ba109f06_o.jpg",
    "id_image": "YuruYuri_695848",
    "count_view": 0
  },
  {
    "link_thumb": "https://live.staticflickr.com/65535/48069510788_9a1f69e224_n.jpg",
    "id_album": "-389894623",
    "description": "YuruYuri_697005,[isGirlAnime],[isSadAnime],[isSadAnimeGirl],[isCuteAnime],[isGirlsLoliAnime],[Yuru Yuri],[YuruYuri]",
    "title": "YuruYuri_697005",
    "link_img": "https://live.staticflickr.com/65535/48069510788_da2a253f1e_o.jpg",
    "id_image": "YuruYuri_697005",
    "count_view": 0
  },
  {
    "link_thumb": "https://live.staticflickr.com/65535/48066862451_8cf424b93b_n.jpg",
    "id_album": "-389894623",
    "description": "YuruYuri_714565,[isGirlAnime],[isSadAnime],[isSadAnimeGirl],[isCuteAnime],[isGirlsLoliAnime],[isGirlsSharpCanineToothAnime],[Yuru Yuri],[YuruYuri]",
    "title": "YuruYuri_714565",
    "link_img": "https://live.staticflickr.com/65535/48066862451_3a3bec2a99_o.jpg",
    "id_image": "YuruYuri_714565",
    "count_view": 0
  },
  {
    "link_thumb": "https://live.staticflickr.com/65535/48066862806_eb505e8471_n.jpg",
    "id_album": "-389894623",
    "description": "YuruYuri_714566,[isGirlAnime],[isSadAnime],[isSadAnimeGirl],[isCuteAnime],[isGirlsLoliAnime],[Yuru Yuri],[YuruYuri]",
    "title": "YuruYuri_714566",
    "link_img": "https://live.staticflickr.com/65535/48066862806_538b64121b_o.jpg",
    "id_image": "YuruYuri_714566",
    "count_view": 0
  },
  {
    "link_thumb": "https://live.staticflickr.com/65535/48066914888_6e033f5b8b_n.jpg",
    "id_album": "-389894623",
    "description": "YuruYuri_714567,[isGirlAnime],[isSadAnime],[isSadAnimeGirl],[isCuteAnime],[isGirlsLoliAnime],[Yuru Yuri],[YuruYuri]",
    "title": "YuruYuri_714567",
    "link_img": "https://live.staticflickr.com/65535/48066914888_185fec5fd8_o.jpg",
    "id_image": "YuruYuri_714567",
    "count_view": 0
  },
  {
    "link_thumb": "https://live.staticflickr.com/65535/48066863561_a251c9c64c_n.jpg",
    "id_album": "-389894623",
    "description": "YuruYuri_714568,[isGirlAnime],[isSadAnime],[isSadAnimeGirl],[isCuteAnime],[isGirlsLoliAnime],[Yuru Yuri],[YuruYuri]",
    "title": "YuruYuri_714568",
    "link_img": "https://live.staticflickr.com/65535/48066863561_cf1892afd5_o.jpg",
    "id_image": "YuruYuri_714568",
    "count_view": 0
  },
  {
    "link_thumb": "https://live.staticflickr.com/65535/48066916058_f018780771_n.jpg",
    "id_album": "-389894623",
    "description": "YuruYuri_714570,[isGirlAnime],[isSadAnime],[isSadAnimeGirl],[isCuteAnime],[isGirlsLoliAnime],[isGirlsSharpCanineToothAnime],[Yuru Yuri],[YuruYuri]",
    "title": "YuruYuri_714570",
    "link_img": "https://live.staticflickr.com/65535/48066916058_89b6ec5247_o.jpg",
    "id_image": "YuruYuri_714570",
    "count_view": 0
  },
  {
    "link_thumb": "https://live.staticflickr.com/65535/48066970157_21971476fd_n.jpg",
    "id_album": "-389894623",
    "description": "YuruYuri_714571,[isGirlAnime],[isSadAnime],[isSadAnimeGirl],[isCuteAnime],[isGirlsLoliAnime],[Yuru Yuri],[YuruYuri]",
    "title": "YuruYuri_714571",
    "link_img": "https://live.staticflickr.com/65535/48066970157_440e7dbba9_o.jpg",
    "id_image": "YuruYuri_714571",
    "count_view": 0
  },
  {
    "link_thumb": "https://live.staticflickr.com/65535/48066971362_44064ecfeb_n.jpg",
    "id_album": "-389894623",
    "description": "YuruYuri_714576,[isGirlAnime],[isSadAnime],[isSadAnimeGirl],[isCuteAnime],[isGirlsLoliAnime],[Yuru Yuri],[YuruYuri]",
    "title": "YuruYuri_714576",
    "link_img": "https://live.staticflickr.com/65535/48066971362_de2644fbb8_o.jpg",
    "id_image": "YuruYuri_714576",
    "count_view": 0
  },
  {
    "link_thumb": "https://live.staticflickr.com/65535/48066971657_7105122f3e_n.jpg",
    "id_album": "-389894623",
    "description": "YuruYuri_714577,[isGirlAnime],[isSadAnime],[isSadAnimeGirl],[isCuteAnime],[isGirlsLoliAnime],[Yuru Yuri],[YuruYuri]",
    "title": "YuruYuri_714577",
    "link_img": "https://live.staticflickr.com/65535/48066971657_fcfc702805_o.jpg",
    "id_image": "YuruYuri_714577",
    "count_view": 0
  },
  {
    "link_thumb": "https://live.staticflickr.com/65535/48066866386_98b167e6f2_n.jpg",
    "id_album": "-389894623",
    "description": "YuruYuri_714578,[isGirlAnime],[isSadAnime],[isSadAnimeGirl],[isCuteAnime],[isGirlsLoliAnime],[Yuru Yuri],[YuruYuri]",
    "title": "YuruYuri_714578",
    "link_img": "https://live.staticflickr.com/65535/48066866386_bcd04b7832_o.jpg",
    "id_image": "YuruYuri_714578",
    "count_view": 0
  },
  {
    "link_thumb": "https://live.staticflickr.com/65535/48066972352_1bbc9a4cd1_n.jpg",
    "id_album": "-389894623",
    "description": "YuruYuri_714579,[isGirlAnime],[isSadAnime],[isSadAnimeGirl],[isCuteAnime],[isGirlsLoliAnime],[Yuru Yuri],[YuruYuri]",
    "title": "YuruYuri_714579",
    "link_img": "https://live.staticflickr.com/65535/48066972352_06dfbb95c5_o.jpg",
    "id_image": "YuruYuri_714579",
    "count_view": 0
  },
  {
    "link_thumb": "https://live.staticflickr.com/65535/48066868171_b08b5d87cd_n.jpg",
    "id_album": "-389894623",
    "description": "YuruYuri_720373,[isGirlAnime],[isSadAnime],[isSadAnimeGirl],[isCuteAnime],[isGirlsLoliAnime],[Yuru Yuri],[YuruYuri]",
    "title": "YuruYuri_720373",
    "link_img": "https://live.staticflickr.com/65535/48066868171_5ef393ea53_o.jpg",
    "id_image": "YuruYuri_720373",
    "count_view": 0
  },
  {
    "link_thumb": "https://live.staticflickr.com/65535/48066974167_ddb08c7a2e_n.jpg",
    "id_album": "-389894623",
    "description": "YuruYuri_720376,[isGirlAnime],[isSadAnime],[isSadAnimeGirl],[isCuteAnime],[isGirlsLoliAnime],[Yuru Yuri],[YuruYuri]",
    "title": "YuruYuri_720376",
    "link_img": "https://live.staticflickr.com/65535/48066974167_0b95bfd63b_o.jpg",
    "id_image": "YuruYuri_720376",
    "count_view": 0
  },
  {
    "link_thumb": "https://live.staticflickr.com/65535/48066868696_77de41f218_n.jpg",
    "id_album": "-389894623",
    "description": "YuruYuri_720399,[isGirlAnime],[isSadAnime],[isSadAnimeGirl],[isCuteAnime],[isGirlsLoliAnime],[Yuru Yuri],[YuruYuri]",
    "title": "YuruYuri_720399",
    "link_img": "https://live.staticflickr.com/65535/48066868696_b9bfdcaef1_o.jpg",
    "id_image": "YuruYuri_720399",
    "count_view": 0
  },
  {
    "link_thumb": "https://live.staticflickr.com/65535/48066974677_9fcb30e89e_n.jpg",
    "id_album": "-389894623",
    "description": "YuruYuri_720400,[isGirlAnime],[isSadAnime],[isSadAnimeGirl],[isCuteAnime],[isGirlsLoliAnime],[Yuru Yuri],[YuruYuri]",
    "title": "YuruYuri_720400",
    "link_img": "https://live.staticflickr.com/65535/48066974677_6882875e3c_o.jpg",
    "id_image": "YuruYuri_720400",
    "count_view": 0
  },
  {
    "link_thumb": "https://live.staticflickr.com/65535/48066974867_5f1aec0159_n.jpg",
    "id_album": "-389894623",
    "description": "YuruYuri_720401,[isGirlAnime],[isSadAnime],[isSadAnimeGirl],[isCuteAnime],[isGirlsLoliAnime],[Yuru Yuri],[YuruYuri]",
    "title": "YuruYuri_720401",
    "link_img": "https://live.staticflickr.com/65535/48066974867_563812e7d9_o.jpg",
    "id_image": "YuruYuri_720401",
    "count_view": 0
  },
  {
    "link_thumb": "https://live.staticflickr.com/65535/48066921568_c649745bd1_n.jpg",
    "id_album": "-389894623",
    "description": "YuruYuri_720402,[isGirlAnime],[isSadAnime],[isSadAnimeGirl],[isCuteAnime],[isGirlsLoliAnime],[Yuru Yuri],[YuruYuri]",
    "title": "YuruYuri_720402",
    "link_img": "https://live.staticflickr.com/65535/48066921568_f3d24049fb_o.jpg",
    "id_image": "YuruYuri_720402",
    "count_view": 0
  },
  {
    "link_thumb": "https://live.staticflickr.com/65535/48066921798_61a1da749b_n.jpg",
    "id_album": "-389894623",
    "description": "YuruYuri_720404,[isGirlAnime],[isSadAnime],[isSadAnimeGirl],[isCuteAnime],[isGirlsLoliAnime],[Yuru Yuri],[YuruYuri]",
    "title": "YuruYuri_720404",
    "link_img": "https://live.staticflickr.com/65535/48066921798_f7ed5c0e88_o.jpg",
    "id_image": "YuruYuri_720404",
    "count_view": 0
  },
  {
    "link_thumb": "https://live.staticflickr.com/65535/48066975552_6bb5b923da_n.jpg",
    "id_album": "-389894623",
    "description": "YuruYuri_720420,[isGirlAnime],[isSadAnime],[isSadAnimeGirl],[isCuteAnime],[isGirlsLoliAnime],[Yuru Yuri],[YuruYuri]",
    "title": "YuruYuri_720420",
    "link_img": "https://live.staticflickr.com/65535/48066975552_debce386f6_o.jpg",
    "id_image": "YuruYuri_720420",
    "count_view": 0
  },
  {
    "link_thumb": "https://live.staticflickr.com/65535/48066870311_058e0b2344_n.jpg",
    "id_album": "-389894623",
    "description": "YuruYuri_720422,[isGirlAnime],[isSadAnime],[isSadAnimeGirl],[isCuteAnime],[isGirlsLoliAnime],[Yuru Yuri],[YuruYuri]",
    "title": "YuruYuri_720422",
    "link_img": "https://live.staticflickr.com/65535/48066870311_70ca194934_o.jpg",
    "id_image": "YuruYuri_720422",
    "count_view": 0
  },
  {
    "link_thumb": "https://live.staticflickr.com/65535/48066870511_9dcc0c5b01_n.jpg",
    "id_album": "-389894623",
    "description": "YuruYuri_720423,[isGirlAnime],[isSadAnime],[isSadAnimeGirl],[isCuteAnime],[isGirlsLoliAnime],[Yuru Yuri],[YuruYuri]",
    "title": "YuruYuri_720423",
    "link_img": "https://live.staticflickr.com/65535/48066870511_2ac528239b_o.jpg",
    "id_image": "YuruYuri_720423",
    "count_view": 0
  },
  {
    "link_thumb": "https://live.staticflickr.com/65535/48066923198_f34bfee662_n.jpg",
    "id_album": "-389894623",
    "description": "YuruYuri_720430,[isGirlAnime],[isSadAnime],[isSadAnimeGirl],[isCuteAnime],[isGirlsHatsHoodieAnime],[isGirlsLoliAnime],[Yuru Yuri],[YuruYuri]",
    "title": "YuruYuri_720430",
    "link_img": "https://live.staticflickr.com/65535/48066923198_b96a5b3111_o.jpg",
    "id_image": "YuruYuri_720430",
    "count_view": 0
  },
  {
    "link_thumb": "https://live.staticflickr.com/65535/48066924063_d5e70a7482_n.jpg",
    "id_album": "-389894623",
    "description": "YuruYuri_745462,[isGirlAnime],[isSadAnime],[isSadAnimeGirl],[isCuteAnime],[isGirlsLoliAnime],[Yuru Yuri],[YuruYuri]",
    "title": "YuruYuri_745462",
    "link_img": "https://live.staticflickr.com/65535/48066924063_3c3bb6012f_o.jpg",
    "id_image": "YuruYuri_745462",
    "count_view": 0
  },
  {
    "link_thumb": "https://live.staticflickr.com/65535/48066924503_345248f1d7_n.jpg",
    "id_album": "-389894623",
    "description": "YuruYuri_792095,[isGirlAnime],[isSadAnime],[isSadAnimeGirl],[isCuteAnime],[isGirlsLoliAnime],[Yuru Yuri],[YuruYuri]",
    "title": "YuruYuri_792095",
    "link_img": "https://live.staticflickr.com/65535/48066924503_2b8a2e1f3b_o.jpg",
    "id_image": "YuruYuri_792095",
    "count_view": 0
  },
  {
    "link_thumb": "https://live.staticflickr.com/65535/48066924763_e8c2fc40e9_n.jpg",
    "id_album": "-389894623",
    "description": "YuruYuri_809507,[isSceneryArts],[Yuru Yuri],[YuruYuri]",
    "title": "YuruYuri_809507",
    "link_img": "https://live.staticflickr.com/65535/48066924763_a95d0124e2_o.jpg",
    "id_image": "YuruYuri_809507",
    "count_view": 0
  },
  {
    "link_thumb": "https://live.staticflickr.com/65535/48066978577_6740ff00fb_n.jpg",
    "id_album": "-389894623",
    "description": "YuruYuri_811583,[isGirlAnime],[isSadAnime],[isSadAnimeGirl],[isCuteAnime],[isGirlsLoliAnime],[Yuru Yuri],[YuruYuri]",
    "title": "YuruYuri_811583",
    "link_img": "https://live.staticflickr.com/65535/48066978577_7a40cd5be6_o.jpg",
    "id_image": "YuruYuri_811583",
    "count_view": 0
  },
  {
    "link_thumb": "https://live.staticflickr.com/65535/48066978897_3eeeec92eb_n.jpg",
    "id_album": "-389894623",
    "description": "YuruYuri_815825,[isGirlAnime],[isSadAnime],[isSadAnimeGirl],[isCuteAnime],[isGirlsLoliAnime],[Yuru Yuri],[YuruYuri]",
    "title": "YuruYuri_815825",
    "link_img": "https://live.staticflickr.com/65535/48066978897_bb511c208c_o.jpg",
    "id_image": "YuruYuri_815825",
    "count_view": 0
  },
  {
    "link_thumb": "https://live.staticflickr.com/65535/48066925618_8e4dd91618_n.jpg",
    "id_album": "-389894623",
    "description": "YuruYuri_822122,[isGirlAnime],[isSadAnime],[isSadAnimeGirl],[isCuteAnime],[isGirlsLoliAnime],[Yuru Yuri],[YuruYuri]",
    "title": "YuruYuri_822122",
    "link_img": "https://live.staticflickr.com/65535/48066925618_f74435c80c_o.jpg",
    "id_image": "YuruYuri_822122",
    "count_view": 0
  },
  {
    "link_thumb": "https://live.staticflickr.com/65535/48066925913_ea0e5b99f9_n.jpg",
    "id_album": "-389894623",
    "description": "YuruYuri_847338,[isGirlAnime],[isSadAnime],[isSadAnimeGirl],[isCuteAnime],[isGirlsLoliAnime],[Yuru Yuri],[YuruYuri]",
    "title": "YuruYuri_847338",
    "link_img": "https://live.staticflickr.com/65535/48066925913_ffffcdd2c7_o.jpg",
    "id_image": "YuruYuri_847338",
    "count_view": 0
  },
  {
    "link_thumb": "https://live.staticflickr.com/65535/48066980377_2ab95d40b7_n.jpg",
    "id_album": "-389894623",
    "description": "YuruYuri_849565,[isGirlAnime],[isSadAnime],[isSadAnimeGirl],[isCuteAnime],[isGirlsLoliAnime],[Yuru Yuri],[YuruYuri]",
    "title": "YuruYuri_849565",
    "link_img": "https://live.staticflickr.com/65535/48066980377_eb1b98f65f_o.jpg",
    "id_image": "YuruYuri_849565",
    "count_view": 0
  },
  {
    "link_thumb": "https://live.staticflickr.com/65535/48066985167_7771c9ee2a_n.jpg",
    "id_album": "-389894623",
    "description": "YuruYuri_849587,[isGirlAnime],[isSadAnime],[isSadAnimeGirl],[isCuteAnime],[isGirlsLoliAnime],[Yuru Yuri],[YuruYuri]",
    "title": "YuruYuri_849587",
    "link_img": "https://live.staticflickr.com/65535/48066985167_82a8575fb0_o.jpg",
    "id_image": "YuruYuri_849587",
    "count_view": 0
  },
  {
    "link_thumb": "https://live.staticflickr.com/65535/48066985427_049c7696bf_n.jpg",
    "id_album": "-389894623",
    "description": "YuruYuri_849588,[isGirlAnime],[isBlackAnime],[Yuru Yuri],[YuruYuri]",
    "title": "YuruYuri_849588",
    "link_img": "https://live.staticflickr.com/65535/48066985427_f2839fd637_o.jpg",
    "id_image": "YuruYuri_849588",
    "count_view": 0
  },
  {
    "link_thumb": "https://live.staticflickr.com/65535/48066985652_53bb947ae0_n.jpg",
    "id_album": "-389894623",
    "description": "YuruYuri_849589,[isGirlAnime],[isSadAnime],[isSadAnimeGirl],[isCuteAnime],[isGirlsLoliAnime],[Yuru Yuri],[YuruYuri]",
    "title": "YuruYuri_849589",
    "link_img": "https://live.staticflickr.com/65535/48066985652_e8f9d726b6_o.jpg",
    "id_image": "YuruYuri_849589",
    "count_view": 0
  },
  {
    "link_thumb": "https://live.staticflickr.com/65535/48066880021_89fe7500b6_n.jpg",
    "id_album": "-389894623",
    "description": "YuruYuri_849590,[isGirlAnime],[isSadAnime],[isSadAnimeGirl],[isCuteAnime],[isGirlsLoliAnime],[Yuru Yuri],[YuruYuri]",
    "title": "YuruYuri_849590",
    "link_img": "https://live.staticflickr.com/65535/48066880021_468de9b088_o.jpg",
    "id_image": "YuruYuri_849590",
    "count_view": 0
  },
  {
    "link_thumb": "https://live.staticflickr.com/65535/48066932428_e0b9b4040b_n.jpg",
    "id_album": "-389894623",
    "description": "YuruYuri_849591,[isGirlAnime],[isSadAnime],[isSadAnimeGirl],[isCuteAnime],[isGirlsLoliAnime],[Yuru Yuri],[YuruYuri]",
    "title": "YuruYuri_849591",
    "link_img": "https://live.staticflickr.com/65535/48066932428_c77c50699f_o.jpg",
    "id_image": "YuruYuri_849591",
    "count_view": 0
  },
  {
    "link_thumb": "https://live.staticflickr.com/65535/48066932608_76acf5f447_n.jpg",
    "id_album": "-389894623",
    "description": "YuruYuri_849592,[isGirlAnime],[isSadAnime],[isSadAnimeGirl],[isCuteAnime],[isGirlsLoliAnime],[Yuru Yuri],[YuruYuri]",
    "title": "YuruYuri_849592",
    "link_img": "https://live.staticflickr.com/65535/48066932608_b4a0f1c8f5_o.jpg",
    "id_image": "YuruYuri_849592",
    "count_view": 0
  },
  {
    "link_thumb": "https://live.staticflickr.com/65535/48066932933_4f43f94914_n.jpg",
    "id_album": "-389894623",
    "description": "YuruYuri_849595,[isGirlAnime],[isSadAnime],[isSadAnimeGirl],[isCuteAnime],[isGirlsLoliAnime],[Yuru Yuri],[YuruYuri]",
    "title": "YuruYuri_849595",
    "link_img": "https://live.staticflickr.com/65535/48066932933_a8e85001f3_o.jpg",
    "id_image": "YuruYuri_849595",
    "count_view": 0
  },
  {
    "link_thumb": "https://live.staticflickr.com/65535/48066881241_bcefa87e86_n.jpg",
    "id_album": "-389894623",
    "description": "YuruYuri_849597,[isGirlAnime],[isSadAnime],[isSadAnimeGirl],[isCuteAnime],[isGirlsHatsHoodieAnime],[isGirlsLoliAnime],[Yuru Yuri],[YuruYuri]",
    "title": "YuruYuri_849597",
    "link_img": "https://live.staticflickr.com/65535/48066881241_afee622834_o.jpg",
    "id_image": "YuruYuri_849597",
    "count_view": 0
  },
  {
    "link_thumb": "https://live.staticflickr.com/65535/48066881651_3584e93237_n.jpg",
    "id_album": "-389894623",
    "description": "YuruYuri_849599,[isGirlAnime],[isSadAnime],[isSadAnimeGirl],[isCuteAnime],[isGirlsLoliAnime],[Yuru Yuri],[YuruYuri]",
    "title": "YuruYuri_849599",
    "link_img": "https://live.staticflickr.com/65535/48066881651_e22ae238b3_o.jpg",
    "id_image": "YuruYuri_849599",
    "count_view": 0
  },
  {
    "link_thumb": "https://live.staticflickr.com/65535/48066882241_aba2ac2529_n.jpg",
    "id_album": "-389894623",
    "description": "YuruYuri_849601,[isGirlAnime],[isSadAnime],[isSadAnimeGirl],[isCuteAnime],[isGirlsLoliAnime],[Yuru Yuri],[YuruYuri]",
    "title": "YuruYuri_849601",
    "link_img": "https://live.staticflickr.com/65535/48066882241_706e405c9d_o.jpg",
    "id_image": "YuruYuri_849601",
    "count_view": 0
  },
  {
    "link_thumb": "https://live.staticflickr.com/65535/48066882671_dcb4195bf5_n.jpg",
    "id_album": "-389894623",
    "description": "YuruYuri_849603,[isGirlAnime],[isSadAnime],[isSadAnimeGirl],[isCuteAnime],[isGirlsLoliAnime],[Yuru Yuri],[YuruYuri]",
    "title": "YuruYuri_849603",
    "link_img": "https://live.staticflickr.com/65535/48066882671_eec628fe09_o.jpg",
    "id_image": "YuruYuri_849603",
    "count_view": 0
  },
  {
    "link_thumb": "https://live.staticflickr.com/65535/48066935093_1bffc86004_n.jpg",
    "id_album": "-389894623",
    "description": "YuruYuri_849605,[isGirlAnime],[isSadAnime],[isSadAnimeGirl],[isCuteAnime],[isGirlsLoliAnime],[Yuru Yuri],[YuruYuri]",
    "title": "YuruYuri_849605",
    "link_img": "https://live.staticflickr.com/65535/48066935093_e42f65323c_o.jpg",
    "id_image": "YuruYuri_849605",
    "count_view": 0
  },
  {
    "link_thumb": "https://live.staticflickr.com/65535/48066883571_2c6a4817aa_n.jpg",
    "id_album": "-389894623",
    "description": "YuruYuri_849606,[isGirlAnime],[isSadAnime],[isSadAnimeGirl],[isCuteAnime],[isGirlsLoliAnime],[Yuru Yuri],[YuruYuri]",
    "title": "YuruYuri_849606",
    "link_img": "https://live.staticflickr.com/65535/48066883571_b272697df2_o.jpg",
    "id_image": "YuruYuri_849606",
    "count_view": 0
  },
  {
    "link_thumb": "https://live.staticflickr.com/65535/48066885066_848e4e7584_n.jpg",
    "id_album": "-389894623",
    "description": "YuruYuri_849614,[isGirlAnime],[isSadAnime],[isSadAnimeGirl],[isCuteAnime],[isGirlsLoliAnime],[Yuru Yuri],[YuruYuri]",
    "title": "YuruYuri_849614",
    "link_img": "https://live.staticflickr.com/65535/48066885066_1e505879f1_o.jpg",
    "id_image": "YuruYuri_849614",
    "count_view": 0
  },
  {
    "link_thumb": "https://live.staticflickr.com/65535/48066885821_a5f62339a9_n.jpg",
    "id_album": "-389894623",
    "description": "YuruYuri_849618,[isGirlAnime],[isSadAnime],[isSadAnimeGirl],[isCuteAnime],[isGirlsLoliAnime],[Yuru Yuri],[YuruYuri]",
    "title": "YuruYuri_849618",
    "link_img": "https://live.staticflickr.com/65535/48066885821_5f9f84234e_o.jpg",
    "id_image": "YuruYuri_849618",
    "count_view": 0
  },
  {
    "link_thumb": "https://live.staticflickr.com/65535/48066886321_61919a7c07_n.jpg",
    "id_album": "-389894623",
    "description": "YuruYuri_849620,[isGirlAnime],[isSadAnime],[isSadAnimeGirl],[isCuteAnime],[isGirlsLoliAnime],[Yuru Yuri],[YuruYuri]",
    "title": "YuruYuri_849620",
    "link_img": "https://live.staticflickr.com/65535/48066886321_4f30c3be62_o.jpg",
    "id_image": "YuruYuri_849620",
    "count_view": 0
  },
  {
    "link_thumb": "https://live.staticflickr.com/65535/48066993052_31a209e42e_n.jpg",
    "id_album": "-389894623",
    "description": "YuruYuri_849623,[isGirlAnime],[isSadAnime],[isSadAnimeGirl],[isCuteAnime],[isGirlsLoliAnime],[Yuru Yuri],[YuruYuri]",
    "title": "YuruYuri_849623",
    "link_img": "https://live.staticflickr.com/65535/48066993052_b77646f084_o.jpg",
    "id_image": "YuruYuri_849623",
    "count_view": 0
  },
  {
    "link_thumb": "https://live.staticflickr.com/65535/48066939393_d58fd43a83_n.jpg",
    "id_album": "-389894623",
    "description": "YuruYuri_849624,[isGirlAnime],[isSadAnime],[isSadAnimeGirl],[isCuteAnime],[isGirlsLoliAnime],[Yuru Yuri],[YuruYuri]",
    "title": "YuruYuri_849624",
    "link_img": "https://live.staticflickr.com/65535/48066939393_9914ffb38f_o.jpg",
    "id_image": "YuruYuri_849624",
    "count_view": 0
  },
  {
    "link_thumb": "https://live.staticflickr.com/65535/48066887806_2d51d611a3_n.jpg",
    "id_album": "-389894623",
    "description": "YuruYuri_849625,[isGirlAnime],[isCuteAnime],[Yuru Yuri],[YuruYuri]",
    "title": "YuruYuri_849625",
    "link_img": "https://live.staticflickr.com/65535/48066887806_e352d58c7b_o.jpg",
    "id_image": "YuruYuri_849625",
    "count_view": 0
  },
  {
    "link_thumb": "https://live.staticflickr.com/65535/48066994022_01c005ed64_n.jpg",
    "id_album": "-389894623",
    "description": "YuruYuri_849628,[isGirlAnime],[isSadAnime],[isSadAnimeGirl],[isCuteAnime],[isGirlsLoliAnime],[Yuru Yuri],[YuruYuri]",
    "title": "YuruYuri_849628",
    "link_img": "https://live.staticflickr.com/65535/48066994022_3f408fd565_o.jpg",
    "id_image": "YuruYuri_849628",
    "count_view": 0
  },
  {
    "link_thumb": "https://live.staticflickr.com/65535/48066994262_84150b3601_n.jpg",
    "id_album": "-389894623",
    "description": "YuruYuri_849630,[isGirlAnime],[isSadAnime],[isSadAnimeGirl],[isCuteAnime],[isGirlsLoliAnime],[Yuru Yuri],[YuruYuri]",
    "title": "YuruYuri_849630",
    "link_img": "https://live.staticflickr.com/65535/48066994262_872db3ae9c_o.jpg",
    "id_image": "YuruYuri_849630",
    "count_view": 0
  },
  {
    "link_thumb": "https://live.staticflickr.com/65535/48066995542_0376e6dd3e_n.jpg",
    "id_album": "-389894623",
    "description": "YuruYuri_849639,[isGirlAnime],[isSadAnime],[isSadAnimeGirl],[isCuteAnime],[isGirlsLoliAnime],[Yuru Yuri],[YuruYuri]",
    "title": "YuruYuri_849639",
    "link_img": "https://live.staticflickr.com/65535/48066995542_93811c89c6_o.jpg",
    "id_image": "YuruYuri_849639",
    "count_view": 0
  },
  {
    "link_thumb": "https://live.staticflickr.com/65535/48066995992_d9749c0a5b_n.jpg",
    "id_album": "-389894623",
    "description": "YuruYuri_849642,[isGirlAnime],[isSadAnime],[isSadAnimeGirl],[isCuteAnime],[isGirlsLoliAnime],[Yuru Yuri],[YuruYuri]",
    "title": "YuruYuri_849642",
    "link_img": "https://live.staticflickr.com/65535/48066995992_657563171d_o.jpg",
    "id_image": "YuruYuri_849642",
    "count_view": 0
  },
  {
    "link_thumb": "https://live.staticflickr.com/65535/48066890946_d92a4435c1_n.jpg",
    "id_album": "-389894623",
    "description": "YuruYuri_849648,[isGirlAnime],[isSadAnime],[isSadAnimeGirl],[isCuteAnime],[isGirlsLoliAnime],[Yuru Yuri],[YuruYuri]",
    "title": "YuruYuri_849648",
    "link_img": "https://live.staticflickr.com/65535/48066890946_c30805e853_o.jpg",
    "id_image": "YuruYuri_849648",
    "count_view": 0
  },
  {
    "link_thumb": "https://live.staticflickr.com/65535/48066891851_5ab91f5e55_n.jpg",
    "id_album": "-389894623",
    "description": "YuruYuri_849654,[isGirlAnime],[isSadAnime],[isSadAnimeGirl],[isCuteAnime],[isGirlsLoliAnime],[Yuru Yuri],[YuruYuri]",
    "title": "YuruYuri_849654",
    "link_img": "https://live.staticflickr.com/65535/48066891851_26d714a4c9_o.jpg",
    "id_image": "YuruYuri_849654",
    "count_view": 0
  },
  {
    "link_thumb": "https://live.staticflickr.com/65535/48066944138_4043f9fb49_n.jpg",
    "id_album": "-389894623",
    "description": "YuruYuri_849655,[isGirlAnime],[isSadAnime],[isSadAnimeGirl],[isCuteAnime],[isGirlsLoliAnime],[Yuru Yuri],[YuruYuri]",
    "title": "YuruYuri_849655",
    "link_img": "https://live.staticflickr.com/65535/48066944138_0e46a80fea_o.jpg",
    "id_image": "YuruYuri_849655",
    "count_view": 0
  },
  {
    "link_thumb": "https://live.staticflickr.com/65535/48066999462_38dc934c32_n.jpg",
    "id_album": "-389894623",
    "description": "YuruYuri_852918,[isGirlAnime],[isSadAnime],[isSadAnimeGirl],[isCuteAnime],[isGirlsLoliAnime],[Yuru Yuri],[YuruYuri]",
    "title": "YuruYuri_852918",
    "link_img": "https://live.staticflickr.com/65535/48066999462_a4fc24a1a7_o.jpg",
    "id_image": "YuruYuri_852918",
    "count_view": 0
  },
  {
    "link_thumb": "https://live.staticflickr.com/65535/48066945598_e9f277b7ae_n.jpg",
    "id_album": "-389894623",
    "description": "YuruYuri_852919,[isGirlAnime],[isSadAnime],[isSadAnimeGirl],[isCuteAnime],[isGirlsLoliAnime],[Yuru Yuri],[YuruYuri]",
    "title": "YuruYuri_852919",
    "link_img": "https://live.staticflickr.com/65535/48066945598_d666385868_o.jpg",
    "id_image": "YuruYuri_852919",
    "count_view": 0
  },
  {
    "link_thumb": "https://live.staticflickr.com/65535/48066893901_a98b4d45b5_n.jpg",
    "id_album": "-389894623",
    "description": "YuruYuri_852920,[isGirlAnime],[isSadAnime],[isSadAnimeGirl],[isCuteAnime],[isGirlsLoliAnime],[isGirlsSharpCanineToothAnime],[Yuru Yuri],[YuruYuri]",
    "title": "YuruYuri_852920",
    "link_img": "https://live.staticflickr.com/65535/48066893901_aa70bea0f4_o.jpg",
    "id_image": "YuruYuri_852920",
    "count_view": 0
  },
  {
    "link_thumb": "https://live.staticflickr.com/65535/48066946143_115b1a7fc4_n.jpg",
    "id_album": "-389894623",
    "description": "YuruYuri_852921,[isGirlAnime],[isSadAnime],[isSadAnimeGirl],[isCuteAnime],[isGirlsLoliAnime],[Yuru Yuri],[YuruYuri]",
    "title": "YuruYuri_852921",
    "link_img": "https://live.staticflickr.com/65535/48066946143_7663c6d94b_o.jpg",
    "id_image": "YuruYuri_852921",
    "count_view": 0
  },
  {
    "link_thumb": "https://live.staticflickr.com/65535/48066946573_a53b70753d_n.jpg",
    "id_album": "-389894623",
    "description": "YuruYuri_852923,[isGirlAnime],[isSadAnime],[isSadAnimeGirl],[isCuteAnime],[isGirlsLoliAnime],[Yuru Yuri],[YuruYuri]",
    "title": "YuruYuri_852923",
    "link_img": "https://live.staticflickr.com/65535/48066946573_53a26b28c4_o.jpg",
    "id_image": "YuruYuri_852923",
    "count_view": 0
  },
  {
    "link_thumb": "https://live.staticflickr.com/65535/48066894846_4a8dec58ef_n.jpg",
    "id_album": "-389894623",
    "description": "YuruYuri_852924,[isGirlAnime],[isSadAnime],[isSadAnimeGirl],[isCuteAnime],[isGirlsLoliAnime],[Yuru Yuri],[YuruYuri]",
    "title": "YuruYuri_852924",
    "link_img": "https://live.staticflickr.com/65535/48066894846_8ca27e7259_o.jpg",
    "id_image": "YuruYuri_852924",
    "count_view": 0
  },
  {
    "link_thumb": "https://live.staticflickr.com/65535/48066947108_885f311165_n.jpg",
    "id_album": "-389894623",
    "description": "YuruYuri_855877,[isGirlAnime],[isSadAnime],[isSadAnimeGirl],[isCuteAnime],[isGirlsLoliAnime],[Yuru Yuri],[YuruYuri]",
    "title": "YuruYuri_855877",
    "link_img": "https://live.staticflickr.com/65535/48066947108_020afc69ba_o.jpg",
    "id_image": "YuruYuri_855877",
    "count_view": 0
  },
  {
    "link_thumb": "https://live.staticflickr.com/65535/48066947308_6372592346_n.jpg",
    "id_album": "-389894623",
    "description": "YuruYuri_855897,[isGirlAnime],[isSadAnime],[isSadAnimeGirl],[isCuteAnime],[isGirlsLoliAnime],[isGirlsSharpCanineToothAnime],[Yuru Yuri],[YuruYuri]",
    "title": "YuruYuri_855897",
    "link_img": "https://live.staticflickr.com/65535/48066947308_5eb4eb2e73_o.jpg",
    "id_image": "YuruYuri_855897",
    "count_view": 0
  },
  {
    "link_thumb": "https://live.staticflickr.com/65535/48067002067_1b25d267ac_n.jpg",
    "id_album": "-389894623",
    "description": "YuruYuri_864284,[isGirlAnime],[isSadAnime],[isSadAnimeGirl],[isCuteAnime],[isGirlsLoliAnime],[Yuru Yuri],[YuruYuri]",
    "title": "YuruYuri_864284",
    "link_img": "https://live.staticflickr.com/65535/48067002067_1536f1465c_o.jpg",
    "id_image": "YuruYuri_864284",
    "count_view": 0
  },
  {
    "link_thumb": "https://live.staticflickr.com/65535/48066896176_85a9b0c3be_n.jpg",
    "id_album": "-389894623",
    "description": "YuruYuri_864285,[isGirlAnime],[isSadAnime],[isSadAnimeGirl],[isCuteAnime],[isGirlsLoliAnime],[Yuru Yuri],[YuruYuri]",
    "title": "YuruYuri_864285",
    "link_img": "https://live.staticflickr.com/65535/48066896176_ff63ec7c0a_o.jpg",
    "id_image": "YuruYuri_864285",
    "count_view": 0
  },
  {
    "link_thumb": "https://live.staticflickr.com/65535/48066948413_2c79b59d7f_n.jpg",
    "id_album": "-389894623",
    "description": "YuruYuri_864991,[isGirlAnime],[isSadAnime],[isSadAnimeGirl],[isCuteAnime],[isGirlsLoliAnime],[Yuru Yuri],[YuruYuri]",
    "title": "YuruYuri_864991",
    "link_img": "https://live.staticflickr.com/65535/48066948413_ee994e4312_o.jpg",
    "id_image": "YuruYuri_864991",
    "count_view": 0
  },
  {
    "link_thumb": "https://live.staticflickr.com/65535/48066948908_bc1f5a5914_n.jpg",
    "id_album": "-389894623",
    "description": "YuruYuri_864993,[isGirlAnime],[isSadAnime],[isSadAnimeGirl],[isCuteAnime],[isGirlsLoliAnime],[Yuru Yuri],[YuruYuri]",
    "title": "YuruYuri_864993",
    "link_img": "https://live.staticflickr.com/65535/48066948908_7bd64c4972_o.jpg",
    "id_image": "YuruYuri_864993",
    "count_view": 0
  },
  {
    "link_thumb": "https://live.staticflickr.com/65535/48067003122_d2f65f3d97_n.jpg",
    "id_album": "-389894623",
    "description": "YuruYuri_864994,[isGirlAnime],[isSadAnime],[isSadAnimeGirl],[isCuteAnime],[isGirlsLoliAnime],[isGirlsSharpCanineToothAnime],[Yuru Yuri],[YuruYuri]",
    "title": "YuruYuri_864994",
    "link_img": "https://live.staticflickr.com/65535/48067003122_ff1988cce6_o.jpg",
    "id_image": "YuruYuri_864994",
    "count_view": 0
  },
  {
    "link_thumb": "https://live.staticflickr.com/65535/48066950008_5f62b5e82c_n.jpg",
    "id_album": "-389894623",
    "description": "YuruYuri_970506,[isGirlAnime],[isSadAnime],[isSadAnimeGirl],[isCuteAnime],[isGirlsHatsHoodieAnime],[isGirlsLoliAnime],[Yuru Yuri],[YuruYuri]",
    "title": "YuruYuri_970506",
    "link_img": "https://live.staticflickr.com/65535/48066950008_7b61bb7427_o.jpg",
    "id_image": "YuruYuri_970506",
    "count_view": 0
  }
]