[
  {
    "total_img": 25,
    "number_page": 1,
    "title": "Memories Off",
    "tag": "Fujiwara Miyabi, Memories Off, Anime, Cute, School Uniform, Kagamigawa Chloe, Train, Blonde, Long Hair, Red Eyes",
    "description": "Memories Off",
    "link_thumb": "https://live.staticflickr.com/65535/48070608553_48bd93f77c_n.jpg",
    "id_album": "1186288515",
    "total_view": 25
  },
  {
    "total_img": 27,
    "number_page": 1,
    "title": "Train",
    "tag": "Train,",
    "description": "Train",
    "link_thumb": "https://live.staticflickr.com/65535/48066787518_380680df26_n.jpg",
    "id_album": "-774066875",
    "total_view": 27
  }
]