[
  {
    "total_img": 12,
    "number_page": 1,
    "title": "Brave Witches",
    "tag": "Hikari Karibuchi, Eila Ilmatar Juutilainen, Naoe Kanno, Brave Witches, Takami Karibuchi, Gundula Rall, Edytha Rossmann, Sanya V Litvyak, Nikka Edvardine Katajainen, Yoshika Miyafuji, Waltrud Krupinski, Sadako Shimohara",
    "description": "Brave Witches",
    "link_thumb": "https://live.staticflickr.com/65535/40943872243_f0c03e4168_n.jpg",
    "id_album": "738378256",
    "total_view": 12
  },
  {
    "total_img": 6,
    "number_page": 1,
    "title": "Naoe Kanno",
    "tag": "Naoe Kanno,",
    "description": "Naoe Kanno",
    "link_thumb": "https://live.staticflickr.com/65535/40943880343_dc5652cfa9_n.jpg",
    "id_album": "-674913891",
    "total_view": 6
  }
]