[
  {
    "link_thumb": "https://live.staticflickr.com/65535/49919199237_f0a76325ef_n.jpg",
    "id_album": "67803280",
    "description": "FairyTail_760641",
    "title": "FairyTail_760641",
    "link_img": "https://live.staticflickr.com/65535/49919199237_96d8d23e80_o.jpg",
    "id_image": "FairyTail_760641",
    "count_view": 0
  },
  {
    "link_thumb": "https://live.staticflickr.com/65535/49918388608_a8392d24b9_n.jpg",
    "id_album": "67803280",
    "description": "FairyTail_760643",
    "title": "FairyTail_760643",
    "link_img": "https://live.staticflickr.com/65535/49918388608_9f37fb2c33_o.jpg",
    "id_image": "FairyTail_760643",
    "count_view": 0
  },
  {
    "link_thumb": "https://live.staticflickr.com/65535/49919210482_c2594014d5_n.jpg",
    "id_album": "67803280",
    "description": "FairyTail_782638",
    "title": "FairyTail_782638",
    "link_img": "https://live.staticflickr.com/65535/49919210482_7ef0ba3989_o.jpg",
    "id_image": "FairyTail_782638",
    "count_view": 0
  }
]