[
  {
    "link_thumb": "https://live.staticflickr.com/65535/49918437573_4256792392_n.jpg",
    "id_album": "1197272660",
    "description": "FairyTail_946494",
    "title": "FairyTail_946494",
    "link_img": "https://live.staticflickr.com/65535/49918437573_800bab53ab_o.jpg",
    "id_image": "FairyTail_946494",
    "count_view": 0
  },
  {
    "link_thumb": "https://live.staticflickr.com/65535/49919264277_5988a32c9c_n.jpg",
    "id_album": "1197272660",
    "description": "FairyTail_952431",
    "title": "FairyTail_952431",
    "link_img": "https://live.staticflickr.com/65535/49919264277_c6aa597362_o.jpg",
    "id_image": "FairyTail_952431",
    "count_view": 0
  },
  {
    "link_thumb": "https://live.staticflickr.com/65535/49918967561_3068ba13a9_n.jpg",
    "id_album": "1197272660",
    "description": "FairyTail_952436",
    "title": "FairyTail_952436",
    "link_img": "https://live.staticflickr.com/65535/49918967561_965ef72610_o.jpg",
    "id_image": "FairyTail_952436",
    "count_view": 0
  }
]