[
  {
    "link_thumb": "https://live.staticflickr.com/65535/48609983897_aa4021cc82_n.jpg",
    "id_album": "-1676077794",
    "description": "OmamoriHimari_1030768,[isGirlAnime],[isSadAnime],[isSadAnimeGirl],[isCuteAnime],[isGirlsLoliAnime],[Omamori Himari],[OmamoriHimari]",
    "title": "OmamoriHimari_1030768",
    "link_img": "https://live.staticflickr.com/65535/48609983897_79cbdc745c_o.jpg",
    "id_image": "OmamoriHimari_1030768",
    "count_view": 0
  },
  {
    "link_thumb": "https://live.staticflickr.com/65535/48609470578_aecf4c1ba2_n.jpg",
    "id_album": "-1676077794",
    "description": "OmamoriHimari_1030770,[isGirlAnime],[isSadAnime],[isSadAnimeGirl],[isCuteAnime],[isGirlsLoliAnime],[Omamori Himari],[OmamoriHimari]",
    "title": "OmamoriHimari_1030770",
    "link_img": "https://live.staticflickr.com/65535/48609470578_930dd7a9e5_o.jpg",
    "id_image": "OmamoriHimari_1030770",
    "count_view": 0
  },
  {
    "link_thumb": "https://live.staticflickr.com/65535/48609472433_59511e56b2_n.jpg",
    "id_album": "-1676077794",
    "description": "OmamoriHimari_1030785,[isGirlAnime],[isSadAnime],[isSadAnimeGirl],[isCuteAnime],[isGirlEarsNekoAnime],[isGirlsLoliAnime],[Omamori Himari],[OmamoriHimari]",
    "title": "OmamoriHimari_1030785",
    "link_img": "https://live.staticflickr.com/65535/48609472433_f831a79e87_o.jpg",
    "id_image": "OmamoriHimari_1030785",
    "count_view": 0
  },
  {
    "link_thumb": "https://live.staticflickr.com/65535/48609472818_29b127ba64_n.jpg",
    "id_album": "-1676077794",
    "description": "OmamoriHimari_1030787,[isGirlAnime],[isSadAnime],[isSadAnimeGirl],[isCuteAnime],[isGirlsLoliAnime],[Omamori Himari],[OmamoriHimari]",
    "title": "OmamoriHimari_1030787",
    "link_img": "https://live.staticflickr.com/65535/48609472818_7e18e47218_o.jpg",
    "id_image": "OmamoriHimari_1030787",
    "count_view": 0
  },
  {
    "link_thumb": "https://live.staticflickr.com/65535/48609834796_414b2c7854_n.jpg",
    "id_album": "-1676077794",
    "description": "OmamoriHimari_1030788,[isGirlAnime],[isSadAnime],[isSadAnimeGirl],[isCuteAnime],[isGirlsLoliAnime],[Omamori Himari],[OmamoriHimari]",
    "title": "OmamoriHimari_1030788",
    "link_img": "https://live.staticflickr.com/65535/48609834796_f0c99edd6f_o.jpg",
    "id_image": "OmamoriHimari_1030788",
    "count_view": 0
  },
  {
    "link_thumb": "https://live.staticflickr.com/65535/48609987062_3f9efe5bf4_n.jpg",
    "id_album": "-1676077794",
    "description": "OmamoriHimari_1030791,[isGirlAnime],[isSadAnime],[isSadAnimeGirl],[isCuteAnime],[isGirlsLoliAnime],[Omamori Himari],[OmamoriHimari]",
    "title": "OmamoriHimari_1030791",
    "link_img": "https://live.staticflickr.com/65535/48609987062_c39115f1f5_o.jpg",
    "id_image": "OmamoriHimari_1030791",
    "count_view": 0
  },
  {
    "link_thumb": "https://live.staticflickr.com/65535/48609473868_48b62b5c5f_n.jpg",
    "id_album": "-1676077794",
    "description": "OmamoriHimari_1030793,[isGirlAnime],[isSadAnime],[isSadAnimeGirl],[isCuteAnime],[isGirlEarsNekoAnime],[isGirlsLoliAnime],[Omamori Himari],[OmamoriHimari]",
    "title": "OmamoriHimari_1030793",
    "link_img": "https://live.staticflickr.com/65535/48609473868_1ee25c4de5_o.jpg",
    "id_image": "OmamoriHimari_1030793",
    "count_view": 0
  },
  {
    "link_thumb": "https://live.staticflickr.com/65535/48609474373_f3982c2a51_n.jpg",
    "id_album": "-1676077794",
    "description": "OmamoriHimari_1030795,[isGirlAnime],[isSadAnime],[isSadAnimeGirl],[isCuteAnime],[isGirlEarsNekoAnime],[isGirlsLoliAnime],[Omamori Himari],[OmamoriHimari]",
    "title": "OmamoriHimari_1030795",
    "link_img": "https://live.staticflickr.com/65535/48609474373_65f8da9e16_o.jpg",
    "id_image": "OmamoriHimari_1030795",
    "count_view": 0
  },
  {
    "link_thumb": "https://live.staticflickr.com/65535/48609836461_12ab5d3060_n.jpg",
    "id_album": "-1676077794",
    "description": "OmamoriHimari_1030796,[isGirlAnime],[isSadAnime],[isSadAnimeGirl],[isCuteAnime],[isGirlEarsNekoAnime],[isGirlsLoliAnime],[Omamori Himari],[OmamoriHimari]",
    "title": "OmamoriHimari_1030796",
    "link_img": "https://live.staticflickr.com/65535/48609836461_635d343750_o.jpg",
    "id_image": "OmamoriHimari_1030796",
    "count_view": 0
  },
  {
    "link_thumb": "https://live.staticflickr.com/65535/48609988387_47bf3c29d7_n.jpg",
    "id_album": "-1676077794",
    "description": "OmamoriHimari_1030797,[isGirlAnime],[isSadAnime],[isSadAnimeGirl],[isCuteAnime],[isGirlFaceMasksAnime],[isGirlsLoliAnime],[isKimonoAnime],[Omamori Himari],[OmamoriHimari]",
    "title": "OmamoriHimari_1030797",
    "link_img": "https://live.staticflickr.com/65535/48609988387_e2c4edb460_o.jpg",
    "id_image": "OmamoriHimari_1030797",
    "count_view": 0
  },
  {
    "link_thumb": "https://live.staticflickr.com/65535/48609475173_cbc9ee7b81_n.jpg",
    "id_album": "-1676077794",
    "description": "OmamoriHimari_1030798,[isGirlAnime],[isSadAnime],[isSadAnimeGirl],[isCuteAnime],[Omamori Himari],[OmamoriHimari]",
    "title": "OmamoriHimari_1030798",
    "link_img": "https://live.staticflickr.com/65535/48609475173_764636ce8f_o.jpg",
    "id_image": "OmamoriHimari_1030798",
    "count_view": 0
  },
  {
    "link_thumb": "https://live.staticflickr.com/65535/48609475938_12f90ca6b7_n.jpg",
    "id_album": "-1676077794",
    "description": "OmamoriHimari_1030801,[isGirlAnime],[isSadAnime],[isSadAnimeGirl],[isCuteAnime],[Omamori Himari],[OmamoriHimari]",
    "title": "OmamoriHimari_1030801",
    "link_img": "https://live.staticflickr.com/65535/48609475938_f7d185c370_o.jpg",
    "id_image": "OmamoriHimari_1030801",
    "count_view": 0
  },
  {
    "link_thumb": "https://live.staticflickr.com/65535/48609476118_3c5e352081_n.jpg",
    "id_album": "-1676077794",
    "description": "OmamoriHimari_1030802,[isGirlAnime],[isCuteAnime],[isGirlsLoliAnime],[Omamori Himari],[OmamoriHimari]",
    "title": "OmamoriHimari_1030802",
    "link_img": "https://live.staticflickr.com/65535/48609476118_ee869e354f_o.jpg",
    "id_image": "OmamoriHimari_1030802",
    "count_view": 0
  },
  {
    "link_thumb": "https://live.staticflickr.com/65535/48609476283_49c6744644_n.jpg",
    "id_album": "-1676077794",
    "description": "OmamoriHimari_1030803,[isGirlAnime],[isSadAnime],[isSadAnimeGirl],[isCuteAnime],[isGirlEarsNekoAnime],[isGirlsLoliAnime],[Omamori Himari],[OmamoriHimari]",
    "title": "OmamoriHimari_1030803",
    "link_img": "https://live.staticflickr.com/65535/48609476283_a31cb3f543_o.jpg",
    "id_image": "OmamoriHimari_1030803",
    "count_view": 0
  },
  {
    "link_thumb": "https://live.staticflickr.com/65535/48609841656_bd35f19af6_n.jpg",
    "id_album": "-1676077794",
    "description": "OmamoriHimari_224495,[isGirlAnime],[isSadAnime],[isSadAnimeGirl],[isCuteAnime],[isGirlEarsNekoAnime],[isGirlsLoliAnime],[Omamori Himari],[OmamoriHimari]",
    "title": "OmamoriHimari_224495",
    "link_img": "https://live.staticflickr.com/65535/48609841656_211297ee21_o.jpg",
    "id_image": "OmamoriHimari_224495",
    "count_view": 0
  }
]