[
  {
    "link_thumb": "https://live.staticflickr.com/65535/48074450273_6bfa0ca8dd_n.jpg",
    "id_album": "-1854104716",
    "description": "Oreimo_111634",
    "title": "Oreimo_111634",
    "link_img": "https://live.staticflickr.com/65535/48074450273_c31f5f4718_o.jpg",
    "id_image": "Oreimo_111634",
    "count_view": 0
  },
  {
    "link_thumb": "https://live.staticflickr.com/65535/48074451383_6237107751_n.jpg",
    "id_album": "-1854104716",
    "description": "Oreimo_133163",
    "title": "Oreimo_133163",
    "link_img": "https://live.staticflickr.com/65535/48074451383_dca407e4c2_o.jpg",
    "id_image": "Oreimo_133163",
    "count_view": 0
  },
  {
    "link_thumb": "https://live.staticflickr.com/65535/48074515182_901290d1f1_n.jpg",
    "id_album": "-1854104716",
    "description": "Oreimo_152718",
    "title": "Oreimo_152718",
    "link_img": "https://live.staticflickr.com/65535/48074515182_38b3e3f79c_o.jpg",
    "id_image": "Oreimo_152718",
    "count_view": 0
  },
  {
    "link_thumb": "https://live.staticflickr.com/65535/48074455258_122f43e735_n.jpg",
    "id_album": "-1854104716",
    "description": "Oreimo_218428",
    "title": "Oreimo_218428",
    "link_img": "https://live.staticflickr.com/65535/48074455258_7f56918595_o.jpg",
    "id_image": "Oreimo_218428",
    "count_view": 0
  },
  {
    "link_thumb": "https://live.staticflickr.com/65535/48058480017_2922c0db8c_n.jpg",
    "id_album": "-1854104716",
    "description": "SwordArtOnline_513453",
    "title": "SwordArtOnline_513453",
    "link_img": "https://live.staticflickr.com/65535/48058480017_15f543e64c_o.jpg",
    "id_image": "SwordArtOnline_513453",
    "count_view": 0
  }
]