[
  {
    "total_img": 5,
    "number_page": 1,
    "title": "Suzukaze no Melt",
    "tag": "Building, Green Hair, Reona Fujibayashi, Yui Hisagihara, Nazuna Tsubaki, Brown Eyes, Brown Hair, Enomoto Yoshika, Ui Hisagihara, Yellow Eyes, Boy, Suzukaze no Melt, Bleached Eyes, Long Hair, Twintails, Skirt, Hiiragi Tsukino, Anime, Blue Hair, Blush, Hisagihara Ui, Suzu Suzukaze no Melt, Suzukaze no melt",
    "description": "Suzukaze no Melt",
    "link_thumb": "https://live.staticflickr.com/65535/48058394508_6f48d83819_n.jpg",
    "id_album": "-1905351670",
    "total_view": 5
  }
]