[
  {
    "total_img": 19,
    "number_page": 1,
    "title": "Magical Girl Raising Project",
    "tag": "Minael Magical Girl Raising Project, Yunael Magical Girl Raising Project, Hardgore Alice, Swim Swim Magical Girl Raising Project, Tama Magical Girl Raising Project, Snow White Magical Girl Raising Project, Nemurin Magical Girl Raising Project, Shadow Gale Magical Girl Raising Project, Ripple Magical Girl Raising Project, Magical Girl Raising Project, La Pucelle Magical Girl Raising Project, Pfle Magical Girl Raising Project, Ruler Magical Girl Raising Project",
    "description": "Magical Girl Raising Project",
    "link_thumb": "https://live.staticflickr.com/65535/48070415781_411d49a37a_n.jpg",
    "id_album": "-680706011",
    "total_view": 19
  }
]