[
  {
    "total_img": 23,
    "number_page": 1,
    "title": "Grimgar of Fantasy and Ash",
    "tag": "Hai to Gensou no Grimgar, Grimgar of Fantasy and Ash, Haruhiro Grimgar Of Fantasy And Ash, Ranta Grimgar Of Fantasy And Ash, Mary Grimgar of Fantasy and Ash, Goblin, Mogzo Grimgar of Fantasy and Ash, Moguzo Grimgar Of Fantasy And Ash, Shihoru Grimgar of Fantasy and Ash, Yume Grimgar of Fantasy and Ash, Manato Grimgar Of Fantasy And Ash, Grimgar Of Fantasy And Ash",
    "description": "Grimgar of Fantasy and Ash",
    "link_thumb": "https://live.staticflickr.com/65535/47992788496_fcc98e5369_n.jpg",
    "id_album": "-357488757",
    "total_view": 23
  },
  {
    "total_img": 13,
    "number_page": 1,
    "title": "Grimgar Of Fantasy And Ash",
    "tag": "Grimgar Of Fantasy And Ash,",
    "description": "Grimgar Of Fantasy And Ash",
    "link_thumb": "https://live.staticflickr.com/65535/47992758077_f50e0da839_n.jpg",
    "id_album": "1657145195",
    "total_view": 13
  },
  {
    "total_img": 10,
    "number_page": 1,
    "title": "Haruhiro Grimgar Of Fantasy And Ash",
    "tag": "Haruhiro Grimgar Of Fantasy And Ash,",
    "description": "Haruhiro Grimgar Of Fantasy And Ash",
    "link_thumb": "https://live.staticflickr.com/65535/47992809336_215a2515fc_n.jpg",
    "id_album": "415029934",
    "total_view": 10
  },
  {
    "total_img": 4,
    "number_page": 1,
    "title": "Manato Grimgar Of Fantasy And Ash",
    "tag": "Manato Grimgar Of Fantasy And Ash,",
    "description": "Manato Grimgar Of Fantasy And Ash",
    "link_thumb": "https://live.staticflickr.com/65535/47992756827_35e453fbc5_n.jpg",
    "id_album": "-1122363902",
    "total_view": 4
  },
  {
    "total_img": 6,
    "number_page": 1,
    "title": "Mary Grimgar of Fantasy and Ash",
    "tag": "Mary Grimgar of Fantasy and Ash,",
    "description": "Mary Grimgar of Fantasy and Ash",
    "link_thumb": "https://live.staticflickr.com/65535/47992809336_215a2515fc_n.jpg",
    "id_album": "-613846120",
    "total_view": 6
  },
  {
    "total_img": 7,
    "number_page": 1,
    "title": "Ranta Grimgar Of Fantasy And Ash",
    "tag": "Ranta Grimgar Of Fantasy And Ash,",
    "description": "Ranta Grimgar Of Fantasy And Ash",
    "link_thumb": "https://live.staticflickr.com/65535/47992756827_35e453fbc5_n.jpg",
    "id_album": "-1793676408",
    "total_view": 7
  },
  {
    "total_img": 9,
    "number_page": 1,
    "title": "Shihoru Grimgar of Fantasy and Ash",
    "tag": "Shihoru Grimgar of Fantasy and Ash,",
    "description": "Shihoru Grimgar of Fantasy and Ash",
    "link_thumb": "https://live.staticflickr.com/65535/47992761978_a41a02c965_n.jpg",
    "id_album": "-1025885226",
    "total_view": 9
  },
  {
    "total_img": 12,
    "number_page": 1,
    "title": "Yume Grimgar of Fantasy and Ash",
    "tag": "Yume Grimgar of Fantasy and Ash,",
    "description": "Yume Grimgar of Fantasy and Ash",
    "link_thumb": "https://live.staticflickr.com/65535/47992764278_d60208b3b6_n.jpg",
    "id_album": "1622591748",
    "total_view": 12
  }
]