[
  {
    "total_img": 62,
    "number_page": 1,
    "title": "Another",
    "tag": "Another Anime, Kouichi Sakakibara, Water, Chair, Bird, Black Hair, Sitting, Socks, Doll, Long Hair, Twintails, Yuuya Mochizuki, Thigh Highs, Rain, Anime, bow Clothing, Yukari Sakuragi, Crow, Stairs, Umbrella, Short Hair, Heterochromia, Another, Armchair, Window, Brown Eyes, Brown Hair, Reflection, Mei Misaki, Izumi Akazawa, Misaki Fujioka, School Uniform, Smile, Boy, Naoya Teshigawara, Red Eyes, Skirt, Blue Eyes, Sweater, Pantyhose, Glasses, Lying Down, Eye Patch, Twins",
    "description": "Another",
    "link_thumb": "https://live.staticflickr.com/65535/47840800012_b52dc14727_n.jpg",
    "id_album": "1493953904",
    "total_view": 62
  },
  {
    "total_img": 45,
    "number_page": 1,
    "title": "Another Anime",
    "tag": "Another Anime,",
    "description": "Another Anime",
    "link_thumb": "https://live.staticflickr.com/65535/47960674132_aa22ffe15d_n.jpg",
    "id_album": "-1206307123",
    "total_view": 45
  },
  {
    "total_img": 56,
    "number_page": 1,
    "title": "Mei Misaki",
    "tag": "Mei Misaki,",
    "description": "Mei Misaki",
    "link_thumb": "https://live.staticflickr.com/65535/47960569443_beeaeb7c88_n.jpg",
    "id_album": "-802018588",
    "total_view": 56
  }
]