[
  {
    "total_img": 84,
    "number_page": 1,
    "title": "Oreimo",
    "tag": "Water, Black Hair, Black  White, Rose, Kyosuke Kosaka, White Dress, Oreimo, Blonde, Long Hair, Bubble, Kanako Kurusu, Anime, Wings, Stairs, Manami Tamura, Heterochromia, Short Hair, Face, Ruri Goko, Necklace, Purple Eyes, Purple Hair, Dress, Brown Eyes, Saori Makishima, Vocaloid, Ayase Aragaki, Headband, Black Dress, Gothic, Smile, Aqua Eyes, Red Hair, Kirino Kousaka, Red Eyes, Blue Eyes, Blue Hair, Blush, Pantyhose, Animal, Cat, Sketch, Ore no Imoto ga Konna ni Kawaii Wake ga Nai, Hat, Kana Hanazawa, Meruru Oreimo",
    "description": "Oreimo",
    "link_thumb": "https://live.staticflickr.com/65535/48074449458_5a80461d34_n.jpg",
    "id_album": "1557233213",
    "total_view": 84
  },
  {
    "total_img": 10,
    "number_page": 1,
    "title": "Ayase Aragaki",
    "tag": "Ayase Aragaki,",
    "description": "Ayase Aragaki",
    "link_thumb": "https://live.staticflickr.com/65535/48074645682_95d8f5c69b_n.jpg",
    "id_album": "598878213",
    "total_view": 10
  },
  {
    "total_img": 32,
    "number_page": 1,
    "title": "Kirino Kousaka",
    "tag": "Kirino Kousaka,",
    "description": "Kirino Kousaka",
    "link_thumb": "https://live.staticflickr.com/65535/48058480017_2922c0db8c_n.jpg",
    "id_album": "-845956673",
    "total_view": 32
  },
  {
    "total_img": 31,
    "number_page": 1,
    "title": "Ruri Goko",
    "tag": "Ruri Goko,",
    "description": "Ruri Goko",
    "link_thumb": "https://live.staticflickr.com/65535/48074590168_6ac0b2ccfb_n.jpg",
    "id_album": "-1495177206",
    "total_view": 31
  }
]