[
  {
    "total_img": 93,
    "number_page": 1,
    "title": "Dororo",
    "tag": "Dororo Dororo, Orange Eyes, Moon, Black Hair, Crying, Weapon, Blood, Long Hair, Rain, Sword, Bandage, Kimono, Glitch Art, Hyakkimaru Dororo, Child, Katana, Mio Dororo, Purple Eyes, Brown Eyes, Brown Hair, Smile, Boy, Dororo Anime, Red Eyes, Sunset, Blue Hair, Fire, Sad, Skull, Tahomaru Dororo, Ponytail, Yukata, Wheat, Dororo",
    "description": "Dororo",
    "link_thumb": "https://live.staticflickr.com/65535/48609889057_840f5c004a_n.jpg",
    "id_album": "64149076",
    "total_view": 93
  },
  {
    "total_img": 59,
    "number_page": 1,
    "title": "Dororo Anime",
    "tag": "Dororo Anime,",
    "description": "Dororo Anime",
    "link_thumb": "https://live.staticflickr.com/65535/48609918077_e6db5599f5_n.jpg",
    "id_album": "-1175227425",
    "total_view": 59
  },
  {
    "total_img": 84,
    "number_page": 1,
    "title": "Hyakkimaru Dororo",
    "tag": "Hyakkimaru Dororo,",
    "description": "Hyakkimaru Dororo",
    "link_thumb": "https://live.staticflickr.com/65535/48609918077_e6db5599f5_n.jpg",
    "id_album": "1655147777",
    "total_view": 84
  },
  {
    "total_img": 13,
    "number_page": 1,
    "title": "Mio Dororo",
    "tag": "Mio Dororo,",
    "description": "Mio Dororo",
    "link_thumb": "https://live.staticflickr.com/65535/48609918077_e6db5599f5_n.jpg",
    "id_album": "1470192127",
    "total_view": 13
  }
]