[
  {
    "total_img": 11,
    "number_page": 1,
    "title": "Cafe Sourire",
    "tag": "Cafe Sourire, Mizushima Serika, Ogiwara Kyouko, Yukishita Miyuri, Mizushima Kasumi",
    "description": "Cafe Sourire",
    "link_thumb": "https://live.staticflickr.com/65535/47858771922_32dbb7fb27_n.jpg",
    "id_album": "1368824552",
    "total_view": 11
  },
  {
    "total_img": 3,
    "number_page": 1,
    "title": "Yukishita Miyuri",
    "tag": "Yukishita Miyuri,",
    "description": "Yukishita Miyuri",
    "link_thumb": "https://live.staticflickr.com/65535/40944174333_b37a7d2445_n.jpg",
    "id_album": "567673546",
    "total_view": 3
  }
]