[
  {
    "link_thumb": "https://live.staticflickr.com/65535/47955663592_bcdfd0843f_n.jpg",
    "id_album": "1324625852",
    "description": "Crossover_648204",
    "title": "Crossover_648204",
    "link_img": "https://live.staticflickr.com/65535/47955663592_782328d15b_o.jpg",
    "id_image": "Crossover_648204",
    "count_view": 0
  },
  {
    "link_thumb": "https://live.staticflickr.com/65535/47955715381_5ba518f431_n.jpg",
    "id_album": "1324625852",
    "description": "Crossover_677419",
    "title": "Crossover_677419",
    "link_img": "https://live.staticflickr.com/65535/47955715381_9ccb3173ba_o.jpg",
    "id_image": "Crossover_677419",
    "count_view": 0
  },
  {
    "link_thumb": "https://live.staticflickr.com/65535/48071255613_87a70557f2_n.jpg",
    "id_album": "1324625852",
    "description": "MonthlyGirlsNozakikun_691943",
    "title": "MonthlyGirlsNozakikun_691943",
    "link_img": "https://live.staticflickr.com/65535/48071255613_518cf73a4a_o.jpg",
    "id_image": "MonthlyGirlsNozakikun_691943",
    "count_view": 0
  },
  {
    "link_thumb": "https://live.staticflickr.com/65535/48071255898_2861eae6d0_n.jpg",
    "id_album": "1324625852",
    "description": "MonthlyGirlsNozakikun_691945",
    "title": "MonthlyGirlsNozakikun_691945",
    "link_img": "https://live.staticflickr.com/65535/48071255898_36793b7f2b_o.jpg",
    "id_image": "MonthlyGirlsNozakikun_691945",
    "count_view": 0
  },
  {
    "link_thumb": "https://live.staticflickr.com/65535/48071313967_1305bd8ccf_n.jpg",
    "id_album": "1324625852",
    "description": "MonthlyGirlsNozakikun_713038",
    "title": "MonthlyGirlsNozakikun_713038",
    "link_img": "https://live.staticflickr.com/65535/48071313967_259d83bc1b_o.jpg",
    "id_image": "MonthlyGirlsNozakikun_713038",
    "count_view": 0
  },
  {
    "link_thumb": "https://live.staticflickr.com/65535/48071209236_3bae00cce4_n.jpg",
    "id_album": "1324625852",
    "description": "MonthlyGirlsNozakikun_713783",
    "title": "MonthlyGirlsNozakikun_713783",
    "link_img": "https://live.staticflickr.com/65535/48071209236_f12546cf4d_o.jpg",
    "id_image": "MonthlyGirlsNozakikun_713783",
    "count_view": 0
  },
  {
    "link_thumb": "https://live.staticflickr.com/65535/48071209621_bf172dcc77_n.jpg",
    "id_album": "1324625852",
    "description": "MonthlyGirlsNozakikun_713786",
    "title": "MonthlyGirlsNozakikun_713786",
    "link_img": "https://live.staticflickr.com/65535/48071209621_d9bcb95026_o.jpg",
    "id_image": "MonthlyGirlsNozakikun_713786",
    "count_view": 0
  },
  {
    "link_thumb": "https://live.staticflickr.com/65535/48071210486_d7f433e427_n.jpg",
    "id_album": "1324625852",
    "description": "MonthlyGirlsNozakikun_758354",
    "title": "MonthlyGirlsNozakikun_758354",
    "link_img": "https://live.staticflickr.com/65535/48071210486_1e3815c098_o.jpg",
    "id_image": "MonthlyGirlsNozakikun_758354",
    "count_view": 0
  },
  {
    "link_thumb": "https://live.staticflickr.com/65535/48071259328_56c76aed46_n.jpg",
    "id_album": "1324625852",
    "description": "MonthlyGirlsNozakikun_924876",
    "title": "MonthlyGirlsNozakikun_924876",
    "link_img": "https://live.staticflickr.com/65535/48071259328_a34b293d1c_o.jpg",
    "id_image": "MonthlyGirlsNozakikun_924876",
    "count_view": 0
  },
  {
    "link_thumb": "https://live.staticflickr.com/65535/48071212256_3bcbc243e1_n.jpg",
    "id_album": "1324625852",
    "description": "MonthlyGirlsNozakikun_924878",
    "title": "MonthlyGirlsNozakikun_924878",
    "link_img": "https://live.staticflickr.com/65535/48071212256_caf51227a9_o.jpg",
    "id_image": "MonthlyGirlsNozakikun_924878",
    "count_view": 0
  },
  {
    "link_thumb": "https://live.staticflickr.com/65535/48071259898_b466eda19f_n.jpg",
    "id_album": "1324625852",
    "description": "MonthlyGirlsNozakikun_950665",
    "title": "MonthlyGirlsNozakikun_950665",
    "link_img": "https://live.staticflickr.com/65535/48071259898_1ce6684e6d_o.jpg",
    "id_image": "MonthlyGirlsNozakikun_950665",
    "count_view": 0
  },
  {
    "link_thumb": "https://live.staticflickr.com/65535/48071212641_d5de9bfb64_n.jpg",
    "id_album": "1324625852",
    "description": "MonthlyGirlsNozakikun_952490",
    "title": "MonthlyGirlsNozakikun_952490",
    "link_img": "https://live.staticflickr.com/65535/48071212641_7a2271f3d6_o.jpg",
    "id_image": "MonthlyGirlsNozakikun_952490",
    "count_view": 0
  }
]