[
  {
    "total_img": 38,
    "number_page": 1,
    "title": "Cells at Work",
    "tag": "AE3803 Cells at Work, Hataraku Saibou, Orange Eyes, Anime, Blush, Macrophage Cells at Work, U1146 Cells At Work, Cells at Work, Platelet Cells at Work, Face, Blonde",
    "description": "Cells at Work",
    "link_thumb": "https://live.staticflickr.com/65535/47859661832_54bce25267_n.jpg",
    "id_album": "-2030601023",
    "total_view": 38
  }
]