[
  {
    "link_thumb": "https://live.staticflickr.com/65535/51565044833_5a1211cbaa_n.jpg",
    "id_album": "1650283598",
    "description": "ANIME_PIC_6b661285dde0e174d70669ee09de2f5d,[GirlsSad],[isGirlAnime],[isSadAnimeGirl],[isSadAnime]",
    "title": "ANIME_PIC_6b661285dde0e174d70669ee09de2f5d",
    "link_img": "https://live.staticflickr.com/65535/51565044833_41dd54383d_o.jpg",
    "id_image": "ANIME_PIC_6b661285dde0e174d70669ee09de2f5d",
    "count_view": 0
  },
  {
    "link_thumb": "https://live.staticflickr.com/65535/51564008112_dc5155a58a_n.jpg",
    "id_album": "1650283598",
    "description": "ANIME_PIC_6b74b44d6731fb3a8b48f6eeb293bc80,[GirlsSad],[isGirlAnime],[isGirlsHatsHoodieAnime],[isSadAnimeGirl],[isSadAnime]",
    "title": "ANIME_PIC_6b74b44d6731fb3a8b48f6eeb293bc80",
    "link_img": "https://live.staticflickr.com/65535/51564008112_7640f135ab_o.jpg",
    "id_image": "ANIME_PIC_6b74b44d6731fb3a8b48f6eeb293bc80",
    "count_view": 0
  },
  {
    "link_thumb": "https://live.staticflickr.com/65535/51565045658_633e8ba604_n.jpg",
    "id_album": "1650283598",
    "description": "ANIME_PIC_6b776ab58adaad8dd3ac2722b17dd07f,[GirlsSad],[isGirlAnime],[isSadAnimeGirl],[isSadAnime]",
    "title": "ANIME_PIC_6b776ab58adaad8dd3ac2722b17dd07f",
    "link_img": "https://live.staticflickr.com/65535/51565045658_0bec460514_o.jpg",
    "id_image": "ANIME_PIC_6b776ab58adaad8dd3ac2722b17dd07f",
    "count_view": 0
  },
  {
    "link_thumb": "https://live.staticflickr.com/65535/51565735630_c434751f1f_n.jpg",
    "id_album": "1650283598",
    "description": "ANIME_PIC_6b8df9b9304ad3a21a2689f31939931f,[GirlsSad],[isGirlAnime],[isCuteAnime],[isGirlsLoliAnime],[isSadAnimeGirl],[isSadAnime]",
    "title": "ANIME_PIC_6b8df9b9304ad3a21a2689f31939931f",
    "link_img": "https://live.staticflickr.com/65535/51565735630_6ea175ce42_o.jpg",
    "id_image": "ANIME_PIC_6b8df9b9304ad3a21a2689f31939931f",
    "count_view": 0
  },
  {
    "link_thumb": "https://live.staticflickr.com/65535/51565489029_c8ce2f52ae_n.jpg",
    "id_album": "1650283598",
    "description": "ANIME_PIC_6b92499e441c3359772b9f2a5572a12f,[GirlsSad],[isGirlAnime],[isCuteAnime],[isGirlsLoliAnime],[isSadAnimeGirl],[isSadAnime]",
    "title": "ANIME_PIC_6b92499e441c3359772b9f2a5572a12f",
    "link_img": "https://live.staticflickr.com/65535/51565489029_976c00fdd9_o.png",
    "id_image": "ANIME_PIC_6b92499e441c3359772b9f2a5572a12f",
    "count_view": 0
  },
  {
    "link_thumb": "https://live.staticflickr.com/65535/51565047198_51697a507d_n.jpg",
    "id_album": "1650283598",
    "description": "ANIME_PIC_6b94254fc9fbfa2d01832b25d5d9a657,[GirlsSad],[isGirlAnime],[isSadAnimeGirl],[isSadAnime]",
    "title": "ANIME_PIC_6b94254fc9fbfa2d01832b25d5d9a657",
    "link_img": "https://live.staticflickr.com/65535/51565047198_687f69dee0_o.jpg",
    "id_image": "ANIME_PIC_6b94254fc9fbfa2d01832b25d5d9a657",
    "count_view": 0
  },
  {
    "link_thumb": "https://live.staticflickr.com/65535/51565047528_ac121bb1c6_n.jpg",
    "id_album": "1650283598",
    "description": "ANIME_PIC_6b9b9619373de1c16890a5128495446b,[GirlsSad],[isGirlAnime],[isCuteAnime],[isSadAnimeGirl],[isSadAnime]",
    "title": "ANIME_PIC_6b9b9619373de1c16890a5128495446b",
    "link_img": "https://live.staticflickr.com/65535/51565047528_c8186d64a2_o.jpg",
    "id_image": "ANIME_PIC_6b9b9619373de1c16890a5128495446b",
    "count_view": 0
  },
  {
    "link_thumb": "https://live.staticflickr.com/65535/51565737670_9ae11a8762_n.jpg",
    "id_album": "1650283598",
    "description": "ANIME_PIC_6ba8d4ff1e0e1e875b395bf07009a324,[GirlsSad],[isGirlAnime],[isCuteAnime],[isGirlsLoliAnime],[isSadAnimeGirl],[isSadAnime]",
    "title": "ANIME_PIC_6ba8d4ff1e0e1e875b395bf07009a324",
    "link_img": "https://live.staticflickr.com/65535/51565737670_f46fdb3609_o.png",
    "id_image": "ANIME_PIC_6ba8d4ff1e0e1e875b395bf07009a324",
    "count_view": 0
  },
  {
    "link_thumb": "https://live.staticflickr.com/65535/49798771588_75c7b0dbde_n.jpg",
    "id_album": "1650283598",
    "description": "ANIME_PIC_6bb224b412a3d6c7190786f920b9d7c4,[isGirlAnime],[isSadAnime],[isSadAnimeGirl],[isCuteAnime],[Girls Sad],[GirlsSad]",
    "title": "ANIME_PIC_6bb224b412a3d6c7190786f920b9d7c4",
    "link_img": "https://live.staticflickr.com/65535/49798771588_1b0f960916_o.jpg",
    "id_image": "ANIME_PIC_6bb224b412a3d6c7190786f920b9d7c4",
    "count_view": 0
  },
  {
    "link_thumb": "https://live.staticflickr.com/65535/51564011392_8f8cfea54b_n.jpg",
    "id_album": "1650283598",
    "description": "ANIME_PIC_6bbd599dd84f745f0a4b1fd6f4c7fb0f,[GirlsSad],[isGirlAnime],[isCuteAnime],[isGirlsHatsHoodieAnime],[isGirlsLoliAnime],[isSadAnimeGirl],[isSadAnime]",
    "title": "ANIME_PIC_6bbd599dd84f745f0a4b1fd6f4c7fb0f",
    "link_img": "https://live.staticflickr.com/65535/51564011392_42e5167956_o.jpg",
    "id_image": "ANIME_PIC_6bbd599dd84f745f0a4b1fd6f4c7fb0f",
    "count_view": 0
  },
  {
    "link_thumb": "https://live.staticflickr.com/65535/51565491294_b252171787_n.jpg",
    "id_album": "1650283598",
    "description": "ANIME_PIC_6bbef3e2c4a5dda816fa9b2634f16ac9,[GirlsSad],[isGirlAnime],[isCuteAnime],[isSadAnimeGirl],[isSadAnime]",
    "title": "ANIME_PIC_6bbef3e2c4a5dda816fa9b2634f16ac9",
    "link_img": "https://live.staticflickr.com/65535/51565491294_da4b6e30c6_o.png",
    "id_image": "ANIME_PIC_6bbef3e2c4a5dda816fa9b2634f16ac9",
    "count_view": 0
  },
  {
    "link_thumb": "https://live.staticflickr.com/65535/51564804001_573307ca33_n.jpg",
    "id_album": "1650283598",
    "description": "ANIME_PIC_6bc02e5a0b937e178d54cb3e67c56658,[GirlsSad],[isGirlAnime],[isCuteAnime],[isGirlEarsNekoAnime],[isGirlsLoliAnime],[isSadAnimeGirl],[isSadAnime]",
    "title": "ANIME_PIC_6bc02e5a0b937e178d54cb3e67c56658",
    "link_img": "https://live.staticflickr.com/65535/51564804001_4cd09b89be_o.jpg",
    "id_image": "ANIME_PIC_6bc02e5a0b937e178d54cb3e67c56658",
    "count_view": 0
  },
  {
    "link_thumb": "https://live.staticflickr.com/65535/51565049458_fc3f89e717_n.jpg",
    "id_album": "1650283598",
    "description": "ANIME_PIC_6bcab492b7d91b5f9f4b7fee67270675,[GirlsSad],[isGirlAnime],[isCuteAnime],[isGirlsHatsHoodieAnime],[isGirlsLoliAnime],[isSadAnimeGirl],[isSadAnime]",
    "title": "ANIME_PIC_6bcab492b7d91b5f9f4b7fee67270675",
    "link_img": "https://live.staticflickr.com/65535/51565049458_104d432e15_o.jpg",
    "id_image": "ANIME_PIC_6bcab492b7d91b5f9f4b7fee67270675",
    "count_view": 0
  },
  {
    "link_thumb": "https://live.staticflickr.com/65535/50030125901_d387924ca1_n.jpg",
    "id_album": "1650283598",
    "description": "ANIME_PIC_6bcf96fa48002409413fe798f2296d01,[isGirlAnime],[isSadAnime],[isSadAnimeGirl],[isCuteAnime],[Girls Sad],[GirlsSad]",
    "title": "ANIME_PIC_6bcf96fa48002409413fe798f2296d01",
    "link_img": "https://live.staticflickr.com/65535/50030125901_ba23fefb06_o.png",
    "id_image": "ANIME_PIC_6bcf96fa48002409413fe798f2296d01",
    "count_view": 0
  },
  {
    "link_thumb": "https://live.staticflickr.com/65535/51565049883_671be7953c_n.jpg",
    "id_album": "1650283598",
    "description": "ANIME_PIC_6be70d2f9a60c59282aef4bdc5db9fcd,[GirlsSad],[isGirlAnime],[isCuteAnime],[isGirlsLoliAnime],[isSadAnimeGirl],[isSadAnime]",
    "title": "ANIME_PIC_6be70d2f9a60c59282aef4bdc5db9fcd",
    "link_img": "https://live.staticflickr.com/65535/51565049883_0546005a26_o.png",
    "id_image": "ANIME_PIC_6be70d2f9a60c59282aef4bdc5db9fcd",
    "count_view": 0
  },
  {
    "link_thumb": "https://live.staticflickr.com/65535/51565740115_025bebdc68_n.jpg",
    "id_album": "1650283598",
    "description": "ANIME_PIC_6be9d3dcdf1e057ed0d81b290782fb71,[GirlsSad],[isGirlAnime],[isCuteAnime],[isSadAnimeGirl],[isSadAnime]",
    "title": "ANIME_PIC_6be9d3dcdf1e057ed0d81b290782fb71",
    "link_img": "https://live.staticflickr.com/65535/51565740115_97c84850b4_o.jpg",
    "id_image": "ANIME_PIC_6be9d3dcdf1e057ed0d81b290782fb71",
    "count_view": 0
  },
  {
    "link_thumb": "https://live.staticflickr.com/65535/51565050808_5a610da58f_n.jpg",
    "id_album": "1650283598",
    "description": "ANIME_PIC_6bed304df8f2b28ed9554838c156b585,[GirlsSad],[isGirlAnime],[isCuteAnime],[isGirlsLoliAnime],[isSadAnimeGirl],[isSadAnime]",
    "title": "ANIME_PIC_6bed304df8f2b28ed9554838c156b585",
    "link_img": "https://live.staticflickr.com/65535/51565050808_e16e8321fc_o.png",
    "id_image": "ANIME_PIC_6bed304df8f2b28ed9554838c156b585",
    "count_view": 0
  },
  {
    "link_thumb": "https://live.staticflickr.com/65535/51564805771_253a492c05_n.jpg",
    "id_album": "1650283598",
    "description": "ANIME_PIC_6beee9facba49b19ffce5705fef28798,[GirlsSad],[isGirlAnime],[isCuteAnime],[isSadAnimeGirl],[isSadAnime]",
    "title": "ANIME_PIC_6beee9facba49b19ffce5705fef28798",
    "link_img": "https://live.staticflickr.com/65535/51564805771_caefc93bb4_o.jpg",
    "id_image": "ANIME_PIC_6beee9facba49b19ffce5705fef28798",
    "count_view": 0
  },
  {
    "link_thumb": "https://live.staticflickr.com/65535/51565051823_d93129d6a7_n.jpg",
    "id_album": "1650283598",
    "description": "ANIME_PIC_6c074103b246808d3eb33b12672077f6,[GirlsSad],[isGirlAnime],[isSadAnimeGirl],[isSadAnime]",
    "title": "ANIME_PIC_6c074103b246808d3eb33b12672077f6",
    "link_img": "https://live.staticflickr.com/65535/51565051823_8a65ae411e_o.jpg",
    "id_image": "ANIME_PIC_6c074103b246808d3eb33b12672077f6",
    "count_view": 0
  },
  {
    "link_thumb": "https://live.staticflickr.com/65535/51565741590_54c4f7db0b_n.jpg",
    "id_album": "1650283598",
    "description": "ANIME_PIC_6c0af489cddefa619a8520794504f4ac,[GirlsSad],[isGirlAnime],[isBlackAnime],[isGirlEarsNekoAnime],[isSadAnimeGirl],[isSadAnime]",
    "title": "ANIME_PIC_6c0af489cddefa619a8520794504f4ac",
    "link_img": "https://live.staticflickr.com/65535/51565741590_6453e5581a_o.jpg",
    "id_image": "ANIME_PIC_6c0af489cddefa619a8520794504f4ac",
    "count_view": 0
  },
  {
    "link_thumb": "https://live.staticflickr.com/65535/51564806956_e3f3553684_n.jpg",
    "id_album": "1650283598",
    "description": "ANIME_PIC_6c136b45da9129908cfb1f3bc2915948,[GirlsSad],[isGirlAnime],[isSadAnimeGirl],[isSadAnime]",
    "title": "ANIME_PIC_6c136b45da9129908cfb1f3bc2915948",
    "link_img": "https://live.staticflickr.com/65535/51564806956_6b3be7ac37_o.jpg",
    "id_image": "ANIME_PIC_6c136b45da9129908cfb1f3bc2915948",
    "count_view": 0
  },
  {
    "link_thumb": "https://live.staticflickr.com/65535/51565742340_c66ee3eeab_n.jpg",
    "id_album": "1650283598",
    "description": "ANIME_PIC_6c25cabbb126440e4eb9d8361c04c6d9,[GirlsSad],[isGirlAnime],[isCuteAnime],[isGirlsLoliAnime],[isSadAnimeGirl],[isSadAnime]",
    "title": "ANIME_PIC_6c25cabbb126440e4eb9d8361c04c6d9",
    "link_img": "https://live.staticflickr.com/65535/51565742340_2f72e25b89_o.jpg",
    "id_image": "ANIME_PIC_6c25cabbb126440e4eb9d8361c04c6d9",
    "count_view": 0
  },
  {
    "link_thumb": "https://live.staticflickr.com/65535/51565742780_f85ffbe31f_n.jpg",
    "id_album": "1650283598",
    "description": "ANIME_PIC_6c37f66ea08d1deac74c362c1ed9afd2,[GirlsSad],[isGirlAnime],[isCuteAnime],[isSadAnimeGirl],[isSadAnime]",
    "title": "ANIME_PIC_6c37f66ea08d1deac74c362c1ed9afd2",
    "link_img": "https://live.staticflickr.com/65535/51565742780_a762d37f6f_o.jpg",
    "id_image": "ANIME_PIC_6c37f66ea08d1deac74c362c1ed9afd2",
    "count_view": 0
  },
  {
    "link_thumb": "https://live.staticflickr.com/65535/51565495889_4e0982dc6e_n.jpg",
    "id_album": "1650283598",
    "description": "ANIME_PIC_6c381264a60efc150ed8e43f26c64fc4,[GirlsSad],[isGirlAnime],[isCuteAnime],[isSadAnimeGirl],[isSadAnime]",
    "title": "ANIME_PIC_6c381264a60efc150ed8e43f26c64fc4",
    "link_img": "https://live.staticflickr.com/65535/51565495889_d2570b0fdc_o.jpg",
    "id_image": "ANIME_PIC_6c381264a60efc150ed8e43f26c64fc4",
    "count_view": 0
  },
  {
    "link_thumb": "https://live.staticflickr.com/65535/51565054578_3b8e3c927f_n.jpg",
    "id_album": "1650283598",
    "description": "ANIME_PIC_6c46e7801337526e347132c113159017,[GirlsSad],[isGirlAnime],[isGirlsHatsHoodieAnime],[isSadAnimeGirl],[isSadAnime]",
    "title": "ANIME_PIC_6c46e7801337526e347132c113159017",
    "link_img": "https://live.staticflickr.com/65535/51565054578_479bbfc1a3_o.jpg",
    "id_image": "ANIME_PIC_6c46e7801337526e347132c113159017",
    "count_view": 0
  },
  {
    "link_thumb": "https://live.staticflickr.com/65535/51564017592_8f7d124195_n.jpg",
    "id_album": "1650283598",
    "description": "ANIME_PIC_6c64a329c63b07596ff29245fa9c061e,[GirlsSad],[isGirlAnime],[isCuteAnime],[isGirlEarsNekoAnime],[isGirlsLoliAnime],[isSadAnimeGirl],[isSadAnime]",
    "title": "ANIME_PIC_6c64a329c63b07596ff29245fa9c061e",
    "link_img": "https://live.staticflickr.com/65535/51564017592_6d8cf960e2_o.png",
    "id_image": "ANIME_PIC_6c64a329c63b07596ff29245fa9c061e",
    "count_view": 0
  },
  {
    "link_thumb": "https://live.staticflickr.com/65535/51565744700_211ce8a9d6_n.jpg",
    "id_album": "1650283598",
    "description": "ANIME_PIC_6c694c02666edc0a07a0d53db2b5c4b6,[GirlsSad],[isGirlAnime],[isSadAnimeGirl],[isSadAnime]",
    "title": "ANIME_PIC_6c694c02666edc0a07a0d53db2b5c4b6",
    "link_img": "https://live.staticflickr.com/65535/51565744700_00c34c038d_o.jpg",
    "id_image": "ANIME_PIC_6c694c02666edc0a07a0d53db2b5c4b6",
    "count_view": 0
  },
  {
    "link_thumb": "https://live.staticflickr.com/65535/51564018632_8389542e24_n.jpg",
    "id_album": "1650283598",
    "description": "ANIME_PIC_6c7a4eddc44044e0e653c95c460673a8,[GirlsSad],[isGirlAnime],[isCuteAnime],[isSadAnimeGirl],[isSadAnime]",
    "title": "ANIME_PIC_6c7a4eddc44044e0e653c95c460673a8",
    "link_img": "https://live.staticflickr.com/65535/51564018632_f45bf325c2_o.jpg",
    "id_image": "ANIME_PIC_6c7a4eddc44044e0e653c95c460673a8",
    "count_view": 0
  },
  {
    "link_thumb": "https://live.staticflickr.com/65535/51565745750_2c4845c6e4_n.jpg",
    "id_album": "1650283598",
    "description": "ANIME_PIC_6c7d24b236ab7145d56808b65e6917e8,[GirlsSad],[isGirlAnime],[isCuteAnime],[isGirlsLoliAnime],[isSadAnimeGirl],[isGirlsSharpCanineToothAnime],[isSadAnime]",
    "title": "ANIME_PIC_6c7d24b236ab7145d56808b65e6917e8",
    "link_img": "https://live.staticflickr.com/65535/51565745750_f4c35323eb_o.png",
    "id_image": "ANIME_PIC_6c7d24b236ab7145d56808b65e6917e8",
    "count_view": 0
  },
  {
    "link_thumb": "https://live.staticflickr.com/65535/51564811591_680739060a_n.jpg",
    "id_album": "1650283598",
    "description": "ANIME_PIC_6c7d63bd73aa11fee7312af40db3b0a7,[GirlsSad],[isGirlAnime],[isCuteAnime],[isGirlsLoliAnime],[isSadAnimeGirl],[isSadAnime]",
    "title": "ANIME_PIC_6c7d63bd73aa11fee7312af40db3b0a7",
    "link_img": "https://live.staticflickr.com/65535/51564811591_3885f3d6a9_o.jpg",
    "id_image": "ANIME_PIC_6c7d63bd73aa11fee7312af40db3b0a7",
    "count_view": 0
  },
  {
    "link_thumb": "https://live.staticflickr.com/65535/49799320881_45a1c98780_n.jpg",
    "id_album": "1650283598",
    "description": "ANIME_PIC_6c7edc6e6a1f3004f27f8340ccf82c1e,[isGirlAnime],[isSadAnime],[isSadAnimeGirl],[isCuteAnime],[Girls Sad],[GirlsSad]",
    "title": "ANIME_PIC_6c7edc6e6a1f3004f27f8340ccf82c1e",
    "link_img": "https://live.staticflickr.com/65535/49799320881_6b632e49f6_o.jpg",
    "id_image": "ANIME_PIC_6c7edc6e6a1f3004f27f8340ccf82c1e",
    "count_view": 0
  },
  {
    "link_thumb": "https://live.staticflickr.com/65535/51565746810_d7360f6e51_n.jpg",
    "id_album": "1650283598",
    "description": "ANIME_PIC_6c801b1493d1e7c531eebebe8fcb439f,[GirlsSad],[isGirlAnime],[isCuteAnime],[isGirlsLoliAnime],[isSadAnimeGirl],[isSadAnime]",
    "title": "ANIME_PIC_6c801b1493d1e7c531eebebe8fcb439f",
    "link_img": "https://live.staticflickr.com/65535/51565746810_d699a0cbbb_o.png",
    "id_image": "ANIME_PIC_6c801b1493d1e7c531eebebe8fcb439f",
    "count_view": 0
  },
  {
    "link_thumb": "https://live.staticflickr.com/65535/51564020687_3a7baeb1e1_n.jpg",
    "id_album": "1650283598",
    "description": "ANIME_PIC_6ca8c081beb58f13aa70512a136d474b,[GirlsSad],[isGirlAnime],[isCuteAnime],[isSadAnimeGirl],[isSadAnime]",
    "title": "ANIME_PIC_6ca8c081beb58f13aa70512a136d474b",
    "link_img": "https://live.staticflickr.com/65535/51564020687_a0d460191d_o.jpg",
    "id_image": "ANIME_PIC_6ca8c081beb58f13aa70512a136d474b",
    "count_view": 0
  },
  {
    "link_thumb": "https://live.staticflickr.com/65535/51565058648_9904453e38_n.jpg",
    "id_album": "1650283598",
    "description": "ANIME_PIC_6cc2a25539a194451107e04f57e2cdbd,[GirlsSad],[isGirlAnime],[isCuteAnime],[isSadAnimeGirl],[isSadAnime]",
    "title": "ANIME_PIC_6cc2a25539a194451107e04f57e2cdbd",
    "link_img": "https://live.staticflickr.com/65535/51565058648_4a2b5b5469_o.png",
    "id_image": "ANIME_PIC_6cc2a25539a194451107e04f57e2cdbd",
    "count_view": 0
  },
  {
    "link_thumb": "https://live.staticflickr.com/65535/51565501094_b9ea0e3d0f_n.jpg",
    "id_album": "1650283598",
    "description": "ANIME_PIC_6cc9023fd98b3b523aa0be8614b94a1f,[GirlsSad],[isGirlAnime],[isCuteAnime],[isSadAnimeGirl],[isSadAnime]",
    "title": "ANIME_PIC_6cc9023fd98b3b523aa0be8614b94a1f",
    "link_img": "https://live.staticflickr.com/65535/51565501094_34c40dd347_o.jpg",
    "id_image": "ANIME_PIC_6cc9023fd98b3b523aa0be8614b94a1f",
    "count_view": 0
  },
  {
    "link_thumb": "https://live.staticflickr.com/65535/51565501349_9065fc6510_n.jpg",
    "id_album": "1650283598",
    "description": "ANIME_PIC_6cd117402e6426d5a243ec89392db5e6,[GirlsSad],[isGirlAnime],[isSadAnimeGirl],[isSadAnime]",
    "title": "ANIME_PIC_6cd117402e6426d5a243ec89392db5e6",
    "link_img": "https://live.staticflickr.com/65535/51565501349_bf6a1e2506_o.png",
    "id_image": "ANIME_PIC_6cd117402e6426d5a243ec89392db5e6",
    "count_view": 0
  },
  {
    "link_thumb": "https://live.staticflickr.com/65535/51564022737_e59ca1e265_n.jpg",
    "id_album": "1650283598",
    "description": "ANIME_PIC_6cfdf07db702454e6bf9d5e2fe4a7e0e,[GirlsSad],[isGirlAnime],[isCuteAnime],[isGirlsLoliAnime],[isSadAnimeGirl],[isSadAnime]",
    "title": "ANIME_PIC_6cfdf07db702454e6bf9d5e2fe4a7e0e",
    "link_img": "https://live.staticflickr.com/65535/51564022737_63df475ca6_o.jpg",
    "id_image": "ANIME_PIC_6cfdf07db702454e6bf9d5e2fe4a7e0e",
    "count_view": 0
  },
  {
    "link_thumb": "https://live.staticflickr.com/65535/51565749370_407a3bf8c5_n.jpg",
    "id_album": "1650283598",
    "description": "ANIME_PIC_6d13d08c225cd87776b9c4fa46d73336,[GirlsSad],[isGirlAnime],[isCuteAnime],[isGirlsHatsHoodieAnime],[isGirlsLoliAnime],[isSadAnimeGirl],[isSadAnime]",
    "title": "ANIME_PIC_6d13d08c225cd87776b9c4fa46d73336",
    "link_img": "https://live.staticflickr.com/65535/51565749370_a118cd1109_o.png",
    "id_image": "ANIME_PIC_6d13d08c225cd87776b9c4fa46d73336",
    "count_view": 0
  },
  {
    "link_thumb": "https://live.staticflickr.com/65535/51565749940_dfb539317a_n.jpg",
    "id_album": "1650283598",
    "description": "ANIME_PIC_6d153404a942dbfef2fa7e66b8326f7e,[GirlsSad],[isGirlAnime],[isCuteAnime],[isGirlsLoliAnime],[isSadAnimeGirl],[isGirlsSharpCanineToothAnime],[isSadAnime]",
    "title": "ANIME_PIC_6d153404a942dbfef2fa7e66b8326f7e",
    "link_img": "https://live.staticflickr.com/65535/51565749940_2dd195812b_o.jpg",
    "id_image": "ANIME_PIC_6d153404a942dbfef2fa7e66b8326f7e",
    "count_view": 0
  },
  {
    "link_thumb": "https://live.staticflickr.com/65535/51564024257_51ee8bec4f_n.jpg",
    "id_album": "1650283598",
    "description": "ANIME_PIC_6d25bfb905493323b059d166cb8dc37c,[GirlsSad],[isGirlAnime],[isBlackAnime],[isSadAnimeGirl],[isSadAnime]",
    "title": "ANIME_PIC_6d25bfb905493323b059d166cb8dc37c",
    "link_img": "https://live.staticflickr.com/65535/51564024257_694bdb5c16_o.png",
    "id_image": "ANIME_PIC_6d25bfb905493323b059d166cb8dc37c",
    "count_view": 0
  },
  {
    "link_thumb": "https://live.staticflickr.com/65535/51565751155_965b1d4a6b_n.jpg",
    "id_album": "1650283598",
    "description": "ANIME_PIC_6d27b11cd43f162f93beeb184d436c85,[GirlsSad],[isGirlAnime],[isCuteAnime],[isSadAnimeGirl],[isSadAnime]",
    "title": "ANIME_PIC_6d27b11cd43f162f93beeb184d436c85",
    "link_img": "https://live.staticflickr.com/65535/51565751155_9cce938dc3_o.jpg",
    "id_image": "ANIME_PIC_6d27b11cd43f162f93beeb184d436c85",
    "count_view": 0
  },
  {
    "link_thumb": "https://live.staticflickr.com/65535/51564816991_0ed7110d94_n.jpg",
    "id_album": "1650283598",
    "description": "ANIME_PIC_6d420671b202c041aebba19bee819aa2,[GirlsSad],[isGirlAnime],[isCuteAnime],[isGirlsLoliAnime],[isSadAnimeGirl],[isSadAnime]",
    "title": "ANIME_PIC_6d420671b202c041aebba19bee819aa2",
    "link_img": "https://live.staticflickr.com/65535/51564816991_b458edfff8_o.jpg",
    "id_image": "ANIME_PIC_6d420671b202c041aebba19bee819aa2",
    "count_view": 0
  },
  {
    "link_thumb": "https://live.staticflickr.com/65535/51565504699_24a3d6d3dc_n.jpg",
    "id_album": "1650283598",
    "description": "ANIME_PIC_6d4be8ec6b5ec02d44b1bd93320f8dd1,[GirlsSad],[isGirlAnime],[isCuteAnime],[isSadAnimeGirl],[isSadAnime]",
    "title": "ANIME_PIC_6d4be8ec6b5ec02d44b1bd93320f8dd1",
    "link_img": "https://live.staticflickr.com/65535/51565504699_ae1a8a0830_o.png",
    "id_image": "ANIME_PIC_6d4be8ec6b5ec02d44b1bd93320f8dd1",
    "count_view": 0
  },
  {
    "link_thumb": "https://live.staticflickr.com/65535/51565505519_44f21e892e_n.jpg",
    "id_album": "1650283598",
    "description": "ANIME_PIC_6d4f9b018210e59a19b489acdd9ddd52,[GirlsSad],[isGirlAnime],[isCuteAnime],[isGirlsLoliAnime],[isSadAnimeGirl],[isSadAnime]",
    "title": "ANIME_PIC_6d4f9b018210e59a19b489acdd9ddd52",
    "link_img": "https://live.staticflickr.com/65535/51565505519_b701abc26f_o.png",
    "id_image": "ANIME_PIC_6d4f9b018210e59a19b489acdd9ddd52",
    "count_view": 0
  },
  {
    "link_thumb": "https://live.staticflickr.com/65535/51564818871_8251b82494_n.jpg",
    "id_album": "1650283598",
    "description": "ANIME_PIC_6d5485da853af2a8092c29f25ff1022f,[GirlsSad],[isGirlAnime],[isCuteAnime],[isSadAnimeGirl],[isSadAnime]",
    "title": "ANIME_PIC_6d5485da853af2a8092c29f25ff1022f",
    "link_img": "https://live.staticflickr.com/65535/51564818871_15c7ddd83f_o.jpg",
    "id_image": "ANIME_PIC_6d5485da853af2a8092c29f25ff1022f",
    "count_view": 0
  },
  {
    "link_thumb": "https://live.staticflickr.com/65535/51565753925_58e5b52741_n.jpg",
    "id_album": "1650283598",
    "description": "ANIME_PIC_6d5956c49a09a97e9b84dd06b0bfa917,[GirlsSad],[isGirlAnime],[isCuteAnime],[isSadAnimeGirl],[isSadAnime]",
    "title": "ANIME_PIC_6d5956c49a09a97e9b84dd06b0bfa917",
    "link_img": "https://live.staticflickr.com/65535/51565753925_4ff0c5ebe6_o.png",
    "id_image": "ANIME_PIC_6d5956c49a09a97e9b84dd06b0bfa917",
    "count_view": 0
  },
  {
    "link_thumb": "https://live.staticflickr.com/65535/51565754480_77f2ea3b42_n.jpg",
    "id_album": "1650283598",
    "description": "ANIME_PIC_6d5aeac6cb684de4ddeadfbefba6247b,[GirlsSad],[isGirlAnime],[isSadAnimeGirl],[isSadAnime]",
    "title": "ANIME_PIC_6d5aeac6cb684de4ddeadfbefba6247b",
    "link_img": "https://live.staticflickr.com/65535/51565754480_44836a3bbf_o.jpg",
    "id_image": "ANIME_PIC_6d5aeac6cb684de4ddeadfbefba6247b",
    "count_view": 0
  },
  {
    "link_thumb": "https://live.staticflickr.com/65535/51565065628_c63837e061_n.jpg",
    "id_album": "1650283598",
    "description": "ANIME_PIC_6d5ffade8e301d846a8ffd785f4787ba,[GirlsSad],[isGirlAnime],[isCuteAnime],[isSadAnimeGirl],[isSadAnime]",
    "title": "ANIME_PIC_6d5ffade8e301d846a8ffd785f4787ba",
    "link_img": "https://live.staticflickr.com/65535/51565065628_df1210a6ff_o.jpg",
    "id_image": "ANIME_PIC_6d5ffade8e301d846a8ffd785f4787ba",
    "count_view": 0
  },
  {
    "link_thumb": "https://live.staticflickr.com/65535/51565755155_e9ce5fb92c_n.jpg",
    "id_album": "1650283598",
    "description": "ANIME_PIC_6d710fc906f2ede73ecb1562521a2a9f,[GirlsSad],[isGirlAnime],[isCuteAnime],[isSadAnimeGirl],[isSadAnime]",
    "title": "ANIME_PIC_6d710fc906f2ede73ecb1562521a2a9f",
    "link_img": "https://live.staticflickr.com/65535/51565755155_7122ccb68a_o.jpg",
    "id_image": "ANIME_PIC_6d710fc906f2ede73ecb1562521a2a9f",
    "count_view": 0
  },
  {
    "link_thumb": "https://live.staticflickr.com/65535/51565066338_3006ca268a_n.jpg",
    "id_album": "1650283598",
    "description": "ANIME_PIC_6d7242abc0fdbd1fe562c067c9b4bb7e,[GirlsSad],[isGirlAnime],[isCuteAnime],[isGirlsLoliAnime],[isSadAnimeGirl],[isSadAnime]",
    "title": "ANIME_PIC_6d7242abc0fdbd1fe562c067c9b4bb7e",
    "link_img": "https://live.staticflickr.com/65535/51565066338_a85a25fb02_o.png",
    "id_image": "ANIME_PIC_6d7242abc0fdbd1fe562c067c9b4bb7e",
    "count_view": 0
  },
  {
    "link_thumb": "https://live.staticflickr.com/65535/51564821461_b596a37ec5_n.jpg",
    "id_album": "1650283598",
    "description": "ANIME_PIC_6d800f24aed401b6776631d5f325154a,[GirlsSad],[isGirlAnime],[isCuteAnime],[isGirlsLoliAnime],[isSadAnimeGirl],[isSadAnime]",
    "title": "ANIME_PIC_6d800f24aed401b6776631d5f325154a",
    "link_img": "https://live.staticflickr.com/65535/51564821461_4fb274abf9_o.png",
    "id_image": "ANIME_PIC_6d800f24aed401b6776631d5f325154a",
    "count_view": 0
  },
  {
    "link_thumb": "https://live.staticflickr.com/65535/51564030742_d29fecfbc4_n.jpg",
    "id_album": "1650283598",
    "description": "ANIME_PIC_6d8cb1001cd52b8227e4640d5c2b0417,[GirlsSad],[isGirlAnime],[isSadAnimeGirl],[isSadAnime]",
    "title": "ANIME_PIC_6d8cb1001cd52b8227e4640d5c2b0417",
    "link_img": "https://live.staticflickr.com/65535/51564030742_d0700ab332_o.png",
    "id_image": "ANIME_PIC_6d8cb1001cd52b8227e4640d5c2b0417",
    "count_view": 0
  },
  {
    "link_thumb": "https://live.staticflickr.com/65535/51565068128_a730927b77_n.jpg",
    "id_album": "1650283598",
    "description": "ANIME_PIC_6d8d99b1861cc3de16c68cd790b66bfe,[GirlsSad],[isGirlAnime],[isCuteAnime],[isGirlsHatsHoodieAnime],[isSadAnimeGirl],[isSadAnime]",
    "title": "ANIME_PIC_6d8d99b1861cc3de16c68cd790b66bfe",
    "link_img": "https://live.staticflickr.com/65535/51565068128_0b99dc546b_o.png",
    "id_image": "ANIME_PIC_6d8d99b1861cc3de16c68cd790b66bfe",
    "count_view": 0
  },
  {
    "link_thumb": "https://live.staticflickr.com/65535/51564032012_b0fc3800b0_n.jpg",
    "id_album": "1650283598",
    "description": "ANIME_PIC_6d9ac290140293ff749556d58839c79d,[GirlsSad],[isGirlAnime],[isCuteAnime],[isGirlsLoliAnime],[isSadAnimeGirl],[isSadAnime]",
    "title": "ANIME_PIC_6d9ac290140293ff749556d58839c79d",
    "link_img": "https://live.staticflickr.com/65535/51564032012_00b209f8c7_o.jpg",
    "id_image": "ANIME_PIC_6d9ac290140293ff749556d58839c79d",
    "count_view": 0
  },
  {
    "link_thumb": "https://live.staticflickr.com/65535/51565511149_a44b5d988e_n.jpg",
    "id_album": "1650283598",
    "description": "ANIME_PIC_6dafd2c9e1dcd690247b8b11ba8ac1cb,[GirlsSad],[isGirlAnime],[isSadAnimeGirl],[isSadAnime]",
    "title": "ANIME_PIC_6dafd2c9e1dcd690247b8b11ba8ac1cb",
    "link_img": "https://live.staticflickr.com/65535/51565511149_1fa2985bb4_o.png",
    "id_image": "ANIME_PIC_6dafd2c9e1dcd690247b8b11ba8ac1cb",
    "count_view": 0
  },
  {
    "link_thumb": "https://live.staticflickr.com/65535/51564032872_093b9cc2e2_n.jpg",
    "id_album": "1650283598",
    "description": "ANIME_PIC_6db87725964a4ac159cc944b05ae1a90,[GirlsSad],[isGirlAnime],[isCuteAnime],[isGirlsLoliAnime],[isSadAnimeGirl],[isSadAnime]",
    "title": "ANIME_PIC_6db87725964a4ac159cc944b05ae1a90",
    "link_img": "https://live.staticflickr.com/65535/51564032872_d8e5f0e6ce_o.jpg",
    "id_image": "ANIME_PIC_6db87725964a4ac159cc944b05ae1a90",
    "count_view": 0
  },
  {
    "link_thumb": "https://live.staticflickr.com/65535/49987831002_d954754a5a_n.jpg",
    "id_album": "1650283598",
    "description": "ANIME_PIC_6dbbecc0f438a47198069eda176c4238,[isGirlAnime],[isSadAnime],[isSadAnimeGirl],[isCuteAnime],[Girls Sad],[GirlsSad]",
    "title": "ANIME_PIC_6dbbecc0f438a47198069eda176c4238",
    "link_img": "https://live.staticflickr.com/65535/49987831002_4088fff637_o.png",
    "id_image": "ANIME_PIC_6dbbecc0f438a47198069eda176c4238",
    "count_view": 0
  },
  {
    "link_thumb": "https://live.staticflickr.com/65535/51564033457_2553584d71_n.jpg",
    "id_album": "1650283598",
    "description": "ANIME_PIC_6dbd8456c913b67e4388c9cb33f0887c,[GirlsSad],[isGirlAnime],[isSadAnimeGirl],[isSadAnime]",
    "title": "ANIME_PIC_6dbd8456c913b67e4388c9cb33f0887c",
    "link_img": "https://live.staticflickr.com/65535/51564033457_f8f63c3361_o.jpg",
    "id_image": "ANIME_PIC_6dbd8456c913b67e4388c9cb33f0887c",
    "count_view": 0
  },
  {
    "link_thumb": "https://live.staticflickr.com/65535/51564824926_3171e24ec2_n.jpg",
    "id_album": "1650283598",
    "description": "ANIME_PIC_6dc38bbf5d965d995ada11fb7cc3aee3,[GirlsSad],[isGirlAnime],[isCuteAnime],[isGirlsHatsHoodieAnime],[isGirlsLoliAnime],[isSadAnimeGirl],[isSadAnime]",
    "title": "ANIME_PIC_6dc38bbf5d965d995ada11fb7cc3aee3",
    "link_img": "https://live.staticflickr.com/65535/51564824926_2541864071_o.jpg",
    "id_image": "ANIME_PIC_6dc38bbf5d965d995ada11fb7cc3aee3",
    "count_view": 0
  },
  {
    "link_thumb": "https://live.staticflickr.com/65535/51565070758_c27ccc2169_n.jpg",
    "id_album": "1650283598",
    "description": "ANIME_PIC_6dd7503e267039f2a78fa7969f89568d,[GirlsSad],[isGirlAnime],[isCuteAnime],[isGirlsLoliAnime],[isSadAnimeGirl],[isSadAnime]",
    "title": "ANIME_PIC_6dd7503e267039f2a78fa7969f89568d",
    "link_img": "https://live.staticflickr.com/65535/51565070758_968cd89277_o.png",
    "id_image": "ANIME_PIC_6dd7503e267039f2a78fa7969f89568d",
    "count_view": 0
  },
  {
    "link_thumb": "https://live.staticflickr.com/65535/51564825561_02b9b5864d_n.jpg",
    "id_album": "1650283598",
    "description": "ANIME_PIC_6ddd60fe6ef35fc42e70db08fd7f3170,[GirlsSad],[isGirlAnime],[isCuteAnime],[isSadAnimeGirl],[isSadAnime]",
    "title": "ANIME_PIC_6ddd60fe6ef35fc42e70db08fd7f3170",
    "link_img": "https://live.staticflickr.com/65535/51564825561_2afc7f3d84_o.jpg",
    "id_image": "ANIME_PIC_6ddd60fe6ef35fc42e70db08fd7f3170",
    "count_view": 0
  },
  {
    "link_thumb": "https://live.staticflickr.com/65535/51565071598_4b7b549eb4_n.jpg",
    "id_album": "1650283598",
    "description": "ANIME_PIC_6de8958b9251e0f7525879d705a8a171,[GirlsSad],[isGirlAnime],[isCuteAnime],[isSadAnimeGirl],[isSadAnime]",
    "title": "ANIME_PIC_6de8958b9251e0f7525879d705a8a171",
    "link_img": "https://live.staticflickr.com/65535/51565071598_6851d2f1f3_o.jpg",
    "id_image": "ANIME_PIC_6de8958b9251e0f7525879d705a8a171",
    "count_view": 0
  },
  {
    "link_thumb": "https://live.staticflickr.com/65535/51564826701_a3e0778a67_n.jpg",
    "id_album": "1650283598",
    "description": "ANIME_PIC_6de9502ebf332a350621c37c5cef07e5,[GirlsSad],[isGirlAnime],[isCuteAnime],[isGirlsLoliAnime],[isSadAnimeGirl],[isSadAnime]",
    "title": "ANIME_PIC_6de9502ebf332a350621c37c5cef07e5",
    "link_img": "https://live.staticflickr.com/65535/51564826701_83ea4bb39a_o.jpg",
    "id_image": "ANIME_PIC_6de9502ebf332a350621c37c5cef07e5",
    "count_view": 0
  },
  {
    "link_thumb": "https://live.staticflickr.com/65535/51564826921_8269784220_n.jpg",
    "id_album": "1650283598",
    "description": "ANIME_PIC_6e003ec0abdb623326aec97110ee50d7,[GirlsSad],[isGirlAnime],[isCuteAnime],[isGirlEarsNekoAnime],[isGirlsLoliAnime],[isSadAnimeGirl],[isSadAnime]",
    "title": "ANIME_PIC_6e003ec0abdb623326aec97110ee50d7",
    "link_img": "https://live.staticflickr.com/65535/51564826921_e4a86f3049_o.jpg",
    "id_image": "ANIME_PIC_6e003ec0abdb623326aec97110ee50d7",
    "count_view": 0
  },
  {
    "link_thumb": "https://live.staticflickr.com/65535/51564827266_fb2dc7ab7c_n.jpg",
    "id_album": "1650283598",
    "description": "ANIME_PIC_6e1c3539ef102a9d10cef466f9902241,[GirlsSad],[isGirlAnime],[isCuteAnime],[isSadAnimeGirl],[isSadAnime]",
    "title": "ANIME_PIC_6e1c3539ef102a9d10cef466f9902241",
    "link_img": "https://live.staticflickr.com/65535/51564827266_eb6cf5b055_o.png",
    "id_image": "ANIME_PIC_6e1c3539ef102a9d10cef466f9902241",
    "count_view": 0
  },
  {
    "link_thumb": "https://live.staticflickr.com/65535/51565515029_06ff3a911f_n.jpg",
    "id_album": "1650283598",
    "description": "ANIME_PIC_6e22bb1e2596ca8c9aa4448e70580780,[GirlsSad],[isGirlAnime],[isCuteAnime],[isGirlsLoliAnime],[isSadAnimeGirl],[isSadAnime]",
    "title": "ANIME_PIC_6e22bb1e2596ca8c9aa4448e70580780",
    "link_img": "https://live.staticflickr.com/65535/51565515029_b462abe6db_o.png",
    "id_image": "ANIME_PIC_6e22bb1e2596ca8c9aa4448e70580780",
    "count_view": 0
  },
  {
    "link_thumb": "https://live.staticflickr.com/65535/51564036492_6b3499ce4e_n.jpg",
    "id_album": "1650283598",
    "description": "ANIME_PIC_6e2bf9941d58df6074692b0b29f01723,[GirlsSad],[isGirlAnime],[isCuteAnime],[isSadAnimeGirl],[isSadAnime]",
    "title": "ANIME_PIC_6e2bf9941d58df6074692b0b29f01723",
    "link_img": "https://live.staticflickr.com/65535/51564036492_7a3e7333ab_o.jpg",
    "id_image": "ANIME_PIC_6e2bf9941d58df6074692b0b29f01723",
    "count_view": 0
  },
  {
    "link_thumb": "https://live.staticflickr.com/65535/51565763155_6248f2d021_n.jpg",
    "id_album": "1650283598",
    "description": "ANIME_PIC_6e3387b6841ced9ec5ee2b0952b10b5e,[GirlsSad],[isGirlAnime],[isCuteAnime],[isSadAnimeGirl],[isSadAnime]",
    "title": "ANIME_PIC_6e3387b6841ced9ec5ee2b0952b10b5e",
    "link_img": "https://live.staticflickr.com/65535/51565763155_95206c2149_o.png",
    "id_image": "ANIME_PIC_6e3387b6841ced9ec5ee2b0952b10b5e",
    "count_view": 0
  },
  {
    "link_thumb": "https://live.staticflickr.com/65535/49987070353_5e1dd9ccd3_n.jpg",
    "id_album": "1650283598",
    "description": "ANIME_PIC_6e34e2c5f78f7b37f517274f97d1ab96,[isGirlAnime],[isSadAnime],[isSadAnimeGirl],[isCuteAnime],[Girls Sad],[GirlsSad]",
    "title": "ANIME_PIC_6e34e2c5f78f7b37f517274f97d1ab96",
    "link_img": "https://live.staticflickr.com/65535/49987070353_0a6e0123c7_o.png",
    "id_image": "ANIME_PIC_6e34e2c5f78f7b37f517274f97d1ab96",
    "count_view": 0
  },
  {
    "link_thumb": "https://live.staticflickr.com/65535/51565764030_4844617d45_n.jpg",
    "id_album": "1650283598",
    "description": "ANIME_PIC_6e4b44e9c1bb6a0b89b0f52a69456130,[GirlsSad],[isGirlAnime],[isCuteAnime],[isGirlsHatsHoodieAnime],[isSadAnimeGirl],[isSadAnime]",
    "title": "ANIME_PIC_6e4b44e9c1bb6a0b89b0f52a69456130",
    "link_img": "https://live.staticflickr.com/65535/51565764030_e7d2c04db0_o.jpg",
    "id_image": "ANIME_PIC_6e4b44e9c1bb6a0b89b0f52a69456130",
    "count_view": 0
  },
  {
    "link_thumb": "https://live.staticflickr.com/65535/51564829821_cfd2d7037c_n.jpg",
    "id_album": "1650283598",
    "description": "ANIME_PIC_6e5047ae5db0ed64067c7ddaec3ecb10,[GirlsSad],[isGirlAnime],[isCuteAnime],[isGirlsLoliAnime],[isSadAnimeGirl],[isSadAnime]",
    "title": "ANIME_PIC_6e5047ae5db0ed64067c7ddaec3ecb10",
    "link_img": "https://live.staticflickr.com/65535/51564829821_26e7ccb881_o.png",
    "id_image": "ANIME_PIC_6e5047ae5db0ed64067c7ddaec3ecb10",
    "count_view": 0
  },
  {
    "link_thumb": "https://live.staticflickr.com/65535/51565076173_0b55084887_n.jpg",
    "id_album": "1650283598",
    "description": "ANIME_PIC_6e567be9665af607b12aa87df5eb5eea,[GirlsSad],[isGirlAnime],[isCuteAnime],[isGirlsLoliAnime],[isSadAnimeGirl],[isSadAnime]",
    "title": "ANIME_PIC_6e567be9665af607b12aa87df5eb5eea",
    "link_img": "https://live.staticflickr.com/65535/51565076173_b39d330029_o.jpg",
    "id_image": "ANIME_PIC_6e567be9665af607b12aa87df5eb5eea",
    "count_view": 0
  },
  {
    "link_thumb": "https://live.staticflickr.com/65535/51564039717_298c978342_n.jpg",
    "id_album": "1650283598",
    "description": "ANIME_PIC_6e59c13e48b7377de2278f520b5578fe,[GirlsSad],[isGirlAnime],[isCuteAnime],[isSadAnimeGirl],[isSadAnime]",
    "title": "ANIME_PIC_6e59c13e48b7377de2278f520b5578fe",
    "link_img": "https://live.staticflickr.com/65535/51564039717_65f84b7389_o.jpg",
    "id_image": "ANIME_PIC_6e59c13e48b7377de2278f520b5578fe",
    "count_view": 0
  },
  {
    "link_thumb": "https://live.staticflickr.com/65535/51565077128_f71088db5d_n.jpg",
    "id_album": "1650283598",
    "description": "ANIME_PIC_6e76e1b170b0a302379d38ecb9c4947b,[GirlsSad],[isGirlAnime],[isGirlsHatsHoodieAnime],[isSadAnimeGirl],[isSadAnime]",
    "title": "ANIME_PIC_6e76e1b170b0a302379d38ecb9c4947b",
    "link_img": "https://live.staticflickr.com/65535/51565077128_4d7bb32068_o.jpg",
    "id_image": "ANIME_PIC_6e76e1b170b0a302379d38ecb9c4947b",
    "count_view": 0
  },
  {
    "link_thumb": "https://live.staticflickr.com/65535/50152955833_0d05a72421_n.jpg",
    "id_album": "1650283598",
    "description": "ANIME_PIC_6e7b4cf4d4db646a125ea7b0fb862aea,[isGirlAnime],[isSadAnime],[isSadAnimeGirl],[isCuteAnime],[Girls Sad],[GirlsSad]",
    "title": "ANIME_PIC_6e7b4cf4d4db646a125ea7b0fb862aea",
    "link_img": "https://live.staticflickr.com/65535/50152955833_3e5d2b864b_o.jpg",
    "id_image": "ANIME_PIC_6e7b4cf4d4db646a125ea7b0fb862aea",
    "count_view": 0
  },
  {
    "link_thumb": "https://live.staticflickr.com/65535/51564832011_e727b9eae0_n.jpg",
    "id_album": "1650283598",
    "description": "ANIME_PIC_6e9e5bdeabd3bc3ba194e99306bf3fe1,[GirlsSad],[isGirlAnime],[isCuteAnime],[isGirlsHatsHoodieAnime],[isGirlsLoliAnime],[isSadAnimeGirl],[isSadAnime]",
    "title": "ANIME_PIC_6e9e5bdeabd3bc3ba194e99306bf3fe1",
    "link_img": "https://live.staticflickr.com/65535/51564832011_ce384d9195_o.jpg",
    "id_image": "ANIME_PIC_6e9e5bdeabd3bc3ba194e99306bf3fe1",
    "count_view": 0
  },
  {
    "link_thumb": "https://live.staticflickr.com/65535/51565767090_90409c357c_n.jpg",
    "id_album": "1650283598",
    "description": "ANIME_PIC_6ea086664be322a242062a8adfcfb66d,[GirlsSad],[isGirlAnime],[isSadAnimeGirl],[isSadAnime]",
    "title": "ANIME_PIC_6ea086664be322a242062a8adfcfb66d",
    "link_img": "https://live.staticflickr.com/65535/51565767090_1d486d6ee5_o.jpg",
    "id_image": "ANIME_PIC_6ea086664be322a242062a8adfcfb66d",
    "count_view": 0
  },
  {
    "link_thumb": "https://live.staticflickr.com/65535/51564041562_fc22f3c0ef_n.jpg",
    "id_album": "1650283598",
    "description": "ANIME_PIC_6ea39c29bbcce413c02f0e952f70243f,[GirlsSad],[isGirlAnime],[isCuteAnime],[isSadAnimeGirl],[isSadAnime]",
    "title": "ANIME_PIC_6ea39c29bbcce413c02f0e952f70243f",
    "link_img": "https://live.staticflickr.com/65535/51564041562_6ec07977b2_o.jpg",
    "id_image": "ANIME_PIC_6ea39c29bbcce413c02f0e952f70243f",
    "count_view": 0
  },
  {
    "link_thumb": "https://live.staticflickr.com/65535/51565767715_d33a563c84_n.jpg",
    "id_album": "1650283598",
    "description": "ANIME_PIC_6ebad14bfb90cdc48ebc7b39215476dd,[GirlsSad],[isGirlAnime],[isCuteAnime],[isSadAnimeGirl],[isSadAnime]",
    "title": "ANIME_PIC_6ebad14bfb90cdc48ebc7b39215476dd",
    "link_img": "https://live.staticflickr.com/65535/51565767715_3f9f217608_o.jpg",
    "id_image": "ANIME_PIC_6ebad14bfb90cdc48ebc7b39215476dd",
    "count_view": 0
  },
  {
    "link_thumb": "https://live.staticflickr.com/65535/51565768050_761b5ce2f9_n.jpg",
    "id_album": "1650283598",
    "description": "ANIME_PIC_6ec645464bf4fb98edd268fbd59a38cf,[GirlsSad],[isGirlAnime],[isCuteAnime],[isGirlsLoliAnime],[isSadAnimeGirl],[isSadAnime]",
    "title": "ANIME_PIC_6ec645464bf4fb98edd268fbd59a38cf",
    "link_img": "https://live.staticflickr.com/65535/51565768050_2481d9bdf5_o.jpg",
    "id_image": "ANIME_PIC_6ec645464bf4fb98edd268fbd59a38cf",
    "count_view": 0
  },
  {
    "link_thumb": "https://live.staticflickr.com/65535/51564042562_e7cb8128bc_n.jpg",
    "id_album": "1650283598",
    "description": "ANIME_PIC_6edca787a8c1cb0603ddcc60495ba58d,[GirlsSad],[isGirlAnime],[isCuteAnime],[isSadAnimeGirl],[isSadAnime]",
    "title": "ANIME_PIC_6edca787a8c1cb0603ddcc60495ba58d",
    "link_img": "https://live.staticflickr.com/65535/51564042562_b035990767_o.png",
    "id_image": "ANIME_PIC_6edca787a8c1cb0603ddcc60495ba58d",
    "count_view": 0
  },
  {
    "link_thumb": "https://live.staticflickr.com/65535/51565522014_6568fdaf0f_n.jpg",
    "id_album": "1650283598",
    "description": "ANIME_PIC_6edd83c5be8385d811b1c026248044f2,[GirlsSad],[isGirlAnime],[isCuteAnime],[isGirlsLoliAnime],[isSadAnimeGirl],[isSadAnime]",
    "title": "ANIME_PIC_6edd83c5be8385d811b1c026248044f2",
    "link_img": "https://live.staticflickr.com/65535/51565522014_bb1f7cd2f1_o.jpg",
    "id_image": "ANIME_PIC_6edd83c5be8385d811b1c026248044f2",
    "count_view": 0
  },
  {
    "link_thumb": "https://live.staticflickr.com/65535/51565522489_923be57cde_n.jpg",
    "id_album": "1650283598",
    "description": "ANIME_PIC_6ee03db3b10123bb9d40063e969c08bf,[GirlsSad],[isGirlAnime],[isCuteAnime],[isGirlsLoliAnime],[isSadAnimeGirl],[isSadAnime]",
    "title": "ANIME_PIC_6ee03db3b10123bb9d40063e969c08bf",
    "link_img": "https://live.staticflickr.com/65535/51565522489_f6a05dd62d_o.png",
    "id_image": "ANIME_PIC_6ee03db3b10123bb9d40063e969c08bf",
    "count_view": 0
  },
  {
    "link_thumb": "https://live.staticflickr.com/65535/51564835631_e970ed64e1_n.jpg",
    "id_album": "1650283598",
    "description": "ANIME_PIC_6ee4d1c828251e9e7a3f7bcfcff9ad29,[GirlsSad],[isGirlAnime],[isCuteAnime],[isBlackAnime],[isSadAnimeGirl],[isSadAnime]",
    "title": "ANIME_PIC_6ee4d1c828251e9e7a3f7bcfcff9ad29",
    "link_img": "https://live.staticflickr.com/65535/51564835631_14f0dec044_o.png",
    "id_image": "ANIME_PIC_6ee4d1c828251e9e7a3f7bcfcff9ad29",
    "count_view": 0
  },
  {
    "link_thumb": "https://live.staticflickr.com/65535/51565770655_34eaab1482_n.jpg",
    "id_album": "1650283598",
    "description": "ANIME_PIC_6ef7b5662733aee1ef8dd162a3dc7a53,[GirlsSad],[isGirlAnime],[isCuteAnime],[isSadAnimeGirl],[isSadAnime]",
    "title": "ANIME_PIC_6ef7b5662733aee1ef8dd162a3dc7a53",
    "link_img": "https://live.staticflickr.com/65535/51565770655_616f36d91a_o.jpg",
    "id_image": "ANIME_PIC_6ef7b5662733aee1ef8dd162a3dc7a53",
    "count_view": 0
  },
  {
    "link_thumb": "https://live.staticflickr.com/65535/51565771005_163b75bb78_n.jpg",
    "id_album": "1650283598",
    "description": "ANIME_PIC_6f0289d317c8b235d7658748db3bea0f,[GirlsSad],[isGirlAnime],[isCuteAnime],[isGirlsLoliAnime],[isSadAnimeGirl],[isSadAnime]",
    "title": "ANIME_PIC_6f0289d317c8b235d7658748db3bea0f",
    "link_img": "https://live.staticflickr.com/65535/51565771005_8936bc7b4e_o.jpg",
    "id_image": "ANIME_PIC_6f0289d317c8b235d7658748db3bea0f",
    "count_view": 0
  },
  {
    "link_thumb": "https://live.staticflickr.com/65535/50240147833_9ae7060c38_n.jpg",
    "id_album": "1650283598",
    "description": "ANIME_PIC_6f084249220bc0c52bd3dc93894033d0,[isGirlAnime],[isSadAnime],[isSadAnimeGirl],[isCuteAnime],[Girls Sad],[GirlsSad]",
    "title": "ANIME_PIC_6f084249220bc0c52bd3dc93894033d0",
    "link_img": "https://live.staticflickr.com/65535/50240147833_69a5270afa_o.png",
    "id_image": "ANIME_PIC_6f084249220bc0c52bd3dc93894033d0",
    "count_view": 0
  },
  {
    "link_thumb": "https://live.staticflickr.com/65535/51565524629_773d8f77cc_n.jpg",
    "id_album": "1650283598",
    "description": "ANIME_PIC_6f17f8fb16d33bbfd13c1bf4e1f12530,[GirlsSad],[isGirlAnime],[isCuteAnime],[isSadAnimeGirl],[isSadAnime]",
    "title": "ANIME_PIC_6f17f8fb16d33bbfd13c1bf4e1f12530",
    "link_img": "https://live.staticflickr.com/65535/51565524629_ae1da1efbe_o.jpg",
    "id_image": "ANIME_PIC_6f17f8fb16d33bbfd13c1bf4e1f12530",
    "count_view": 0
  },
  {
    "link_thumb": "https://live.staticflickr.com/65535/51565525024_2eacdf5797_n.jpg",
    "id_album": "1650283598",
    "description": "ANIME_PIC_6f1ac4e59633840bd360c4165d0714fb,[GirlsSad],[isGirlAnime],[isCuteAnime],[isGirlEarsNekoAnime],[isGirlsLoliAnime],[isSadAnimeGirl],[isSadAnime]",
    "title": "ANIME_PIC_6f1ac4e59633840bd360c4165d0714fb",
    "link_img": "https://live.staticflickr.com/65535/51565525024_9a750ef04b_o.png",
    "id_image": "ANIME_PIC_6f1ac4e59633840bd360c4165d0714fb",
    "count_view": 0
  },
  {
    "link_thumb": "https://live.staticflickr.com/65535/51564046832_4656d1b434_n.jpg",
    "id_album": "1650283598",
    "description": "ANIME_PIC_6f1cb5b92b378005fa51797705c5745d,[GirlsSad],[isGirlAnime],[isCuteAnime],[isGirlsLoliAnime],[isSadAnimeGirl],[isSadAnime]",
    "title": "ANIME_PIC_6f1cb5b92b378005fa51797705c5745d",
    "link_img": "https://live.staticflickr.com/65535/51564046832_826c88b52e_o.png",
    "id_image": "ANIME_PIC_6f1cb5b92b378005fa51797705c5745d",
    "count_view": 0
  },
  {
    "link_thumb": "https://live.staticflickr.com/65535/51565526054_19e4c2fa43_n.jpg",
    "id_album": "1650283598",
    "description": "ANIME_PIC_6f236979ad5955182c77c0b53d4dbf62,[GirlsSad],[isGirlAnime],[isCuteAnime],[isGirlsLoliAnime],[isSadAnimeGirl],[isSadAnime]",
    "title": "ANIME_PIC_6f236979ad5955182c77c0b53d4dbf62",
    "link_img": "https://live.staticflickr.com/65535/51565526054_50af7a0099_o.jpg",
    "id_image": "ANIME_PIC_6f236979ad5955182c77c0b53d4dbf62",
    "count_view": 0
  },
  {
    "link_thumb": "https://live.staticflickr.com/65535/51565526444_c3e536c34f_n.jpg",
    "id_album": "1650283598",
    "description": "ANIME_PIC_6f426aa7687160199a8bb57649570bfe,[GirlsSad],[isGirlAnime],[isCuteAnime],[isGirlsLoliAnime],[isSadAnimeGirl],[isSadAnime]",
    "title": "ANIME_PIC_6f426aa7687160199a8bb57649570bfe",
    "link_img": "https://live.staticflickr.com/65535/51565526444_56ed0463ed_o.png",
    "id_image": "ANIME_PIC_6f426aa7687160199a8bb57649570bfe",
    "count_view": 0
  },
  {
    "link_thumb": "https://live.staticflickr.com/65535/51565085478_96ee1d8e70_n.jpg",
    "id_album": "1650283598",
    "description": "ANIME_PIC_6f4708a7bfffa08be6b6c4106400ca06,[GirlsSad],[isGirlAnime],[isCuteAnime],[isGirlsHatsHoodieAnime],[isGirlsHornsAnime],[isGirlsLoliAnime],[isSadAnimeGirl],[isSadAnime]",
    "title": "ANIME_PIC_6f4708a7bfffa08be6b6c4106400ca06",
    "link_img": "https://live.staticflickr.com/65535/51565085478_d550873ba6_o.png",
    "id_image": "ANIME_PIC_6f4708a7bfffa08be6b6c4106400ca06",
    "count_view": 0
  },
  {
    "link_thumb": "https://live.staticflickr.com/65535/51564048487_1482c1b4d1_n.jpg",
    "id_album": "1650283598",
    "description": "ANIME_PIC_6f4c778c1e0a8bc537f5e52afa5d15b0,[GirlsSad],[isGirlAnime],[isSadAnimeGirl],[isSadAnime]",
    "title": "ANIME_PIC_6f4c778c1e0a8bc537f5e52afa5d15b0",
    "link_img": "https://live.staticflickr.com/65535/51564048487_217eea26f6_o.jpg",
    "id_image": "ANIME_PIC_6f4c778c1e0a8bc537f5e52afa5d15b0",
    "count_view": 0
  },
  {
    "link_thumb": "https://live.staticflickr.com/65535/51564840436_8267094872_n.jpg",
    "id_album": "1650283598",
    "description": "ANIME_PIC_6f5ac65e43483e372c84005bbb13d298,[GirlsSad],[isGirlAnime],[isCuteAnime],[isGirlsLoliAnime],[isSadAnimeGirl],[isSadAnime]",
    "title": "ANIME_PIC_6f5ac65e43483e372c84005bbb13d298",
    "link_img": "https://live.staticflickr.com/65535/51564840436_3132f64c99_o.jpg",
    "id_image": "ANIME_PIC_6f5ac65e43483e372c84005bbb13d298",
    "count_view": 0
  },
  {
    "link_thumb": "https://live.staticflickr.com/65535/51565528269_b3a45e63c1_n.jpg",
    "id_album": "1650283598",
    "description": "ANIME_PIC_6f5e32c27ceb3e465969a38bfa728d3b,[GirlsSad],[isGirlAnime],[isCuteAnime],[isGirlsLoliAnime],[isSadAnimeGirl],[isSadAnime]",
    "title": "ANIME_PIC_6f5e32c27ceb3e465969a38bfa728d3b",
    "link_img": "https://live.staticflickr.com/65535/51565528269_48b359ba4d_o.png",
    "id_image": "ANIME_PIC_6f5e32c27ceb3e465969a38bfa728d3b",
    "count_view": 0
  },
  {
    "link_thumb": "https://live.staticflickr.com/65535/51564841511_80ce7e9840_n.jpg",
    "id_album": "1650283598",
    "description": "ANIME_PIC_6f6e15dfb6780ceffc5c1f4dd4d23559,[GirlsSad],[isGirlAnime],[isCuteAnime],[isSadAnimeGirl],[isSadAnime]",
    "title": "ANIME_PIC_6f6e15dfb6780ceffc5c1f4dd4d23559",
    "link_img": "https://live.staticflickr.com/65535/51564841511_21aed14187_o.png",
    "id_image": "ANIME_PIC_6f6e15dfb6780ceffc5c1f4dd4d23559",
    "count_view": 0
  },
  {
    "link_thumb": "https://live.staticflickr.com/65535/51565087868_e99040c4d6_n.jpg",
    "id_album": "1650283598",
    "description": "ANIME_PIC_6f860dede17a4156d13cd42820e5e3d7,[GirlsSad],[isGirlAnime],[isCuteAnime],[isGirlsLoliAnime],[isSadAnimeGirl],[isSadAnime]",
    "title": "ANIME_PIC_6f860dede17a4156d13cd42820e5e3d7",
    "link_img": "https://live.staticflickr.com/65535/51565087868_79412d3fc4_o.png",
    "id_image": "ANIME_PIC_6f860dede17a4156d13cd42820e5e3d7",
    "count_view": 0
  },
  {
    "link_thumb": "https://live.staticflickr.com/65535/51564842681_f528e9b355_n.jpg",
    "id_album": "1650283598",
    "description": "ANIME_PIC_6f8907ed195d03146e0f909a8168c71d,[GirlsSad],[isGirlAnime],[isCuteAnime],[isSadAnimeGirl],[isSadAnime]",
    "title": "ANIME_PIC_6f8907ed195d03146e0f909a8168c71d",
    "link_img": "https://live.staticflickr.com/65535/51564842681_75f304787b_o.jpg",
    "id_image": "ANIME_PIC_6f8907ed195d03146e0f909a8168c71d",
    "count_view": 0
  },
  {
    "link_thumb": "https://live.staticflickr.com/65535/49905069428_b4aea80a97_n.jpg",
    "id_album": "1650283598",
    "description": "ANIME_PIC_6f8bde45cafcf7861cc3929d4365f65b,[isGirlAnime],[isSadAnime],[isSadAnimeGirl],[isCuteAnime],[Girls Sad],[GirlsSad]",
    "title": "ANIME_PIC_6f8bde45cafcf7861cc3929d4365f65b",
    "link_img": "https://live.staticflickr.com/65535/49905069428_476f4fa8a5_o.jpg",
    "id_image": "ANIME_PIC_6f8bde45cafcf7861cc3929d4365f65b",
    "count_view": 0
  },
  {
    "link_thumb": "https://live.staticflickr.com/65535/51565530374_2c5659efb3_n.jpg",
    "id_album": "1650283598",
    "description": "ANIME_PIC_6f8fc1b15e96fa6347c091eddb654e8e,[GirlsSad],[isGirlAnime],[isCuteAnime],[isSadAnimeGirl],[isSadAnime]",
    "title": "ANIME_PIC_6f8fc1b15e96fa6347c091eddb654e8e",
    "link_img": "https://live.staticflickr.com/65535/51565530374_db3fe8b89c_o.png",
    "id_image": "ANIME_PIC_6f8fc1b15e96fa6347c091eddb654e8e",
    "count_view": 0
  },
  {
    "link_thumb": "https://live.staticflickr.com/65535/51564843511_1bd6f9a95f_n.jpg",
    "id_album": "1650283598",
    "description": "ANIME_PIC_6fa5ada0afd4d351839446ae1d425df1,[GirlsSad],[isGirlAnime],[isCuteAnime],[isSadAnimeGirl],[isSadAnime]",
    "title": "ANIME_PIC_6fa5ada0afd4d351839446ae1d425df1",
    "link_img": "https://live.staticflickr.com/65535/51564843511_725110444b_o.jpg",
    "id_image": "ANIME_PIC_6fa5ada0afd4d351839446ae1d425df1",
    "count_view": 0
  },
  {
    "link_thumb": "https://live.staticflickr.com/65535/51565531184_af18a405f0_n.jpg",
    "id_album": "1650283598",
    "description": "ANIME_PIC_6fa66b3d58765e4adc6e3d55d9d9088e,[GirlsSad],[isGirlAnime],[isCuteAnime],[isSadAnimeGirl],[isSadAnime]",
    "title": "ANIME_PIC_6fa66b3d58765e4adc6e3d55d9d9088e",
    "link_img": "https://live.staticflickr.com/65535/51565531184_8c000b2f19_o.jpg",
    "id_image": "ANIME_PIC_6fa66b3d58765e4adc6e3d55d9d9088e",
    "count_view": 0
  },
  {
    "link_thumb": "https://live.staticflickr.com/65535/51564844201_bf6036a65e_n.jpg",
    "id_album": "1650283598",
    "description": "ANIME_PIC_6fafeecafd509fda8c06539d8c4e74f0,[GirlsSad],[isGirlAnime],[isCuteAnime],[isGirlsHatsHoodieAnime],[isSadAnimeGirl],[isSadAnime]",
    "title": "ANIME_PIC_6fafeecafd509fda8c06539d8c4e74f0",
    "link_img": "https://live.staticflickr.com/65535/51564844201_22e8301f33_o.jpg",
    "id_image": "ANIME_PIC_6fafeecafd509fda8c06539d8c4e74f0",
    "count_view": 0
  },
  {
    "link_thumb": "https://live.staticflickr.com/65535/51564844546_e1924ddcf2_n.jpg",
    "id_album": "1650283598",
    "description": "ANIME_PIC_6fb54a4ca8e1f75bf5baaf2c2850a314,[GirlsSad],[isGirlAnime],[isCuteAnime],[isSadAnimeGirl],[isSadAnime]",
    "title": "ANIME_PIC_6fb54a4ca8e1f75bf5baaf2c2850a314",
    "link_img": "https://live.staticflickr.com/65535/51564844546_c16a8faeeb_o.jpg",
    "id_image": "ANIME_PIC_6fb54a4ca8e1f75bf5baaf2c2850a314",
    "count_view": 0
  },
  {
    "link_thumb": "https://live.staticflickr.com/65535/51565779960_acc96253fd_n.jpg",
    "id_album": "1650283598",
    "description": "ANIME_PIC_6fb76c485f90774c01eb4e458f9f19d4,[GirlsSad],[isGirlAnime],[isCuteAnime],[isSadAnimeGirl],[isSadAnime]",
    "title": "ANIME_PIC_6fb76c485f90774c01eb4e458f9f19d4",
    "link_img": "https://live.staticflickr.com/65535/51565779960_e86a3e354a_o.jpg",
    "id_image": "ANIME_PIC_6fb76c485f90774c01eb4e458f9f19d4",
    "count_view": 0
  },
  {
    "link_thumb": "https://live.staticflickr.com/65535/51565532629_e510bf1edb_n.jpg",
    "id_album": "1650283598",
    "description": "ANIME_PIC_6fbcb26374b7aaf783870609a770ab7f,[GirlsSad],[isGirlAnime],[isCuteAnime],[isGirlsLoliAnime],[isSadAnimeGirl],[isSadAnime]",
    "title": "ANIME_PIC_6fbcb26374b7aaf783870609a770ab7f",
    "link_img": "https://live.staticflickr.com/65535/51565532629_92c838cb05_o.png",
    "id_image": "ANIME_PIC_6fbcb26374b7aaf783870609a770ab7f",
    "count_view": 0
  },
  {
    "link_thumb": "https://live.staticflickr.com/65535/51564845821_91d3c58c32_n.jpg",
    "id_album": "1650283598",
    "description": "ANIME_PIC_6fbf85556d1c54668436954b9dc53680,[GirlsSad],[isGirlAnime],[isCuteAnime],[isSadAnimeGirl],[isSadAnime]",
    "title": "ANIME_PIC_6fbf85556d1c54668436954b9dc53680",
    "link_img": "https://live.staticflickr.com/65535/51564845821_d1a412a7ec_o.jpg",
    "id_image": "ANIME_PIC_6fbf85556d1c54668436954b9dc53680",
    "count_view": 0
  },
  {
    "link_thumb": "https://live.staticflickr.com/65535/50056730911_5d208bf79b_n.jpg",
    "id_album": "1650283598",
    "description": "ANIME_PIC_6fc5055414ffb1d6b9c710d92c4194a4,[isGirlAnime],[isSadAnime],[isSadAnimeGirl],[isCuteAnime],[Girls Sad],[GirlsSad]",
    "title": "ANIME_PIC_6fc5055414ffb1d6b9c710d92c4194a4",
    "link_img": "https://live.staticflickr.com/65535/50056730911_2e5ce23e78_o.png",
    "id_image": "ANIME_PIC_6fc5055414ffb1d6b9c710d92c4194a4",
    "count_view": 0
  },
  {
    "link_thumb": "https://live.staticflickr.com/65535/51565781140_d8ea6c730e_n.jpg",
    "id_album": "1650283598",
    "description": "ANIME_PIC_6fcfe4ee95fad928177dd5342bbff0b0,[GirlsSad],[isGirlAnime],[isCuteAnime],[isGirlsLoliAnime],[isSadAnimeGirl],[isSadAnime]",
    "title": "ANIME_PIC_6fcfe4ee95fad928177dd5342bbff0b0",
    "link_img": "https://live.staticflickr.com/65535/51565781140_b6c3e2060d_o.jpg",
    "id_image": "ANIME_PIC_6fcfe4ee95fad928177dd5342bbff0b0",
    "count_view": 0
  },
  {
    "link_thumb": "https://live.staticflickr.com/65535/51564054897_942d90958a_n.jpg",
    "id_album": "1650283598",
    "description": "ANIME_PIC_6fd5842ff1fa69c94c948cfd94ab0045,[GirlsSad],[isGirlAnime],[isCuteAnime],[isGirlsHatsHoodieAnime],[isGirlsLoliAnime],[isSadAnimeGirl],[isSadAnime]",
    "title": "ANIME_PIC_6fd5842ff1fa69c94c948cfd94ab0045",
    "link_img": "https://live.staticflickr.com/65535/51564054897_e272f404e7_o.jpg",
    "id_image": "ANIME_PIC_6fd5842ff1fa69c94c948cfd94ab0045",
    "count_view": 0
  },
  {
    "link_thumb": "https://live.staticflickr.com/65535/51564847226_6031c6cdf3_n.jpg",
    "id_album": "1650283598",
    "description": "ANIME_PIC_6fd5cdb17885aaf3e4afd960b19df32e,[GirlsSad],[isGirlAnime],[isCuteAnime],[isSadAnimeGirl],[isSadAnime]",
    "title": "ANIME_PIC_6fd5cdb17885aaf3e4afd960b19df32e",
    "link_img": "https://live.staticflickr.com/65535/51564847226_9da6fd1de9_o.jpg",
    "id_image": "ANIME_PIC_6fd5cdb17885aaf3e4afd960b19df32e",
    "count_view": 0
  },
  {
    "link_thumb": "https://live.staticflickr.com/65535/51564055912_705c1e67f1_n.jpg",
    "id_album": "1650283598",
    "description": "ANIME_PIC_6fdd14ea3bc95272acff3ae47ee935a4,[GirlsSad],[isGirlAnime],[isCuteAnime],[isGirlEarsNekoAnime],[isGirlsHatsHoodieAnime],[isGirlsLoliAnime],[isSadAnimeGirl],[isSadAnime]",
    "title": "ANIME_PIC_6fdd14ea3bc95272acff3ae47ee935a4",
    "link_img": "https://live.staticflickr.com/65535/51564055912_13d9c83a80_o.png",
    "id_image": "ANIME_PIC_6fdd14ea3bc95272acff3ae47ee935a4",
    "count_view": 0
  },
  {
    "link_thumb": "https://live.staticflickr.com/65535/51565783075_0fccd9f5b9_n.jpg",
    "id_album": "1650283598",
    "description": "ANIME_PIC_6fde640322a6460af063726a3420835d,[GirlsSad],[isGirlAnime],[isCuteAnime],[isGirlsLoliAnime],[isSadAnimeGirl],[isSadAnime]",
    "title": "ANIME_PIC_6fde640322a6460af063726a3420835d",
    "link_img": "https://live.staticflickr.com/65535/51565783075_1931e22869_o.jpg",
    "id_image": "ANIME_PIC_6fde640322a6460af063726a3420835d",
    "count_view": 0
  },
  {
    "link_thumb": "https://live.staticflickr.com/65535/51564848381_d7d2cf4af8_n.jpg",
    "id_album": "1650283598",
    "description": "ANIME_PIC_6fe786f7215943a22ab49c7cbcbae178,[GirlsSad],[isGirlAnime],[isCuteAnime],[isSadAnimeGirl],[isSadAnime]",
    "title": "ANIME_PIC_6fe786f7215943a22ab49c7cbcbae178",
    "link_img": "https://live.staticflickr.com/65535/51564848381_33144e154d_o.jpg",
    "id_image": "ANIME_PIC_6fe786f7215943a22ab49c7cbcbae178",
    "count_view": 0
  },
  {
    "link_thumb": "https://live.staticflickr.com/65535/51565094633_dcb07b4807_n.jpg",
    "id_album": "1650283598",
    "description": "ANIME_PIC_6ff86eef968e9bfd5d017a3a3c3a6450,[GirlsSad],[isGirlAnime],[isCuteAnime],[isGirlsLoliAnime],[isSadAnimeGirl],[isSadAnime]",
    "title": "ANIME_PIC_6ff86eef968e9bfd5d017a3a3c3a6450",
    "link_img": "https://live.staticflickr.com/65535/51565094633_589c0e07db_o.jpg",
    "id_image": "ANIME_PIC_6ff86eef968e9bfd5d017a3a3c3a6450",
    "count_view": 0
  },
  {
    "link_thumb": "https://live.staticflickr.com/65535/51565095093_48e73e1760_n.jpg",
    "id_album": "1650283598",
    "description": "ANIME_PIC_70068d5d61e2ecc62e6092de5c07465c,[GirlsSad],[isGirlAnime],[isCuteAnime],[isSadAnimeGirl],[isSadAnime]",
    "title": "ANIME_PIC_70068d5d61e2ecc62e6092de5c07465c",
    "link_img": "https://live.staticflickr.com/65535/51565095093_8f26bcce0e_o.png",
    "id_image": "ANIME_PIC_70068d5d61e2ecc62e6092de5c07465c",
    "count_view": 0
  },
  {
    "link_thumb": "https://live.staticflickr.com/65535/51565095623_a4e3095ba2_n.jpg",
    "id_album": "1650283598",
    "description": "ANIME_PIC_700b76e4e5359cb814af348c59d8bdad,[GirlsSad],[isGirlAnime],[isCuteAnime],[isSadAnimeGirl],[isSadAnime]",
    "title": "ANIME_PIC_700b76e4e5359cb814af348c59d8bdad",
    "link_img": "https://live.staticflickr.com/65535/51565095623_ab01e000c4_o.png",
    "id_image": "ANIME_PIC_700b76e4e5359cb814af348c59d8bdad",
    "count_view": 0
  },
  {
    "link_thumb": "https://live.staticflickr.com/65535/51564058992_bbc69782a1_n.jpg",
    "id_album": "1650283598",
    "description": "ANIME_PIC_700d606a8e8ad354fbe908c47222f420,[GirlsSad],[isGirlAnime],[isCuteAnime],[isGirlsLoliAnime],[isSadAnimeGirl],[isSadAnime]",
    "title": "ANIME_PIC_700d606a8e8ad354fbe908c47222f420",
    "link_img": "https://live.staticflickr.com/65535/51564058992_2a5834a832_o.jpg",
    "id_image": "ANIME_PIC_700d606a8e8ad354fbe908c47222f420",
    "count_view": 0
  },
  {
    "link_thumb": "https://live.staticflickr.com/65535/51565537969_a457678870_n.jpg",
    "id_album": "1650283598",
    "description": "ANIME_PIC_701e194a36beb9cebcbb4cbe2a65e121,[GirlsSad],[isGirlAnime],[isCuteAnime],[isGirlsHatsHoodieAnime],[isGirlsLoliAnime],[isSadAnimeGirl],[isSadAnime]",
    "title": "ANIME_PIC_701e194a36beb9cebcbb4cbe2a65e121",
    "link_img": "https://live.staticflickr.com/65535/51565537969_b4e5bf9c6a_o.jpg",
    "id_image": "ANIME_PIC_701e194a36beb9cebcbb4cbe2a65e121",
    "count_view": 0
  },
  {
    "link_thumb": "https://live.staticflickr.com/65535/51565096953_50584016f9_n.jpg",
    "id_album": "1650283598",
    "description": "ANIME_PIC_7034078cb5efe27cf9ba9ee41707a9a7,[GirlsSad],[isGirlAnime],[isCuteAnime],[isGirlsLoliAnime],[isSadAnimeGirl],[isSadAnime]",
    "title": "ANIME_PIC_7034078cb5efe27cf9ba9ee41707a9a7",
    "link_img": "https://live.staticflickr.com/65535/51565096953_17b84fe4be_o.jpg",
    "id_image": "ANIME_PIC_7034078cb5efe27cf9ba9ee41707a9a7",
    "count_view": 0
  },
  {
    "link_thumb": "https://live.staticflickr.com/65535/51564851656_26feab79b1_n.jpg",
    "id_album": "1650283598",
    "description": "ANIME_PIC_703e52acb02d58c583e2fcc62940f013,[GirlsSad],[isGirlAnime],[isCuteAnime],[isBlackAnime],[isSadAnimeGirl],[isSadAnime]",
    "title": "ANIME_PIC_703e52acb02d58c583e2fcc62940f013",
    "link_img": "https://live.staticflickr.com/65535/51564851656_e8cd675f6c_o.png",
    "id_image": "ANIME_PIC_703e52acb02d58c583e2fcc62940f013",
    "count_view": 0
  },
  {
    "link_thumb": "https://live.staticflickr.com/65535/51565787435_401fe3767b_n.jpg",
    "id_album": "1650283598",
    "description": "ANIME_PIC_70452f673af41dfb8227fcfcf7716ad7,[GirlsSad],[isGirlAnime],[isCuteAnime],[isSadAnimeGirl],[isSadAnime]",
    "title": "ANIME_PIC_70452f673af41dfb8227fcfcf7716ad7",
    "link_img": "https://live.staticflickr.com/65535/51565787435_0072d3fd46_o.jpg",
    "id_image": "ANIME_PIC_70452f673af41dfb8227fcfcf7716ad7",
    "count_view": 0
  },
  {
    "link_thumb": "https://live.staticflickr.com/65535/51564061297_3d0b258841_n.jpg",
    "id_album": "1650283598",
    "description": "ANIME_PIC_704795b2bd679d0997f82593bf224194,[GirlsSad],[isGirlAnime],[isCuteAnime],[isGirlsHatsHoodieAnime],[isGirlsLoliAnime],[isSadAnimeGirl],[isSadAnime]",
    "title": "ANIME_PIC_704795b2bd679d0997f82593bf224194",
    "link_img": "https://live.staticflickr.com/65535/51564061297_7c898bf4e2_o.jpg",
    "id_image": "ANIME_PIC_704795b2bd679d0997f82593bf224194",
    "count_view": 0
  },
  {
    "link_thumb": "https://live.staticflickr.com/65535/51565540429_424daf33f3_n.jpg",
    "id_album": "1650283598",
    "description": "ANIME_PIC_7049621a9ae65045e171dd58723ba2bb,[GirlsSad],[isGirlAnime],[isGirlEarsNekoAnime],[isSadAnimeGirl],[isSadAnime]",
    "title": "ANIME_PIC_7049621a9ae65045e171dd58723ba2bb",
    "link_img": "https://live.staticflickr.com/65535/51565540429_7fd43c1823_o.jpg",
    "id_image": "ANIME_PIC_7049621a9ae65045e171dd58723ba2bb",
    "count_view": 0
  },
  {
    "link_thumb": "https://live.staticflickr.com/65535/51565788835_2f2b9570ca_n.jpg",
    "id_album": "1650283598",
    "description": "ANIME_PIC_705c42b0385dd83f29d1b00128e02c30,[GirlsSad],[isGirlAnime],[isCuteAnime],[isGirlsLoliAnime],[isSadAnimeGirl],[isSadAnime]",
    "title": "ANIME_PIC_705c42b0385dd83f29d1b00128e02c30",
    "link_img": "https://live.staticflickr.com/65535/51565788835_8ff90852d9_o.jpg",
    "id_image": "ANIME_PIC_705c42b0385dd83f29d1b00128e02c30",
    "count_view": 0
  },
  {
    "link_thumb": "https://live.staticflickr.com/65535/51565099753_50faa2b339_n.jpg",
    "id_album": "1650283598",
    "description": "ANIME_PIC_705e55d8a255bbf6f33c3e51002f1ca0,[GirlsSad],[isGirlAnime],[isCuteAnime],[isSadAnimeGirl],[isSadAnime]",
    "title": "ANIME_PIC_705e55d8a255bbf6f33c3e51002f1ca0",
    "link_img": "https://live.staticflickr.com/65535/51565099753_cded4e4541_o.jpg",
    "id_image": "ANIME_PIC_705e55d8a255bbf6f33c3e51002f1ca0",
    "count_view": 0
  },
  {
    "link_thumb": "https://live.staticflickr.com/65535/51565541574_db43f554e7_n.jpg",
    "id_album": "1650283598",
    "description": "ANIME_PIC_7062273590a7f62fc3adabcfbf7af567,[GirlsSad],[isGirlAnime],[isCuteAnime],[isGirlsLoliAnime],[isSadAnimeGirl],[isSadAnime]",
    "title": "ANIME_PIC_7062273590a7f62fc3adabcfbf7af567",
    "link_img": "https://live.staticflickr.com/65535/51565541574_83bc130576_o.jpg",
    "id_image": "ANIME_PIC_7062273590a7f62fc3adabcfbf7af567",
    "count_view": 0
  },
  {
    "link_thumb": "https://live.staticflickr.com/65535/51565100343_6f494c6d27_n.jpg",
    "id_album": "1650283598",
    "description": "ANIME_PIC_7068228ca60b149414c20374164e9e92,[GirlsSad],[isGirlAnime],[isCuteAnime],[isGirlsLoliAnime],[isSadAnimeGirl],[isSadAnime]",
    "title": "ANIME_PIC_7068228ca60b149414c20374164e9e92",
    "link_img": "https://live.staticflickr.com/65535/51565100343_62a59521b8_o.jpg",
    "id_image": "ANIME_PIC_7068228ca60b149414c20374164e9e92",
    "count_view": 0
  },
  {
    "link_thumb": "https://live.staticflickr.com/65535/51564063617_7ff9daf27b_n.jpg",
    "id_album": "1650283598",
    "description": "ANIME_PIC_706fea973bb47250eef74dc0ed84f4cc,[GirlsSad],[isGirlAnime],[isCuteAnime],[isSadAnimeGirl],[isSadAnime]",
    "title": "ANIME_PIC_706fea973bb47250eef74dc0ed84f4cc",
    "link_img": "https://live.staticflickr.com/65535/51564063617_04412ab590_o.jpg",
    "id_image": "ANIME_PIC_706fea973bb47250eef74dc0ed84f4cc",
    "count_view": 0
  },
  {
    "link_thumb": "https://live.staticflickr.com/65535/51564855601_58f3f5ba3e_n.jpg",
    "id_album": "1650283598",
    "description": "ANIME_PIC_707007224be35d825a0235d9d681f2e1,[GirlsSad],[isGirlAnime],[isCuteAnime],[isGirlEarsNekoAnime],[isGirlsLoliAnime],[isSadAnimeGirl],[isSadAnime]",
    "title": "ANIME_PIC_707007224be35d825a0235d9d681f2e1",
    "link_img": "https://live.staticflickr.com/65535/51564855601_7ba8d626bc_o.jpg",
    "id_image": "ANIME_PIC_707007224be35d825a0235d9d681f2e1",
    "count_view": 0
  },
  {
    "link_thumb": "https://live.staticflickr.com/65535/51565791140_622dc9417a_n.jpg",
    "id_album": "1650283598",
    "description": "ANIME_PIC_7075f4f7efe9f1afa64260e9f62e9eea,[GirlsSad],[isGirlAnime],[isCuteAnime],[isSadAnimeGirl],[isSadAnime]",
    "title": "ANIME_PIC_7075f4f7efe9f1afa64260e9f62e9eea",
    "link_img": "https://live.staticflickr.com/65535/51565791140_137e34a5dc_o.png",
    "id_image": "ANIME_PIC_7075f4f7efe9f1afa64260e9f62e9eea",
    "count_view": 0
  },
  {
    "link_thumb": "https://live.staticflickr.com/65535/51564064822_e23ae7fbb3_n.jpg",
    "id_album": "1650283598",
    "description": "ANIME_PIC_7076141240115070530ad46af4dc5dc7,[GirlsSad],[isGirlAnime],[isCuteAnime],[isBlackAnime],[isGirlsLoliAnime],[isSadAnimeGirl],[isSadAnime]",
    "title": "ANIME_PIC_7076141240115070530ad46af4dc5dc7",
    "link_img": "https://live.staticflickr.com/65535/51564064822_cc8750d682_o.jpg",
    "id_image": "ANIME_PIC_7076141240115070530ad46af4dc5dc7",
    "count_view": 0
  },
  {
    "link_thumb": "https://live.staticflickr.com/65535/51565543869_153af0838e_n.jpg",
    "id_album": "1650283598",
    "description": "ANIME_PIC_708038e75ce956769b767362139f4f58,[GirlsSad],[isGirlAnime],[isCuteAnime],[isSadAnimeGirl],[isSadAnime]",
    "title": "ANIME_PIC_708038e75ce956769b767362139f4f58",
    "link_img": "https://live.staticflickr.com/65535/51565543869_fc268a760d_o.jpg",
    "id_image": "ANIME_PIC_708038e75ce956769b767362139f4f58",
    "count_view": 0
  },
  {
    "link_thumb": "https://live.staticflickr.com/65535/51565792415_5885a40bee_n.jpg",
    "id_album": "1650283598",
    "description": "ANIME_PIC_708e70026b2bba07b75fc1268c39a6e3,[GirlsSad],[isGirlAnime],[isSadAnimeGirl],[isSadAnime]",
    "title": "ANIME_PIC_708e70026b2bba07b75fc1268c39a6e3",
    "link_img": "https://live.staticflickr.com/65535/51565792415_56d7f62e2a_o.jpg",
    "id_image": "ANIME_PIC_708e70026b2bba07b75fc1268c39a6e3",
    "count_view": 0
  },
  {
    "link_thumb": "https://live.staticflickr.com/65535/51565792870_d316fa0536_n.jpg",
    "id_album": "1650283598",
    "description": "ANIME_PIC_709147e9c70756c40e397bd6f3ccdf4e,[GirlsSad],[isGirlAnime],[isCuteAnime],[isSadAnimeGirl],[isSadAnime]",
    "title": "ANIME_PIC_709147e9c70756c40e397bd6f3ccdf4e",
    "link_img": "https://live.staticflickr.com/65535/51565792870_27d790e2ef_o.jpg",
    "id_image": "ANIME_PIC_709147e9c70756c40e397bd6f3ccdf4e",
    "count_view": 0
  },
  {
    "link_thumb": "https://live.staticflickr.com/65535/51565545204_9614cdc762_n.jpg",
    "id_album": "1650283598",
    "description": "ANIME_PIC_7094c112660bc5aed79a46136bc9ee01,[GirlsSad],[isGirlAnime],[isCuteAnime],[isGirlsHatsHoodieAnime],[isSadAnimeGirl],[isSadAnime]",
    "title": "ANIME_PIC_7094c112660bc5aed79a46136bc9ee01",
    "link_img": "https://live.staticflickr.com/65535/51565545204_ee29dd6a44_o.jpg",
    "id_image": "ANIME_PIC_7094c112660bc5aed79a46136bc9ee01",
    "count_view": 0
  },
  {
    "link_thumb": "https://live.staticflickr.com/65535/51564858301_c926acdee6_n.jpg",
    "id_album": "1650283598",
    "description": "ANIME_PIC_70a9aa72e14a5e483905619e01093bb4,[GirlsSad],[isGirlAnime],[isCuteAnime],[isGirlsLoliAnime],[isSadAnimeGirl],[isSadAnime]",
    "title": "ANIME_PIC_70a9aa72e14a5e483905619e01093bb4",
    "link_img": "https://live.staticflickr.com/65535/51564858301_845eaea297_o.jpg",
    "id_image": "ANIME_PIC_70a9aa72e14a5e483905619e01093bb4",
    "count_view": 0
  },
  {
    "link_thumb": "https://live.staticflickr.com/65535/51564067837_72492f03a4_n.jpg",
    "id_album": "1650283598",
    "description": "ANIME_PIC_70b8bcf16d10f07abda8d92be513afeb,[GirlsSad],[isGirlAnime],[isCuteAnime],[isGirlsLoliAnime],[isSadAnimeGirl],[isSadAnime]",
    "title": "ANIME_PIC_70b8bcf16d10f07abda8d92be513afeb",
    "link_img": "https://live.staticflickr.com/65535/51564067837_9ecb0ae778_o.jpg",
    "id_image": "ANIME_PIC_70b8bcf16d10f07abda8d92be513afeb",
    "count_view": 0
  },
  {
    "link_thumb": "https://live.staticflickr.com/65535/51564068237_de4b71a04b_n.jpg",
    "id_album": "1650283598",
    "description": "ANIME_PIC_70c2e472e67ebde17126d57e86b5f727,[GirlsSad],[isGirlAnime],[isCuteAnime],[isGirlEarsNekoAnime],[isGirlsHatsHoodieAnime],[isGirlsLoliAnime],[isSadAnimeGirl],[isSadAnime]",
    "title": "ANIME_PIC_70c2e472e67ebde17126d57e86b5f727",
    "link_img": "https://live.staticflickr.com/65535/51564068237_b2c1cea889_o.png",
    "id_image": "ANIME_PIC_70c2e472e67ebde17126d57e86b5f727",
    "count_view": 0
  },
  {
    "link_thumb": "https://live.staticflickr.com/65535/49799627797_106bb57c56_n.jpg",
    "id_album": "1650283598",
    "description": "ANIME_PIC_70c57659f8d26bdf6498fbd61b491f21,[isGirlAnime],[isSadAnime],[isSadAnimeGirl],[isCuteAnime],[Girls Sad],[GirlsSad]",
    "title": "ANIME_PIC_70c57659f8d26bdf6498fbd61b491f21",
    "link_img": "https://live.staticflickr.com/65535/49799627797_f7cc11df80_o.jpg",
    "id_image": "ANIME_PIC_70c57659f8d26bdf6498fbd61b491f21",
    "count_view": 0
  },
  {
    "link_thumb": "https://live.staticflickr.com/65535/51565795080_6be30237c7_n.jpg",
    "id_album": "1650283598",
    "description": "ANIME_PIC_70dac8006563fb08bd9475d34f1659eb,[GirlsSad],[isGirlAnime],[isSadAnimeGirl],[isSadAnime]",
    "title": "ANIME_PIC_70dac8006563fb08bd9475d34f1659eb",
    "link_img": "https://live.staticflickr.com/65535/51565795080_f2ebc0a7f4_o.jpg",
    "id_image": "ANIME_PIC_70dac8006563fb08bd9475d34f1659eb",
    "count_view": 0
  },
  {
    "link_thumb": "https://live.staticflickr.com/65535/51565795395_6463080031_n.jpg",
    "id_album": "1650283598",
    "description": "ANIME_PIC_70dde951d0226ff2297af12101f32b96,[GirlsSad],[isGirlAnime],[isCuteAnime],[isSadAnimeGirl],[isSadAnime]",
    "title": "ANIME_PIC_70dde951d0226ff2297af12101f32b96",
    "link_img": "https://live.staticflickr.com/65535/51565795395_97925f1b88_o.jpg",
    "id_image": "ANIME_PIC_70dde951d0226ff2297af12101f32b96",
    "count_view": 0
  },
  {
    "link_thumb": "https://live.staticflickr.com/65535/51564860541_25fce75f65_n.jpg",
    "id_album": "1650283598",
    "description": "ANIME_PIC_70e78d2579750ae7fd47c8e48c9a0d85,[GirlsSad],[isGirlAnime],[isCuteAnime],[isGirlsHatsHoodieAnime],[isSadAnimeGirl],[isSadAnime]",
    "title": "ANIME_PIC_70e78d2579750ae7fd47c8e48c9a0d85",
    "link_img": "https://live.staticflickr.com/65535/51564860541_8c60d0caec_o.jpg",
    "id_image": "ANIME_PIC_70e78d2579750ae7fd47c8e48c9a0d85",
    "count_view": 0
  },
  {
    "link_thumb": "https://live.staticflickr.com/65535/51565548204_396184420f_n.jpg",
    "id_album": "1650283598",
    "description": "ANIME_PIC_70ebaac9290bdaf94c392125b41f3532,[GirlsSad],[isGirlAnime],[isCuteAnime],[isSadAnimeGirl],[isSadAnime]",
    "title": "ANIME_PIC_70ebaac9290bdaf94c392125b41f3532",
    "link_img": "https://live.staticflickr.com/65535/51565548204_07095466f4_o.jpg",
    "id_image": "ANIME_PIC_70ebaac9290bdaf94c392125b41f3532",
    "count_view": 0
  },
  {
    "link_thumb": "https://live.staticflickr.com/65535/51564070052_aca4972b4f_n.jpg",
    "id_album": "1650283598",
    "description": "ANIME_PIC_70f32fcd1a496614d1152520700c7fde,[GirlsSad],[isGirlAnime],[isCuteAnime],[isGirlsLoliAnime],[isSadAnimeGirl],[isSadAnime]",
    "title": "ANIME_PIC_70f32fcd1a496614d1152520700c7fde",
    "link_img": "https://live.staticflickr.com/65535/51564070052_9daf4eaba4_o.png",
    "id_image": "ANIME_PIC_70f32fcd1a496614d1152520700c7fde",
    "count_view": 0
  },
  {
    "link_thumb": "https://live.staticflickr.com/65535/51565797160_189afd3095_n.jpg",
    "id_album": "1650283598",
    "description": "ANIME_PIC_7107831cbd0c84ec0d4e573d7747720a,[GirlsSad],[isGirlAnime],[isCuteAnime],[isGirlsHatsHoodieAnime],[isGirlsLoliAnime],[isSadAnimeGirl],[isSadAnime]",
    "title": "ANIME_PIC_7107831cbd0c84ec0d4e573d7747720a",
    "link_img": "https://live.staticflickr.com/65535/51565797160_884e62dea4_o.png",
    "id_image": "ANIME_PIC_7107831cbd0c84ec0d4e573d7747720a",
    "count_view": 0
  },
  {
    "link_thumb": "https://live.staticflickr.com/65535/51565107728_14e9ce515a_n.jpg",
    "id_album": "1650283598",
    "description": "ANIME_PIC_7107b3c2dc8456d7d0a21faa48b4e00f,[GirlsSad],[isGirlAnime],[isCuteAnime],[isGirlsLoliAnime],[isSadAnimeGirl],[isSadAnime]",
    "title": "ANIME_PIC_7107b3c2dc8456d7d0a21faa48b4e00f",
    "link_img": "https://live.staticflickr.com/65535/51565107728_bf8b8b8956_o.jpg",
    "id_image": "ANIME_PIC_7107b3c2dc8456d7d0a21faa48b4e00f",
    "count_view": 0
  },
  {
    "link_thumb": "https://live.staticflickr.com/65535/51565798310_bf3d9a47b1_n.jpg",
    "id_album": "1650283598",
    "description": "ANIME_PIC_71289b15a1337b99d40ed7bd3c6230a4,[GirlsSad],[isGirlAnime],[isCuteAnime],[isGirlEarsNekoAnime],[isGirlsLoliAnime],[isSadAnimeGirl],[isSadAnime]",
    "title": "ANIME_PIC_71289b15a1337b99d40ed7bd3c6230a4",
    "link_img": "https://live.staticflickr.com/65535/51565798310_b5c2bae516_o.jpg",
    "id_image": "ANIME_PIC_71289b15a1337b99d40ed7bd3c6230a4",
    "count_view": 0
  },
  {
    "link_thumb": "https://live.staticflickr.com/65535/51565108788_425dbea259_n.jpg",
    "id_album": "1650283598",
    "description": "ANIME_PIC_7129675364eb20e566bcff43b0312185,[GirlsSad],[isGirlAnime],[isCuteAnime],[isSadAnimeGirl],[isSadAnime]",
    "title": "ANIME_PIC_7129675364eb20e566bcff43b0312185",
    "link_img": "https://live.staticflickr.com/65535/51565108788_88002b1f51_o.jpg",
    "id_image": "ANIME_PIC_7129675364eb20e566bcff43b0312185",
    "count_view": 0
  },
  {
    "link_thumb": "https://live.staticflickr.com/65535/51565551179_666918de33_n.jpg",
    "id_album": "1650283598",
    "description": "ANIME_PIC_712cc215695575065040bee32b1252c4,[GirlsSad],[isGirlAnime],[isCuteAnime],[isGirlsHatsHoodieAnime],[isGirlsLoliAnime],[isSadAnimeGirl],[isSadAnime]",
    "title": "ANIME_PIC_712cc215695575065040bee32b1252c4",
    "link_img": "https://live.staticflickr.com/65535/51565551179_68f1468ff9_o.jpg",
    "id_image": "ANIME_PIC_712cc215695575065040bee32b1252c4",
    "count_view": 0
  },
  {
    "link_thumb": "https://live.staticflickr.com/65535/51565799965_650970e6f7_n.jpg",
    "id_album": "1650283598",
    "description": "ANIME_PIC_712cfbf4f12550a62402d72ac7f5dcad,[GirlsSad],[isGirlAnime],[isCuteAnime],[isGirlsLoliAnime],[isSadAnimeGirl],[isSadAnime]",
    "title": "ANIME_PIC_712cfbf4f12550a62402d72ac7f5dcad",
    "link_img": "https://live.staticflickr.com/65535/51565799965_97b0e3d628_o.png",
    "id_image": "ANIME_PIC_712cfbf4f12550a62402d72ac7f5dcad",
    "count_view": 0
  },
  {
    "link_thumb": "https://live.staticflickr.com/65535/51564073397_5e56fce7c4_n.jpg",
    "id_album": "1650283598",
    "description": "ANIME_PIC_7137c6c8c2794039527e3926f66ab0e5,[GirlsSad],[isGirlAnime],[isCuteAnime],[isSadAnimeGirl],[isSadAnime]",
    "title": "ANIME_PIC_7137c6c8c2794039527e3926f66ab0e5",
    "link_img": "https://live.staticflickr.com/65535/51564073397_d066d78a35_o.png",
    "id_image": "ANIME_PIC_7137c6c8c2794039527e3926f66ab0e5",
    "count_view": 0
  },
  {
    "link_thumb": "https://live.staticflickr.com/65535/51565552344_4244bbcf1c_n.jpg",
    "id_album": "1650283598",
    "description": "ANIME_PIC_714eac29723727fbe22f5a7db1a116d1,[GirlsSad],[isGirlAnime],[isCuteAnime],[isSadAnimeGirl],[isSadAnime]",
    "title": "ANIME_PIC_714eac29723727fbe22f5a7db1a116d1",
    "link_img": "https://live.staticflickr.com/65535/51565552344_d2f6f76fbd_o.png",
    "id_image": "ANIME_PIC_714eac29723727fbe22f5a7db1a116d1",
    "count_view": 0
  },
  {
    "link_thumb": "https://live.staticflickr.com/65535/51564074137_41ea2fd617_n.jpg",
    "id_album": "1650283598",
    "description": "ANIME_PIC_7151c1c2814815a4c8154031fc818614,[GirlsSad],[isGirlAnime],[isCuteAnime],[isSadAnimeGirl],[isSadAnime]",
    "title": "ANIME_PIC_7151c1c2814815a4c8154031fc818614",
    "link_img": "https://live.staticflickr.com/65535/51564074137_b9185037bf_o.jpg",
    "id_image": "ANIME_PIC_7151c1c2814815a4c8154031fc818614",
    "count_view": 0
  },
  {
    "link_thumb": "https://live.staticflickr.com/65535/51565111308_0021720219_n.jpg",
    "id_album": "1650283598",
    "description": "ANIME_PIC_715673dce5cc355cc03e7fc5753b1241,[GirlsSad],[isGirlAnime],[isCuteAnime],[isGirlsLoliAnime],[isSadAnimeGirl],[isSadAnime]",
    "title": "ANIME_PIC_715673dce5cc355cc03e7fc5753b1241",
    "link_img": "https://live.staticflickr.com/65535/51565111308_96bd1e6b8b_o.jpg",
    "id_image": "ANIME_PIC_715673dce5cc355cc03e7fc5753b1241",
    "count_view": 0
  },
  {
    "link_thumb": "https://live.staticflickr.com/65535/51565802310_11393d7f66_n.jpg",
    "id_album": "1650283598",
    "description": "ANIME_PIC_71627e830d4023ee051e9c48ac4a975f,[GirlsSad],[isGirlAnime],[isCuteAnime],[isSadAnimeGirl],[isSadAnime]",
    "title": "ANIME_PIC_71627e830d4023ee051e9c48ac4a975f",
    "link_img": "https://live.staticflickr.com/65535/51565802310_17c7fb1de9_o.jpg",
    "id_image": "ANIME_PIC_71627e830d4023ee051e9c48ac4a975f",
    "count_view": 0
  },
  {
    "link_thumb": "https://live.staticflickr.com/65535/49912486521_8fbdcc1a24_n.jpg",
    "id_album": "1650283598",
    "description": "ANIME_PIC_717977cf78b07905d47f8f0810c8af4c,[isGirlAnime],[isSadAnime],[isSadAnimeGirl],[isCuteAnime],[Girls Sad],[GirlsSad]",
    "title": "ANIME_PIC_717977cf78b07905d47f8f0810c8af4c",
    "link_img": "https://live.staticflickr.com/65535/49912486521_cc1c70ca9e_o.jpg",
    "id_image": "ANIME_PIC_717977cf78b07905d47f8f0810c8af4c",
    "count_view": 0
  },
  {
    "link_thumb": "https://live.staticflickr.com/65535/51565554214_d1f39a32db_n.jpg",
    "id_album": "1650283598",
    "description": "ANIME_PIC_71800faf9400773614dc3401bbec8f42,[GirlsSad],[isGirlAnime],[isCuteAnime],[isSadAnimeGirl],[isSadAnime]",
    "title": "ANIME_PIC_71800faf9400773614dc3401bbec8f42",
    "link_img": "https://live.staticflickr.com/65535/51565554214_0c956a92bb_o.png",
    "id_image": "ANIME_PIC_71800faf9400773614dc3401bbec8f42",
    "count_view": 0
  },
  {
    "link_thumb": "https://live.staticflickr.com/65535/51565554804_ba0d13dc68_n.jpg",
    "id_album": "1650283598",
    "description": "ANIME_PIC_7191e70c1fb0f36983a456831491aaee,[GirlsSad],[isGirlAnime],[isCuteAnime],[isGirlsHatsHoodieAnime],[isSadAnimeGirl],[isSadAnime]",
    "title": "ANIME_PIC_7191e70c1fb0f36983a456831491aaee",
    "link_img": "https://live.staticflickr.com/65535/51565554804_3afee403cd_o.jpg",
    "id_image": "ANIME_PIC_7191e70c1fb0f36983a456831491aaee",
    "count_view": 0
  },
  {
    "link_thumb": "https://live.staticflickr.com/65535/51564867841_02a23dbe01_n.jpg",
    "id_album": "1650283598",
    "description": "ANIME_PIC_71a2cdcaea7949ce66b81e37596aa392,[GirlsSad],[isGirlAnime],[isCuteAnime],[isGirlsHatsHoodieAnime],[isSadAnimeGirl],[isSadAnime]",
    "title": "ANIME_PIC_71a2cdcaea7949ce66b81e37596aa392",
    "link_img": "https://live.staticflickr.com/65535/51564867841_7e67bc050d_o.png",
    "id_image": "ANIME_PIC_71a2cdcaea7949ce66b81e37596aa392",
    "count_view": 0
  },
  {
    "link_thumb": "https://live.staticflickr.com/65535/51564077412_3300c702ee_n.jpg",
    "id_album": "1650283598",
    "description": "ANIME_PIC_71c02b387783138de24cc0eb19471d28,[GirlsSad],[isGirlAnime],[isCuteAnime],[isGirlEarsNekoAnime],[isGirlsLoliAnime],[isSadAnimeGirl],[isSadAnime]",
    "title": "ANIME_PIC_71c02b387783138de24cc0eb19471d28",
    "link_img": "https://live.staticflickr.com/65535/51564077412_f1e339fc61_o.jpg",
    "id_image": "ANIME_PIC_71c02b387783138de24cc0eb19471d28",
    "count_view": 0
  },
  {
    "link_thumb": "https://live.staticflickr.com/65535/51564868911_9299344a47_n.jpg",
    "id_album": "1650283598",
    "description": "ANIME_PIC_71c073aa208cd7741520612a2a9c0fe1,[GirlsSad],[isGirlAnime],[isCuteAnime],[isSadAnimeGirl],[isSadAnime]",
    "title": "ANIME_PIC_71c073aa208cd7741520612a2a9c0fe1",
    "link_img": "https://live.staticflickr.com/65535/51564868911_041393454f_o.jpg",
    "id_image": "ANIME_PIC_71c073aa208cd7741520612a2a9c0fe1",
    "count_view": 0
  },
  {
    "link_thumb": "https://live.staticflickr.com/65535/51565556719_d676ebd9e8_n.jpg",
    "id_album": "1650283598",
    "description": "ANIME_PIC_71c43d5ec44824669c8e03f988ec1b72,[GirlsSad],[isGirlAnime],[isCuteAnime],[isGirlsLoliAnime],[isSadAnimeGirl],[isSadAnime]",
    "title": "ANIME_PIC_71c43d5ec44824669c8e03f988ec1b72",
    "link_img": "https://live.staticflickr.com/65535/51565556719_de2dbd49c5_o.jpg",
    "id_image": "ANIME_PIC_71c43d5ec44824669c8e03f988ec1b72",
    "count_view": 0
  },
  {
    "link_thumb": "https://live.staticflickr.com/65535/51565805685_1dd2330fd6_n.jpg",
    "id_album": "1650283598",
    "description": "ANIME_PIC_71c819189da67a05e91119ae491ec706,[GirlsSad],[isGirlAnime],[isSadAnimeGirl],[isSadAnime]",
    "title": "ANIME_PIC_71c819189da67a05e91119ae491ec706",
    "link_img": "https://live.staticflickr.com/65535/51565805685_04e9d29c10_o.jpg",
    "id_image": "ANIME_PIC_71c819189da67a05e91119ae491ec706",
    "count_view": 0
  },
  {
    "link_thumb": "https://live.staticflickr.com/65535/51565115423_849718f5a6_n.jpg",
    "id_album": "1650283598",
    "description": "ANIME_PIC_71cdc3e3856ef50b8948183e51f1587f,[GirlsSad],[isGirlAnime],[isCuteAnime],[isGirlEarsNekoAnime],[isGirlsLoliAnime],[isSadAnimeGirl],[isSadAnime]",
    "title": "ANIME_PIC_71cdc3e3856ef50b8948183e51f1587f",
    "link_img": "https://live.staticflickr.com/65535/51565115423_1a77e9b549_o.jpg",
    "id_image": "ANIME_PIC_71cdc3e3856ef50b8948183e51f1587f",
    "count_view": 0
  },
  {
    "link_thumb": "https://live.staticflickr.com/65535/51565557634_bb18e94acc_n.jpg",
    "id_album": "1650283598",
    "description": "ANIME_PIC_71d98152b1a15bfef9c7cd9a766d654f,[GirlsSad],[isGirlAnime],[isCuteAnime],[isSadAnimeGirl],[isSadAnime]",
    "title": "ANIME_PIC_71d98152b1a15bfef9c7cd9a766d654f",
    "link_img": "https://live.staticflickr.com/65535/51565557634_5a91dd1961_o.jpg",
    "id_image": "ANIME_PIC_71d98152b1a15bfef9c7cd9a766d654f",
    "count_view": 0
  },
  {
    "link_thumb": "https://live.staticflickr.com/65535/51565116173_b56a684135_n.jpg",
    "id_album": "1650283598",
    "description": "ANIME_PIC_71dae1e0a3bb23487df9a735e778c6ad,[GirlsSad],[isGirlAnime],[isCuteAnime],[isGirlsLoliAnime],[isSadAnimeGirl],[isSadAnime]",
    "title": "ANIME_PIC_71dae1e0a3bb23487df9a735e778c6ad",
    "link_img": "https://live.staticflickr.com/65535/51565116173_7ba5cb9616_o.png",
    "id_image": "ANIME_PIC_71dae1e0a3bb23487df9a735e778c6ad",
    "count_view": 0
  },
  {
    "link_thumb": "https://live.staticflickr.com/65535/51565117038_1cc7bb565a_n.jpg",
    "id_album": "1650283598",
    "description": "ANIME_PIC_71e6c0ba92e544aa53eabd91fa52874f,[GirlsSad],[isGirlAnime],[isCuteAnime],[isSadAnimeGirl],[isSadAnime]",
    "title": "ANIME_PIC_71e6c0ba92e544aa53eabd91fa52874f",
    "link_img": "https://live.staticflickr.com/65535/51565117038_25abcaa1a1_o.png",
    "id_image": "ANIME_PIC_71e6c0ba92e544aa53eabd91fa52874f",
    "count_view": 0
  },
  {
    "link_thumb": "https://live.staticflickr.com/65535/51565117608_2484325839_n.jpg",
    "id_album": "1650283598",
    "description": "ANIME_PIC_71e865595993ebbd4e0c241263da07a5,[GirlsSad],[isGirlAnime],[isCuteAnime],[isGirlsHatsHoodieAnime],[isGirlsLoliAnime],[isSadAnimeGirl],[isSadAnime]",
    "title": "ANIME_PIC_71e865595993ebbd4e0c241263da07a5",
    "link_img": "https://live.staticflickr.com/65535/51565117608_986f5508be_o.jpg",
    "id_image": "ANIME_PIC_71e865595993ebbd4e0c241263da07a5",
    "count_view": 0
  },
  {
    "link_thumb": "https://live.staticflickr.com/65535/50241005407_ae4a3f2f52_n.jpg",
    "id_album": "1650283598",
    "description": "ANIME_PIC_71fa212396bf5e70cc9d96b6fc0f21f4,[isGirlAnime],[isSadAnime],[isSadAnimeGirl],[isCuteAnime],[Girls Sad],[GirlsSad],[isSceneryArts]",
    "title": "ANIME_PIC_71fa212396bf5e70cc9d96b6fc0f21f4",
    "link_img": "https://live.staticflickr.com/65535/50241005407_d379b6ebe2_o.jpg",
    "id_image": "ANIME_PIC_71fa212396bf5e70cc9d96b6fc0f21f4",
    "count_view": 0
  },
  {
    "link_thumb": "https://live.staticflickr.com/65535/51564872346_146dfabb15_n.jpg",
    "id_album": "1650283598",
    "description": "ANIME_PIC_71fa3f0bada769eb50abbe0f3c4a0d0c,[GirlsSad],[isGirlAnime],[isSadAnimeGirl],[isSadAnime]",
    "title": "ANIME_PIC_71fa3f0bada769eb50abbe0f3c4a0d0c",
    "link_img": "https://live.staticflickr.com/65535/51564872346_25e30da6ab_o.jpg",
    "id_image": "ANIME_PIC_71fa3f0bada769eb50abbe0f3c4a0d0c",
    "count_view": 0
  },
  {
    "link_thumb": "https://live.staticflickr.com/65535/51565560304_01b3ea2b55_n.jpg",
    "id_album": "1650283598",
    "description": "ANIME_PIC_71fc6ea7f53ab2d06bf4314afd73d732,[GirlsSad],[isGirlAnime],[isCuteAnime],[isGirlsLoliAnime],[isSadAnimeGirl],[isSadAnime]",
    "title": "ANIME_PIC_71fc6ea7f53ab2d06bf4314afd73d732",
    "link_img": "https://live.staticflickr.com/65535/51565560304_39d0496030_o.jpg",
    "id_image": "ANIME_PIC_71fc6ea7f53ab2d06bf4314afd73d732",
    "count_view": 0
  },
  {
    "link_thumb": "https://live.staticflickr.com/65535/51565560734_945a2df40b_n.jpg",
    "id_album": "1650283598",
    "description": "ANIME_PIC_71fc8038b777ca3fedab964b1af1bb80,[GirlsSad],[isGirlAnime],[isCuteAnime],[isSadAnimeGirl],[isSadAnime]",
    "title": "ANIME_PIC_71fc8038b777ca3fedab964b1af1bb80",
    "link_img": "https://live.staticflickr.com/65535/51565560734_270c5431f3_o.png",
    "id_image": "ANIME_PIC_71fc8038b777ca3fedab964b1af1bb80",
    "count_view": 0
  },
  {
    "link_thumb": "https://live.staticflickr.com/65535/51564082507_66e617abd2_n.jpg",
    "id_album": "1650283598",
    "description": "ANIME_PIC_7224da2170934dad0b55d64b9522d2ef,[GirlsSad],[isGirlAnime],[isCuteAnime],[isSadAnimeGirl],[isSadAnime]",
    "title": "ANIME_PIC_7224da2170934dad0b55d64b9522d2ef",
    "link_img": "https://live.staticflickr.com/65535/51564082507_c1ffd05069_o.png",
    "id_image": "ANIME_PIC_7224da2170934dad0b55d64b9522d2ef",
    "count_view": 0
  },
  {
    "link_thumb": "https://live.staticflickr.com/65535/51564874291_48a9b2b21f_n.jpg",
    "id_album": "1650283598",
    "description": "ANIME_PIC_7227a3870faa5a7599d01fd9e8fe0589,[GirlsSad],[isGirlAnime],[isCuteAnime],[isGirlsLoliAnime],[isSadAnimeGirl],[isSadAnime]",
    "title": "ANIME_PIC_7227a3870faa5a7599d01fd9e8fe0589",
    "link_img": "https://live.staticflickr.com/65535/51564874291_561e941a69_o.jpg",
    "id_image": "ANIME_PIC_7227a3870faa5a7599d01fd9e8fe0589",
    "count_view": 0
  },
  {
    "link_thumb": "https://live.staticflickr.com/65535/51565120298_257d1c825e_n.jpg",
    "id_album": "1650283598",
    "description": "ANIME_PIC_722d48548708ea4c560b655b8544bd33,[GirlsSad],[isGirlAnime],[isCuteAnime],[isGirlsLoliAnime],[isSadAnimeGirl],[isSadAnime]",
    "title": "ANIME_PIC_722d48548708ea4c560b655b8544bd33",
    "link_img": "https://live.staticflickr.com/65535/51565120298_26b1a97be3_o.jpg",
    "id_image": "ANIME_PIC_722d48548708ea4c560b655b8544bd33",
    "count_view": 0
  },
  {
    "link_thumb": "https://live.staticflickr.com/65535/51565120643_8d59d1b8f2_n.jpg",
    "id_album": "1650283598",
    "description": "ANIME_PIC_72388329b9b640a9cebcd75a8b61a6f9,[GirlsSad],[isGirlAnime],[isCuteAnime],[isSadAnimeGirl],[isSadAnime]",
    "title": "ANIME_PIC_72388329b9b640a9cebcd75a8b61a6f9",
    "link_img": "https://live.staticflickr.com/65535/51565120643_a82b1efd16_o.jpg",
    "id_image": "ANIME_PIC_72388329b9b640a9cebcd75a8b61a6f9",
    "count_view": 0
  },
  {
    "link_thumb": "https://live.staticflickr.com/65535/51564875346_b632947733_n.jpg",
    "id_album": "1650283598",
    "description": "ANIME_PIC_72423fad5c853bb843a1dac7a7e4354f,[GirlsSad],[isGirlAnime],[isSadAnimeGirl],[isSadAnime]",
    "title": "ANIME_PIC_72423fad5c853bb843a1dac7a7e4354f",
    "link_img": "https://live.staticflickr.com/65535/51564875346_ec3ef7d3b8_o.png",
    "id_image": "ANIME_PIC_72423fad5c853bb843a1dac7a7e4354f",
    "count_view": 0
  },
  {
    "link_thumb": "https://live.staticflickr.com/65535/51565811835_51111d1ab5_n.jpg",
    "id_album": "1650283598",
    "description": "ANIME_PIC_724572dd9f74a968ddca8b71309fc2ee,[GirlsSad],[isGirlAnime],[isCuteAnime],[isSadAnimeGirl],[isSadAnime]",
    "title": "ANIME_PIC_724572dd9f74a968ddca8b71309fc2ee",
    "link_img": "https://live.staticflickr.com/65535/51565811835_6e6620be71_o.jpg",
    "id_image": "ANIME_PIC_724572dd9f74a968ddca8b71309fc2ee",
    "count_view": 0
  },
  {
    "link_thumb": "https://live.staticflickr.com/65535/51565121958_de6dd93c7f_n.jpg",
    "id_album": "1650283598",
    "description": "ANIME_PIC_7249292215233a6cc283c1db641ded98,[GirlsSad],[isGirlAnime],[isCuteAnime],[isGirlsLoliAnime],[isSadAnimeGirl],[isSadAnime]",
    "title": "ANIME_PIC_7249292215233a6cc283c1db641ded98",
    "link_img": "https://live.staticflickr.com/65535/51565121958_a78dccb30b_o.jpg",
    "id_image": "ANIME_PIC_7249292215233a6cc283c1db641ded98",
    "count_view": 0
  },
  {
    "link_thumb": "https://live.staticflickr.com/65535/51565812495_8576ba6f1c_n.jpg",
    "id_album": "1650283598",
    "description": "ANIME_PIC_7252033fe05a91d30fbf07fb0836d37c,[GirlsSad],[isGirlAnime],[isCuteAnime],[isGirlsLoliAnime],[isSadAnimeGirl],[isSadAnime]",
    "title": "ANIME_PIC_7252033fe05a91d30fbf07fb0836d37c",
    "link_img": "https://live.staticflickr.com/65535/51565812495_5254eb7181_o.jpg",
    "id_image": "ANIME_PIC_7252033fe05a91d30fbf07fb0836d37c",
    "count_view": 0
  },
  {
    "link_thumb": "https://live.staticflickr.com/65535/51564085637_3d7fb4449c_n.jpg",
    "id_album": "1650283598",
    "description": "ANIME_PIC_725fcdecd651d17036c5e48f74f8df3a,[GirlsSad],[isGirlAnime],[isSadAnimeGirl],[isSadAnime]",
    "title": "ANIME_PIC_725fcdecd651d17036c5e48f74f8df3a",
    "link_img": "https://live.staticflickr.com/65535/51564085637_20b70206b2_o.jpg",
    "id_image": "ANIME_PIC_725fcdecd651d17036c5e48f74f8df3a",
    "count_view": 0
  },
  {
    "link_thumb": "https://live.staticflickr.com/65535/51565564619_6e906f920d_n.jpg",
    "id_album": "1650283598",
    "description": "ANIME_PIC_7260cac293c1329fafe3318abc76c011,[GirlsSad],[isGirlAnime],[isCuteAnime],[isGirlsLoliAnime],[isSadAnimeGirl],[isSadAnime]",
    "title": "ANIME_PIC_7260cac293c1329fafe3318abc76c011",
    "link_img": "https://live.staticflickr.com/65535/51565564619_987ed70611_o.jpg",
    "id_image": "ANIME_PIC_7260cac293c1329fafe3318abc76c011",
    "count_view": 0
  },
  {
    "link_thumb": "https://live.staticflickr.com/65535/51564086427_5d411cc910_n.jpg",
    "id_album": "1650283598",
    "description": "ANIME_PIC_72683854d6cbb6fee9dd9cb1ef29693f,[GirlsSad],[isGirlAnime],[isCuteAnime],[isGirlsLoliAnime],[isSadAnimeGirl],[isSadAnime]",
    "title": "ANIME_PIC_72683854d6cbb6fee9dd9cb1ef29693f",
    "link_img": "https://live.staticflickr.com/65535/51564086427_512435edeb_o.jpg",
    "id_image": "ANIME_PIC_72683854d6cbb6fee9dd9cb1ef29693f",
    "count_view": 0
  },
  {
    "link_thumb": "https://live.staticflickr.com/65535/51565814240_12fc499092_n.jpg",
    "id_album": "1650283598",
    "description": "ANIME_PIC_726855e8418b2bc4c2e032ce5e368279,[GirlsSad],[isGirlAnime],[isCuteAnime],[isSadAnimeGirl],[isSadAnime]",
    "title": "ANIME_PIC_726855e8418b2bc4c2e032ce5e368279",
    "link_img": "https://live.staticflickr.com/65535/51565814240_c3d6d75636_o.jpg",
    "id_image": "ANIME_PIC_726855e8418b2bc4c2e032ce5e368279",
    "count_view": 0
  },
  {
    "link_thumb": "https://live.staticflickr.com/65535/51564878906_05f897beed_n.jpg",
    "id_album": "1650283598",
    "description": "ANIME_PIC_726c0314e46dbe54a55d4b135efd2843,[GirlsSad],[isGirlAnime],[isCuteAnime],[isGirlsLoliAnime],[isSadAnimeGirl],[isSadAnime]",
    "title": "ANIME_PIC_726c0314e46dbe54a55d4b135efd2843",
    "link_img": "https://live.staticflickr.com/65535/51564878906_3d2b2025ca_o.png",
    "id_image": "ANIME_PIC_726c0314e46dbe54a55d4b135efd2843",
    "count_view": 0
  },
  {
    "link_thumb": "https://live.staticflickr.com/65535/51565566484_30338d7ed2_n.jpg",
    "id_album": "1650283598",
    "description": "ANIME_PIC_726f1049dc525d02e35d3bc1cd20d983,[GirlsSad],[isGirlAnime],[isCuteAnime],[isSadAnimeGirl],[isSadAnime]",
    "title": "ANIME_PIC_726f1049dc525d02e35d3bc1cd20d983",
    "link_img": "https://live.staticflickr.com/65535/51565566484_15818935e3_o.png",
    "id_image": "ANIME_PIC_726f1049dc525d02e35d3bc1cd20d983",
    "count_view": 0
  },
  {
    "link_thumb": "https://live.staticflickr.com/65535/51565125568_478212be62_n.jpg",
    "id_album": "1650283598",
    "description": "ANIME_PIC_727d49ab063c83d5e1cbd3353960d0f7,[GirlsSad],[isGirlAnime],[isCuteAnime],[isSadAnimeGirl],[isSadAnime]",
    "title": "ANIME_PIC_727d49ab063c83d5e1cbd3353960d0f7",
    "link_img": "https://live.staticflickr.com/65535/51565125568_33b97c3ecb_o.jpg",
    "id_image": "ANIME_PIC_727d49ab063c83d5e1cbd3353960d0f7",
    "count_view": 0
  },
  {
    "link_thumb": "https://live.staticflickr.com/65535/51565125943_4472f797ec_n.jpg",
    "id_album": "1650283598",
    "description": "ANIME_PIC_72b6b8d3f627a648787a58381d424510,[GirlsSad],[isGirlAnime],[isCuteAnime],[isGirlsHatsHoodieAnime],[isSadAnimeGirl],[isSadAnime]",
    "title": "ANIME_PIC_72b6b8d3f627a648787a58381d424510",
    "link_img": "https://live.staticflickr.com/65535/51565125943_94823b755b_o.png",
    "id_image": "ANIME_PIC_72b6b8d3f627a648787a58381d424510",
    "count_view": 0
  },
  {
    "link_thumb": "https://live.staticflickr.com/65535/51565568384_aa5b5d7d26_n.jpg",
    "id_album": "1650283598",
    "description": "ANIME_PIC_72bc66299935bf633e5fe6d27e13192b,[GirlsSad],[isGirlAnime],[isCuteAnime],[isGirlsLoliAnime],[isSadAnimeGirl],[isSadAnime]",
    "title": "ANIME_PIC_72bc66299935bf633e5fe6d27e13192b",
    "link_img": "https://live.staticflickr.com/65535/51565568384_64574452ab_o.jpg",
    "id_image": "ANIME_PIC_72bc66299935bf633e5fe6d27e13192b",
    "count_view": 0
  },
  {
    "link_thumb": "https://live.staticflickr.com/65535/51564090132_87f15dbd7c_n.jpg",
    "id_album": "1650283598",
    "description": "ANIME_PIC_72c181ca244c457a65d395eedb46d1e1,[GirlsSad],[isGirlAnime],[isCuteAnime],[isGirlsLoliAnime],[isSadAnimeGirl],[isSadAnime]",
    "title": "ANIME_PIC_72c181ca244c457a65d395eedb46d1e1",
    "link_img": "https://live.staticflickr.com/65535/51564090132_e1bd9574a2_o.png",
    "id_image": "ANIME_PIC_72c181ca244c457a65d395eedb46d1e1",
    "count_view": 0
  },
  {
    "link_thumb": "https://live.staticflickr.com/65535/51565818150_8bce5fb517_n.jpg",
    "id_album": "1650283598",
    "description": "ANIME_PIC_72d98a08a59338b337763b3a6ac6ce4c,[GirlsSad],[isGirlAnime],[isCuteAnime],[isGirlsHatsHoodieAnime],[isGirlsLoliAnime],[isSadAnimeGirl],[isSadAnime]",
    "title": "ANIME_PIC_72d98a08a59338b337763b3a6ac6ce4c",
    "link_img": "https://live.staticflickr.com/65535/51565818150_29b8ed7999_o.jpg",
    "id_image": "ANIME_PIC_72d98a08a59338b337763b3a6ac6ce4c",
    "count_view": 0
  },
  {
    "link_thumb": "https://live.staticflickr.com/65535/51564882681_c22fd7974b_n.jpg",
    "id_album": "1650283598",
    "description": "ANIME_PIC_730f5b81cd5420b395beeaba3e72e512,[GirlsSad],[isGirlAnime],[isCuteAnime],[isSadAnimeGirl],[isSadAnime]",
    "title": "ANIME_PIC_730f5b81cd5420b395beeaba3e72e512",
    "link_img": "https://live.staticflickr.com/65535/51564882681_6c77bf8e9b_o.png",
    "id_image": "ANIME_PIC_730f5b81cd5420b395beeaba3e72e512",
    "count_view": 0
  },
  {
    "link_thumb": "https://live.staticflickr.com/65535/51564092022_9f1cf51bff_n.jpg",
    "id_album": "1650283598",
    "description": "ANIME_PIC_7318ad46177961110325993a0287e500,[GirlsSad],[isGirlAnime],[isCuteAnime],[isGirlsLoliAnime],[isSadAnimeGirl],[isSadAnime]",
    "title": "ANIME_PIC_7318ad46177961110325993a0287e500",
    "link_img": "https://live.staticflickr.com/65535/51564092022_c9fc3e86e5_o.jpg",
    "id_image": "ANIME_PIC_7318ad46177961110325993a0287e500",
    "count_view": 0
  },
  {
    "link_thumb": "https://live.staticflickr.com/65535/51565129498_f6f1594419_n.jpg",
    "id_album": "1650283598",
    "description": "ANIME_PIC_7323d86b3bbadda93b332e9b5367616b,[GirlsSad],[isGirlAnime],[isCuteAnime],[isGirlsLoliAnime],[isSadAnimeGirl],[isSadAnime]",
    "title": "ANIME_PIC_7323d86b3bbadda93b332e9b5367616b",
    "link_img": "https://live.staticflickr.com/65535/51565129498_23051e7dd3_o.jpg",
    "id_image": "ANIME_PIC_7323d86b3bbadda93b332e9b5367616b",
    "count_view": 0
  },
  {
    "link_thumb": "https://live.staticflickr.com/65535/51564092907_c544e3abfd_n.jpg",
    "id_album": "1650283598",
    "description": "ANIME_PIC_732979fbce88a9eb84d4ca8501cf4abb,[GirlsSad],[isGirlAnime],[isSadAnimeGirl],[isSadAnime]",
    "title": "ANIME_PIC_732979fbce88a9eb84d4ca8501cf4abb",
    "link_img": "https://live.staticflickr.com/65535/51564092907_96177b41a3_o.jpg",
    "id_image": "ANIME_PIC_732979fbce88a9eb84d4ca8501cf4abb",
    "count_view": 0
  },
  {
    "link_thumb": "https://live.staticflickr.com/65535/51565572334_81aebcb12a_n.jpg",
    "id_album": "1650283598",
    "description": "ANIME_PIC_732a7dc28024b4bd94fa238858d1ce02,[GirlsSad],[isGirlAnime],[isCuteAnime],[isSadAnimeGirl],[isSadAnime]",
    "title": "ANIME_PIC_732a7dc28024b4bd94fa238858d1ce02",
    "link_img": "https://live.staticflickr.com/65535/51565572334_dc42e683d9_o.jpg",
    "id_image": "ANIME_PIC_732a7dc28024b4bd94fa238858d1ce02",
    "count_view": 0
  },
  {
    "link_thumb": "https://live.staticflickr.com/65535/51565821085_e769290043_n.jpg",
    "id_album": "1650283598",
    "description": "ANIME_PIC_734562a4b56fd02f7ebd31bd90e53cca,[GirlsSad],[isGirlAnime],[isCuteAnime],[isGirlsLoliAnime],[isSadAnimeGirl],[isSadAnime]",
    "title": "ANIME_PIC_734562a4b56fd02f7ebd31bd90e53cca",
    "link_img": "https://live.staticflickr.com/65535/51565821085_38172dc2b8_o.jpg",
    "id_image": "ANIME_PIC_734562a4b56fd02f7ebd31bd90e53cca",
    "count_view": 0
  },
  {
    "link_thumb": "https://live.staticflickr.com/65535/51565131143_bd71ca0181_n.jpg",
    "id_album": "1650283598",
    "description": "ANIME_PIC_7356ed6e98e006fdc40d62f4db134c9a,[GirlsSad],[isGirlAnime],[isCuteAnime],[isSadAnimeGirl],[isSadAnime]",
    "title": "ANIME_PIC_7356ed6e98e006fdc40d62f4db134c9a",
    "link_img": "https://live.staticflickr.com/65535/51565131143_654524950b_o.jpg",
    "id_image": "ANIME_PIC_7356ed6e98e006fdc40d62f4db134c9a",
    "count_view": 0
  }
]