[
  {
    "total_img": 791,
    "number_page": 4,
    "title": "Girls Horns",
    "tag": "Girls Horns,",
    "description": "Girls Horns",
    "link_thumb": "https://live.staticflickr.com/65535/50151017648_00424987ab_n.jpg",
    "id_album": "-1468922705",
    "total_view": 791
  },
  {
    "total_img": 349,
    "number_page": 2,
    "title": "Girls Maid",
    "tag": "Girls Maid,",
    "description": "Girls Maid",
    "link_thumb": "https://live.staticflickr.com/65535/50153463381_6328bbcf4b_n.jpg",
    "id_album": "-767064263",
    "total_view": 349
  },
  {
    "total_img": 1063,
    "number_page": 6,
    "title": "Girls Sharp Canine Tooth",
    "tag": "Girls Sharp Canine Tooth,",
    "description": "Girls Sharp Canine Tooth",
    "link_thumb": "https://live.staticflickr.com/65535/51541280396_75d06cec3a_n.jpg",
    "id_album": "732099563",
    "total_view": 1063
  }
]