[
  {
    "total_img": 383,
    "number_page": 2,
    "title": "Original 6",
    "tag": "Water, Heart, Ball, Green Hair, Shield, Wink, Black Hair, Staff, Wand, High Heels, Black, Weapon, Blood, Bouquet, Goggles, Ninja, Swing, Umbrella, Shorts, Bikini, Veil, Bowl, Bike, Reimu Hakurei, Glove, Smile, Skirt, Towel, Bunny Ears, Statue, Spoon, Pinwheel, Squirrel, Building, Miko Outfit, Orange Hair, Lips, Cake, Snowboard, Dragon, Earbuds, Cloak, Japanese Clothes, Gingerbread, Star, Tail, Watch, Feather, Fish, Food, Bullet, Original Anime, Blue, Nekomimi, Brown Hair, Pink Hair, Tie, Blue Eyes, Thigh Boots, Television, Vase, Teddy Bear, Boots, Hat, Mermaid, Parasol, Animal Ears, Elf, Nurse, Ice Cream, Green Eyes, Tulip, Stars, Scythe, Pumpkin, Tattoo, Lemon, Long Hair, Cinderella, Thigh Highs, Beach, Light, Kimono, Snowflake, Headdress, Heterochromia, Camera, Purple Hair, Tea Cup, Clover, Pocket Watch, Glasses, Sunflower, Twins, Beads, Eye Patch, Mirror, Bunny, Crystal, Bird, Gas Mask, Momoyama Tsutsune, Brush, Blonde, Twintails, Whisper, Knife, Coffin, Plant, Armor, Rainbow, orange Color, Hug, Katana, Pink Eyes, Apron, Diamond, School Uniform, 5 Nenme no Houkago, Bicycle, Axe, Sunset, Candle, Fan, Apple, Airplane, Wind Turbine, Sleeping, Pointed Ears, Lulli Sakura Strasse, Mouse, Purple, Grey Hair, Lying Down, Syringe, Pen, Castle, Tears, Green, Sky, Colorful, Moon, Balloon, Palm Tree, Thumbelina, Flute, Shirt, Sword, Ribbon, White Hair, Book, Cupcake, Computer, Windmill, Horns, Braid, Planet, Hood, Earrings, Gun, Purple Eyes, Scarf, Berry, Mask, Reflection, Witch Hat, Japanese, Aqua Eyes, Red Hair, Card, Letter, Lollipop, Shop, Blush, Belt, Pantyhose, Daisy, Snow White, Bell, Bamboo, Map, Train, Hamster, Chain, Shiratama Kitsune, Rose, Tiara, Original 6, Sunbeam, Wings, Shovel, Leaf, Witch, Fireworks, Guitar, Wreath, Road, Headband, Gift, Sweater, Crown, Grey Eyes, Black Eyes, Kuromitsu Nene, Buoy, Night, Candy Cane, Snow, Orca, Digital Art, Penguin, Grass, Drink, Wedding Dress, Cityscape, Rain, Bubble, Anime, Strawberry, Tree, Hose, Mug, Coat, DLsite, Parrot, Bow, Yellow Eyes, Boy, Red Eyes, Can, Cap, Cat, Sad, Fantasy, Death, Ponytail, Fairy, Orange Eyes, Microphone, Purple Dress, Cherry Blossom, Butterfly, Ink, Socks, Broom, Lily, bow Clothing, Short Hair, Lamp, Swimsuit, Ruby, Necklace, Flower, Dress, Cat Girl, Brown Eyes, Frog, Yukino Yukinoshita, Magic, Bag, Maid, Woman Warrior, Confetti, Painting, Tea, Blue Hair, Bat, Rachel Gardner, Cloud, Skull, Sign, Petal, Yukata",
    "description": "Original 6",
    "link_thumb": "https://live.staticflickr.com/65535/48077849842_0c8b3f41c8_n.jpg",
    "id_album": "1165182430",
    "total_view": 383
  },
  {
    "total_img": 771,
    "number_page": 4,
    "title": "Blonde",
    "tag": "Blonde,",
    "description": "Blonde",
    "link_thumb": "https://live.staticflickr.com/65535/48066912028_16d8f475b6_n.jpg",
    "id_album": "-768622073",
    "total_view": 771
  },
  {
    "total_img": 690,
    "number_page": 4,
    "title": "Blush",
    "tag": "Blush,",
    "description": "Blush",
    "link_thumb": "https://live.staticflickr.com/65535/48066945096_efda4835b6_n.jpg",
    "id_album": "1964454893",
    "total_view": 690
  },
  {
    "total_img": 363,
    "number_page": 2,
    "title": "Brown Eyes",
    "tag": "Brown Eyes,",
    "description": "Brown Eyes",
    "link_thumb": "https://live.staticflickr.com/65535/48609891276_d6beb9cf73_n.jpg",
    "id_album": "-346700115",
    "total_view": 363
  },
  {
    "total_img": 324,
    "number_page": 2,
    "title": "Green Eyes",
    "tag": "Green Eyes,",
    "description": "Green Eyes",
    "link_thumb": "https://live.staticflickr.com/65535/48609891276_d6beb9cf73_n.jpg",
    "id_album": "-807234764",
    "total_view": 324
  },
  {
    "total_img": 1729,
    "number_page": 9,
    "title": "Long Hair",
    "tag": "Long Hair,",
    "description": "Long Hair",
    "link_thumb": "https://live.staticflickr.com/65535/48066953706_2771a62522_n.jpg",
    "id_album": "186170098",
    "total_view": 1729
  },
  {
    "total_img": 516,
    "number_page": 3,
    "title": "Red Eyes",
    "tag": "Red Eyes,",
    "description": "Red Eyes",
    "link_thumb": "https://live.staticflickr.com/65535/48066240896_663ef2e035_n.jpg",
    "id_album": "55205818",
    "total_view": 516
  },
  {
    "total_img": 130,
    "number_page": 1,
    "title": "Ribbon",
    "tag": "Ribbon,",
    "description": "Ribbon",
    "link_thumb": "https://live.staticflickr.com/65535/48065583018_86d78f68c3_n.jpg",
    "id_album": "-1925832035",
    "total_view": 130
  },
  {
    "total_img": 807,
    "number_page": 5,
    "title": "Smile",
    "tag": "Smile,",
    "description": "Smile",
    "link_thumb": "https://live.staticflickr.com/65535/48066953706_2771a62522_n.jpg",
    "id_album": "419891285",
    "total_view": 807
  },
  {
    "total_img": 316,
    "number_page": 2,
    "title": "Twintails",
    "tag": "Twintails,",
    "description": "Twintails",
    "link_thumb": "https://live.staticflickr.com/65535/48066258522_1a2a958ca1_n.jpg",
    "id_album": "-916794598",
    "total_view": 316
  }
]