[
  {
    "total_img": 6,
    "number_page": 1,
    "title": "Ms Koizumi Loves Ramen Noodles",
    "tag": "Koizumi Ms Koizumi Loves Ramen Noodles, Jun Takahashi, Misa Nakamura, Ms Koizumi Loves Ramen Noodles, Yuu Oosawa",
    "description": "Ms Koizumi Loves Ramen Noodles",
    "link_thumb": "https://live.staticflickr.com/65535/48611204971_eb67f59990_n.jpg",
    "id_album": "-1250028499",
    "total_view": 6
  }
]