[
  {
    "total_img": 217,
    "number_page": 2,
    "title": "The iDOLMSTER Cinderella Girls",
    "tag": "Hotaru Shiragiku, Green Hair, Rina Fujimoto, Straw Hat, Reina Koseki, Yumi Aiba, Rin Shibuya, Black Hair, Minami Nitta, Schoolgirl, Hibiki Ganaha, Ribbon, White Hair, Book, Umbrella, Shorts, Nana Abe, Hina Araki, Kozue Yusa, Ami Futami, Chika Yokoyama, Hair, Earrings, Shizuka Mogami, Glove, Sneakers, Syoko Hoshi, Scarf, Hajime Fujiwara, Black Dress, Nina Ichihara, Natsuki Kimura, Smile, Aiko Takamori, Skirt, Yukari Mizumoto, Yuriko Nanao, Blush, Belt, Pantyhose, Makoto Kikuchi, Fuka Toyokawa, Mio Honda, Michiru Ohara, Uzuki Shimamura, Orange Hair, Glass, Takane Shijou, Anastasia Idolmster, White Dress, Haruna Kamijo, Ranko Kanzaki, Yuka Nakano, Kotoka Saionji, Sunbeam, Wings, Mika Jougasaki, Ryo Matsunaga, Arisu Tachibana, Noriko Shiina, Yuri, Leaf, Kaede Takagaki, Face, Koume Shirasaka, Video Game, Original Anime, Brown Hair, Kanako Mimura, Sachiko Koshimizu, Nao Yokoyama, Tie, Blue Eyes, Crown, Tsumugi Shiraishi, Clarice Idolmaster, Takumi Mukai, Boots, Syuko Shiomi, Yukimi Sajo, Halloween, Kiss, Nono Morikubo, Sarina Matsumoto, Green Eyes, Momoka Sakurai, Nao Kamiya, Airi Totoki, Mirei Hayasaka, Miyu Mifune, Manami Kiba, Shiki Ichinose, Akane Hino, Yui Ohtsuki, Long Hair, Iori Minase, Kaoru Ryuzaki, Chieri Ogata, Rain, Rika Jougasaki, Anime, Yoshino Yorita, Heterochromia, Anna Mochizuki, Kako Takafuji, Yayoi Takatsuki, Coat, Kyoko Igarashi, Mizuki Kawashima, Kanade Hayami, Purple Hair, Yuuki Otokura, Asuka Ninomiya, Yellow Eyes, Hand, Atsumi Munakata, Red Eyes, Yuuko Amamiya, Triad Primus, Riina Tada, Anzu Futaba, Water Drop, Miku Maekawa, Chie Sasaki, Cat, Glasses, Fall, Mirror, Fumika Sagisawa, Bridge, Purple Dress, The iDOLMSTER Cinderella Girls, Mizuki Makabe, Hayami Kanade, iDOLMSTER Cinderella Girls, Blonde, Twintails, Kirari Moroboshi, Barefoot, Erika Akanishi, Frederica Miyamoto, Aki Yamato, bow Clothing, Shin Sato, Yuki Himekawa, Short Hair, Hiromi Seki, Room, The iDOLMSTER, Necklace, Karen Houjou, Flower, Dress, Brown Eyes, Jeans, Sae Kobayakawa, Bag, Pink Eyes, Blue Dress, School Uniform, Maid, Mayu Sakuma, Sunset, Miho Kohinata, Blue Hair, Mami Futami, Grey Hair, Sanae Katagiri, Miria Akagi",
    "description": "The iDOLMSTER Cinderella Girls",
    "link_thumb": "https://live.staticflickr.com/65535/48059662108_396c8f1cb7_n.jpg",
    "id_album": "1753158346",
    "total_view": 217
  },
  {
    "total_img": 14,
    "number_page": 1,
    "title": "Anastasia Idolmster",
    "tag": "Anastasia Idolmster,",
    "description": "Anastasia Idolmster",
    "link_thumb": "https://live.staticflickr.com/65535/48059654553_1dd37b9da3_n.jpg",
    "id_album": "1535220969",
    "total_view": 14
  },
  {
    "total_img": 1083,
    "number_page": 6,
    "title": "Anime",
    "tag": "Anime,",
    "description": "Anime",
    "link_thumb": "https://live.staticflickr.com/65535/48066953706_2771a62522_n.jpg",
    "id_album": "-1920923841",
    "total_view": 1083
  }
]