[
  {
    "total_img": 1012,
    "number_page": 6,
    "title": "Girls Kimono Yukata Cheongsam",
    "tag": "Girls Kimono Yukata Cheongsam,",
    "description": "Girls Kimono Yukata Cheongsam",
    "link_thumb": "https://live.staticflickr.com/65535/50016508376_e4bb0bf7e3_n.jpg",
    "id_album": "489994677",
    "total_view": 1012
  },
  {
    "total_img": 15136,
    "number_page": 76,
    "title": "Girls Loli",
    "tag": "Girls Loli,",
    "description": "Girls Loli",
    "link_thumb": "https://live.staticflickr.com/65535/51542199025_2343ce2f5b_n.jpg",
    "id_album": "-1584065887",
    "total_view": 15136
  },
  {
    "total_img": 408,
    "number_page": 3,
    "title": "Girls Scarf",
    "tag": "Girls Scarf,",
    "description": "Girls Scarf",
    "link_thumb": "https://live.staticflickr.com/65535/50154389436_963ec8b4b6_n.jpg",
    "id_album": "257140738",
    "total_view": 408
  }
]