[
  {
    "total_img": 381,
    "number_page": 2,
    "title": "Fairy Tail",
    "tag": "Happy Fairy Tail, Natsu Dragneel, NaLu Fairy Tail, Irene Belserion, Black Hair, Nichiya Fairy Tail, Weapon, Warcry Fairy Tail, Umbrella, Shorts, Dobengal Fairy Tail, Yajima Fairy Tail, Elfman Strauss, Lisanna Strauss, Glove, Skiadrum Fairy Tail, Hibiki Lates, IkusaTsunagi, Orange Dress, Coordinator Fairy Tail, Black Dress, Smile, Doranbalt Fairy Tail, Levy McGarden, Skirt, Neinhart Fairy Tail, Bunny Ears, White Dress, CloseUp, Mavis Vermilion, Dragon, Mercuphobia Fairy Tail, Sting Eucliffe, Tail, Ul Fairy Tail, Arcadios Fairy Tail, Face, Aries Fairy Tail, Invel Yura, Blue, Brown Hair, Laki Olietta, Couch, Ice, Pink Hair, Blue Eyes, Thigh Boots, Ring, Fire, Rufus Lore, Boots, Hat, Kiss, Weisslogia Fairy Tail, GruVia Fairy Tail, Erza Scarlet, Gajeel Redfox, Green Eyes, Semmes Fairy Tail, Fishnet, Meredy Fairy Tail, Yellow Dress, Pumpkin, Underwater, Tattoo, Ichiya Vandalay Kotobuki, Long Hair, Silver Fullbuster, Thigh Highs, Ajeel Ramal, Kimono, Headdress, Sasuke Uchiha, Collar, Michelle Lobster, Mirajane Strauss, Purple Hair, Dimaria Yesta, Lucy Heartfilia, Nalpudding Fairy Tail, Minerva Orland, Alzack Connell, Charles Fairy Tail, Anna Heartfilia, August Fairy Tail, Jura Neekis, Macao Conbolt, Eve Tearm, Lyon Vastia, Sitting, Shadow, Erik Fairy Tail, Reedus Jonah, Blonde, Twintails, Lector Fairy Tail, Dyst Fairy Tail, Mard Geer, Elza Scarlet Fairy Tail, Armor, Bacchus Groh, Hug, Katana, Cannon Fairy tail, Celestial Spirit King, Acnologia Fairy Tail, DragonForce, Selfie, Green Dress, Jellal Fernandes, Sunset, Chapati Lola, God Serena, Loki Fairy Tail, Risley Law, Sleeping, Virgo Fairy Tail, Glowing Eyes, Nab Lasaro, Lying Down, Asuka Connell, Lucy Ashley, Libra Fairy Tail, Orga Nanagear, Mystogan Fairy Tail, Larcade Dragneel, Fan Art, Ren Akatsuki, Hades Fairy Tail, Crying, Kinana Fairy Tail, Sword, Plue Fairy Tail, White Hair, Book, Erza Knightwalker, Arania Web, Child, Flame, Earrings, Purple Eyes, Romeo Conbolt, Frosch Fairy Tail, Scarf, Zeref Dragneel, Mask, Hibiki Laytis, Red Hair, Jet Fairy Tail, Sunglasses, Blush, Belt, Pantyhose, Wendy Marvell, Bisca Mulan, Cobra Fairy Tail, Flare Corona, Freed Justine, Evergreen Fairy Tail, Bickslow Fairy Tail, Hoteye Fairy Tail, Warrior, Kagura Mikazuchi, Headband, Steel, Sweater, Halloween, Sakura Blossom, Black Eyes, Jenny Realight, Pink Dress, Cana Alberona, Night, Snow, Minimalist, Grass, Kyoka Fairy Tail, Glow, Rain, Sabertooth Fairy Tail, Anime, Lahar Fairy Tail, Woman, Chelia Blendy, Coat, Yeagar Fairy Tail, Ultear Milkovich, Jacob Lessio, Chase Fairy Tail, Momon Fairy Tail, Millianna Fairy Tail, Yellow Eyes, Boy, Taurus Faury Tail, Red Eyes, Toby Horhorta, Droy Fairy Tail, Gildarts Clive, Fairy Tail, Yukino Aguria, Laxus Dreyar, Cat, Fantasy, Ponytail, Mato Fairy Tail, Microphone, Purple Dress, Socks, Windows, Juvia Lockser, Igneel Fairy Tail, Eve Tilm, bow Clothing, Short Hair, Brandish, Necklace, Flower, Gray Fullbuster, Dress, Cat Girl, Brown Eyes, Magic, Red Dress, Porlyusica Fairy Tail, Blue Dress, Woman Warrior, Makarov Dreyar, Blue Hair, Panther Lily Fairy Tail, Rogue Cheney, Cloud, Eclair Fairy Tail, Yukata",
    "description": "Fairy Tail",
    "link_thumb": "https://live.staticflickr.com/65535/49918284538_60100e1fb4_n.jpg",
    "id_album": "-1091915710",
    "total_view": 381
  },
  {
    "total_img": 61,
    "number_page": 1,
    "title": "Happy Fairy Tail",
    "tag": "Happy Fairy Tail,",
    "description": "Happy Fairy Tail",
    "link_thumb": "https://live.staticflickr.com/65535/49918458828_38c61ff930_n.jpg",
    "id_album": "1021676601",
    "total_view": 61
  },
  {
    "total_img": 95,
    "number_page": 1,
    "title": "Lucy Heartfilia",
    "tag": "Lucy Heartfilia,",
    "description": "Lucy Heartfilia",
    "link_thumb": "https://live.staticflickr.com/65535/49919264822_4b3a9a7071_n.jpg",
    "id_album": "-401441147",
    "total_view": 95
  },
  {
    "total_img": 201,
    "number_page": 2,
    "title": "Natsu Dragneel",
    "tag": "Natsu Dragneel,",
    "description": "Natsu Dragneel",
    "link_thumb": "https://live.staticflickr.com/65535/49918976656_6ed5719d3c_n.jpg",
    "id_album": "675718468",
    "total_view": 201
  }
]