[
  {
    "link_thumb": "https://live.staticflickr.com/65535/47960569443_beeaeb7c88_n.jpg",
    "id_album": "1046649815",
    "description": "Crossover_786536",
    "title": "Crossover_786536",
    "link_img": "https://live.staticflickr.com/65535/47960569443_92b32c66b4_o.jpg",
    "id_image": "Crossover_786536",
    "count_view": 0
  },
  {
    "link_thumb": "https://live.staticflickr.com/65535/47960596726_9ed2414501_n.jpg",
    "id_album": "1046649815",
    "description": "Crossover_786537",
    "title": "Crossover_786537",
    "link_img": "https://live.staticflickr.com/65535/47960596726_fba1e9095e_o.jpg",
    "id_image": "Crossover_786537",
    "count_view": 0
  },
  {
    "link_thumb": "https://live.staticflickr.com/65535/48059856507_58ebb7cec9_n.jpg",
    "id_album": "1046649815",
    "description": "TheMelancholyOfHaruhiSuzumiya_127861",
    "title": "TheMelancholyOfHaruhiSuzumiya_127861",
    "link_img": "https://live.staticflickr.com/65535/48059856507_16d15d4cb2_o.jpg",
    "id_image": "TheMelancholyOfHaruhiSuzumiya_127861",
    "count_view": 0
  },
  {
    "link_thumb": "https://live.staticflickr.com/65535/48059857092_dd9d5512ee_n.jpg",
    "id_album": "1046649815",
    "description": "TheMelancholyOfHaruhiSuzumiya_127864",
    "title": "TheMelancholyOfHaruhiSuzumiya_127864",
    "link_img": "https://live.staticflickr.com/65535/48059857092_b8dc080da2_o.jpg",
    "id_image": "TheMelancholyOfHaruhiSuzumiya_127864",
    "count_view": 0
  },
  {
    "link_thumb": "https://live.staticflickr.com/65535/48059807398_095528c337_n.jpg",
    "id_album": "1046649815",
    "description": "TheMelancholyOfHaruhiSuzumiya_136500",
    "title": "TheMelancholyOfHaruhiSuzumiya_136500",
    "link_img": "https://live.staticflickr.com/65535/48059807398_7dcf2cf0ca_o.jpg",
    "id_image": "TheMelancholyOfHaruhiSuzumiya_136500",
    "count_view": 0
  },
  {
    "link_thumb": "https://live.staticflickr.com/65535/48059814163_8b8d39566f_n.jpg",
    "id_album": "1046649815",
    "description": "TheMelancholyOfHaruhiSuzumiya_136560",
    "title": "TheMelancholyOfHaruhiSuzumiya_136560",
    "link_img": "https://live.staticflickr.com/65535/48059814163_b4a6450dff_o.jpg",
    "id_image": "TheMelancholyOfHaruhiSuzumiya_136560",
    "count_view": 0
  },
  {
    "link_thumb": "https://live.staticflickr.com/65535/48059814788_4d5a6e0420_n.jpg",
    "id_album": "1046649815",
    "description": "TheMelancholyOfHaruhiSuzumiya_136566",
    "title": "TheMelancholyOfHaruhiSuzumiya_136566",
    "link_img": "https://live.staticflickr.com/65535/48059814788_6e38f5f58f_o.jpg",
    "id_image": "TheMelancholyOfHaruhiSuzumiya_136566",
    "count_view": 0
  },
  {
    "link_thumb": "https://live.staticflickr.com/65535/48059770586_bb8a7fbeb4_n.jpg",
    "id_album": "1046649815",
    "description": "TheMelancholyOfHaruhiSuzumiya_136595",
    "title": "TheMelancholyOfHaruhiSuzumiya_136595",
    "link_img": "https://live.staticflickr.com/65535/48059770586_aefbea9e4c_o.jpg",
    "id_image": "TheMelancholyOfHaruhiSuzumiya_136595",
    "count_view": 0
  },
  {
    "link_thumb": "https://live.staticflickr.com/65535/48059827623_d27b6e51cd_n.jpg",
    "id_album": "1046649815",
    "description": "TheMelancholyOfHaruhiSuzumiya_205493",
    "title": "TheMelancholyOfHaruhiSuzumiya_205493",
    "link_img": "https://live.staticflickr.com/65535/48059827623_720db509d1_o.jpg",
    "id_image": "TheMelancholyOfHaruhiSuzumiya_205493",
    "count_view": 0
  },
  {
    "link_thumb": "https://live.staticflickr.com/65535/48059835368_abbd23c566_n.jpg",
    "id_album": "1046649815",
    "description": "TheMelancholyOfHaruhiSuzumiya_315167",
    "title": "TheMelancholyOfHaruhiSuzumiya_315167",
    "link_img": "https://live.staticflickr.com/65535/48059835368_4500484287_o.jpg",
    "id_image": "TheMelancholyOfHaruhiSuzumiya_315167",
    "count_view": 0
  },
  {
    "link_thumb": "https://live.staticflickr.com/65535/48059794346_f840e525df_n.jpg",
    "id_album": "1046649815",
    "description": "TheMelancholyOfHaruhiSuzumiya_450081",
    "title": "TheMelancholyOfHaruhiSuzumiya_450081",
    "link_img": "https://live.staticflickr.com/65535/48059794346_f4114f0a5a_o.jpg",
    "id_image": "TheMelancholyOfHaruhiSuzumiya_450081",
    "count_view": 0
  },
  {
    "link_thumb": "https://live.staticflickr.com/65535/48059796151_d2bf22e33f_n.jpg",
    "id_album": "1046649815",
    "description": "TheMelancholyOfHaruhiSuzumiya_450096",
    "title": "TheMelancholyOfHaruhiSuzumiya_450096",
    "link_img": "https://live.staticflickr.com/65535/48059796151_3499525f5b_o.jpg",
    "id_image": "TheMelancholyOfHaruhiSuzumiya_450096",
    "count_view": 0
  },
  {
    "link_thumb": "https://live.staticflickr.com/65535/48059848583_c1b8d13323_n.jpg",
    "id_album": "1046649815",
    "description": "TheMelancholyOfHaruhiSuzumiya_450140",
    "title": "TheMelancholyOfHaruhiSuzumiya_450140",
    "link_img": "https://live.staticflickr.com/65535/48059848583_ba617589f9_o.jpg",
    "id_image": "TheMelancholyOfHaruhiSuzumiya_450140",
    "count_view": 0
  },
  {
    "link_thumb": "https://live.staticflickr.com/65535/48059867963_1a538f647b_n.jpg",
    "id_album": "1046649815",
    "description": "TheMelancholyOfHaruhiSuzumiya_688418",
    "title": "TheMelancholyOfHaruhiSuzumiya_688418",
    "link_img": "https://live.staticflickr.com/65535/48059867963_9d09ab6a74_o.jpg",
    "id_image": "TheMelancholyOfHaruhiSuzumiya_688418",
    "count_view": 0
  },
  {
    "link_thumb": "https://live.staticflickr.com/65535/48059873828_00d3b2f696_n.jpg",
    "id_album": "1046649815",
    "description": "TheMelancholyOfHaruhiSuzumiya_717917",
    "title": "TheMelancholyOfHaruhiSuzumiya_717917",
    "link_img": "https://live.staticflickr.com/65535/48059873828_b0cccaf3b4_o.jpg",
    "id_image": "TheMelancholyOfHaruhiSuzumiya_717917",
    "count_view": 0
  },
  {
    "link_thumb": "https://live.staticflickr.com/65535/48059926622_d9421ae6b2_n.jpg",
    "id_album": "1046649815",
    "description": "TheMelancholyOfHaruhiSuzumiya_717919",
    "title": "TheMelancholyOfHaruhiSuzumiya_717919",
    "link_img": "https://live.staticflickr.com/65535/48059926622_6be0d44333_o.jpg",
    "id_image": "TheMelancholyOfHaruhiSuzumiya_717919",
    "count_view": 0
  },
  {
    "link_thumb": "https://live.staticflickr.com/65535/48059875978_3a64f7aabf_n.jpg",
    "id_album": "1046649815",
    "description": "TheMelancholyOfHaruhiSuzumiya_717927",
    "title": "TheMelancholyOfHaruhiSuzumiya_717927",
    "link_img": "https://live.staticflickr.com/65535/48059875978_5f19797256_o.jpg",
    "id_image": "TheMelancholyOfHaruhiSuzumiya_717927",
    "count_view": 0
  },
  {
    "link_thumb": "https://live.staticflickr.com/65535/48059930327_00978a2d28_n.jpg",
    "id_album": "1046649815",
    "description": "TheMelancholyOfHaruhiSuzumiya_717936",
    "title": "TheMelancholyOfHaruhiSuzumiya_717936",
    "link_img": "https://live.staticflickr.com/65535/48059930327_d84752c321_o.jpg",
    "id_image": "TheMelancholyOfHaruhiSuzumiya_717936",
    "count_view": 0
  },
  {
    "link_thumb": "https://live.staticflickr.com/65535/48059933047_d5b0eb6c55_n.jpg",
    "id_album": "1046649815",
    "description": "TheMelancholyOfHaruhiSuzumiya_717954",
    "title": "TheMelancholyOfHaruhiSuzumiya_717954",
    "link_img": "https://live.staticflickr.com/65535/48059933047_6bcaaab818_o.jpg",
    "id_image": "TheMelancholyOfHaruhiSuzumiya_717954",
    "count_view": 0
  },
  {
    "link_thumb": "https://live.staticflickr.com/65535/48059933197_18990115a3_n.jpg",
    "id_album": "1046649815",
    "description": "TheMelancholyOfHaruhiSuzumiya_717955",
    "title": "TheMelancholyOfHaruhiSuzumiya_717955",
    "link_img": "https://live.staticflickr.com/65535/48059933197_2deb5e897d_o.jpg",
    "id_image": "TheMelancholyOfHaruhiSuzumiya_717955",
    "count_view": 0
  },
  {
    "link_thumb": "https://live.staticflickr.com/65535/48059880938_741d727702_n.jpg",
    "id_album": "1046649815",
    "description": "TheMelancholyOfHaruhiSuzumiya_717956",
    "title": "TheMelancholyOfHaruhiSuzumiya_717956",
    "link_img": "https://live.staticflickr.com/65535/48059880938_528ed8038e_o.jpg",
    "id_image": "TheMelancholyOfHaruhiSuzumiya_717956",
    "count_view": 0
  },
  {
    "link_thumb": "https://live.staticflickr.com/65535/48059832541_e2dd4c74a3_n.jpg",
    "id_album": "1046649815",
    "description": "TheMelancholyOfHaruhiSuzumiya_717957",
    "title": "TheMelancholyOfHaruhiSuzumiya_717957",
    "link_img": "https://live.staticflickr.com/65535/48059832541_c21ea292a9_o.jpg",
    "id_image": "TheMelancholyOfHaruhiSuzumiya_717957",
    "count_view": 0
  },
  {
    "link_thumb": "https://live.staticflickr.com/65535/48059881493_aeb0fc8c7a_n.jpg",
    "id_album": "1046649815",
    "description": "TheMelancholyOfHaruhiSuzumiya_717966",
    "title": "TheMelancholyOfHaruhiSuzumiya_717966",
    "link_img": "https://live.staticflickr.com/65535/48059881493_ec310ae5c9_o.jpg",
    "id_image": "TheMelancholyOfHaruhiSuzumiya_717966",
    "count_view": 0
  },
  {
    "link_thumb": "https://live.staticflickr.com/65535/48059906903_2c327c0a86_n.jpg",
    "id_album": "1046649815",
    "description": "TheMelancholyOfHaruhiSuzumiya_754815",
    "title": "TheMelancholyOfHaruhiSuzumiya_754815",
    "link_img": "https://live.staticflickr.com/65535/48059906903_5070f43af7_o.jpg",
    "id_image": "TheMelancholyOfHaruhiSuzumiya_754815",
    "count_view": 0
  },
  {
    "link_thumb": "https://live.staticflickr.com/65535/48059927673_449f3498ca_n.jpg",
    "id_album": "1046649815",
    "description": "TheMelancholyOfHaruhiSuzumiya_780671",
    "title": "TheMelancholyOfHaruhiSuzumiya_780671",
    "link_img": "https://live.staticflickr.com/65535/48059927673_9923396052_o.jpg",
    "id_image": "TheMelancholyOfHaruhiSuzumiya_780671",
    "count_view": 0
  },
  {
    "link_thumb": "https://live.staticflickr.com/65535/48059941583_90a7181a92_n.jpg",
    "id_album": "1046649815",
    "description": "TheMelancholyOfHaruhiSuzumiya_780736",
    "title": "TheMelancholyOfHaruhiSuzumiya_780736",
    "link_img": "https://live.staticflickr.com/65535/48059941583_5df81b1e5e_o.jpg",
    "id_image": "TheMelancholyOfHaruhiSuzumiya_780736",
    "count_view": 0
  },
  {
    "link_thumb": "https://live.staticflickr.com/65535/48059945073_836677d69f_n.jpg",
    "id_album": "1046649815",
    "description": "TheMelancholyOfHaruhiSuzumiya_780749",
    "title": "TheMelancholyOfHaruhiSuzumiya_780749",
    "link_img": "https://live.staticflickr.com/65535/48059945073_b538423a28_o.jpg",
    "id_image": "TheMelancholyOfHaruhiSuzumiya_780749",
    "count_view": 0
  },
  {
    "link_thumb": "https://live.staticflickr.com/65535/48059948903_bcea13ccbc_n.jpg",
    "id_album": "1046649815",
    "description": "TheMelancholyOfHaruhiSuzumiya_82081",
    "title": "TheMelancholyOfHaruhiSuzumiya_82081",
    "link_img": "https://live.staticflickr.com/65535/48059948903_8a903a42b0_o.jpg",
    "id_image": "TheMelancholyOfHaruhiSuzumiya_82081",
    "count_view": 0
  },
  {
    "link_thumb": "https://live.staticflickr.com/65535/48060022457_f50b02cc9a_n.jpg",
    "id_album": "1046649815",
    "description": "TheMelancholyOfHaruhiSuzumiya_843160",
    "title": "TheMelancholyOfHaruhiSuzumiya_843160",
    "link_img": "https://live.staticflickr.com/65535/48060022457_3e82525810_o.jpg",
    "id_image": "TheMelancholyOfHaruhiSuzumiya_843160",
    "count_view": 0
  },
  {
    "link_thumb": "https://live.staticflickr.com/65535/48059926706_a9952dab79_n.jpg",
    "id_album": "1046649815",
    "description": "TheMelancholyOfHaruhiSuzumiya_928298",
    "title": "TheMelancholyOfHaruhiSuzumiya_928298",
    "link_img": "https://live.staticflickr.com/65535/48059926706_1b2de546dd_o.jpg",
    "id_image": "TheMelancholyOfHaruhiSuzumiya_928298",
    "count_view": 0
  }
]