[
  {
    "link_thumb": "https://live.staticflickr.com/65535/48063268971_571cc91ddc_n.jpg",
    "id_album": "1150592165",
    "description": "UtanoPrincesama_247589,[isBoyAnime],[isSadAnime],[isSadAnimeBoy],[Uta no Princesama],[UtanoPrincesama]",
    "title": "UtanoPrincesama_247589",
    "link_img": "https://live.staticflickr.com/65535/48063268971_bc58faf4e2_o.jpg",
    "id_image": "UtanoPrincesama_247589",
    "count_view": 0
  },
  {
    "link_thumb": "https://live.staticflickr.com/65535/48063318613_b53851d50b_n.jpg",
    "id_album": "1150592165",
    "description": "UtanoPrincesama_267457,[isBoyAnime],[isSadAnime],[isSadAnimeBoy],[Uta no Princesama],[UtanoPrincesama]",
    "title": "UtanoPrincesama_267457",
    "link_img": "https://live.staticflickr.com/65535/48063318613_eb58cff8df_o.jpg",
    "id_image": "UtanoPrincesama_267457",
    "count_view": 0
  },
  {
    "link_thumb": "https://live.staticflickr.com/65535/48063270311_c5f68debaf_n.jpg",
    "id_album": "1150592165",
    "description": "UtanoPrincesama_292214,[isBoyAnime],[isSadAnime],[isSadAnimeBoy],[Uta no Princesama],[UtanoPrincesama]",
    "title": "UtanoPrincesama_292214",
    "link_img": "https://live.staticflickr.com/65535/48063270311_29c26b10c9_o.jpg",
    "id_image": "UtanoPrincesama_292214",
    "count_view": 0
  },
  {
    "link_thumb": "https://live.staticflickr.com/65535/48063319883_94ab85789d_n.jpg",
    "id_album": "1150592165",
    "description": "UtanoPrincesama_294713,[isBoyAnime],[isSadAnime],[isSadAnimeBoy],[Uta no Princesama],[UtanoPrincesama]",
    "title": "UtanoPrincesama_294713",
    "link_img": "https://live.staticflickr.com/65535/48063319883_c3260544f5_o.jpg",
    "id_image": "UtanoPrincesama_294713",
    "count_view": 0
  },
  {
    "link_thumb": "https://live.staticflickr.com/65535/48063271361_6831c3d0cc_n.jpg",
    "id_album": "1150592165",
    "description": "UtanoPrincesama_558157,[isGirlAnime],[isBoyAnime],[Uta no Princesama],[UtanoPrincesama]",
    "title": "UtanoPrincesama_558157",
    "link_img": "https://live.staticflickr.com/65535/48063271361_ece5078980_o.jpg",
    "id_image": "UtanoPrincesama_558157",
    "count_view": 0
  },
  {
    "link_thumb": "https://live.staticflickr.com/65535/48063271791_d04ebd6598_n.jpg",
    "id_album": "1150592165",
    "description": "UtanoPrincesama_756900,[isBoyAnime],[isSadAnime],[isSadAnimeBoy],[Uta no Princesama],[UtanoPrincesama]",
    "title": "UtanoPrincesama_756900",
    "link_img": "https://live.staticflickr.com/65535/48063271791_5015bf31d0_o.jpg",
    "id_image": "UtanoPrincesama_756900",
    "count_view": 0
  },
  {
    "link_thumb": "https://live.staticflickr.com/65535/48063371062_79e8ce42e7_n.jpg",
    "id_album": "1150592165",
    "description": "UtanoPrincesama_833141,[isBoyAnime],[isSadAnime],[isSadAnimeBoy],[Uta no Princesama],[UtanoPrincesama]",
    "title": "UtanoPrincesama_833141",
    "link_img": "https://live.staticflickr.com/65535/48063371062_cfa96d8dd8_o.jpg",
    "id_image": "UtanoPrincesama_833141",
    "count_view": 0
  },
  {
    "link_thumb": "https://live.staticflickr.com/65535/48063371327_582163d68d_n.jpg",
    "id_album": "1150592165",
    "description": "UtanoPrincesama_833142,[isBoyAnime],[isSadAnime],[isSadAnimeBoy],[Uta no Princesama],[UtanoPrincesama]",
    "title": "UtanoPrincesama_833142",
    "link_img": "https://live.staticflickr.com/65535/48063371327_68e6a134bc_o.jpg",
    "id_image": "UtanoPrincesama_833142",
    "count_view": 0
  },
  {
    "link_thumb": "https://live.staticflickr.com/65535/48063371952_a2d99be03d_n.jpg",
    "id_album": "1150592165",
    "description": "UtanoPrincesama_833144,[isBoyAnime],[isSadAnime],[isSadAnimeBoy],[Uta no Princesama],[UtanoPrincesama]",
    "title": "UtanoPrincesama_833144",
    "link_img": "https://live.staticflickr.com/65535/48063371952_a9641e2b2b_o.jpg",
    "id_image": "UtanoPrincesama_833144",
    "count_view": 0
  },
  {
    "link_thumb": "https://live.staticflickr.com/65535/48063322673_1b5e136e5a_n.jpg",
    "id_album": "1150592165",
    "description": "UtanoPrincesama_833145,[isBoyAnime],[Uta no Princesama],[UtanoPrincesama]",
    "title": "UtanoPrincesama_833145",
    "link_img": "https://live.staticflickr.com/65535/48063322673_d2a307f1c5_o.jpg",
    "id_image": "UtanoPrincesama_833145",
    "count_view": 0
  },
  {
    "link_thumb": "https://live.staticflickr.com/65535/48063274461_b4b3f58295_n.jpg",
    "id_album": "1150592165",
    "description": "UtanoPrincesama_833148,[isBoyAnime],[Uta no Princesama],[UtanoPrincesama]",
    "title": "UtanoPrincesama_833148",
    "link_img": "https://live.staticflickr.com/65535/48063274461_ae22c269fd_o.jpg",
    "id_image": "UtanoPrincesama_833148",
    "count_view": 0
  },
  {
    "link_thumb": "https://live.staticflickr.com/65535/48063323778_2772b78141_n.jpg",
    "id_album": "1150592165",
    "description": "UtanoPrincesama_833149,[isBoyAnime],[isSadAnime],[isSadAnimeBoy],[Uta no Princesama],[UtanoPrincesama]",
    "title": "UtanoPrincesama_833149",
    "link_img": "https://live.staticflickr.com/65535/48063323778_ccaae09c64_o.jpg",
    "id_image": "UtanoPrincesama_833149",
    "count_view": 0
  },
  {
    "link_thumb": "https://live.staticflickr.com/65535/48063275491_2174843caa_n.jpg",
    "id_album": "1150592165",
    "description": "UtanoPrincesama_833151,[isBoyAnime],[isSadAnime],[isSadAnimeBoy],[Uta no Princesama],[UtanoPrincesama]",
    "title": "UtanoPrincesama_833151",
    "link_img": "https://live.staticflickr.com/65535/48063275491_03fbd39784_o.jpg",
    "id_image": "UtanoPrincesama_833151",
    "count_view": 0
  },
  {
    "link_thumb": "https://live.staticflickr.com/65535/48063276041_44927c0c22_n.jpg",
    "id_album": "1150592165",
    "description": "UtanoPrincesama_833152,[isBoyAnime],[Uta no Princesama],[UtanoPrincesama]",
    "title": "UtanoPrincesama_833152",
    "link_img": "https://live.staticflickr.com/65535/48063276041_2449b7f10a_o.jpg",
    "id_image": "UtanoPrincesama_833152",
    "count_view": 0
  },
  {
    "link_thumb": "https://live.staticflickr.com/65535/48063276506_274f12c887_n.jpg",
    "id_album": "1150592165",
    "description": "UtanoPrincesama_833153,[isGirlAnime],[isBoyAnime],[Uta no Princesama],[UtanoPrincesama]",
    "title": "UtanoPrincesama_833153",
    "link_img": "https://live.staticflickr.com/65535/48063276506_04afd59657_o.jpg",
    "id_image": "UtanoPrincesama_833153",
    "count_view": 0
  },
  {
    "link_thumb": "https://live.staticflickr.com/65535/48063277151_48b1911e62_n.jpg",
    "id_album": "1150592165",
    "description": "UtanoPrincesama_833154,[isGirlAnime],[isBoyAnime],[Uta no Princesama],[UtanoPrincesama]",
    "title": "UtanoPrincesama_833154",
    "link_img": "https://live.staticflickr.com/65535/48063277151_3887e0a334_o.jpg",
    "id_image": "UtanoPrincesama_833154",
    "count_view": 0
  },
  {
    "link_thumb": "https://live.staticflickr.com/65535/48063376217_2b0658f6bb_n.jpg",
    "id_album": "1150592165",
    "description": "UtanoPrincesama_833155,[isBoyAnime],[isSadAnime],[isSadAnimeBoy],[Uta no Princesama],[UtanoPrincesama]",
    "title": "UtanoPrincesama_833155",
    "link_img": "https://live.staticflickr.com/65535/48063376217_aaa1454cd5_o.jpg",
    "id_image": "UtanoPrincesama_833155",
    "count_view": 0
  },
  {
    "link_thumb": "https://live.staticflickr.com/65535/48063278291_9448f009ff_n.jpg",
    "id_album": "1150592165",
    "description": "UtanoPrincesama_833157,[isBoyAnime],[isSadAnime],[isSadAnimeBoy],[Uta no Princesama],[UtanoPrincesama]",
    "title": "UtanoPrincesama_833157",
    "link_img": "https://live.staticflickr.com/65535/48063278291_e6a2051b58_o.jpg",
    "id_image": "UtanoPrincesama_833157",
    "count_view": 0
  },
  {
    "link_thumb": "https://live.staticflickr.com/65535/48063328743_c8bed50415_n.jpg",
    "id_album": "1150592165",
    "description": "UtanoPrincesama_833160,[isBoyAnime],[Uta no Princesama],[UtanoPrincesama]",
    "title": "UtanoPrincesama_833160",
    "link_img": "https://live.staticflickr.com/65535/48063328743_f4fd99f84f_o.jpg",
    "id_image": "UtanoPrincesama_833160",
    "count_view": 0
  },
  {
    "link_thumb": "https://live.staticflickr.com/65535/48063280231_5f4111b597_n.jpg",
    "id_album": "1150592165",
    "description": "UtanoPrincesama_833161,[isGirlAnime],[isBoyAnime],[Uta no Princesama],[UtanoPrincesama]",
    "title": "UtanoPrincesama_833161",
    "link_img": "https://live.staticflickr.com/65535/48063280231_23657f1521_o.jpg",
    "id_image": "UtanoPrincesama_833161",
    "count_view": 0
  },
  {
    "link_thumb": "https://live.staticflickr.com/65535/48063379472_6e1c925407_n.jpg",
    "id_album": "1150592165",
    "description": "UtanoPrincesama_833162,[isGirlAnime],[isBoyAnime],[Uta no Princesama],[UtanoPrincesama]",
    "title": "UtanoPrincesama_833162",
    "link_img": "https://live.staticflickr.com/65535/48063379472_9fd8a3441a_o.jpg",
    "id_image": "UtanoPrincesama_833162",
    "count_view": 0
  },
  {
    "link_thumb": "https://live.staticflickr.com/65535/48063281811_3ea6e2b2fa_n.jpg",
    "id_album": "1150592165",
    "description": "UtanoPrincesama_833164,[isGirlAnime],[isBoyAnime],[Uta no Princesama],[UtanoPrincesama]",
    "title": "UtanoPrincesama_833164",
    "link_img": "https://live.staticflickr.com/65535/48063281811_0fb6f4baba_o.jpg",
    "id_image": "UtanoPrincesama_833164",
    "count_view": 0
  },
  {
    "link_thumb": "https://live.staticflickr.com/65535/48063282396_b4457b82f0_n.jpg",
    "id_album": "1150592165",
    "description": "UtanoPrincesama_833165,[isGirlAnime],[isBoyAnime],[Uta no Princesama],[UtanoPrincesama]",
    "title": "UtanoPrincesama_833165",
    "link_img": "https://live.staticflickr.com/65535/48063282396_3064ce62ef_o.jpg",
    "id_image": "UtanoPrincesama_833165",
    "count_view": 0
  },
  {
    "link_thumb": "https://live.staticflickr.com/65535/48063332113_c573466bc1_n.jpg",
    "id_album": "1150592165",
    "description": "UtanoPrincesama_833166,[isBoyAnime],[isSadAnime],[isSadAnimeBoy],[Uta no Princesama],[UtanoPrincesama]",
    "title": "UtanoPrincesama_833166",
    "link_img": "https://live.staticflickr.com/65535/48063332113_8174877c4a_o.jpg",
    "id_image": "UtanoPrincesama_833166",
    "count_view": 0
  },
  {
    "link_thumb": "https://live.staticflickr.com/65535/48063332428_c353a21ab8_n.jpg",
    "id_album": "1150592165",
    "description": "UtanoPrincesama_833167,[isBoyAnime],[Uta no Princesama],[UtanoPrincesama]",
    "title": "UtanoPrincesama_833167",
    "link_img": "https://live.staticflickr.com/65535/48063332428_2497a82bc5_o.jpg",
    "id_image": "UtanoPrincesama_833167",
    "count_view": 0
  },
  {
    "link_thumb": "https://live.staticflickr.com/65535/48063283821_338f48931e_n.jpg",
    "id_album": "1150592165",
    "description": "UtanoPrincesama_833168,[isBoyAnime],[isSadAnime],[isSadAnimeBoy],[Uta no Princesama],[UtanoPrincesama]",
    "title": "UtanoPrincesama_833168",
    "link_img": "https://live.staticflickr.com/65535/48063283821_08a5c567a6_o.jpg",
    "id_image": "UtanoPrincesama_833168",
    "count_view": 0
  },
  {
    "link_thumb": "https://live.staticflickr.com/65535/48063382737_fefc7d87de_n.jpg",
    "id_album": "1150592165",
    "description": "UtanoPrincesama_833169,[isBoyAnime],[Uta no Princesama],[UtanoPrincesama]",
    "title": "UtanoPrincesama_833169",
    "link_img": "https://live.staticflickr.com/65535/48063382737_992ffe4ae9_o.jpg",
    "id_image": "UtanoPrincesama_833169",
    "count_view": 0
  },
  {
    "link_thumb": "https://live.staticflickr.com/65535/48063335438_114fb8932e_n.jpg",
    "id_album": "1150592165",
    "description": "UtanoPrincesama_833174,[isGirlAnime],[isBoyAnime],[Uta no Princesama],[UtanoPrincesama]",
    "title": "UtanoPrincesama_833174",
    "link_img": "https://live.staticflickr.com/65535/48063335438_c596d5fc72_o.jpg",
    "id_image": "UtanoPrincesama_833174",
    "count_view": 0
  },
  {
    "link_thumb": "https://live.staticflickr.com/65535/48063386987_0dace0b48b_n.jpg",
    "id_album": "1150592165",
    "description": "UtanoPrincesama_833183,[isBoyAnime],[isSadAnime],[isSadAnimeBoy],[Uta no Princesama],[UtanoPrincesama]",
    "title": "UtanoPrincesama_833183",
    "link_img": "https://live.staticflickr.com/65535/48063386987_3fde928d17_o.jpg",
    "id_image": "UtanoPrincesama_833183",
    "count_view": 0
  },
  {
    "link_thumb": "https://live.staticflickr.com/65535/48063388832_f9fca0f7df_n.jpg",
    "id_album": "1150592165",
    "description": "UtanoPrincesama_833187,[isGirlAnime],[isBoyAnime],[Uta no Princesama],[UtanoPrincesama]",
    "title": "UtanoPrincesama_833187",
    "link_img": "https://live.staticflickr.com/65535/48063388832_b18d5973f8_o.jpg",
    "id_image": "UtanoPrincesama_833187",
    "count_view": 0
  },
  {
    "link_thumb": "https://live.staticflickr.com/65535/48063290746_4963dc3f5d_n.jpg",
    "id_album": "1150592165",
    "description": "UtanoPrincesama_833188,[isBoyAnime],[isSadAnime],[isSadAnimeBoy],[Uta no Princesama],[UtanoPrincesama]",
    "title": "UtanoPrincesama_833188",
    "link_img": "https://live.staticflickr.com/65535/48063290746_ea6b5acd6c_o.jpg",
    "id_image": "UtanoPrincesama_833188",
    "count_view": 0
  },
  {
    "link_thumb": "https://live.staticflickr.com/65535/48063291106_03f03472f8_n.jpg",
    "id_album": "1150592165",
    "description": "UtanoPrincesama_833189,[isBoyAnime],[isSadAnime],[isSadAnimeBoy],[Uta no Princesama],[UtanoPrincesama]",
    "title": "UtanoPrincesama_833189",
    "link_img": "https://live.staticflickr.com/65535/48063291106_e59d1ae82c_o.jpg",
    "id_image": "UtanoPrincesama_833189",
    "count_view": 0
  },
  {
    "link_thumb": "https://live.staticflickr.com/65535/48063342218_9b50619ff9_n.jpg",
    "id_album": "1150592165",
    "description": "UtanoPrincesama_833194,[isGirlAnime],[isBoyAnime],[Uta no Princesama],[UtanoPrincesama]",
    "title": "UtanoPrincesama_833194",
    "link_img": "https://live.staticflickr.com/65535/48063342218_7152989223_o.jpg",
    "id_image": "UtanoPrincesama_833194",
    "count_view": 0
  },
  {
    "link_thumb": "https://live.staticflickr.com/65535/48063293541_63d1d725a5_n.jpg",
    "id_album": "1150592165",
    "description": "UtanoPrincesama_833195,[isBoyAnime],[isSadAnime],[isSadAnimeBoy],[Uta no Princesama],[UtanoPrincesama]",
    "title": "UtanoPrincesama_833195",
    "link_img": "https://live.staticflickr.com/65535/48063293541_cc4155d143_o.jpg",
    "id_image": "UtanoPrincesama_833195",
    "count_view": 0
  },
  {
    "link_thumb": "https://live.staticflickr.com/65535/48063293956_7d477f87d0_n.jpg",
    "id_album": "1150592165",
    "description": "UtanoPrincesama_833196,[isBoyAnime],[isSadAnime],[isSadAnimeBoy],[Uta no Princesama],[UtanoPrincesama]",
    "title": "UtanoPrincesama_833196",
    "link_img": "https://live.staticflickr.com/65535/48063293956_b369b113c4_o.jpg",
    "id_image": "UtanoPrincesama_833196",
    "count_view": 0
  },
  {
    "link_thumb": "https://live.staticflickr.com/65535/48063395142_f5233745c7_n.jpg",
    "id_album": "1150592165",
    "description": "UtanoPrincesama_833202,[isGirlAnime],[isBoyAnime],[Uta no Princesama],[UtanoPrincesama]",
    "title": "UtanoPrincesama_833202",
    "link_img": "https://live.staticflickr.com/65535/48063395142_666deaa528_o.jpg",
    "id_image": "UtanoPrincesama_833202",
    "count_view": 0
  },
  {
    "link_thumb": "https://live.staticflickr.com/65535/48063395827_b8a8f59397_n.jpg",
    "id_album": "1150592165",
    "description": "UtanoPrincesama_833203,[isGirlAnime],[isBoyAnime],[Uta no Princesama],[UtanoPrincesama]",
    "title": "UtanoPrincesama_833203",
    "link_img": "https://live.staticflickr.com/65535/48063395827_95214d32d5_o.jpg",
    "id_image": "UtanoPrincesama_833203",
    "count_view": 0
  },
  {
    "link_thumb": "https://live.staticflickr.com/65535/48063297641_5c3cf3033f_n.jpg",
    "id_album": "1150592165",
    "description": "UtanoPrincesama_833204,[isBoyAnime],[isSadAnime],[isSadAnimeBoy],[Uta no Princesama],[UtanoPrincesama]",
    "title": "UtanoPrincesama_833204",
    "link_img": "https://live.staticflickr.com/65535/48063297641_c0e4464d34_o.jpg",
    "id_image": "UtanoPrincesama_833204",
    "count_view": 0
  },
  {
    "link_thumb": "https://live.staticflickr.com/65535/48063350518_bf5a909709_n.jpg",
    "id_album": "1150592165",
    "description": "UtanoPrincesama_833206,[isBoyAnime],[isSadAnime],[isSadAnimeBoy],[Uta no Princesama],[UtanoPrincesama]",
    "title": "UtanoPrincesama_833206",
    "link_img": "https://live.staticflickr.com/65535/48063350518_e5a834f036_o.jpg",
    "id_image": "UtanoPrincesama_833206",
    "count_view": 0
  },
  {
    "link_thumb": "https://live.staticflickr.com/65535/48063353763_8435bde093_n.jpg",
    "id_album": "1150592165",
    "description": "UtanoPrincesama_833213,[isBoyAnime],[isSadAnime],[isSadAnimeBoy],[Uta no Princesama],[UtanoPrincesama]",
    "title": "UtanoPrincesama_833213",
    "link_img": "https://live.staticflickr.com/65535/48063353763_b530ca46fd_o.jpg",
    "id_image": "UtanoPrincesama_833213",
    "count_view": 0
  },
  {
    "link_thumb": "https://live.staticflickr.com/65535/48063305296_c5a5161be6_n.jpg",
    "id_album": "1150592165",
    "description": "UtanoPrincesama_833214,[isGirlAnime],[isBoyAnime],[Uta no Princesama],[UtanoPrincesama]",
    "title": "UtanoPrincesama_833214",
    "link_img": "https://live.staticflickr.com/65535/48063305296_9d0f578252_o.jpg",
    "id_image": "UtanoPrincesama_833214",
    "count_view": 0
  },
  {
    "link_thumb": "https://live.staticflickr.com/65535/48063404147_b9762d0a40_n.jpg",
    "id_album": "1150592165",
    "description": "UtanoPrincesama_833215,[isBoyAnime],[isSadAnime],[isSadAnimeBoy],[Uta no Princesama],[UtanoPrincesama]",
    "title": "UtanoPrincesama_833215",
    "link_img": "https://live.staticflickr.com/65535/48063404147_9baab7c840_o.jpg",
    "id_image": "UtanoPrincesama_833215",
    "count_view": 0
  },
  {
    "link_thumb": "https://live.staticflickr.com/65535/48063355378_74372a5b16_n.jpg",
    "id_album": "1150592165",
    "description": "UtanoPrincesama_833216,[isBoyAnime],[isSadAnime],[isSadAnimeBoy],[Uta no Princesama],[UtanoPrincesama]",
    "title": "UtanoPrincesama_833216",
    "link_img": "https://live.staticflickr.com/65535/48063355378_452f2098a4_o.jpg",
    "id_image": "UtanoPrincesama_833216",
    "count_view": 0
  },
  {
    "link_thumb": "https://live.staticflickr.com/65535/48063355973_6600e75a5a_n.jpg",
    "id_album": "1150592165",
    "description": "UtanoPrincesama_833217,[isGirlAnime],[isBoyAnime],[Uta no Princesama],[UtanoPrincesama]",
    "title": "UtanoPrincesama_833217",
    "link_img": "https://live.staticflickr.com/65535/48063355973_68f4eaf96a_o.jpg",
    "id_image": "UtanoPrincesama_833217",
    "count_view": 0
  },
  {
    "link_thumb": "https://live.staticflickr.com/65535/48063307266_6009e11aec_n.jpg",
    "id_album": "1150592165",
    "description": "UtanoPrincesama_833219,[isBoyAnime],[Uta no Princesama],[UtanoPrincesama]",
    "title": "UtanoPrincesama_833219",
    "link_img": "https://live.staticflickr.com/65535/48063307266_d342cb1c30_o.jpg",
    "id_image": "UtanoPrincesama_833219",
    "count_view": 0
  },
  {
    "link_thumb": "https://live.staticflickr.com/65535/48063307981_0482ffe87e_n.jpg",
    "id_album": "1150592165",
    "description": "UtanoPrincesama_833221,[isBoyAnime],[isSadAnime],[isSadAnimeBoy],[Uta no Princesama],[UtanoPrincesama]",
    "title": "UtanoPrincesama_833221",
    "link_img": "https://live.staticflickr.com/65535/48063307981_780486c5f0_o.jpg",
    "id_image": "UtanoPrincesama_833221",
    "count_view": 0
  },
  {
    "link_thumb": "https://live.staticflickr.com/65535/48063407032_68dbb325d1_n.jpg",
    "id_album": "1150592165",
    "description": "UtanoPrincesama_833222,[isGirlAnime],[isBoyAnime],[Uta no Princesama],[UtanoPrincesama]",
    "title": "UtanoPrincesama_833222",
    "link_img": "https://live.staticflickr.com/65535/48063407032_59ba6ebba8_o.jpg",
    "id_image": "UtanoPrincesama_833222",
    "count_view": 0
  },
  {
    "link_thumb": "https://live.staticflickr.com/65535/48063359078_bff9ab5ff7_n.jpg",
    "id_album": "1150592165",
    "description": "UtanoPrincesama_833224,[isBoyAnime],[isSadAnime],[isSadAnimeBoy],[Uta no Princesama],[UtanoPrincesama]",
    "title": "UtanoPrincesama_833224",
    "link_img": "https://live.staticflickr.com/65535/48063359078_1d3a19029e_o.jpg",
    "id_image": "UtanoPrincesama_833224",
    "count_view": 0
  },
  {
    "link_thumb": "https://live.staticflickr.com/65535/48063359538_d86b813bff_n.jpg",
    "id_album": "1150592165",
    "description": "UtanoPrincesama_833225,[isBoyAnime],[isSadAnime],[isSadAnimeBoy],[Uta no Princesama],[UtanoPrincesama]",
    "title": "UtanoPrincesama_833225",
    "link_img": "https://live.staticflickr.com/65535/48063359538_0f4ef28fcf_o.jpg",
    "id_image": "UtanoPrincesama_833225",
    "count_view": 0
  },
  {
    "link_thumb": "https://live.staticflickr.com/65535/48063359983_e149886194_n.jpg",
    "id_album": "1150592165",
    "description": "UtanoPrincesama_833226,[isBoyAnime],[isSadAnime],[isSadAnimeBoy],[Uta no Princesama],[UtanoPrincesama]",
    "title": "UtanoPrincesama_833226",
    "link_img": "https://live.staticflickr.com/65535/48063359983_b9f6ec3f3d_o.jpg",
    "id_image": "UtanoPrincesama_833226",
    "count_view": 0
  },
  {
    "link_thumb": "https://live.staticflickr.com/65535/48063409162_b7af360157_n.jpg",
    "id_album": "1150592165",
    "description": "UtanoPrincesama_833227,[isBoyAnime],[isSadAnime],[isSadAnimeBoy],[Uta no Princesama],[UtanoPrincesama]",
    "title": "UtanoPrincesama_833227",
    "link_img": "https://live.staticflickr.com/65535/48063409162_db3e4bd430_o.jpg",
    "id_image": "UtanoPrincesama_833227",
    "count_view": 0
  },
  {
    "link_thumb": "https://live.staticflickr.com/65535/48063311356_c24c13e065_n.jpg",
    "id_album": "1150592165",
    "description": "UtanoPrincesama_833229,[isBoyAnime],[isSadAnime],[isSadAnimeBoy],[Uta no Princesama],[UtanoPrincesama]",
    "title": "UtanoPrincesama_833229",
    "link_img": "https://live.staticflickr.com/65535/48063311356_88a20d791a_o.jpg",
    "id_image": "UtanoPrincesama_833229",
    "count_view": 0
  },
  {
    "link_thumb": "https://live.staticflickr.com/65535/48063410022_762fa46429_n.jpg",
    "id_album": "1150592165",
    "description": "UtanoPrincesama_833231,[isGirlAnime],[isBoyAnime],[Uta no Princesama],[UtanoPrincesama]",
    "title": "UtanoPrincesama_833231",
    "link_img": "https://live.staticflickr.com/65535/48063410022_3a6599b0d5_o.jpg",
    "id_image": "UtanoPrincesama_833231",
    "count_view": 0
  },
  {
    "link_thumb": "https://live.staticflickr.com/65535/48063314546_8ff466f331_n.jpg",
    "id_album": "1150592165",
    "description": "UtanoPrincesama_833234,[isBoyAnime],[Uta no Princesama],[UtanoPrincesama]",
    "title": "UtanoPrincesama_833234",
    "link_img": "https://live.staticflickr.com/65535/48063314546_632d9b0323_o.jpg",
    "id_image": "UtanoPrincesama_833234",
    "count_view": 0
  },
  {
    "link_thumb": "https://live.staticflickr.com/65535/48063314881_160ae52f19_n.jpg",
    "id_album": "1150592165",
    "description": "UtanoPrincesama_833237,[isBoyAnime],[isSadAnime],[isSadAnimeBoy],[Uta no Princesama],[UtanoPrincesama]",
    "title": "UtanoPrincesama_833237",
    "link_img": "https://live.staticflickr.com/65535/48063314881_59e06e2b38_o.jpg",
    "id_image": "UtanoPrincesama_833237",
    "count_view": 0
  },
  {
    "link_thumb": "https://live.staticflickr.com/65535/48063364803_0143fff51b_n.jpg",
    "id_album": "1150592165",
    "description": "UtanoPrincesama_833238,[isBoyAnime],[isSadAnime],[isSadAnimeBoy],[Uta no Princesama],[UtanoPrincesama]",
    "title": "UtanoPrincesama_833238",
    "link_img": "https://live.staticflickr.com/65535/48063364803_9963fe619f_o.jpg",
    "id_image": "UtanoPrincesama_833238",
    "count_view": 0
  },
  {
    "link_thumb": "https://live.staticflickr.com/65535/48063365503_5f5bde8c9b_n.jpg",
    "id_album": "1150592165",
    "description": "UtanoPrincesama_833242,[isBoyAnime],[isSadAnime],[isSadAnimeBoy],[Uta no Princesama],[UtanoPrincesama]",
    "title": "UtanoPrincesama_833242",
    "link_img": "https://live.staticflickr.com/65535/48063365503_188211af0a_o.jpg",
    "id_image": "UtanoPrincesama_833242",
    "count_view": 0
  },
  {
    "link_thumb": "https://live.staticflickr.com/65535/48063316361_7eac657240_n.jpg",
    "id_album": "1150592165",
    "description": "UtanoPrincesama_833243,[isGirlAnime],[isBoyAnime],[Uta no Princesama],[UtanoPrincesama]",
    "title": "UtanoPrincesama_833243",
    "link_img": "https://live.staticflickr.com/65535/48063316361_b57b3ea310_o.jpg",
    "id_image": "UtanoPrincesama_833243",
    "count_view": 0
  },
  {
    "link_thumb": "https://live.staticflickr.com/65535/48063317126_1e945bddc3_n.jpg",
    "id_album": "1150592165",
    "description": "UtanoPrincesama_833246,[isBoyAnime],[isSadAnime],[isSadAnimeBoy],[Uta no Princesama],[UtanoPrincesama]",
    "title": "UtanoPrincesama_833246",
    "link_img": "https://live.staticflickr.com/65535/48063317126_79c2417d59_o.jpg",
    "id_image": "UtanoPrincesama_833246",
    "count_view": 0
  }
]