[
  {
    "total_img": 23,
    "number_page": 1,
    "title": "Citrus",
    "tag": "Building, Green Eyes, Ume Aihara, Night, Wink, Twilight, Blonde, Long Hair, Twintails, Bouquet, Citrus Anime, Sunbeam, Anime, Tokyo, bow Clothing, Tree, Yuri, River, Street, Leaf, Lamp, Face, Earrings, Nature, Mei Aihara, Purple Eyes, Flower, Purple Hair, Cute, Matsuri Mizusawa, Architecture, House, School Uniform, Pink Hair, Apartment, Arcade, Citrus, Tie, Blue Eyes, Blush, Hoodie, Brick, Bookshelf, Sad, Yuzu Aihara",
    "description": "Citrus",
    "link_thumb": "https://live.staticflickr.com/65535/40945482283_7ae05a6d87_n.jpg",
    "id_album": "1583923054",
    "total_view": 23
  },
  {
    "total_img": 18,
    "number_page": 1,
    "title": "Citrus Anime",
    "tag": "Citrus Anime,",
    "description": "Citrus Anime",
    "link_thumb": "https://live.staticflickr.com/65535/47122739784_ed4855381b_n.jpg",
    "id_album": "424431348",
    "total_view": 18
  }
]