[
  {
    "total_img": 153,
    "number_page": 1,
    "title": "Love Live Sunshine",
    "tag": "Wink, Riko Aida, Love Live, Long Hair, Riko Sakurauchi, Thigh Highs, Anime, Shirt, Aika Kobayashi, Yoshiko Tsushima, Braid, Mari Ohara, Chika Takami, Glove, Purple Eyes, Chibi, Smile, Yellow Eyes, Red Hair, Skirt, Lollipop, Blush, Sarah Kazuno, Glasses, Ruby Kurosawa, Orange Eyes, Anju Inami, You Watanabe, Dia Kurosawa, Leah Kazuno, Mutsu Love Live Sunshine, Blonde, Twintails, Wings, bow Clothing, Feather, Yuri, Shuka Saitou, Short Hair, Love Live Sunshine, Brown Hair, Pink Eyes, School Uniform, Pink Hair, Gothic, Kanan Matsuura, Hanamaru Kunikida, Blue Eyes, Blue Hair, Hat, Kiss",
    "description": "Love Live Sunshine",
    "link_thumb": "https://live.staticflickr.com/65535/48070075363_92d46c7568_n.jpg",
    "id_album": "1502209066",
    "total_view": 153
  },
  {
    "total_img": 39,
    "number_page": 1,
    "title": "Mari Ohara",
    "tag": "Mari Ohara,",
    "description": "Mari Ohara",
    "link_thumb": "https://live.staticflickr.com/65535/48070157243_c3e5bdbc96_n.jpg",
    "id_album": "-1566857810",
    "total_view": 39
  },
  {
    "total_img": 54,
    "number_page": 1,
    "title": "Riko Sakurauchi",
    "tag": "Riko Sakurauchi,",
    "description": "Riko Sakurauchi",
    "link_thumb": "https://live.staticflickr.com/65535/48070202097_aab7877f11_n.jpg",
    "id_album": "-754241879",
    "total_view": 54
  },
  {
    "total_img": 61,
    "number_page": 1,
    "title": "Yoshiko Tsushima",
    "tag": "Yoshiko Tsushima,",
    "description": "Yoshiko Tsushima",
    "link_thumb": "https://live.staticflickr.com/65535/48070106351_d3e164c50b_n.jpg",
    "id_album": "-566718453",
    "total_view": 61
  }
]