[
  {
    "total_img": 52,
    "number_page": 1,
    "title": "Ef",
    "tag": "Nature, Ef, Cute, ef A Tale of Melodies, Chihiro Shindou, Shuichi Kuze, Kyosuke Tsutsumi, Grass, Miyako Miyamura, Nagi Hirono, Hiro Hirono, Yuuko Amamiya, Akari Amamiya, Yuko Amamiya, Anime, Sunbeam, ef A Tale of Memories, Kei Shindou, Cloud, Tree, Ef Anime, Mizuki Hayama, Himura Yu",
    "description": "Ef",
    "link_thumb": "https://live.staticflickr.com/65535/47978452128_4a1ab154d5_n.jpg",
    "id_album": "-840648741",
    "total_view": 52
  }
]