[
  {
    "link_thumb": "https://live.staticflickr.com/65535/48053026846_713b4a2f6a_n.jpg",
    "id_album": "1505715838",
    "description": "ReLiefShinaiNaruAnataE_712153",
    "title": "ReLiefShinaiNaruAnataE_712153",
    "link_img": "https://live.staticflickr.com/65535/48053026846_62342ce0c8_o.jpg",
    "id_image": "ReLiefShinaiNaruAnataE_712153",
    "count_view": 0
  },
  {
    "link_thumb": "https://live.staticflickr.com/65535/48053078453_d489d29c19_n.jpg",
    "id_album": "1505715838",
    "description": "ReLiefShinaiNaruAnataE_764536",
    "title": "ReLiefShinaiNaruAnataE_764536",
    "link_img": "https://live.staticflickr.com/65535/48053078453_486010629e_o.jpg",
    "id_image": "ReLiefShinaiNaruAnataE_764536",
    "count_view": 0
  }
]