[
  {
    "total_img": 59,
    "number_page": 1,
    "title": "Uta no Princesama",
    "tag": "Hijirikawa Masato, Uta no Princesama, Sumeragi Kira, Ittoki Otoya, Aijima Cecil, Otori Eiji, Hyuga Ryuya, Amakusa Shion, Camus Uta no Princesama, Mikado Nagi, Kisaragi Aine, Kurosaki Ranmaru, Nanami Haruka, Kiryuin Van, Shinomiya Natsuki, Kotobuki Reiji, Eiichi Otori, Jinguji Ren, Mikaze Ai, Ichinose Tokiya, Kurusu Syo",
    "description": "Uta no Princesama",
    "link_thumb": "https://live.staticflickr.com/65535/48063268971_571cc91ddc_n.jpg",
    "id_album": "1150592165",
    "total_view": 59
  },
  {
    "total_img": 8,
    "number_page": 1,
    "title": "Aijima Cecil",
    "tag": "Aijima Cecil,",
    "description": "Aijima Cecil",
    "link_thumb": "https://live.staticflickr.com/65535/48063314546_8ff466f331_n.jpg",
    "id_album": "-656978664",
    "total_view": 8
  },
  {
    "total_img": 18,
    "number_page": 1,
    "title": "Hijirikawa Masato",
    "tag": "Hijirikawa Masato,",
    "description": "Hijirikawa Masato",
    "link_thumb": "https://live.staticflickr.com/65535/48063365503_5f5bde8c9b_n.jpg",
    "id_album": "-645452789",
    "total_view": 18
  },
  {
    "total_img": 15,
    "number_page": 1,
    "title": "Ichinose Tokiya",
    "tag": "Ichinose Tokiya,",
    "description": "Ichinose Tokiya",
    "link_thumb": "https://live.staticflickr.com/65535/48063365503_5f5bde8c9b_n.jpg",
    "id_album": "1289220593",
    "total_view": 15
  },
  {
    "total_img": 20,
    "number_page": 1,
    "title": "Ittoki Otoya",
    "tag": "Ittoki Otoya,",
    "description": "Ittoki Otoya",
    "link_thumb": "https://live.staticflickr.com/65535/48063317126_1e945bddc3_n.jpg",
    "id_album": "1920239348",
    "total_view": 20
  },
  {
    "total_img": 16,
    "number_page": 1,
    "title": "Jinguji Ren",
    "tag": "Jinguji Ren,",
    "description": "Jinguji Ren",
    "link_thumb": "https://live.staticflickr.com/65535/48063365503_5f5bde8c9b_n.jpg",
    "id_album": "-1078118382",
    "total_view": 16
  },
  {
    "total_img": 17,
    "number_page": 1,
    "title": "Kurusu Syo",
    "tag": "Kurusu Syo,",
    "description": "Kurusu Syo",
    "link_thumb": "https://live.staticflickr.com/65535/48063365503_5f5bde8c9b_n.jpg",
    "id_album": "798284765",
    "total_view": 17
  },
  {
    "total_img": 19,
    "number_page": 1,
    "title": "Nanami Haruka",
    "tag": "Nanami Haruka,",
    "description": "Nanami Haruka",
    "link_thumb": "https://live.staticflickr.com/65535/48063365503_5f5bde8c9b_n.jpg",
    "id_album": "-252349885",
    "total_view": 19
  },
  {
    "total_img": 16,
    "number_page": 1,
    "title": "Shinomiya Natsuki",
    "tag": "Shinomiya Natsuki,",
    "description": "Shinomiya Natsuki",
    "link_thumb": "https://live.staticflickr.com/65535/48063365503_5f5bde8c9b_n.jpg",
    "id_album": "1080500055",
    "total_view": 16
  }
]