[
  {
    "total_img": 63,
    "number_page": 1,
    "title": "ReCreators",
    "tag": "Mamika Kouki, Alicetaria February, Setsuna Shimazaki, Hikayu Hoshikawa, Yuya Mirokuji, Altair ReCreators, Rui Kanoya, Selesia Yupitiria, Magane Chikujoin, Meteora Osterreich, Blitz Talker, ReCreators, Mamika Kirameki, Gunpuku no Himegimi",
    "description": "ReCreators",
    "link_thumb": "https://live.staticflickr.com/65535/48052972583_35862ca7ca_n.jpg",
    "id_album": "1014962415",
    "total_view": 63
  },
  {
    "total_img": 11,
    "number_page": 1,
    "title": "Altair ReCreators",
    "tag": "Altair ReCreators,",
    "description": "Altair ReCreators",
    "link_thumb": "https://live.staticflickr.com/65535/48053018673_507577d95f_n.jpg",
    "id_album": "1367930765",
    "total_view": 11
  },
  {
    "total_img": 54,
    "number_page": 1,
    "title": "Gunpuku no Himegimi",
    "tag": "Gunpuku no Himegimi,",
    "description": "Gunpuku no Himegimi",
    "link_thumb": "https://live.staticflickr.com/65535/48053014513_35c08e4036_n.jpg",
    "id_album": "1659251267",
    "total_view": 54
  }
]