[
  {
    "total_img": 480,
    "number_page": 3,
    "title": "Touhou 3",
    "tag": "Sky, Utsuho Reiuji, Flandre Scarlet, Reisen Touhou, Moon, Monochrome, Junko Touhou, White Hair, Lily White, Reisen (Touhou), Parsee Mizuhashi, Umbrella, Koakuma Touhou, Reimu Hakurei, Kogasa Tatara, Satori Komeiji, Lyrica Prismriver, Purple Eyes, Keine Kamishirasawa, Letty Whiterock, Mask, Ringo Touhou, Daiyousei Touhou, Shizuha Aki, Rumia Touhou, Mamizou Futatsuiwa, SuSan Touhou, Rin Kaenbyou, Momiji Inubashiri, Alice Margatroid, Yukari Yakumo, Rose, Toyosatomimi no Miko, Dragon, Tiger, Sunbeam, Nitori Kawashiro, Wolf, Yamame Kurodani, Patchouli Knowledge, Seiran Touhou, Video Game, Mystia Lorelei, Suika Ibuki, Pink Hair, Shanghai Doll, Hieda no Akyuu, Tie, Yuyuko Saigyouji, Blue Eyes, Luna Child, Kasen Ibaraki, Sakuya Izayoi, Steampunk, Hata no Kokoro, Eirin Yagokoro, Green Eyes, Night, Fujiwara no Mokou, Doremy Sweet Touhou, Medicine Melancholy, Reisen Udongein Inaba, Long Hair, Ran Yakumo, Yuugi Hoshiguma, Remilia Scarlet, Anime, Kimono, Minamitsu Murasa, Tree, Cirno Touhou, Shinmyoumaru Sukuna, Oriental, Purple Hair, Chen Touhou, Youmu Konpaku, Koishi Komeiji, Marisa Kirisame, Touhou 3, Komachi Onozuka, Red Eyes, Eiki Shiki, Dark, Myon Touhou, Suwako Moriya, Tewi Inaba, Elly Touhou, Hatate Himekaidou, Kanako Yasaka, Kyouko Kasodani, Iku Nagae, Bird, Blonde, Byakuren Hijiri, Hina Kagiyama, Hong Meiling, bow Clothing, Lunasa Prismriver, Short Hair, Flower, Dress, Mononobe No Futo, Sanae Kochiya, Nue Houjuu, Gothic, Yoshika Miyako, Shou Toramaru, Tenshi Hinanawi, Yumemi Okazaki, White, Blue Hair, Merlin Prismriver, Pointed Ears, Kaguya Houraisan, Seiga Kaku, Forest, Minoriko Aki, Vampire, Aya Shameimaru, Yuuka Kazami, Sagume Kishin, Petal, Robot",
    "description": "Touhou 3",
    "link_thumb": "https://live.staticflickr.com/65535/48061760227_b9edff47a4_n.jpg",
    "id_album": "-198874130",
    "total_view": 480
  },
  {
    "total_img": 181,
    "number_page": 1,
    "title": "Flandre Scarlet",
    "tag": "Flandre Scarlet,",
    "description": "Flandre Scarlet",
    "link_thumb": "https://live.staticflickr.com/65535/48062919933_0bdee03279_n.jpg",
    "id_album": "-1721492566",
    "total_view": 181
  },
  {
    "total_img": 134,
    "number_page": 1,
    "title": "Marisa Kirisame",
    "tag": "Marisa Kirisame,",
    "description": "Marisa Kirisame",
    "link_thumb": "https://live.staticflickr.com/65535/48062812086_61fdeeb855_n.jpg",
    "id_album": "1954781146",
    "total_view": 134
  },
  {
    "total_img": 53,
    "number_page": 1,
    "title": "Patchouli Knowledge",
    "tag": "Patchouli Knowledge,",
    "description": "Patchouli Knowledge",
    "link_thumb": "https://live.staticflickr.com/65535/48062809061_c082e21ef9_n.jpg",
    "id_album": "970858512",
    "total_view": 53
  },
  {
    "total_img": 174,
    "number_page": 1,
    "title": "Remilia Scarlet",
    "tag": "Remilia Scarlet,",
    "description": "Remilia Scarlet",
    "link_thumb": "https://live.staticflickr.com/65535/48062961727_dbcea9b175_n.jpg",
    "id_album": "1950820621",
    "total_view": 174
  },
  {
    "total_img": 91,
    "number_page": 1,
    "title": "Sakuya Izayoi",
    "tag": "Sakuya Izayoi,",
    "description": "Sakuya Izayoi",
    "link_thumb": "https://live.staticflickr.com/65535/48062947092_d6a48ac710_n.jpg",
    "id_album": "1742876535",
    "total_view": 91
  }
]