[
  {
    "link_thumb": "https://live.staticflickr.com/65535/51550711965_04bc1d58a3_n.jpg",
    "id_album": "-89234980",
    "description": "ANIME_PIC_1b89d20fc1ac60fa9743cf80e3e76301,[GirlsCuteCool],[isGirlAnime],[isCuteAnime],[isGirlEarsNekoAnime],[isGirlsLoliAnime]",
    "title": "ANIME_PIC_1b89d20fc1ac60fa9743cf80e3e76301",
    "link_img": "https://live.staticflickr.com/65535/51550711965_def01351c2_o.png",
    "id_image": "ANIME_PIC_1b89d20fc1ac60fa9743cf80e3e76301",
    "count_view": 0
  },
  {
    "link_thumb": "https://live.staticflickr.com/65535/51550713515_4e37b6b18c_n.jpg",
    "id_album": "-89234980",
    "description": "ANIME_PIC_1b8cf1ce6a097fba8062da932f954be7,[GirlsCuteCool],[isGirlAnime],[isCuteAnime],[isSadAnimeGirl],[isSadAnime]",
    "title": "ANIME_PIC_1b8cf1ce6a097fba8062da932f954be7",
    "link_img": "https://live.staticflickr.com/65535/51550713515_e8d701859e_o.jpg",
    "id_image": "ANIME_PIC_1b8cf1ce6a097fba8062da932f954be7",
    "count_view": 0
  },
  {
    "link_thumb": "https://live.staticflickr.com/65535/51549800506_2294ae8ff7_n.jpg",
    "id_album": "-89234980",
    "description": "ANIME_PIC_1b9038d4dc2345bc7a6a87f5ef6d8dcf,[GirlsCuteCool],[isGirlAnime],[isCuteAnime],[isGirlsLoliAnime]",
    "title": "ANIME_PIC_1b9038d4dc2345bc7a6a87f5ef6d8dcf",
    "link_img": "https://live.staticflickr.com/65535/51549800506_19244f59cd_o.png",
    "id_image": "ANIME_PIC_1b9038d4dc2345bc7a6a87f5ef6d8dcf",
    "count_view": 0
  },
  {
    "link_thumb": "https://live.staticflickr.com/65535/51550034468_0c843969c4_n.jpg",
    "id_album": "-89234980",
    "description": "ANIME_PIC_1b93fd39af6d1cc67b949933dbfc9cda,[GirlsCuteCool],[isGirlAnime],[isCuteAnime]",
    "title": "ANIME_PIC_1b93fd39af6d1cc67b949933dbfc9cda",
    "link_img": "https://live.staticflickr.com/65535/51550034468_9e1c6958d3_o.png",
    "id_image": "ANIME_PIC_1b93fd39af6d1cc67b949933dbfc9cda",
    "count_view": 0
  },
  {
    "link_thumb": "https://live.staticflickr.com/65535/51548997462_b7238ae37e_n.jpg",
    "id_album": "-89234980",
    "description": "ANIME_PIC_1b94eaa5919e1f2bf0ccb2ff77e219a7,[GirlsCuteCool],[isGirlAnime],[isCuteAnime],[isGirlsHatsHoodieAnime],[isGirlsLoliAnime]",
    "title": "ANIME_PIC_1b94eaa5919e1f2bf0ccb2ff77e219a7",
    "link_img": "https://live.staticflickr.com/65535/51548997462_b1ec598aaa_o.jpg",
    "id_image": "ANIME_PIC_1b94eaa5919e1f2bf0ccb2ff77e219a7",
    "count_view": 0
  },
  {
    "link_thumb": "https://live.staticflickr.com/65535/51550035438_be664da31e_n.jpg",
    "id_album": "-89234980",
    "description": "ANIME_PIC_1b9610102e541101bf4f5ae7b6363ae0,[GirlsCuteCool],[isGirlAnime],[isCuteAnime]",
    "title": "ANIME_PIC_1b9610102e541101bf4f5ae7b6363ae0",
    "link_img": "https://live.staticflickr.com/65535/51550035438_5ed50f0c3a_o.png",
    "id_image": "ANIME_PIC_1b9610102e541101bf4f5ae7b6363ae0",
    "count_view": 0
  },
  {
    "link_thumb": "https://live.staticflickr.com/65535/51550517904_f4852bef3c_n.jpg",
    "id_album": "-89234980",
    "description": "ANIME_PIC_1b96e19184e0cdc41102e5447cf392f0,[GirlsCuteCool],[isGirlAnime],[isCuteAnime]",
    "title": "ANIME_PIC_1b96e19184e0cdc41102e5447cf392f0",
    "link_img": "https://live.staticflickr.com/65535/51550517904_028e9800f5_o.jpg",
    "id_image": "ANIME_PIC_1b96e19184e0cdc41102e5447cf392f0",
    "count_view": 0
  },
  {
    "link_thumb": "https://live.staticflickr.com/65535/51548999222_f5fbfd5fec_n.jpg",
    "id_album": "-89234980",
    "description": "ANIME_PIC_1b974eb4187e97fd3bf17850910fa8f4,[GirlsCuteCool],[isGirlAnime],[isCuteAnime],[isGirlsLoliAnime],[isSadAnimeGirl],[isSadAnime]",
    "title": "ANIME_PIC_1b974eb4187e97fd3bf17850910fa8f4",
    "link_img": "https://live.staticflickr.com/65535/51548999222_0abd3a433f_o.jpg",
    "id_image": "ANIME_PIC_1b974eb4187e97fd3bf17850910fa8f4",
    "count_view": 0
  },
  {
    "link_thumb": "https://live.staticflickr.com/65535/51549804721_da922e0f71_n.jpg",
    "id_album": "-89234980",
    "description": "ANIME_PIC_1b97ac194b0706abe56fd2fa17341a25,[GirlsCuteCool],[isGirlAnime],[isCuteAnime],[isGirlsLoliAnime]",
    "title": "ANIME_PIC_1b97ac194b0706abe56fd2fa17341a25",
    "link_img": "https://live.staticflickr.com/65535/51549804721_d65d339130_o.png",
    "id_image": "ANIME_PIC_1b97ac194b0706abe56fd2fa17341a25",
    "count_view": 0
  },
  {
    "link_thumb": "https://live.staticflickr.com/65535/51549805391_5ddeb53898_n.jpg",
    "id_album": "-89234980",
    "description": "ANIME_PIC_1b98caca02ba56a67ee38bae8a66d67e,[GirlsCuteCool],[isGirlAnime],[isCuteAnime],[isGirlsHornsAnime],[isGirlsLoliAnime]",
    "title": "ANIME_PIC_1b98caca02ba56a67ee38bae8a66d67e",
    "link_img": "https://live.staticflickr.com/65535/51549805391_53e9dc9775_o.jpg",
    "id_image": "ANIME_PIC_1b98caca02ba56a67ee38bae8a66d67e",
    "count_view": 0
  },
  {
    "link_thumb": "https://live.staticflickr.com/65535/51549805881_19b7907059_n.jpg",
    "id_album": "-89234980",
    "description": "ANIME_PIC_1b9c0a2d1073d19c83c27ff961bf079c,[GirlsCuteCool],[isGirlAnime],[isCuteAnime],[isGirlsHatsHoodieAnime],[isGirlsLoliAnime]",
    "title": "ANIME_PIC_1b9c0a2d1073d19c83c27ff961bf079c",
    "link_img": "https://live.staticflickr.com/65535/51549805881_9bdc444dc7_o.jpg",
    "id_image": "ANIME_PIC_1b9c0a2d1073d19c83c27ff961bf079c",
    "count_view": 0
  },
  {
    "link_thumb": "https://live.staticflickr.com/65535/51549806516_f23d1791f8_n.jpg",
    "id_album": "-89234980",
    "description": "ANIME_PIC_1b9ecb5615a7c2c7b50e5fa218c8c800,[GirlsCuteCool],[isGirlAnime],[isCuteAnime],[isGirlsHatsHoodieAnime],[isGirlsLoliAnime]",
    "title": "ANIME_PIC_1b9ecb5615a7c2c7b50e5fa218c8c800",
    "link_img": "https://live.staticflickr.com/65535/51549806516_c2b2c676ee_o.jpg",
    "id_image": "ANIME_PIC_1b9ecb5615a7c2c7b50e5fa218c8c800",
    "count_view": 0
  },
  {
    "link_thumb": "https://live.staticflickr.com/65535/51550521754_318bbd76f9_n.jpg",
    "id_album": "-89234980",
    "description": "ANIME_PIC_1b9ed22ddb9372fe5cbcf222b945d9dd,[GirlsCuteCool],[isGirlAnime],[isCuteAnime]",
    "title": "ANIME_PIC_1b9ed22ddb9372fe5cbcf222b945d9dd",
    "link_img": "https://live.staticflickr.com/65535/51550521754_f37a25afea_o.jpg",
    "id_image": "ANIME_PIC_1b9ed22ddb9372fe5cbcf222b945d9dd",
    "count_view": 0
  },
  {
    "link_thumb": "https://live.staticflickr.com/65535/51550522409_22e465807d_n.jpg",
    "id_album": "-89234980",
    "description": "ANIME_PIC_1ba3eb566a7f6d10af20551659bb6f70,[GirlsCuteCool],[isGirlAnime],[isCuteAnime]",
    "title": "ANIME_PIC_1ba3eb566a7f6d10af20551659bb6f70",
    "link_img": "https://live.staticflickr.com/65535/51550522409_d7b6089a04_o.jpg",
    "id_image": "ANIME_PIC_1ba3eb566a7f6d10af20551659bb6f70",
    "count_view": 0
  },
  {
    "link_thumb": "https://live.staticflickr.com/65535/51549808726_013ff4260e_n.jpg",
    "id_album": "-89234980",
    "description": "ANIME_PIC_1ba802845a28220425d9a49175218d32,[GirlsCuteCool],[isGirlAnime],[isCuteAnime]",
    "title": "ANIME_PIC_1ba802845a28220425d9a49175218d32",
    "link_img": "https://live.staticflickr.com/65535/51549808726_321a5984b9_o.jpg",
    "id_image": "ANIME_PIC_1ba802845a28220425d9a49175218d32",
    "count_view": 0
  },
  {
    "link_thumb": "https://live.staticflickr.com/65535/51550523924_cc5d28ff61_n.jpg",
    "id_album": "-89234980",
    "description": "ANIME_PIC_1baccde9718237a48c3da657cd1f67e0,[GirlsCuteCool],[isGirlAnime],[isCuteAnime],[isGirlsLoliAnime]",
    "title": "ANIME_PIC_1baccde9718237a48c3da657cd1f67e0",
    "link_img": "https://live.staticflickr.com/65535/51550523924_91bd041e5a_o.png",
    "id_image": "ANIME_PIC_1baccde9718237a48c3da657cd1f67e0",
    "count_view": 0
  },
  {
    "link_thumb": "https://live.staticflickr.com/65535/51550043588_8daae26f36_n.jpg",
    "id_album": "-89234980",
    "description": "ANIME_PIC_1bad7f36de84b226b15bc0cd6f67ae5c,[GirlsCuteCool],[isGirlAnime],[isCuteAnime],[isGirlsLoliAnime],[isSceneryArts]",
    "title": "ANIME_PIC_1bad7f36de84b226b15bc0cd6f67ae5c",
    "link_img": "https://live.staticflickr.com/65535/51550043588_1bbe159eab_o.jpg",
    "id_image": "ANIME_PIC_1bad7f36de84b226b15bc0cd6f67ae5c",
    "count_view": 0
  },
  {
    "link_thumb": "https://live.staticflickr.com/65535/51549811436_3099449917_n.jpg",
    "id_album": "-89234980",
    "description": "ANIME_PIC_1baef9a8829e3461c5dfdb91d3303786,[GirlsCuteCool],[isGirlAnime],[isCuteAnime],[isGirlsLoliAnime]",
    "title": "ANIME_PIC_1baef9a8829e3461c5dfdb91d3303786",
    "link_img": "https://live.staticflickr.com/65535/51549811436_c37aa6688d_o.jpg",
    "id_image": "ANIME_PIC_1baef9a8829e3461c5dfdb91d3303786",
    "count_view": 0
  },
  {
    "link_thumb": "https://live.staticflickr.com/65535/51549812141_26404f1cbb_n.jpg",
    "id_album": "-89234980",
    "description": "ANIME_PIC_1bb38bc983ab9206afe2142a45550a87,[GirlsCuteCool],[isGirlAnime],[isCuteAnime],[isGirlFaceMasksAnime],[isGirlsLoliAnime]",
    "title": "ANIME_PIC_1bb38bc983ab9206afe2142a45550a87",
    "link_img": "https://live.staticflickr.com/65535/51549812141_82e9339eb9_o.jpg",
    "id_image": "ANIME_PIC_1bb38bc983ab9206afe2142a45550a87",
    "count_view": 0
  },
  {
    "link_thumb": "https://live.staticflickr.com/65535/51550045478_0c02b7ceca_n.jpg",
    "id_album": "-89234980",
    "description": "ANIME_PIC_1bb9c2440b6ac72dabd9c9f51bcb0c81,[GirlsCuteCool],[isGirlAnime],[isCuteAnime],[isGirlsLoliAnime]",
    "title": "ANIME_PIC_1bb9c2440b6ac72dabd9c9f51bcb0c81",
    "link_img": "https://live.staticflickr.com/65535/51550045478_cedd3bcd68_o.png",
    "id_image": "ANIME_PIC_1bb9c2440b6ac72dabd9c9f51bcb0c81",
    "count_view": 0
  },
  {
    "link_thumb": "https://live.staticflickr.com/65535/51549008297_4b069f9690_n.jpg",
    "id_album": "-89234980",
    "description": "ANIME_PIC_1bba6b4c1a982324b30d4f77e64c0b68,[GirlsCuteCool],[isGirlAnime],[isCuteAnime],[isGirlsHatsHoodieAnime],[isSadAnimeGirl],[isSadAnime]",
    "title": "ANIME_PIC_1bba6b4c1a982324b30d4f77e64c0b68",
    "link_img": "https://live.staticflickr.com/65535/51549008297_4943119a08_o.png",
    "id_image": "ANIME_PIC_1bba6b4c1a982324b30d4f77e64c0b68",
    "count_view": 0
  },
  {
    "link_thumb": "https://live.staticflickr.com/65535/51550528199_3ed72a7db5_n.jpg",
    "id_album": "-89234980",
    "description": "ANIME_PIC_1bbcdd9f895977a19b374b974b3d9f44,[GirlsCuteCool],[isGirlAnime],[isCuteAnime],[isGirlsHatsHoodieAnime],[isGirlsLoliAnime]",
    "title": "ANIME_PIC_1bbcdd9f895977a19b374b974b3d9f44",
    "link_img": "https://live.staticflickr.com/65535/51550528199_343bf28f97_o.jpg",
    "id_image": "ANIME_PIC_1bbcdd9f895977a19b374b974b3d9f44",
    "count_view": 0
  },
  {
    "link_thumb": "https://live.staticflickr.com/65535/51549814351_ab49eaea2e_n.jpg",
    "id_album": "-89234980",
    "description": "ANIME_PIC_1bbf2d2a2bdaa8486894b19927460898,[GirlsCuteCool],[isGirlAnime],[isCuteAnime],[isGirlsLoliAnime],[isSadAnimeGirl],[isSadAnime]",
    "title": "ANIME_PIC_1bbf2d2a2bdaa8486894b19927460898",
    "link_img": "https://live.staticflickr.com/65535/51549814351_25118978a7_o.jpg",
    "id_image": "ANIME_PIC_1bbf2d2a2bdaa8486894b19927460898",
    "count_view": 0
  },
  {
    "link_thumb": "https://live.staticflickr.com/65535/51549009987_d803da35c5_n.jpg",
    "id_album": "-89234980",
    "description": "ANIME_PIC_1bc0146790d937a6f86b9f7dbb20fcce,[GirlsCuteCool],[isGirlAnime],[isCuteAnime],[isBlackAnime],[isGirlsLoliAnime],[isSadAnimeGirl],[isSadAnime]",
    "title": "ANIME_PIC_1bc0146790d937a6f86b9f7dbb20fcce",
    "link_img": "https://live.staticflickr.com/65535/51549009987_939d2702c8_o.jpg",
    "id_image": "ANIME_PIC_1bc0146790d937a6f86b9f7dbb20fcce",
    "count_view": 0
  },
  {
    "link_thumb": "https://live.staticflickr.com/65535/51549815511_4046907db9_n.jpg",
    "id_album": "-89234980",
    "description": "ANIME_PIC_1bc776ec743625cdf1dce863f3284d8d,[GirlsCuteCool],[isGirlAnime],[isCuteAnime],[isGirlsLoliAnime],[isSadAnimeGirl],[isSadAnime]",
    "title": "ANIME_PIC_1bc776ec743625cdf1dce863f3284d8d",
    "link_img": "https://live.staticflickr.com/65535/51549815511_24a6729014_o.jpg",
    "id_image": "ANIME_PIC_1bc776ec743625cdf1dce863f3284d8d",
    "count_view": 0
  },
  {
    "link_thumb": "https://live.staticflickr.com/65535/51550048648_ec50142d8f_n.jpg",
    "id_album": "-89234980",
    "description": "ANIME_PIC_1bc9520df15d7ec679bdcd97fb0a1269,[GirlsCuteCool],[isGirlAnime],[isCuteAnime],[isGirlEarsNekoAnime],[isGirlsLoliAnime],[isSadAnimeGirl],[isSadAnime]",
    "title": "ANIME_PIC_1bc9520df15d7ec679bdcd97fb0a1269",
    "link_img": "https://live.staticflickr.com/65535/51550048648_44f3053984_o.jpg",
    "id_image": "ANIME_PIC_1bc9520df15d7ec679bdcd97fb0a1269",
    "count_view": 0
  },
  {
    "link_thumb": "https://live.staticflickr.com/65535/51550048993_f4f3c705a7_n.jpg",
    "id_album": "-89234980",
    "description": "ANIME_PIC_1bd1b15d52a9363640a78d6a46c23306,[GirlsCuteCool],[isGirlAnime],[isCuteAnime],[isGirlsLoliAnime]",
    "title": "ANIME_PIC_1bd1b15d52a9363640a78d6a46c23306",
    "link_img": "https://live.staticflickr.com/65535/51550048993_f75242e8e9_o.png",
    "id_image": "ANIME_PIC_1bd1b15d52a9363640a78d6a46c23306",
    "count_view": 0
  },
  {
    "link_thumb": "https://live.staticflickr.com/65535/51549816711_62b9ff652b_n.jpg",
    "id_album": "-89234980",
    "description": "ANIME_PIC_1bdc089063beb8be850bbdec7ffa06b7,[GirlsCuteCool],[isGirlAnime],[isCuteAnime],[isGirlEarsNekoAnime],[isGirlsLoliAnime]",
    "title": "ANIME_PIC_1bdc089063beb8be850bbdec7ffa06b7",
    "link_img": "https://live.staticflickr.com/65535/51549816711_ede1fbf18c_o.jpg",
    "id_image": "ANIME_PIC_1bdc089063beb8be850bbdec7ffa06b7",
    "count_view": 0
  },
  {
    "link_thumb": "https://live.staticflickr.com/65535/51550730545_38004bdce3_n.jpg",
    "id_album": "-89234980",
    "description": "ANIME_PIC_1bde6a9e9fa764fbae719e649078c1cc,[GirlsCuteCool],[isGirlAnime],[isCuteAnime],[isGirlsLoliAnime],[isGirlsSharpCanineToothAnime]",
    "title": "ANIME_PIC_1bde6a9e9fa764fbae719e649078c1cc",
    "link_img": "https://live.staticflickr.com/65535/51550730545_67d90d76d8_o.jpg",
    "id_image": "ANIME_PIC_1bde6a9e9fa764fbae719e649078c1cc",
    "count_view": 0
  },
  {
    "link_thumb": "https://live.staticflickr.com/65535/51550532299_8f7da0024f_n.jpg",
    "id_album": "-89234980",
    "description": "ANIME_PIC_1be150edfd1d5748932923b62aa5d731,[GirlsCuteCool],[isGirlAnime],[isCuteAnime],[isGirlsLoliAnime]",
    "title": "ANIME_PIC_1be150edfd1d5748932923b62aa5d731",
    "link_img": "https://live.staticflickr.com/65535/51550532299_dfdf151cc3_o.jpg",
    "id_image": "ANIME_PIC_1be150edfd1d5748932923b62aa5d731",
    "count_view": 0
  },
  {
    "link_thumb": "https://live.staticflickr.com/65535/51550533084_2e83c6c25a_n.jpg",
    "id_album": "-89234980",
    "description": "ANIME_PIC_1be2b793902968fc15fd186bbf1cd434,[GirlsCuteCool],[isGirlAnime],[isCuteAnime],[isGirlsHornsAnime],[isGirlsLoliAnime]",
    "title": "ANIME_PIC_1be2b793902968fc15fd186bbf1cd434",
    "link_img": "https://live.staticflickr.com/65535/51550533084_d4556bb1e8_o.jpg",
    "id_image": "ANIME_PIC_1be2b793902968fc15fd186bbf1cd434",
    "count_view": 0
  },
  {
    "link_thumb": "https://live.staticflickr.com/65535/51550732465_18fae8170f_n.jpg",
    "id_album": "-89234980",
    "description": "ANIME_PIC_1be3c2c77b6659a04a9181bf98363019,[GirlsCuteCool],[isGirlAnime],[isCuteAnime]",
    "title": "ANIME_PIC_1be3c2c77b6659a04a9181bf98363019",
    "link_img": "https://live.staticflickr.com/65535/51550732465_540c2ff4e0_o.jpg",
    "id_image": "ANIME_PIC_1be3c2c77b6659a04a9181bf98363019",
    "count_view": 0
  },
  {
    "link_thumb": "https://live.staticflickr.com/65535/51550534264_3453dc702e_n.jpg",
    "id_album": "-89234980",
    "description": "ANIME_PIC_1be4313ace10961dbb2249e9a14aa65f,[GirlsCuteCool],[isGirlAnime],[isCuteAnime],[isGirlEarsNekoAnime],[isGirlsHornsAnime],[isSadAnimeGirl],[isSadAnime]",
    "title": "ANIME_PIC_1be4313ace10961dbb2249e9a14aa65f",
    "link_img": "https://live.staticflickr.com/65535/51550534264_ce94a8023c_o.png",
    "id_image": "ANIME_PIC_1be4313ace10961dbb2249e9a14aa65f",
    "count_view": 0
  },
  {
    "link_thumb": "https://live.staticflickr.com/65535/51549015932_8c96ae1b9b_n.jpg",
    "id_album": "-89234980",
    "description": "ANIME_PIC_1be5366cca30c641a6ee1287ccb9f2a0,[GirlsCuteCool],[isGirlAnime],[isCuteAnime]",
    "title": "ANIME_PIC_1be5366cca30c641a6ee1287ccb9f2a0",
    "link_img": "https://live.staticflickr.com/65535/51549015932_8cbd9e0ae4_o.jpg",
    "id_image": "ANIME_PIC_1be5366cca30c641a6ee1287ccb9f2a0",
    "count_view": 0
  },
  {
    "link_thumb": "https://live.staticflickr.com/65535/51549821156_03e8992dd3_n.jpg",
    "id_album": "-89234980",
    "description": "ANIME_PIC_1be6dcdf2090933fca633a1a3b803fa0,[GirlsCuteCool],[isGirlAnime],[isCuteAnime],[isGirlsLoliAnime]",
    "title": "ANIME_PIC_1be6dcdf2090933fca633a1a3b803fa0",
    "link_img": "https://live.staticflickr.com/65535/51549821156_a988d5cd56_o.jpg",
    "id_image": "ANIME_PIC_1be6dcdf2090933fca633a1a3b803fa0",
    "count_view": 0
  },
  {
    "link_thumb": "https://live.staticflickr.com/65535/51550536239_30d3c8fa5e_n.jpg",
    "id_album": "-89234980",
    "description": "ANIME_PIC_1be9f197bf683f461d005b7b965cdd43,[GirlsCuteCool],[isGirlAnime],[isCuteAnime],[isGirlsHatsHoodieAnime],[isGirlsLoliAnime]",
    "title": "ANIME_PIC_1be9f197bf683f461d005b7b965cdd43",
    "link_img": "https://live.staticflickr.com/65535/51550536239_229bc0dab0_o.jpg",
    "id_image": "ANIME_PIC_1be9f197bf683f461d005b7b965cdd43",
    "count_view": 0
  },
  {
    "link_thumb": "https://live.staticflickr.com/65535/51549017827_2e51fb603d_n.jpg",
    "id_album": "-89234980",
    "description": "ANIME_PIC_1bf53dba97c6aea5ade184a8a735480b,[GirlsCuteCool],[isGirlAnime],[isCuteAnime]",
    "title": "ANIME_PIC_1bf53dba97c6aea5ade184a8a735480b",
    "link_img": "https://live.staticflickr.com/65535/51549017827_2c56203186_o.jpg",
    "id_image": "ANIME_PIC_1bf53dba97c6aea5ade184a8a735480b",
    "count_view": 0
  },
  {
    "link_thumb": "https://live.staticflickr.com/65535/51550736270_11ff709efb_n.jpg",
    "id_album": "-89234980",
    "description": "ANIME_PIC_1bf57cf7fb6f349496c7fd8abe5734e8,[GirlsCuteCool],[isGirlAnime],[isCuteAnime],[isSadAnimeGirl],[isSadAnime]",
    "title": "ANIME_PIC_1bf57cf7fb6f349496c7fd8abe5734e8",
    "link_img": "https://live.staticflickr.com/65535/51550736270_39e3f42fbc_o.jpg",
    "id_image": "ANIME_PIC_1bf57cf7fb6f349496c7fd8abe5734e8",
    "count_view": 0
  },
  {
    "link_thumb": "https://live.staticflickr.com/65535/51550056628_ffb70e516b_n.jpg",
    "id_album": "-89234980",
    "description": "ANIME_PIC_1bf6504c83f5246602e9f19519964453,[GirlsCuteCool],[isGirlAnime],[isCuteAnime],[isGirlsLoliAnime],[isSadAnimeGirl],[isSadAnime]",
    "title": "ANIME_PIC_1bf6504c83f5246602e9f19519964453",
    "link_img": "https://live.staticflickr.com/65535/51550056628_104b3c764a_o.jpg",
    "id_image": "ANIME_PIC_1bf6504c83f5246602e9f19519964453",
    "count_view": 0
  },
  {
    "link_thumb": "https://live.staticflickr.com/65535/51549019147_4e7393fb51_n.jpg",
    "id_album": "-89234980",
    "description": "ANIME_PIC_1bf9c60fcb2e52888aa0f88c40b75d31,[GirlsCuteCool],[isGirlAnime],[isCuteAnime],[isSadAnimeGirl],[isSadAnime]",
    "title": "ANIME_PIC_1bf9c60fcb2e52888aa0f88c40b75d31",
    "link_img": "https://live.staticflickr.com/65535/51549019147_425214e374_o.png",
    "id_image": "ANIME_PIC_1bf9c60fcb2e52888aa0f88c40b75d31",
    "count_view": 0
  },
  {
    "link_thumb": "https://live.staticflickr.com/65535/51549019757_4999dbda5a_n.jpg",
    "id_album": "-89234980",
    "description": "ANIME_PIC_1bfa09427169bd59b89cd9a9e524b81e,[GirlsCuteCool],[isGirlAnime],[isCuteAnime],[isGirlsLoliAnime]",
    "title": "ANIME_PIC_1bfa09427169bd59b89cd9a9e524b81e",
    "link_img": "https://live.staticflickr.com/65535/51549019757_74b0ffe281_o.jpg",
    "id_image": "ANIME_PIC_1bfa09427169bd59b89cd9a9e524b81e",
    "count_view": 0
  },
  {
    "link_thumb": "https://live.staticflickr.com/65535/51550539309_e6410d2f0b_n.jpg",
    "id_album": "-89234980",
    "description": "ANIME_PIC_1bfba706d63a19ea1bc11ba78c577512,[GirlsCuteCool],[isGirlAnime],[isCuteAnime],[isGirlsLoliAnime]",
    "title": "ANIME_PIC_1bfba706d63a19ea1bc11ba78c577512",
    "link_img": "https://live.staticflickr.com/65535/51550539309_3532b82dfe_o.jpg",
    "id_image": "ANIME_PIC_1bfba706d63a19ea1bc11ba78c577512",
    "count_view": 0
  },
  {
    "link_thumb": "https://live.staticflickr.com/65535/51550539819_7a4d5d3586_n.jpg",
    "id_album": "-89234980",
    "description": "ANIME_PIC_1bfd4619ca706633ae89cf21e1c6ac3f,[GirlsCuteCool],[isGirlAnime],[isCuteAnime]",
    "title": "ANIME_PIC_1bfd4619ca706633ae89cf21e1c6ac3f",
    "link_img": "https://live.staticflickr.com/65535/51550539819_361836139a_o.png",
    "id_image": "ANIME_PIC_1bfd4619ca706633ae89cf21e1c6ac3f",
    "count_view": 0
  },
  {
    "link_thumb": "https://live.staticflickr.com/65535/51549826326_9937210bdf_n.jpg",
    "id_album": "-89234980",
    "description": "ANIME_PIC_1bfd789a9d746062ec7a425f26a2c565,[GirlsCuteCool],[isGirlAnime],[isCuteAnime],[isSadAnimeGirl],[isSadAnime]",
    "title": "ANIME_PIC_1bfd789a9d746062ec7a425f26a2c565",
    "link_img": "https://live.staticflickr.com/65535/51549826326_9f432aec7a_o.png",
    "id_image": "ANIME_PIC_1bfd789a9d746062ec7a425f26a2c565",
    "count_view": 0
  },
  {
    "link_thumb": "https://live.staticflickr.com/65535/51550541424_36a1806577_n.jpg",
    "id_album": "-89234980",
    "description": "ANIME_PIC_1bff4ea2118607283b258f4f85def589,[GirlsCuteCool],[isGirlAnime],[isCuteAnime],[isGirlsHatsHoodieAnime],[isGirlsLoliAnime],[isSadAnimeGirl],[isSadAnime]",
    "title": "ANIME_PIC_1bff4ea2118607283b258f4f85def589",
    "link_img": "https://live.staticflickr.com/65535/51550541424_f6502ab102_o.jpg",
    "id_image": "ANIME_PIC_1bff4ea2118607283b258f4f85def589",
    "count_view": 0
  },
  {
    "link_thumb": "https://live.staticflickr.com/65535/51549827501_018745eae8_n.jpg",
    "id_album": "-89234980",
    "description": "ANIME_PIC_1c0326f6c75b36833cda6a04673cfe56,[GirlsCuteCool],[isGirlAnime],[isCuteAnime]",
    "title": "ANIME_PIC_1c0326f6c75b36833cda6a04673cfe56",
    "link_img": "https://live.staticflickr.com/65535/51549827501_7c67f872f2_o.jpg",
    "id_image": "ANIME_PIC_1c0326f6c75b36833cda6a04673cfe56",
    "count_view": 0
  },
  {
    "link_thumb": "https://live.staticflickr.com/65535/51550060853_7d496cec76_n.jpg",
    "id_album": "-89234980",
    "description": "ANIME_PIC_1c0ca2f8d9c223a59ccf5c112676c44b,[GirlsCuteCool],[isGirlAnime],[isCuteAnime]",
    "title": "ANIME_PIC_1c0ca2f8d9c223a59ccf5c112676c44b",
    "link_img": "https://live.staticflickr.com/65535/51550060853_2976f8cb00_o.png",
    "id_image": "ANIME_PIC_1c0ca2f8d9c223a59ccf5c112676c44b",
    "count_view": 0
  },
  {
    "link_thumb": "https://live.staticflickr.com/65535/49893365466_d96dd8f272_n.jpg",
    "id_album": "-89234980",
    "description": "ANIME_PIC_1c0cc987adc874710ec581ad827f99c8,[isGirlAnime],[isCuteAnime],[Girls Cute Cool],[GirlsCuteCool],[isGirlsHatsHoodieAnime]",
    "title": "ANIME_PIC_1c0cc987adc874710ec581ad827f99c8",
    "link_img": "https://live.staticflickr.com/65535/49893365466_00af5e19ec_o.png",
    "id_image": "ANIME_PIC_1c0cc987adc874710ec581ad827f99c8",
    "count_view": 0
  },
  {
    "link_thumb": "https://live.staticflickr.com/65535/51550741735_8b9c6faff7_n.jpg",
    "id_album": "-89234980",
    "description": "ANIME_PIC_1c0f19b8d1f04056e101a85be5118386,[GirlsCuteCool],[isGirlAnime],[isCuteAnime],[isGirlEarsNekoAnime],[isGirlsLoliAnime]",
    "title": "ANIME_PIC_1c0f19b8d1f04056e101a85be5118386",
    "link_img": "https://live.staticflickr.com/65535/51550741735_56bed941e1_o.png",
    "id_image": "ANIME_PIC_1c0f19b8d1f04056e101a85be5118386",
    "count_view": 0
  },
  {
    "link_thumb": "https://live.staticflickr.com/65535/51549024512_ee33b2ecc1_n.jpg",
    "id_album": "-89234980",
    "description": "ANIME_PIC_1c119c76c42c269c41f62bda092cb804,[GirlsCuteCool],[isGirlAnime],[isCuteAnime]",
    "title": "ANIME_PIC_1c119c76c42c269c41f62bda092cb804",
    "link_img": "https://live.staticflickr.com/65535/51549024512_be6ba08286_o.jpg",
    "id_image": "ANIME_PIC_1c119c76c42c269c41f62bda092cb804",
    "count_view": 0
  },
  {
    "link_thumb": "https://live.staticflickr.com/65535/51549024997_7779526218_n.jpg",
    "id_album": "-89234980",
    "description": "ANIME_PIC_1c11ab143d32a57b9f2c637b811ba695,[GirlsCuteCool],[isGirlAnime],[isCuteAnime],[isGirlFaceMasksAnime],[isGirlsLoliAnime]",
    "title": "ANIME_PIC_1c11ab143d32a57b9f2c637b811ba695",
    "link_img": "https://live.staticflickr.com/65535/51549024997_3370eb9c0d_o.jpg",
    "id_image": "ANIME_PIC_1c11ab143d32a57b9f2c637b811ba695",
    "count_view": 0
  },
  {
    "link_thumb": "https://live.staticflickr.com/65535/51549830321_29939a2171_n.jpg",
    "id_album": "-89234980",
    "description": "ANIME_PIC_1c12bb4de38f6983b07937b8a79b955d,[GirlsCuteCool],[isGirlAnime],[isCuteAnime],[isGirlEarsNekoAnime]",
    "title": "ANIME_PIC_1c12bb4de38f6983b07937b8a79b955d",
    "link_img": "https://live.staticflickr.com/65535/51549830321_6fc59ca15e_o.jpg",
    "id_image": "ANIME_PIC_1c12bb4de38f6983b07937b8a79b955d",
    "count_view": 0
  },
  {
    "link_thumb": "https://live.staticflickr.com/65535/51550743745_5b4db71152_n.jpg",
    "id_album": "-89234980",
    "description": "ANIME_PIC_1c14cb6c817b3bd46cb0126633ee4f0c,[GirlsCuteCool],[isGirlAnime],[isCuteAnime],[isGirlsHatsHoodieAnime],[isGirlsLoliAnime],[isSadAnimeGirl],[isSadAnime]",
    "title": "ANIME_PIC_1c14cb6c817b3bd46cb0126633ee4f0c",
    "link_img": "https://live.staticflickr.com/65535/51550743745_98de97b81a_o.jpg",
    "id_image": "ANIME_PIC_1c14cb6c817b3bd46cb0126633ee4f0c",
    "count_view": 0
  },
  {
    "link_thumb": "https://live.staticflickr.com/65535/51549026312_98f604e50a_n.jpg",
    "id_album": "-89234980",
    "description": "ANIME_PIC_1c19759f06a3766dbe13b6db3a49ef45,[GirlsCuteCool],[isGirlAnime],[isCuteAnime],[isGirlsHatsHoodieAnime],[isGirlsLoliAnime]",
    "title": "ANIME_PIC_1c19759f06a3766dbe13b6db3a49ef45",
    "link_img": "https://live.staticflickr.com/65535/51549026312_961467b944_o.jpg",
    "id_image": "ANIME_PIC_1c19759f06a3766dbe13b6db3a49ef45",
    "count_view": 0
  },
  {
    "link_thumb": "https://live.staticflickr.com/65535/51550545934_71f0b23d30_n.jpg",
    "id_album": "-89234980",
    "description": "ANIME_PIC_1c1bb84220f7cff56379b4f453d48c13,[GirlsCuteCool],[isGirlAnime],[isCuteAnime],[isGirlsLoliAnime]",
    "title": "ANIME_PIC_1c1bb84220f7cff56379b4f453d48c13",
    "link_img": "https://live.staticflickr.com/65535/51550545934_878d961a56_o.jpg",
    "id_image": "ANIME_PIC_1c1bb84220f7cff56379b4f453d48c13",
    "count_view": 0
  },
  {
    "link_thumb": "https://live.staticflickr.com/65535/51550546669_112e8799c6_n.jpg",
    "id_album": "-89234980",
    "description": "ANIME_PIC_1c1dad767585069d77614af911eb8bb3,[GirlsCuteCool],[isGirlAnime],[isCuteAnime],[isGirlsLoliAnime],[isSadAnimeGirl],[isSadAnime]",
    "title": "ANIME_PIC_1c1dad767585069d77614af911eb8bb3",
    "link_img": "https://live.staticflickr.com/65535/51550546669_152496b5c4_o.jpg",
    "id_image": "ANIME_PIC_1c1dad767585069d77614af911eb8bb3",
    "count_view": 0
  },
  {
    "link_thumb": "https://live.staticflickr.com/65535/51549832536_b1f85799e5_n.jpg",
    "id_album": "-89234980",
    "description": "ANIME_PIC_1c27f1d4799d68f358a90055704fde4c,[GirlsCuteCool],[isGirlAnime],[isCuteAnime],[isGirlsLoliAnime]",
    "title": "ANIME_PIC_1c27f1d4799d68f358a90055704fde4c",
    "link_img": "https://live.staticflickr.com/65535/51549832536_ee70f687f6_o.jpg",
    "id_image": "ANIME_PIC_1c27f1d4799d68f358a90055704fde4c",
    "count_view": 0
  },
  {
    "link_thumb": "https://live.staticflickr.com/65535/51549028587_552788f731_n.jpg",
    "id_album": "-89234980",
    "description": "ANIME_PIC_1c2a9ba3a0e8bca7b57154c37c11be2b,[GirlsCuteCool],[isGirlAnime],[isCuteAnime]",
    "title": "ANIME_PIC_1c2a9ba3a0e8bca7b57154c37c11be2b",
    "link_img": "https://live.staticflickr.com/65535/51549028587_4a8c786ff8_o.jpg",
    "id_image": "ANIME_PIC_1c2a9ba3a0e8bca7b57154c37c11be2b",
    "count_view": 0
  },
  {
    "link_thumb": "https://live.staticflickr.com/65535/51550066963_131d3bf2dd_n.jpg",
    "id_album": "-89234980",
    "description": "ANIME_PIC_1c312fd42d8fd06aa35e434390eb4e68,[GirlsCuteCool],[isGirlAnime],[isCuteAnime]",
    "title": "ANIME_PIC_1c312fd42d8fd06aa35e434390eb4e68",
    "link_img": "https://live.staticflickr.com/65535/51550066963_2ed74d423b_o.png",
    "id_image": "ANIME_PIC_1c312fd42d8fd06aa35e434390eb4e68",
    "count_view": 0
  },
  {
    "link_thumb": "https://live.staticflickr.com/65535/51550067863_6a6736244d_n.jpg",
    "id_album": "-89234980",
    "description": "ANIME_PIC_1c31721d62c49d62d7408e4d70a143bb,[GirlsCuteCool],[isGirlAnime],[isCuteAnime],[isGirlsLoliAnime]",
    "title": "ANIME_PIC_1c31721d62c49d62d7408e4d70a143bb",
    "link_img": "https://live.staticflickr.com/65535/51550067863_8ca5ce01ba_o.jpg",
    "id_image": "ANIME_PIC_1c31721d62c49d62d7408e4d70a143bb",
    "count_view": 0
  },
  {
    "link_thumb": "https://live.staticflickr.com/65535/51549030737_e049eba564_n.jpg",
    "id_album": "-89234980",
    "description": "ANIME_PIC_1c356e50bd49722ff4c5ab7169260d78,[GirlsCuteCool],[isGirlAnime],[isCuteAnime],[isGirlsLoliAnime]",
    "title": "ANIME_PIC_1c356e50bd49722ff4c5ab7169260d78",
    "link_img": "https://live.staticflickr.com/65535/51549030737_7d37affcf1_o.jpg",
    "id_image": "ANIME_PIC_1c356e50bd49722ff4c5ab7169260d78",
    "count_view": 0
  },
  {
    "link_thumb": "https://live.staticflickr.com/65535/51550069163_7d1414a7b1_n.jpg",
    "id_album": "-89234980",
    "description": "ANIME_PIC_1c37f46cb3ca2acc63a5f81cab3c0552,[GirlsCuteCool],[isGirlAnime],[isCuteAnime],[isGirlsLoliAnime],[isSadAnimeGirl],[isSadAnime]",
    "title": "ANIME_PIC_1c37f46cb3ca2acc63a5f81cab3c0552",
    "link_img": "https://live.staticflickr.com/65535/51550069163_8ca897b0d9_o.png",
    "id_image": "ANIME_PIC_1c37f46cb3ca2acc63a5f81cab3c0552",
    "count_view": 0
  },
  {
    "link_thumb": "https://live.staticflickr.com/65535/51550070148_55db851661_n.jpg",
    "id_album": "-89234980",
    "description": "ANIME_PIC_1c3ff5992a9fe856944aa1b782e2e75c,[GirlsCuteCool],[isGirlAnime],[isCuteAnime],[isSadAnimeGirl],[isSadAnime]",
    "title": "ANIME_PIC_1c3ff5992a9fe856944aa1b782e2e75c",
    "link_img": "https://live.staticflickr.com/65535/51550070148_619de6be12_o.jpg",
    "id_image": "ANIME_PIC_1c3ff5992a9fe856944aa1b782e2e75c",
    "count_view": 0
  },
  {
    "link_thumb": "https://live.staticflickr.com/65535/51549032697_d278f191e3_n.jpg",
    "id_album": "-89234980",
    "description": "ANIME_PIC_1c41d50ac1894e284f2f64274bda5c8d,[GirlsCuteCool],[isGirlAnime],[isCuteAnime]",
    "title": "ANIME_PIC_1c41d50ac1894e284f2f64274bda5c8d",
    "link_img": "https://live.staticflickr.com/65535/51549032697_13cd7de05e_o.jpg",
    "id_image": "ANIME_PIC_1c41d50ac1894e284f2f64274bda5c8d",
    "count_view": 0
  },
  {
    "link_thumb": "https://live.staticflickr.com/65535/51549033027_394982f8dc_n.jpg",
    "id_album": "-89234980",
    "description": "ANIME_PIC_1c4437bf42d9317290011ea5dfa23ced,[GirlsCuteCool],[isGirlAnime],[isCuteAnime],[isGirlsLoliAnime]",
    "title": "ANIME_PIC_1c4437bf42d9317290011ea5dfa23ced",
    "link_img": "https://live.staticflickr.com/65535/51549033027_9d63c7c3d4_o.jpg",
    "id_image": "ANIME_PIC_1c4437bf42d9317290011ea5dfa23ced",
    "count_view": 0
  },
  {
    "link_thumb": "https://live.staticflickr.com/65535/51550552789_7e9297a812_n.jpg",
    "id_album": "-89234980",
    "description": "ANIME_PIC_1c44f04b7f908b68b9fc6b1bce08c3a4,[GirlsCuteCool],[isGirlAnime],[isCuteAnime],[isGirlsHatsHoodieAnime],[isGirlsLoliAnime],[isSadAnimeGirl],[isSadAnime]",
    "title": "ANIME_PIC_1c44f04b7f908b68b9fc6b1bce08c3a4",
    "link_img": "https://live.staticflickr.com/65535/51550552789_a496f4edc6_o.jpg",
    "id_image": "ANIME_PIC_1c44f04b7f908b68b9fc6b1bce08c3a4",
    "count_view": 0
  },
  {
    "link_thumb": "https://live.staticflickr.com/65535/51549033902_635605b103_n.jpg",
    "id_album": "-89234980",
    "description": "ANIME_PIC_1c468f01d7139094cc19ca22479ffb0b,[GirlsCuteCool],[isGirlAnime],[isCuteAnime],[isGirlsLoliAnime]",
    "title": "ANIME_PIC_1c468f01d7139094cc19ca22479ffb0b",
    "link_img": "https://live.staticflickr.com/65535/51549033902_8271e5e765_o.png",
    "id_image": "ANIME_PIC_1c468f01d7139094cc19ca22479ffb0b",
    "count_view": 0
  },
  {
    "link_thumb": "https://live.staticflickr.com/65535/51550072973_969b523766_n.jpg",
    "id_album": "-89234980",
    "description": "ANIME_PIC_1c4957234d784742daef5903d1ae8650,[GirlsCuteCool],[isGirlAnime],[isCuteAnime],[isGirlEarsNekoAnime],[isGirlsHornsAnime],[isGirlsLoliAnime]",
    "title": "ANIME_PIC_1c4957234d784742daef5903d1ae8650",
    "link_img": "https://live.staticflickr.com/65535/51550072973_b5918f0027_o.jpg",
    "id_image": "ANIME_PIC_1c4957234d784742daef5903d1ae8650",
    "count_view": 0
  },
  {
    "link_thumb": "https://live.staticflickr.com/65535/51549035077_c3449b7ce0_n.jpg",
    "id_album": "-89234980",
    "description": "ANIME_PIC_1c4de698359fa86bea707834f4b02e1a,[GirlsCuteCool],[isGirlAnime],[isCuteAnime],[isGirlsLoliAnime],[isSadAnimeGirl],[isSadAnime]",
    "title": "ANIME_PIC_1c4de698359fa86bea707834f4b02e1a",
    "link_img": "https://live.staticflickr.com/65535/51549035077_fe2cb09fa0_o.jpg",
    "id_image": "ANIME_PIC_1c4de698359fa86bea707834f4b02e1a",
    "count_view": 0
  },
  {
    "link_thumb": "https://live.staticflickr.com/65535/51550073903_85d5606cd2_n.jpg",
    "id_album": "-89234980",
    "description": "ANIME_PIC_1c4e733c6577a11df467fdcb6ea3acde,[GirlsCuteCool],[isGirlAnime],[isCuteAnime],[isGirlsHatsHoodieAnime],[isGirlsLoliAnime]",
    "title": "ANIME_PIC_1c4e733c6577a11df467fdcb6ea3acde",
    "link_img": "https://live.staticflickr.com/65535/51550073903_e5368c5f80_o.png",
    "id_image": "ANIME_PIC_1c4e733c6577a11df467fdcb6ea3acde",
    "count_view": 0
  },
  {
    "link_thumb": "https://live.staticflickr.com/65535/51550074638_cf22a9f59b_n.jpg",
    "id_album": "-89234980",
    "description": "ANIME_PIC_1c5188fdcbb952b6c927937a8541a127,[GirlsCuteCool],[isGirlAnime],[isCuteAnime],[isGirlsHatsHoodieAnime]",
    "title": "ANIME_PIC_1c5188fdcbb952b6c927937a8541a127",
    "link_img": "https://live.staticflickr.com/65535/51550074638_7947fc0314_o.png",
    "id_image": "ANIME_PIC_1c5188fdcbb952b6c927937a8541a127",
    "count_view": 0
  },
  {
    "link_thumb": "https://live.staticflickr.com/65535/51549037437_f6e288eb76_n.jpg",
    "id_album": "-89234980",
    "description": "ANIME_PIC_1c53bbe0762b575988236a565b3d0434,[GirlsCuteCool],[isGirlAnime],[isCuteAnime],[isGirlsHatsHoodieAnime],[isGirlsLoliAnime]",
    "title": "ANIME_PIC_1c53bbe0762b575988236a565b3d0434",
    "link_img": "https://live.staticflickr.com/65535/51549037437_fdbdb55563_o.jpg",
    "id_image": "ANIME_PIC_1c53bbe0762b575988236a565b3d0434",
    "count_view": 0
  },
  {
    "link_thumb": "https://live.staticflickr.com/65535/51550755270_87eddd9c3e_n.jpg",
    "id_album": "-89234980",
    "description": "ANIME_PIC_1c5a9e3744220efb4df4ec5f4be97776,[GirlsCuteCool],[isGirlAnime],[isCuteAnime],[isGirlsHatsHoodieAnime],[isGirlsLoliAnime]",
    "title": "ANIME_PIC_1c5a9e3744220efb4df4ec5f4be97776",
    "link_img": "https://live.staticflickr.com/65535/51550755270_d5c26a4fc2_o.png",
    "id_image": "ANIME_PIC_1c5a9e3744220efb4df4ec5f4be97776",
    "count_view": 0
  },
  {
    "link_thumb": "https://live.staticflickr.com/65535/51550557499_467ba13834_n.jpg",
    "id_album": "-89234980",
    "description": "ANIME_PIC_1c5e8af50f94dd6c4cf6d56636218d54,[GirlsCuteCool],[isGirlAnime],[isCuteAnime],[isGirlEarsNekoAnime],[isGirlsLoliAnime]",
    "title": "ANIME_PIC_1c5e8af50f94dd6c4cf6d56636218d54",
    "link_img": "https://live.staticflickr.com/65535/51550557499_2e12d69912_o.jpg",
    "id_image": "ANIME_PIC_1c5e8af50f94dd6c4cf6d56636218d54",
    "count_view": 0
  },
  {
    "link_thumb": "https://live.staticflickr.com/65535/51550557844_66026fe4d5_n.jpg",
    "id_album": "-89234980",
    "description": "ANIME_PIC_1c60c026470546c57aef6692a56026ce,[GirlsCuteCool],[isGirlAnime],[isCuteAnime]",
    "title": "ANIME_PIC_1c60c026470546c57aef6692a56026ce",
    "link_img": "https://live.staticflickr.com/65535/51550557844_f0290040c6_o.png",
    "id_image": "ANIME_PIC_1c60c026470546c57aef6692a56026ce",
    "count_view": 0
  },
  {
    "link_thumb": "https://live.staticflickr.com/65535/51549039502_8a3bd2ee01_n.jpg",
    "id_album": "-89234980",
    "description": "ANIME_PIC_1c61f8bee4d139d7b65c00bd2173a2ff,[GirlsCuteCool],[isGirlAnime],[isCuteAnime],[isGirlsHatsHoodieAnime],[isGirlsLoliAnime],[isSadAnimeGirl],[isSadAnime]",
    "title": "ANIME_PIC_1c61f8bee4d139d7b65c00bd2173a2ff",
    "link_img": "https://live.staticflickr.com/65535/51549039502_39e3b5d3d6_o.jpg",
    "id_image": "ANIME_PIC_1c61f8bee4d139d7b65c00bd2173a2ff",
    "count_view": 0
  },
  {
    "link_thumb": "https://live.staticflickr.com/65535/51550558869_2aa228abe7_n.jpg",
    "id_album": "-89234980",
    "description": "ANIME_PIC_1c62cf8f29e51a5229931f06f6a437dc,[GirlsCuteCool],[isGirlAnime],[isCuteAnime]",
    "title": "ANIME_PIC_1c62cf8f29e51a5229931f06f6a437dc",
    "link_img": "https://live.staticflickr.com/65535/51550558869_a9c112f71a_o.jpg",
    "id_image": "ANIME_PIC_1c62cf8f29e51a5229931f06f6a437dc",
    "count_view": 0
  },
  {
    "link_thumb": "https://live.staticflickr.com/65535/51550559314_47cf608801_n.jpg",
    "id_album": "-89234980",
    "description": "ANIME_PIC_1c648b88526fd89203545639f2cb9399,[GirlsCuteCool],[isGirlAnime],[isCuteAnime],[isGirlEarsNekoAnime],[isGirlsLoliAnime]",
    "title": "ANIME_PIC_1c648b88526fd89203545639f2cb9399",
    "link_img": "https://live.staticflickr.com/65535/51550559314_fd9f9df4d6_o.png",
    "id_image": "ANIME_PIC_1c648b88526fd89203545639f2cb9399",
    "count_view": 0
  },
  {
    "link_thumb": "https://live.staticflickr.com/65535/51549845941_681943a648_n.jpg",
    "id_album": "-89234980",
    "description": "ANIME_PIC_1c75b145c142b4382fdc1d9d5433dead,[GirlsCuteCool],[isGirlAnime],[isCuteAnime],[isGirlsLoliAnime],[isSadAnimeGirl],[isSadAnime]",
    "title": "ANIME_PIC_1c75b145c142b4382fdc1d9d5433dead",
    "link_img": "https://live.staticflickr.com/65535/51549845941_81c4ce3cf4_o.jpg",
    "id_image": "ANIME_PIC_1c75b145c142b4382fdc1d9d5433dead",
    "count_view": 0
  },
  {
    "link_thumb": "https://live.staticflickr.com/65535/51550560844_ef7cc601d7_n.jpg",
    "id_album": "-89234980",
    "description": "ANIME_PIC_1c7815fa7d3c9e32a38c239957ff50f1,[GirlsCuteCool],[isGirlAnime],[isCuteAnime],[isGirlEarsNekoAnime]",
    "title": "ANIME_PIC_1c7815fa7d3c9e32a38c239957ff50f1",
    "link_img": "https://live.staticflickr.com/65535/51550560844_d69176ee1f_o.jpg",
    "id_image": "ANIME_PIC_1c7815fa7d3c9e32a38c239957ff50f1",
    "count_view": 0
  },
  {
    "link_thumb": "https://live.staticflickr.com/65535/51550561249_238103a944_n.jpg",
    "id_album": "-89234980",
    "description": "ANIME_PIC_1c7a4ab18d9d89fb4322375f0c9605f4,[GirlsCuteCool],[isGirlAnime],[isCuteAnime],[isGirlFaceMasksAnime],[isGirlsLoliAnime],[isSadAnimeGirl],[isSadAnime]",
    "title": "ANIME_PIC_1c7a4ab18d9d89fb4322375f0c9605f4",
    "link_img": "https://live.staticflickr.com/65535/51550561249_b6539c3640_o.jpg",
    "id_image": "ANIME_PIC_1c7a4ab18d9d89fb4322375f0c9605f4",
    "count_view": 0
  },
  {
    "link_thumb": "https://live.staticflickr.com/65535/51549042807_78f82ffb1d_n.jpg",
    "id_album": "-89234980",
    "description": "ANIME_PIC_1c7f28b7d8eaf3e93e93ecf862c8db7c,[GirlsCuteCool],[isGirlAnime],[isCuteAnime]",
    "title": "ANIME_PIC_1c7f28b7d8eaf3e93e93ecf862c8db7c",
    "link_img": "https://live.staticflickr.com/65535/51549042807_05e0848b91_o.jpg",
    "id_image": "ANIME_PIC_1c7f28b7d8eaf3e93e93ecf862c8db7c",
    "count_view": 0
  },
  {
    "link_thumb": "https://live.staticflickr.com/65535/51550562184_6485813b0e_n.jpg",
    "id_album": "-89234980",
    "description": "ANIME_PIC_1c837b2530c1ca899db6096e4a0d73fd,[GirlsCuteCool],[isGirlAnime],[isCuteAnime]",
    "title": "ANIME_PIC_1c837b2530c1ca899db6096e4a0d73fd",
    "link_img": "https://live.staticflickr.com/65535/51550562184_b113529f7a_o.jpg",
    "id_image": "ANIME_PIC_1c837b2530c1ca899db6096e4a0d73fd",
    "count_view": 0
  },
  {
    "link_thumb": "https://live.staticflickr.com/65535/51550761325_027fa9afe2_n.jpg",
    "id_album": "-89234980",
    "description": "ANIME_PIC_1c8ef3f272cc565922cf9c648d7557c9,[GirlsCuteCool],[isGirlAnime],[isCuteAnime],[isGirlsHatsHoodieAnime]",
    "title": "ANIME_PIC_1c8ef3f272cc565922cf9c648d7557c9",
    "link_img": "https://live.staticflickr.com/65535/51550761325_02638b787d_o.png",
    "id_image": "ANIME_PIC_1c8ef3f272cc565922cf9c648d7557c9",
    "count_view": 0
  },
  {
    "link_thumb": "https://live.staticflickr.com/65535/51549849551_a05effcf53_n.jpg",
    "id_album": "-89234980",
    "description": "ANIME_PIC_1c915e667eba500c196616d4418f7786,[GirlsCuteCool],[isGirlAnime],[isCuteAnime],[isGirlsLoliAnime]",
    "title": "ANIME_PIC_1c915e667eba500c196616d4418f7786",
    "link_img": "https://live.staticflickr.com/65535/51549849551_d091306e61_o.png",
    "id_image": "ANIME_PIC_1c915e667eba500c196616d4418f7786",
    "count_view": 0
  },
  {
    "link_thumb": "https://live.staticflickr.com/65535/51550763170_277753fbcd_n.jpg",
    "id_album": "-89234980",
    "description": "ANIME_PIC_1c9587a6359d5b2f3f3a275e16ef0ca0,[GirlsCuteCool],[isGirlAnime],[isCuteAnime],[isGirlsLoliAnime]",
    "title": "ANIME_PIC_1c9587a6359d5b2f3f3a275e16ef0ca0",
    "link_img": "https://live.staticflickr.com/65535/51550763170_144d8f5c5c_o.jpg",
    "id_image": "ANIME_PIC_1c9587a6359d5b2f3f3a275e16ef0ca0",
    "count_view": 0
  },
  {
    "link_thumb": "https://live.staticflickr.com/65535/51549046177_dc8bf0c883_n.jpg",
    "id_album": "-89234980",
    "description": "ANIME_PIC_1c9ad2a27e911371fc7882280be42fcd,[GirlsCuteCool],[isGirlAnime],[isCuteAnime]",
    "title": "ANIME_PIC_1c9ad2a27e911371fc7882280be42fcd",
    "link_img": "https://live.staticflickr.com/65535/51549046177_3b2952ebf1_o.png",
    "id_image": "ANIME_PIC_1c9ad2a27e911371fc7882280be42fcd",
    "count_view": 0
  },
  {
    "link_thumb": "https://live.staticflickr.com/65535/51550565929_cdaf6dfe09_n.jpg",
    "id_album": "-89234980",
    "description": "ANIME_PIC_1c9c1c163296305af7a63557db90e4be,[GirlsCuteCool],[isGirlAnime],[isCuteAnime],[isGirlsHatsHoodieAnime],[isGirlsLoliAnime]",
    "title": "ANIME_PIC_1c9c1c163296305af7a63557db90e4be",
    "link_img": "https://live.staticflickr.com/65535/51550565929_31321193f1_o.jpg",
    "id_image": "ANIME_PIC_1c9c1c163296305af7a63557db90e4be",
    "count_view": 0
  },
  {
    "link_thumb": "https://live.staticflickr.com/65535/51550764880_e2023f5582_n.jpg",
    "id_album": "-89234980",
    "description": "ANIME_PIC_1c9da5c8649657382ef0fe5c9858de33,[GirlsCuteCool],[isGirlAnime],[isCuteAnime]",
    "title": "ANIME_PIC_1c9da5c8649657382ef0fe5c9858de33",
    "link_img": "https://live.staticflickr.com/65535/51550764880_fc057a1c5a_o.jpg",
    "id_image": "ANIME_PIC_1c9da5c8649657382ef0fe5c9858de33",
    "count_view": 0
  },
  {
    "link_thumb": "https://live.staticflickr.com/65535/51550566949_16025150e3_n.jpg",
    "id_album": "-89234980",
    "description": "ANIME_PIC_1c9dca0c3ca63cb6a4449c2ba5909d6c,[GirlsCuteCool],[isGirlAnime],[isCuteAnime]",
    "title": "ANIME_PIC_1c9dca0c3ca63cb6a4449c2ba5909d6c",
    "link_img": "https://live.staticflickr.com/65535/51550566949_a0c2854027_o.jpg",
    "id_image": "ANIME_PIC_1c9dca0c3ca63cb6a4449c2ba5909d6c",
    "count_view": 0
  },
  {
    "link_thumb": "https://live.staticflickr.com/65535/51550567374_0535ed2e1c_n.jpg",
    "id_album": "-89234980",
    "description": "ANIME_PIC_1ca04d594b7adfcc748016087f93ee1a,[GirlsCuteCool],[isGirlAnime],[isCuteAnime]",
    "title": "ANIME_PIC_1ca04d594b7adfcc748016087f93ee1a",
    "link_img": "https://live.staticflickr.com/65535/51550567374_6562f0019d_o.jpg",
    "id_image": "ANIME_PIC_1ca04d594b7adfcc748016087f93ee1a",
    "count_view": 0
  },
  {
    "link_thumb": "https://live.staticflickr.com/65535/51550567769_0cfde21b49_n.jpg",
    "id_album": "-89234980",
    "description": "ANIME_PIC_1ca535815c8af0e176a33e3f8a9bf4ca,[GirlsCuteCool],[isGirlAnime],[isCuteAnime],[isGirlsLoliAnime]",
    "title": "ANIME_PIC_1ca535815c8af0e176a33e3f8a9bf4ca",
    "link_img": "https://live.staticflickr.com/65535/51550567769_67d4884648_o.jpg",
    "id_image": "ANIME_PIC_1ca535815c8af0e176a33e3f8a9bf4ca",
    "count_view": 0
  },
  {
    "link_thumb": "https://live.staticflickr.com/65535/51549854211_64a30a8006_n.jpg",
    "id_album": "-89234980",
    "description": "ANIME_PIC_1ca5b93ded2e51a11e012cb56fa08b28,[GirlsCuteCool],[isGirlAnime],[isCuteAnime]",
    "title": "ANIME_PIC_1ca5b93ded2e51a11e012cb56fa08b28",
    "link_img": "https://live.staticflickr.com/65535/51549854211_942348c9a1_o.jpg",
    "id_image": "ANIME_PIC_1ca5b93ded2e51a11e012cb56fa08b28",
    "count_view": 0
  },
  {
    "link_thumb": "https://live.staticflickr.com/65535/51549049452_4fdf6f87b6_n.jpg",
    "id_album": "-89234980",
    "description": "ANIME_PIC_1cab7dad84b5f57473fdbb9f205a444e,[GirlsCuteCool],[isGirlAnime],[isCuteAnime]",
    "title": "ANIME_PIC_1cab7dad84b5f57473fdbb9f205a444e",
    "link_img": "https://live.staticflickr.com/65535/51549049452_47d02ba93d_o.jpg",
    "id_image": "ANIME_PIC_1cab7dad84b5f57473fdbb9f205a444e",
    "count_view": 0
  },
  {
    "link_thumb": "https://live.staticflickr.com/65535/51550767425_1f7f4b58f8_n.jpg",
    "id_album": "-89234980",
    "description": "ANIME_PIC_1cb00885f2ffc594c6d94d51e1b9b934,[GirlsCuteCool],[isGirlAnime],[isCuteAnime],[isGirlsHatsHoodieAnime],[isGirlsLoliAnime]",
    "title": "ANIME_PIC_1cb00885f2ffc594c6d94d51e1b9b934",
    "link_img": "https://live.staticflickr.com/65535/51550767425_c6f5f44327_o.jpg",
    "id_image": "ANIME_PIC_1cb00885f2ffc594c6d94d51e1b9b934",
    "count_view": 0
  },
  {
    "link_thumb": "https://live.staticflickr.com/65535/51550767980_38f48d69c9_n.jpg",
    "id_album": "-89234980",
    "description": "ANIME_PIC_1cb6e4d37beb325de881053edc9e5007,[GirlsCuteCool],[isGirlAnime],[isCuteAnime],[isGirlsHatsHoodieAnime],[isGirlsLoliAnime]",
    "title": "ANIME_PIC_1cb6e4d37beb325de881053edc9e5007",
    "link_img": "https://live.staticflickr.com/65535/51550767980_930a963e37_o.jpg",
    "id_image": "ANIME_PIC_1cb6e4d37beb325de881053edc9e5007",
    "count_view": 0
  },
  {
    "link_thumb": "https://live.staticflickr.com/65535/51549050712_29cf3f4f4d_n.jpg",
    "id_album": "-89234980",
    "description": "ANIME_PIC_1cb71bfde39baa25a26050438467820c,[GirlsCuteCool],[isGirlAnime],[isCuteAnime],[isGirlsHatsHoodieAnime],[isGirlsLoliAnime]",
    "title": "ANIME_PIC_1cb71bfde39baa25a26050438467820c",
    "link_img": "https://live.staticflickr.com/65535/51549050712_d0936a386f_o.jpg",
    "id_image": "ANIME_PIC_1cb71bfde39baa25a26050438467820c",
    "count_view": 0
  },
  {
    "link_thumb": "https://live.staticflickr.com/65535/51550768585_d5b3b39fa6_n.jpg",
    "id_album": "-89234980",
    "description": "ANIME_PIC_1cb99e43c9e38a247645b3a59c1708bd,[GirlsCuteCool],[isGirlAnime],[isCuteAnime]",
    "title": "ANIME_PIC_1cb99e43c9e38a247645b3a59c1708bd",
    "link_img": "https://live.staticflickr.com/65535/51550768585_229ec0525f_o.jpg",
    "id_image": "ANIME_PIC_1cb99e43c9e38a247645b3a59c1708bd",
    "count_view": 0
  },
  {
    "link_thumb": "https://live.staticflickr.com/65535/51550768925_3ffb34a102_n.jpg",
    "id_album": "-89234980",
    "description": "ANIME_PIC_1cbba2087c12b8c12111cc58e1952808,[GirlsCuteCool],[isBoyAnime],[isCoupleAnime],[isGirlAnime],[isCuteAnime]",
    "title": "ANIME_PIC_1cbba2087c12b8c12111cc58e1952808",
    "link_img": "https://live.staticflickr.com/65535/51550768925_3d9220fcf2_o.png",
    "id_image": "ANIME_PIC_1cbba2087c12b8c12111cc58e1952808",
    "count_view": 0
  },
  {
    "link_thumb": "https://live.staticflickr.com/65535/51550570979_8951ea836a_n.jpg",
    "id_album": "-89234980",
    "description": "ANIME_PIC_1cbe44f53c58f9d1eb8ff6ac7eb279d4,[GirlsCuteCool],[isGirlAnime],[isCuteAnime]",
    "title": "ANIME_PIC_1cbe44f53c58f9d1eb8ff6ac7eb279d4",
    "link_img": "https://live.staticflickr.com/65535/51550570979_1084b36dd0_o.jpg",
    "id_image": "ANIME_PIC_1cbe44f53c58f9d1eb8ff6ac7eb279d4",
    "count_view": 0
  },
  {
    "link_thumb": "https://live.staticflickr.com/65535/51550770005_7f854e3d92_n.jpg",
    "id_album": "-89234980",
    "description": "ANIME_PIC_1cbe81a207db4927d69b045e331215d2,[GirlsCuteCool],[isGirlAnime],[isCuteAnime],[isGirlsHatsHoodieAnime],[isGirlsLoliAnime]",
    "title": "ANIME_PIC_1cbe81a207db4927d69b045e331215d2",
    "link_img": "https://live.staticflickr.com/65535/51550770005_99f96c2023_o.png",
    "id_image": "ANIME_PIC_1cbe81a207db4927d69b045e331215d2",
    "count_view": 0
  },
  {
    "link_thumb": "https://live.staticflickr.com/65535/51550091503_72e841595b_n.jpg",
    "id_album": "-89234980",
    "description": "ANIME_PIC_1cbe89e96006580f955f12977d9ba0f4,[GirlsCuteCool],[isGirlAnime],[isCuteAnime]",
    "title": "ANIME_PIC_1cbe89e96006580f955f12977d9ba0f4",
    "link_img": "https://live.staticflickr.com/65535/51550091503_6a922f3b7e_o.jpg",
    "id_image": "ANIME_PIC_1cbe89e96006580f955f12977d9ba0f4",
    "count_view": 0
  },
  {
    "link_thumb": "https://live.staticflickr.com/65535/51550572519_fba4e11805_n.jpg",
    "id_album": "-89234980",
    "description": "ANIME_PIC_1cc7d712d4a32314ea9baf1f75d335c4,[GirlsCuteCool],[isGirlAnime],[isCuteAnime],[isGirlsHatsHoodieAnime],[isGirlsLoliAnime],[isSadAnimeGirl],[isSadAnime]",
    "title": "ANIME_PIC_1cc7d712d4a32314ea9baf1f75d335c4",
    "link_img": "https://live.staticflickr.com/65535/51550572519_7f44ae0c34_o.png",
    "id_image": "ANIME_PIC_1cc7d712d4a32314ea9baf1f75d335c4",
    "count_view": 0
  },
  {
    "link_thumb": "https://live.staticflickr.com/65535/51549054237_9dd54e6b99_n.jpg",
    "id_album": "-89234980",
    "description": "ANIME_PIC_1ccd443414fa796b3d40110e2a67ddc3,[GirlsCuteCool],[isGirlAnime],[isCuteAnime],[isGirlsHatsHoodieAnime],[isGirlsLoliAnime],[isSadAnimeGirl],[isSadAnime]",
    "title": "ANIME_PIC_1ccd443414fa796b3d40110e2a67ddc3",
    "link_img": "https://live.staticflickr.com/65535/51549054237_f028be30a2_o.png",
    "id_image": "ANIME_PIC_1ccd443414fa796b3d40110e2a67ddc3",
    "count_view": 0
  },
  {
    "link_thumb": "https://live.staticflickr.com/65535/51550772095_60443c7c7b_n.jpg",
    "id_album": "-89234980",
    "description": "ANIME_PIC_1ccdcf50c2daeb70be4560ccf8946a4a,[GirlsCuteCool],[isGirlAnime],[isCuteAnime],[isGirlsHatsHoodieAnime]",
    "title": "ANIME_PIC_1ccdcf50c2daeb70be4560ccf8946a4a",
    "link_img": "https://live.staticflickr.com/65535/51550772095_037380329f_o.jpg",
    "id_image": "ANIME_PIC_1ccdcf50c2daeb70be4560ccf8946a4a",
    "count_view": 0
  },
  {
    "link_thumb": "https://live.staticflickr.com/65535/51550093253_d474a81faf_n.jpg",
    "id_album": "-89234980",
    "description": "ANIME_PIC_1cd02af09c289348070eb8c3d4e7abbc,[GirlsCuteCool],[isGirlAnime],[isCuteAnime],[isGirlsHatsHoodieAnime]",
    "title": "ANIME_PIC_1cd02af09c289348070eb8c3d4e7abbc",
    "link_img": "https://live.staticflickr.com/65535/51550093253_b80abfe150_o.png",
    "id_image": "ANIME_PIC_1cd02af09c289348070eb8c3d4e7abbc",
    "count_view": 0
  },
  {
    "link_thumb": "https://live.staticflickr.com/65535/51550574494_67ab1aa8e8_n.jpg",
    "id_album": "-89234980",
    "description": "ANIME_PIC_1cd0d48c28f82f7a9b589b8a214f443c,[GirlsCuteCool],[isGirlAnime],[isCuteAnime],[isGirlFaceMasksAnime]",
    "title": "ANIME_PIC_1cd0d48c28f82f7a9b589b8a214f443c",
    "link_img": "https://live.staticflickr.com/65535/51550574494_44aa9104b2_o.png",
    "id_image": "ANIME_PIC_1cd0d48c28f82f7a9b589b8a214f443c",
    "count_view": 0
  },
  {
    "link_thumb": "https://live.staticflickr.com/65535/51550773845_34fdc337c6_n.jpg",
    "id_album": "-89234980",
    "description": "ANIME_PIC_1cd1ec0bc288d5aecdff71ab87707738,[GirlsCuteCool],[isGirlAnime],[isCuteAnime],[isGirlsHatsHoodieAnime],[isGirlsLoliAnime]",
    "title": "ANIME_PIC_1cd1ec0bc288d5aecdff71ab87707738",
    "link_img": "https://live.staticflickr.com/65535/51550773845_3d4ab669f4_o.png",
    "id_image": "ANIME_PIC_1cd1ec0bc288d5aecdff71ab87707738",
    "count_view": 0
  },
  {
    "link_thumb": "https://live.staticflickr.com/65535/51549057202_ce4950e08c_n.jpg",
    "id_album": "-89234980",
    "description": "ANIME_PIC_1cd55134b358a427eef6c26dd6c36e52,[GirlsCuteCool],[isGirlAnime],[isCuteAnime],[isSadAnimeGirl],[isSadAnime]",
    "title": "ANIME_PIC_1cd55134b358a427eef6c26dd6c36e52",
    "link_img": "https://live.staticflickr.com/65535/51549057202_e8ecda16a5_o.jpg",
    "id_image": "ANIME_PIC_1cd55134b358a427eef6c26dd6c36e52",
    "count_view": 0
  },
  {
    "link_thumb": "https://live.staticflickr.com/65535/51549862256_2e2c5063e6_n.jpg",
    "id_album": "-89234980",
    "description": "ANIME_PIC_1cd85f62e46f6da29c52fb711a094302,[GirlsCuteCool],[isGirlAnime],[isCuteAnime],[isGirlsLoliAnime]",
    "title": "ANIME_PIC_1cd85f62e46f6da29c52fb711a094302",
    "link_img": "https://live.staticflickr.com/65535/51549862256_bdbe31a9e1_o.jpg",
    "id_image": "ANIME_PIC_1cd85f62e46f6da29c52fb711a094302",
    "count_view": 0
  },
  {
    "link_thumb": "https://live.staticflickr.com/65535/51549058107_10181217b1_n.jpg",
    "id_album": "-89234980",
    "description": "ANIME_PIC_1cd92b82951c6585be9b2fb394d95f9e,[GirlsCuteCool],[isGirlAnime],[isCuteAnime],[isGirlEarsNekoAnime],[isGirlsLoliAnime],[isSadAnimeGirl],[isSadAnime]",
    "title": "ANIME_PIC_1cd92b82951c6585be9b2fb394d95f9e",
    "link_img": "https://live.staticflickr.com/65535/51549058107_31acae9c72_o.png",
    "id_image": "ANIME_PIC_1cd92b82951c6585be9b2fb394d95f9e",
    "count_view": 0
  },
  {
    "link_thumb": "https://live.staticflickr.com/65535/51549058782_0b16b07468_n.jpg",
    "id_album": "-89234980",
    "description": "ANIME_PIC_1cda9ceac39b532b06f54e9fe30ff4b2,[GirlsCuteCool],[isGirlAnime],[isCuteAnime],[isGirlsHatsHoodieAnime],[isGirlsLoliAnime]",
    "title": "ANIME_PIC_1cda9ceac39b532b06f54e9fe30ff4b2",
    "link_img": "https://live.staticflickr.com/65535/51549058782_5c2d8d4805_o.jpg",
    "id_image": "ANIME_PIC_1cda9ceac39b532b06f54e9fe30ff4b2",
    "count_view": 0
  },
  {
    "link_thumb": "https://live.staticflickr.com/65535/51549864041_5d391f5def_n.jpg",
    "id_album": "-89234980",
    "description": "ANIME_PIC_1cdb4426b8a91ca2fa48374b0d0a6b82,[GirlsCuteCool],[isGirlAnime],[isCuteAnime],[isGirlsLoliAnime],[isSadAnimeGirl],[isSadAnime]",
    "title": "ANIME_PIC_1cdb4426b8a91ca2fa48374b0d0a6b82",
    "link_img": "https://live.staticflickr.com/65535/51549864041_a6320e59b7_o.jpg",
    "id_image": "ANIME_PIC_1cdb4426b8a91ca2fa48374b0d0a6b82",
    "count_view": 0
  },
  {
    "link_thumb": "https://live.staticflickr.com/65535/50056792662_8b28188bce_n.jpg",
    "id_album": "-89234980",
    "description": "ANIME_PIC_1cdb96a2ca2c27eeff37fd57b1d4b316,[isGirlAnime],[isCuteAnime],[Girls Cute Cool],[GirlsCuteCool],[isGirlsHornsAnime],[isGirlsLoliAnime]",
    "title": "ANIME_PIC_1cdb96a2ca2c27eeff37fd57b1d4b316",
    "link_img": "https://live.staticflickr.com/65535/50056792662_87d1e079fa_o.jpg",
    "id_image": "ANIME_PIC_1cdb96a2ca2c27eeff37fd57b1d4b316",
    "count_view": 0
  },
  {
    "link_thumb": "https://live.staticflickr.com/65535/51549864561_99422e7776_n.jpg",
    "id_album": "-89234980",
    "description": "ANIME_PIC_1cdc25d1242f423db7c1acc8161a2329,[GirlsCuteCool],[isGirlAnime],[isCuteAnime],[isSadAnimeGirl],[isSadAnime]",
    "title": "ANIME_PIC_1cdc25d1242f423db7c1acc8161a2329",
    "link_img": "https://live.staticflickr.com/65535/51549864561_962564ff84_o.jpg",
    "id_image": "ANIME_PIC_1cdc25d1242f423db7c1acc8161a2329",
    "count_view": 0
  },
  {
    "link_thumb": "https://live.staticflickr.com/65535/51550098283_a2f18e70fd_n.jpg",
    "id_album": "-89234980",
    "description": "ANIME_PIC_1ce149fe6dbbe7bf37a715ac73ebde50,[GirlsCuteCool],[isGirlAnime],[isCuteAnime]",
    "title": "ANIME_PIC_1ce149fe6dbbe7bf37a715ac73ebde50",
    "link_img": "https://live.staticflickr.com/65535/51550098283_ee04365c4d_o.png",
    "id_image": "ANIME_PIC_1ce149fe6dbbe7bf37a715ac73ebde50",
    "count_view": 0
  },
  {
    "link_thumb": "https://live.staticflickr.com/65535/51550099023_ae9e0b0b24_n.jpg",
    "id_album": "-89234980",
    "description": "ANIME_PIC_1ce2366a04655fe4d29cde39f7896454,[GirlsCuteCool],[isGirlAnime],[isCuteAnime],[isSadAnimeGirl],[isSadAnime]",
    "title": "ANIME_PIC_1ce2366a04655fe4d29cde39f7896454",
    "link_img": "https://live.staticflickr.com/65535/51550099023_26b363d4c0_o.jpg",
    "id_image": "ANIME_PIC_1ce2366a04655fe4d29cde39f7896454",
    "count_view": 0
  },
  {
    "link_thumb": "https://live.staticflickr.com/65535/51549061732_713773288d_n.jpg",
    "id_album": "-89234980",
    "description": "ANIME_PIC_1ce5fbd8fdab6f2e5bdef14e30f733fc,[GirlsCuteCool],[isGirlAnime],[isCuteAnime],[isGirlsHatsHoodieAnime],[isGirlsLoliAnime]",
    "title": "ANIME_PIC_1ce5fbd8fdab6f2e5bdef14e30f733fc",
    "link_img": "https://live.staticflickr.com/65535/51549061732_8029871b21_o.jpg",
    "id_image": "ANIME_PIC_1ce5fbd8fdab6f2e5bdef14e30f733fc",
    "count_view": 0
  },
  {
    "link_thumb": "https://live.staticflickr.com/65535/51550100213_ee0ff60d97_n.jpg",
    "id_album": "-89234980",
    "description": "ANIME_PIC_1ce6e4a5e8ec9fdbefb49e11416dcddb,[GirlsCuteCool],[isGirlAnime],[isCuteAnime],[isGirlsHatsHoodieAnime],[isGirlsLoliAnime],[isSadAnimeGirl],[isSadAnime]",
    "title": "ANIME_PIC_1ce6e4a5e8ec9fdbefb49e11416dcddb",
    "link_img": "https://live.staticflickr.com/65535/51550100213_9582ac9ede_o.png",
    "id_image": "ANIME_PIC_1ce6e4a5e8ec9fdbefb49e11416dcddb",
    "count_view": 0
  },
  {
    "link_thumb": "https://live.staticflickr.com/65535/51549062537_0babc480f1_n.jpg",
    "id_album": "-89234980",
    "description": "ANIME_PIC_1ce9062cf00c37d4470b0a15f8daf568,[GirlsCuteCool],[isGirlAnime],[isCuteAnime],[isGirlEarsNekoAnime],[isGirlsHatsHoodieAnime],[isGirlsLoliAnime],[isSadAnimeGirl],[isSadAnime]",
    "title": "ANIME_PIC_1ce9062cf00c37d4470b0a15f8daf568",
    "link_img": "https://live.staticflickr.com/65535/51549062537_ea74cae6e7_o.png",
    "id_image": "ANIME_PIC_1ce9062cf00c37d4470b0a15f8daf568",
    "count_view": 0
  },
  {
    "link_thumb": "https://live.staticflickr.com/65535/51550101278_2c09650acb_n.jpg",
    "id_album": "-89234980",
    "description": "ANIME_PIC_1ce92ae8f4c8f2c8dfd584d599a1ff29,[GirlsCuteCool],[isGirlAnime],[isCuteAnime],[isGirlEarsNekoAnime],[isGirlsLoliAnime],[isSadAnimeGirl],[isSadAnime]",
    "title": "ANIME_PIC_1ce92ae8f4c8f2c8dfd584d599a1ff29",
    "link_img": "https://live.staticflickr.com/65535/51550101278_2668bd1197_o.jpg",
    "id_image": "ANIME_PIC_1ce92ae8f4c8f2c8dfd584d599a1ff29",
    "count_view": 0
  },
  {
    "link_thumb": "https://live.staticflickr.com/65535/51549063492_2cd178daf5_n.jpg",
    "id_album": "-89234980",
    "description": "ANIME_PIC_1cebb25cead878e8d4a2aa191ceaaa36,[GirlsCuteCool],[isGirlAnime],[isCuteAnime],[isGirlEarsNekoAnime],[isGirlsLoliAnime],[isSadAnimeGirl],[isSadAnime]",
    "title": "ANIME_PIC_1cebb25cead878e8d4a2aa191ceaaa36",
    "link_img": "https://live.staticflickr.com/65535/51549063492_bd68b36ff5_o.jpg",
    "id_image": "ANIME_PIC_1cebb25cead878e8d4a2aa191ceaaa36",
    "count_view": 0
  },
  {
    "link_thumb": "https://live.staticflickr.com/65535/51550101953_b3149fcaaf_n.jpg",
    "id_album": "-89234980",
    "description": "ANIME_PIC_1cf39c0ed4815b7c10cf7894cb10228d,[GirlsCuteCool],[isGirlAnime],[isCuteAnime],[isGirlsHatsHoodieAnime],[isGirlsLoliAnime]",
    "title": "ANIME_PIC_1cf39c0ed4815b7c10cf7894cb10228d",
    "link_img": "https://live.staticflickr.com/65535/51550101953_9d8d0234fa_o.png",
    "id_image": "ANIME_PIC_1cf39c0ed4815b7c10cf7894cb10228d",
    "count_view": 0
  },
  {
    "link_thumb": "https://live.staticflickr.com/65535/51550102528_2b20ff2c12_n.jpg",
    "id_album": "-89234980",
    "description": "ANIME_PIC_1cf4b7ec41fe17227711f4ef6c6ea798,[GirlsCuteCool],[isGirlAnime],[isCuteAnime],[isGirlsHatsHoodieAnime],[isGirlsLoliAnime]",
    "title": "ANIME_PIC_1cf4b7ec41fe17227711f4ef6c6ea798",
    "link_img": "https://live.staticflickr.com/65535/51550102528_f6e0500d31_o.jpg",
    "id_image": "ANIME_PIC_1cf4b7ec41fe17227711f4ef6c6ea798",
    "count_view": 0
  },
  {
    "link_thumb": "https://live.staticflickr.com/65535/51550103023_2e32795bfc_n.jpg",
    "id_album": "-89234980",
    "description": "ANIME_PIC_1cf62cabbff19043a9e1a8d68d792ef2,[GirlsCuteCool],[isGirlAnime],[isCuteAnime],[isSadAnimeGirl],[isSadAnime]",
    "title": "ANIME_PIC_1cf62cabbff19043a9e1a8d68d792ef2",
    "link_img": "https://live.staticflickr.com/65535/51550103023_3b92e20977_o.png",
    "id_image": "ANIME_PIC_1cf62cabbff19043a9e1a8d68d792ef2",
    "count_view": 0
  },
  {
    "link_thumb": "https://live.staticflickr.com/65535/51550783360_dbe7829781_n.jpg",
    "id_album": "-89234980",
    "description": "ANIME_PIC_1d01dbb695d7fe1558fa811b4961da74,[GirlsCuteCool],[isGirlAnime],[isCuteAnime],[isGirlsHatsHoodieAnime],[isGirlsLoliAnime]",
    "title": "ANIME_PIC_1d01dbb695d7fe1558fa811b4961da74",
    "link_img": "https://live.staticflickr.com/65535/51550783360_40bec984cd_o.jpg",
    "id_image": "ANIME_PIC_1d01dbb695d7fe1558fa811b4961da74",
    "count_view": 0
  },
  {
    "link_thumb": "https://live.staticflickr.com/65535/51549870846_819ab7fcf2_n.jpg",
    "id_album": "-89234980",
    "description": "ANIME_PIC_1d070c5357360eb9744b5e5e2a27ef80,[GirlsCuteCool],[isGirlAnime],[isCuteAnime],[isGirlsLoliAnime]",
    "title": "ANIME_PIC_1d070c5357360eb9744b5e5e2a27ef80",
    "link_img": "https://live.staticflickr.com/65535/51549870846_96ed380161_o.jpg",
    "id_image": "ANIME_PIC_1d070c5357360eb9744b5e5e2a27ef80",
    "count_view": 0
  },
  {
    "link_thumb": "https://live.staticflickr.com/65535/51549871241_5d548fcc5a_n.jpg",
    "id_album": "-89234980",
    "description": "ANIME_PIC_1d14cd773269d443282d1d92cdacfc46,[GirlsCuteCool],[isGirlAnime],[isCuteAnime],[isGirlsHatsHoodieAnime],[isGirlsLoliAnime]",
    "title": "ANIME_PIC_1d14cd773269d443282d1d92cdacfc46",
    "link_img": "https://live.staticflickr.com/65535/51549871241_782a399e42_o.jpg",
    "id_image": "ANIME_PIC_1d14cd773269d443282d1d92cdacfc46",
    "count_view": 0
  },
  {
    "link_thumb": "https://live.staticflickr.com/65535/51549067107_057003b77b_n.jpg",
    "id_album": "-89234980",
    "description": "ANIME_PIC_1d162628c795446e63133ce829bc5328,[GirlsCuteCool],[isGirlAnime],[isCuteAnime]",
    "title": "ANIME_PIC_1d162628c795446e63133ce829bc5328",
    "link_img": "https://live.staticflickr.com/65535/51549067107_45f6bb11d9_o.jpg",
    "id_image": "ANIME_PIC_1d162628c795446e63133ce829bc5328",
    "count_view": 0
  },
  {
    "link_thumb": "https://live.staticflickr.com/65535/51549067517_4600435a34_n.jpg",
    "id_album": "-89234980",
    "description": "ANIME_PIC_1d198a3f1379e738bb22574202f662b2,[GirlsCuteCool],[isGirlAnime],[isCuteAnime],[isSadAnimeGirl],[isSadAnime]",
    "title": "ANIME_PIC_1d198a3f1379e738bb22574202f662b2",
    "link_img": "https://live.staticflickr.com/65535/51549067517_b61abf585e_o.jpg",
    "id_image": "ANIME_PIC_1d198a3f1379e738bb22574202f662b2",
    "count_view": 0
  },
  {
    "link_thumb": "https://live.staticflickr.com/65535/51550785610_cefd93716a_n.jpg",
    "id_album": "-89234980",
    "description": "ANIME_PIC_1d1ce540525d2f986db093f412d31f4e,[GirlsCuteCool],[isGirlAnime],[isCuteAnime]",
    "title": "ANIME_PIC_1d1ce540525d2f986db093f412d31f4e",
    "link_img": "https://live.staticflickr.com/65535/51550785610_ce89d13e7a_o.png",
    "id_image": "ANIME_PIC_1d1ce540525d2f986db093f412d31f4e",
    "count_view": 0
  },
  {
    "link_thumb": "https://live.staticflickr.com/65535/51550106833_72e943ea17_n.jpg",
    "id_album": "-89234980",
    "description": "ANIME_PIC_1d1f074371a209f0a9ff97b82b3b47f0,[GirlsCuteCool],[isGirlAnime],[isCuteAnime],[isGirlsHatsHoodieAnime],[isGirlsLoliAnime]",
    "title": "ANIME_PIC_1d1f074371a209f0a9ff97b82b3b47f0",
    "link_img": "https://live.staticflickr.com/65535/51550106833_610774c74f_o.jpg",
    "id_image": "ANIME_PIC_1d1f074371a209f0a9ff97b82b3b47f0",
    "count_view": 0
  },
  {
    "link_thumb": "https://live.staticflickr.com/65535/51549873831_96964c2044_n.jpg",
    "id_album": "-89234980",
    "description": "ANIME_PIC_1d1f3b164c4c3d0b7924134ef850cd74,[GirlsCuteCool],[isGirlAnime],[isCuteAnime],[isGirlsLoliAnime]",
    "title": "ANIME_PIC_1d1f3b164c4c3d0b7924134ef850cd74",
    "link_img": "https://live.staticflickr.com/65535/51549873831_eb81d05e71_o.jpg",
    "id_image": "ANIME_PIC_1d1f3b164c4c3d0b7924134ef850cd74",
    "count_view": 0
  },
  {
    "link_thumb": "https://live.staticflickr.com/65535/51549069487_47f857cc35_n.jpg",
    "id_album": "-89234980",
    "description": "ANIME_PIC_1d27b4422a31c049ac54aa2b8329d2dc,[GirlsCuteCool],[isGirlAnime],[isCuteAnime],[isGirlsLoliAnime],[isSadAnimeGirl],[isSadAnime]",
    "title": "ANIME_PIC_1d27b4422a31c049ac54aa2b8329d2dc",
    "link_img": "https://live.staticflickr.com/65535/51549069487_82d43cda3e_o.jpg",
    "id_image": "ANIME_PIC_1d27b4422a31c049ac54aa2b8329d2dc",
    "count_view": 0
  },
  {
    "link_thumb": "https://live.staticflickr.com/65535/51549874856_0fa69b98ba_n.jpg",
    "id_album": "-89234980",
    "description": "ANIME_PIC_1d2913d4efadb2c6365f67308e7d63ef,[GirlsCuteCool],[isGirlAnime],[isCuteAnime],[isGirlsHatsHoodieAnime],[isGirlsLoliAnime]",
    "title": "ANIME_PIC_1d2913d4efadb2c6365f67308e7d63ef",
    "link_img": "https://live.staticflickr.com/65535/51549874856_552db89e2f_o.jpg",
    "id_image": "ANIME_PIC_1d2913d4efadb2c6365f67308e7d63ef",
    "count_view": 0
  },
  {
    "link_thumb": "https://live.staticflickr.com/65535/51549875336_594099a0c7_n.jpg",
    "id_album": "-89234980",
    "description": "ANIME_PIC_1d299ba83d79ee8e4d217d4231b5d69d,[GirlsCuteCool],[isGirlAnime],[isCuteAnime],[isGirlsLoliAnime]",
    "title": "ANIME_PIC_1d299ba83d79ee8e4d217d4231b5d69d",
    "link_img": "https://live.staticflickr.com/65535/51549875336_7aa0db95f9_o.jpg",
    "id_image": "ANIME_PIC_1d299ba83d79ee8e4d217d4231b5d69d",
    "count_view": 0
  },
  {
    "link_thumb": "https://live.staticflickr.com/65535/51550788705_e8a2fb4498_n.jpg",
    "id_album": "-89234980",
    "description": "ANIME_PIC_1d29dc14a081752aa95e1081fcfe2bb6,[GirlsCuteCool],[isGirlAnime],[isCuteAnime],[isGirlEarsNekoAnime]",
    "title": "ANIME_PIC_1d29dc14a081752aa95e1081fcfe2bb6",
    "link_img": "https://live.staticflickr.com/65535/51550788705_e22afdc708_o.jpg",
    "id_image": "ANIME_PIC_1d29dc14a081752aa95e1081fcfe2bb6",
    "count_view": 0
  },
  {
    "link_thumb": "https://live.staticflickr.com/65535/51550589864_514a14072a_n.jpg",
    "id_album": "-89234980",
    "description": "ANIME_PIC_1d2c6cc321bd7fd1e671959bd8197dec,[GirlsCuteCool],[isGirlAnime],[isCuteAnime],[isSadAnimeGirl],[isSadAnime]",
    "title": "ANIME_PIC_1d2c6cc321bd7fd1e671959bd8197dec",
    "link_img": "https://live.staticflickr.com/65535/51550589864_e84096ea3c_o.png",
    "id_image": "ANIME_PIC_1d2c6cc321bd7fd1e671959bd8197dec",
    "count_view": 0
  },
  {
    "link_thumb": "https://live.staticflickr.com/65535/51549072157_a8130959c0_n.jpg",
    "id_album": "-89234980",
    "description": "ANIME_PIC_1d2fbae685aa39e0557b06e5049bdef4,[GirlsCuteCool],[isGirlAnime],[isCuteAnime],[isSadAnimeGirl],[isSadAnime]",
    "title": "ANIME_PIC_1d2fbae685aa39e0557b06e5049bdef4",
    "link_img": "https://live.staticflickr.com/65535/51549072157_47c6b1c3cf_o.jpg",
    "id_image": "ANIME_PIC_1d2fbae685aa39e0557b06e5049bdef4",
    "count_view": 0
  },
  {
    "link_thumb": "https://live.staticflickr.com/65535/51550110713_d52fa5ee8c_n.jpg",
    "id_album": "-89234980",
    "description": "ANIME_PIC_1d306c627f83aac35843e29e91bd3551,[GirlsCuteCool],[isGirlAnime],[isCuteAnime],[isSadAnimeGirl],[isSadAnime]",
    "title": "ANIME_PIC_1d306c627f83aac35843e29e91bd3551",
    "link_img": "https://live.staticflickr.com/65535/51550110713_013b4041dc_o.jpg",
    "id_image": "ANIME_PIC_1d306c627f83aac35843e29e91bd3551",
    "count_view": 0
  },
  {
    "link_thumb": "https://live.staticflickr.com/65535/51549073202_0205717ac7_n.jpg",
    "id_album": "-89234980",
    "description": "ANIME_PIC_1d32f40763b5d7f32bd50ac53d9938de,[GirlsCuteCool],[isGirlAnime],[isCuteAnime],[isGirlsLoliAnime]",
    "title": "ANIME_PIC_1d32f40763b5d7f32bd50ac53d9938de",
    "link_img": "https://live.staticflickr.com/65535/51549073202_df2617f121_o.jpg",
    "id_image": "ANIME_PIC_1d32f40763b5d7f32bd50ac53d9938de",
    "count_view": 0
  },
  {
    "link_thumb": "https://live.staticflickr.com/65535/51549878356_b35aa99d8e_n.jpg",
    "id_album": "-89234980",
    "description": "ANIME_PIC_1d3512c14a2385f3a6cf27a555e9c0d4,[GirlsCuteCool],[isGirlAnime],[isCuteAnime],[isGirlsLoliAnime],[isSadAnimeGirl],[isSadAnime]",
    "title": "ANIME_PIC_1d3512c14a2385f3a6cf27a555e9c0d4",
    "link_img": "https://live.staticflickr.com/65535/51549878356_8978427133_o.png",
    "id_image": "ANIME_PIC_1d3512c14a2385f3a6cf27a555e9c0d4",
    "count_view": 0
  },
  {
    "link_thumb": "https://live.staticflickr.com/65535/51549879011_197ede4953_n.jpg",
    "id_album": "-89234980",
    "description": "ANIME_PIC_1d37ad97c4d24efacd153ea984bf6504,[GirlsCuteCool],[isGirlAnime],[isCuteAnime]",
    "title": "ANIME_PIC_1d37ad97c4d24efacd153ea984bf6504",
    "link_img": "https://live.staticflickr.com/65535/51549879011_9145fc2327_o.jpg",
    "id_image": "ANIME_PIC_1d37ad97c4d24efacd153ea984bf6504",
    "count_view": 0
  },
  {
    "link_thumb": "https://live.staticflickr.com/65535/51550112988_8769dd9735_n.jpg",
    "id_album": "-89234980",
    "description": "ANIME_PIC_1d3c035c0a9eee8122d83d6764c44931,[GirlsCuteCool],[isGirlAnime],[isCuteAnime],[isGirlsHatsHoodieAnime],[isGirlsLoliAnime],[isSadAnimeGirl],[isSadAnime]",
    "title": "ANIME_PIC_1d3c035c0a9eee8122d83d6764c44931",
    "link_img": "https://live.staticflickr.com/65535/51550112988_593f65dd00_o.png",
    "id_image": "ANIME_PIC_1d3c035c0a9eee8122d83d6764c44931",
    "count_view": 0
  },
  {
    "link_thumb": "https://live.staticflickr.com/65535/51550594204_a0d5c3ddde_n.jpg",
    "id_album": "-89234980",
    "description": "ANIME_PIC_1d3efc8ca65c621b1470487c5dfe2241,[GirlsCuteCool],[isGirlAnime],[isCuteAnime],[isGirlsLoliAnime]",
    "title": "ANIME_PIC_1d3efc8ca65c621b1470487c5dfe2241",
    "link_img": "https://live.staticflickr.com/65535/51550594204_204bcee58a_o.jpg",
    "id_image": "ANIME_PIC_1d3efc8ca65c621b1470487c5dfe2241",
    "count_view": 0
  },
  {
    "link_thumb": "https://live.staticflickr.com/65535/51550793470_e70503e99a_n.jpg",
    "id_album": "-89234980",
    "description": "ANIME_PIC_1d406b052821a50e117301934e985d19,[GirlsCuteCool],[isGirlAnime],[isCuteAnime]",
    "title": "ANIME_PIC_1d406b052821a50e117301934e985d19",
    "link_img": "https://live.staticflickr.com/65535/51550793470_0de9678bc8_o.png",
    "id_image": "ANIME_PIC_1d406b052821a50e117301934e985d19",
    "count_view": 0
  },
  {
    "link_thumb": "https://live.staticflickr.com/65535/51550114728_70c7c95b2d_n.jpg",
    "id_album": "-89234980",
    "description": "ANIME_PIC_1d41de4e5219af64c3fc388dfea6ad9e,[GirlsCuteCool],[isGirlAnime],[isCuteAnime]",
    "title": "ANIME_PIC_1d41de4e5219af64c3fc388dfea6ad9e",
    "link_img": "https://live.staticflickr.com/65535/51550114728_7430286b18_o.jpg",
    "id_image": "ANIME_PIC_1d41de4e5219af64c3fc388dfea6ad9e",
    "count_view": 0
  },
  {
    "link_thumb": "https://live.staticflickr.com/65535/51550596009_a204d5fdfd_n.jpg",
    "id_album": "-89234980",
    "description": "ANIME_PIC_1d43b1d890ea202091e0eda908cab505,[GirlsCuteCool],[isGirlAnime],[isCuteAnime],[isGirlsLoliAnime],[isSadAnimeGirl],[isSadAnime]",
    "title": "ANIME_PIC_1d43b1d890ea202091e0eda908cab505",
    "link_img": "https://live.staticflickr.com/65535/51550596009_fc760f5df3_o.jpg",
    "id_image": "ANIME_PIC_1d43b1d890ea202091e0eda908cab505",
    "count_view": 0
  },
  {
    "link_thumb": "https://live.staticflickr.com/65535/51549077802_35da3d436b_n.jpg",
    "id_album": "-89234980",
    "description": "ANIME_PIC_1d471b18027e37e4a2c36d913db1eb2a,[GirlsCuteCool],[isGirlAnime],[isCuteAnime],[isSadAnimeGirl],[isSadAnime]",
    "title": "ANIME_PIC_1d471b18027e37e4a2c36d913db1eb2a",
    "link_img": "https://live.staticflickr.com/65535/51549077802_2693ab55b2_o.jpg",
    "id_image": "ANIME_PIC_1d471b18027e37e4a2c36d913db1eb2a",
    "count_view": 0
  },
  {
    "link_thumb": "https://live.staticflickr.com/65535/51550116328_256c0fd255_n.jpg",
    "id_album": "-89234980",
    "description": "ANIME_PIC_1d4bc6e7e2630394320ed0af068ff1d9,[GirlsCuteCool],[isGirlAnime],[isCuteAnime],[isGirlsLoliAnime]",
    "title": "ANIME_PIC_1d4bc6e7e2630394320ed0af068ff1d9",
    "link_img": "https://live.staticflickr.com/65535/51550116328_c6ba5d73fc_o.jpg",
    "id_image": "ANIME_PIC_1d4bc6e7e2630394320ed0af068ff1d9",
    "count_view": 0
  },
  {
    "link_thumb": "https://live.staticflickr.com/65535/51550598129_db5e5fbef7_n.jpg",
    "id_album": "-89234980",
    "description": "ANIME_PIC_1d4ddac259eb509cf797e07e8b148ca2,[GirlsCuteCool],[isGirlAnime],[isCuteAnime]",
    "title": "ANIME_PIC_1d4ddac259eb509cf797e07e8b148ca2",
    "link_img": "https://live.staticflickr.com/65535/51550598129_19219aa87c_o.jpg",
    "id_image": "ANIME_PIC_1d4ddac259eb509cf797e07e8b148ca2",
    "count_view": 0
  },
  {
    "link_thumb": "https://live.staticflickr.com/65535/51550117833_b9db01be4f_n.jpg",
    "id_album": "-89234980",
    "description": "ANIME_PIC_1d4f5b78af6dd7844691a72e4fa2065c,[GirlsCuteCool],[isGirlAnime],[isCuteAnime],[isGirlsLoliAnime]",
    "title": "ANIME_PIC_1d4f5b78af6dd7844691a72e4fa2065c",
    "link_img": "https://live.staticflickr.com/65535/51550117833_6741c44519_o.png",
    "id_image": "ANIME_PIC_1d4f5b78af6dd7844691a72e4fa2065c",
    "count_view": 0
  },
  {
    "link_thumb": "https://live.staticflickr.com/65535/51550798700_ea7cf521e6_n.jpg",
    "id_album": "-89234980",
    "description": "ANIME_PIC_1d5245b358c89db0a8ef16d6b7cd6c68,[GirlsCuteCool],[isGirlAnime],[isCuteAnime],[isGirlEarsNekoAnime],[isGirlsLoliAnime],[isSadAnimeGirl],[isSadAnime]",
    "title": "ANIME_PIC_1d5245b358c89db0a8ef16d6b7cd6c68",
    "link_img": "https://live.staticflickr.com/65535/51550798700_53fb8726c7_o.png",
    "id_image": "ANIME_PIC_1d5245b358c89db0a8ef16d6b7cd6c68",
    "count_view": 0
  },
  {
    "link_thumb": "https://live.staticflickr.com/65535/49918035883_9c82367561_n.jpg",
    "id_album": "-89234980",
    "description": "ANIME_PIC_1d529f4e72e3e4ce00af85c3c3fcd339,[isGirlAnime],[isCuteAnime],[Girls Cute Cool],[GirlsCuteCool],[isSadAnimeGirl]",
    "title": "ANIME_PIC_1d529f4e72e3e4ce00af85c3c3fcd339",
    "link_img": "https://live.staticflickr.com/65535/49918035883_0c10ffc0d9_o.jpg",
    "id_image": "ANIME_PIC_1d529f4e72e3e4ce00af85c3c3fcd339",
    "count_view": 0
  },
  {
    "link_thumb": "https://live.staticflickr.com/65535/51550601314_34990ab3ea_n.jpg",
    "id_album": "-89234980",
    "description": "ANIME_PIC_1d54591403a1300398aad24a3b45386f,[GirlsCuteCool],[isGirlAnime],[isCuteAnime],[isGirlsLoliAnime]",
    "title": "ANIME_PIC_1d54591403a1300398aad24a3b45386f",
    "link_img": "https://live.staticflickr.com/65535/51550601314_837a777f33_o.jpg",
    "id_image": "ANIME_PIC_1d54591403a1300398aad24a3b45386f",
    "count_view": 0
  },
  {
    "link_thumb": "https://live.staticflickr.com/65535/51550800195_e706657d37_n.jpg",
    "id_album": "-89234980",
    "description": "ANIME_PIC_1d57a9be9b609d692a2257cffab9bbf7,[GirlsCuteCool],[isGirlAnime],[isCuteAnime],[isGirlEarsNekoAnime],[isGirlsLoliAnime],[isSadAnimeGirl],[isSadAnime]",
    "title": "ANIME_PIC_1d57a9be9b609d692a2257cffab9bbf7",
    "link_img": "https://live.staticflickr.com/65535/51550800195_cf22f1c40f_o.jpg",
    "id_image": "ANIME_PIC_1d57a9be9b609d692a2257cffab9bbf7",
    "count_view": 0
  },
  {
    "link_thumb": "https://live.staticflickr.com/65535/51549083217_1baebc7802_n.jpg",
    "id_album": "-89234980",
    "description": "ANIME_PIC_1d57b8c3ec12da7859553a6c72d8be8c,[GirlsCuteCool],[isGirlAnime],[isCuteAnime],[isGirlsLoliAnime],[isSadAnimeGirl],[isSadAnime]",
    "title": "ANIME_PIC_1d57b8c3ec12da7859553a6c72d8be8c",
    "link_img": "https://live.staticflickr.com/65535/51549083217_7e99b98425_o.jpg",
    "id_image": "ANIME_PIC_1d57b8c3ec12da7859553a6c72d8be8c",
    "count_view": 0
  },
  {
    "link_thumb": "https://live.staticflickr.com/65535/51549083712_3e8ea08ee8_n.jpg",
    "id_album": "-89234980",
    "description": "ANIME_PIC_1d596a78b54aa535dee1f4d16593e02f,[GirlsCuteCool],[isGirlAnime],[isCuteAnime],[isBlackAnime],[isSadAnimeGirl],[isSadAnime]",
    "title": "ANIME_PIC_1d596a78b54aa535dee1f4d16593e02f",
    "link_img": "https://live.staticflickr.com/65535/51549083712_83ab9b5cb7_o.jpg",
    "id_image": "ANIME_PIC_1d596a78b54aa535dee1f4d16593e02f",
    "count_view": 0
  },
  {
    "link_thumb": "https://live.staticflickr.com/65535/51549888601_dacf48557b_n.jpg",
    "id_album": "-89234980",
    "description": "ANIME_PIC_1d5b2f6c2d2ebcadc2ad890edceb6bc9,[GirlsCuteCool],[isGirlAnime],[isCuteAnime],[isGirlsHatsHoodieAnime]",
    "title": "ANIME_PIC_1d5b2f6c2d2ebcadc2ad890edceb6bc9",
    "link_img": "https://live.staticflickr.com/65535/51549888601_e3e56f505a_o.jpg",
    "id_image": "ANIME_PIC_1d5b2f6c2d2ebcadc2ad890edceb6bc9",
    "count_view": 0
  },
  {
    "link_thumb": "https://live.staticflickr.com/65535/51549084807_9b59d65d24_n.jpg",
    "id_album": "-89234980",
    "description": "ANIME_PIC_1d5da835e5b0b4cbc3432c163d8fc196,[GirlsCuteCool],[isGirlAnime],[isCuteAnime],[isGirlsLoliAnime]",
    "title": "ANIME_PIC_1d5da835e5b0b4cbc3432c163d8fc196",
    "link_img": "https://live.staticflickr.com/65535/51549084807_849d342151_o.jpg",
    "id_image": "ANIME_PIC_1d5da835e5b0b4cbc3432c163d8fc196",
    "count_view": 0
  },
  {
    "link_thumb": "https://live.staticflickr.com/65535/51550802660_36b295c265_n.jpg",
    "id_album": "-89234980",
    "description": "ANIME_PIC_1d638dcf8ae868c58e85653297d00f8d,[GirlsCuteCool],[isGirlAnime],[isCuteAnime]",
    "title": "ANIME_PIC_1d638dcf8ae868c58e85653297d00f8d",
    "link_img": "https://live.staticflickr.com/65535/51550802660_40c22fe0ae_o.png",
    "id_image": "ANIME_PIC_1d638dcf8ae868c58e85653297d00f8d",
    "count_view": 0
  },
  {
    "link_thumb": "https://live.staticflickr.com/65535/51549890406_7a492d6a8d_n.jpg",
    "id_album": "-89234980",
    "description": "ANIME_PIC_1d64f1e3566e46aadfbf59445720a745,[GirlsCuteCool],[isGirlAnime],[isCuteAnime],[isGirlsHatsHoodieAnime]",
    "title": "ANIME_PIC_1d64f1e3566e46aadfbf59445720a745",
    "link_img": "https://live.staticflickr.com/65535/51549890406_a58ee77a58_o.jpg",
    "id_image": "ANIME_PIC_1d64f1e3566e46aadfbf59445720a745",
    "count_view": 0
  },
  {
    "link_thumb": "https://live.staticflickr.com/65535/51550804095_7b45b00efc_n.jpg",
    "id_album": "-89234980",
    "description": "ANIME_PIC_1d652ae73d0bd01d6d8c30a10ef41c63,[GirlsCuteCool],[isGirlAnime],[isCuteAnime],[isGirlsLoliAnime],[isGirlsSharpCanineToothAnime]",
    "title": "ANIME_PIC_1d652ae73d0bd01d6d8c30a10ef41c63",
    "link_img": "https://live.staticflickr.com/65535/51550804095_8f93c05b64_o.png",
    "id_image": "ANIME_PIC_1d652ae73d0bd01d6d8c30a10ef41c63",
    "count_view": 0
  },
  {
    "link_thumb": "https://live.staticflickr.com/65535/51550804735_ae7c6ffd78_n.jpg",
    "id_album": "-89234980",
    "description": "ANIME_PIC_1d70075a0f59e97df886cadbf70619b3,[GirlsCuteCool],[isGirlAnime],[isCuteAnime],[isGirlsLoliAnime]",
    "title": "ANIME_PIC_1d70075a0f59e97df886cadbf70619b3",
    "link_img": "https://live.staticflickr.com/65535/51550804735_f02a99df16_o.png",
    "id_image": "ANIME_PIC_1d70075a0f59e97df886cadbf70619b3",
    "count_view": 0
  },
  {
    "link_thumb": "https://live.staticflickr.com/65535/51549088122_49d5136cf9_n.jpg",
    "id_album": "-89234980",
    "description": "ANIME_PIC_1d70cf5b27de8ff571b5ba7e030cc0ab,[GirlsCuteCool],[isGirlAnime],[isCuteAnime],[isGirlsLoliAnime]",
    "title": "ANIME_PIC_1d70cf5b27de8ff571b5ba7e030cc0ab",
    "link_img": "https://live.staticflickr.com/65535/51549088122_66bf73a73a_o.png",
    "id_image": "ANIME_PIC_1d70cf5b27de8ff571b5ba7e030cc0ab",
    "count_view": 0
  },
  {
    "link_thumb": "https://live.staticflickr.com/65535/51550806170_ef06dc51eb_n.jpg",
    "id_album": "-89234980",
    "description": "ANIME_PIC_1d728da0ca4f510d3b450c0f5edb8403,[GirlsCuteCool],[isGirlAnime],[isCuteAnime],[isGirlsLoliAnime],[isSadAnimeGirl],[isSadAnime]",
    "title": "ANIME_PIC_1d728da0ca4f510d3b450c0f5edb8403",
    "link_img": "https://live.staticflickr.com/65535/51550806170_325e4539a1_o.jpg",
    "id_image": "ANIME_PIC_1d728da0ca4f510d3b450c0f5edb8403",
    "count_view": 0
  },
  {
    "link_thumb": "https://live.staticflickr.com/65535/51550127243_935e8a3d28_n.jpg",
    "id_album": "-89234980",
    "description": "ANIME_PIC_1d73528d5a7b30cf271d46e432ae0a05,[GirlsCuteCool],[isGirlAnime],[isCuteAnime],[isGirlsLoliAnime],[isGirlsSharpCanineToothAnime]",
    "title": "ANIME_PIC_1d73528d5a7b30cf271d46e432ae0a05",
    "link_img": "https://live.staticflickr.com/65535/51550127243_a2dc5e8f23_o.jpg",
    "id_image": "ANIME_PIC_1d73528d5a7b30cf271d46e432ae0a05",
    "count_view": 0
  },
  {
    "link_thumb": "https://live.staticflickr.com/65535/51550608834_4f716ceacc_n.jpg",
    "id_album": "-89234980",
    "description": "ANIME_PIC_1d7687db25b8dae5cac2a6ef474f26f0,[GirlsCuteCool],[isGirlAnime],[isCuteAnime]",
    "title": "ANIME_PIC_1d7687db25b8dae5cac2a6ef474f26f0",
    "link_img": "https://live.staticflickr.com/65535/51550608834_ee61a90056_o.jpg",
    "id_image": "ANIME_PIC_1d7687db25b8dae5cac2a6ef474f26f0",
    "count_view": 0
  },
  {
    "link_thumb": "https://live.staticflickr.com/65535/51549894606_076e9d18a9_n.jpg",
    "id_album": "-89234980",
    "description": "ANIME_PIC_1d795d7c856135d2feb9aaccea6e9604,[GirlsCuteCool],[isGirlAnime],[isCuteAnime],[isGirlsLoliAnime],[isSadAnimeGirl],[isSadAnime]",
    "title": "ANIME_PIC_1d795d7c856135d2feb9aaccea6e9604",
    "link_img": "https://live.staticflickr.com/65535/51549894606_a02ae80e9f_o.jpg",
    "id_image": "ANIME_PIC_1d795d7c856135d2feb9aaccea6e9604",
    "count_view": 0
  },
  {
    "link_thumb": "https://live.staticflickr.com/65535/51550609589_332369e397_n.jpg",
    "id_album": "-89234980",
    "description": "ANIME_PIC_1d7b12464c86874574942f6bcf693c84,[GirlsCuteCool],[isGirlAnime],[isCuteAnime],[isGirlsLoliAnime]",
    "title": "ANIME_PIC_1d7b12464c86874574942f6bcf693c84",
    "link_img": "https://live.staticflickr.com/65535/51550609589_713d328fd2_o.jpg",
    "id_image": "ANIME_PIC_1d7b12464c86874574942f6bcf693c84",
    "count_view": 0
  },
  {
    "link_thumb": "https://live.staticflickr.com/65535/51550610059_d5a24eac2e_n.jpg",
    "id_album": "-89234980",
    "description": "ANIME_PIC_1d7c9e21776fbc9a005f872f6fb4ad5c,[GirlsCuteCool],[isGirlAnime],[isCuteAnime],[isGirlsLoliAnime]",
    "title": "ANIME_PIC_1d7c9e21776fbc9a005f872f6fb4ad5c",
    "link_img": "https://live.staticflickr.com/65535/51550610059_a30d8a3b28_o.jpg",
    "id_image": "ANIME_PIC_1d7c9e21776fbc9a005f872f6fb4ad5c",
    "count_view": 0
  },
  {
    "link_thumb": "https://live.staticflickr.com/65535/51550610569_d834fd9b7b_n.jpg",
    "id_album": "-89234980",
    "description": "ANIME_PIC_1d8119b4d466fd1f11060328b002c0d4,[GirlsCuteCool],[isGirlAnime],[isCuteAnime],[isGirlsLoliAnime],[isSadAnimeGirl],[isSadAnime]",
    "title": "ANIME_PIC_1d8119b4d466fd1f11060328b002c0d4",
    "link_img": "https://live.staticflickr.com/65535/51550610569_a71323882d_o.png",
    "id_image": "ANIME_PIC_1d8119b4d466fd1f11060328b002c0d4",
    "count_view": 0
  },
  {
    "link_thumb": "https://live.staticflickr.com/65535/51549897201_51ff278f68_n.jpg",
    "id_album": "-89234980",
    "description": "ANIME_PIC_1d821b69863c005a3c1ad33e05ff83be,[GirlsCuteCool],[isGirlAnime],[isCuteAnime]",
    "title": "ANIME_PIC_1d821b69863c005a3c1ad33e05ff83be",
    "link_img": "https://live.staticflickr.com/65535/51549897201_ebf64b8952_o.png",
    "id_image": "ANIME_PIC_1d821b69863c005a3c1ad33e05ff83be",
    "count_view": 0
  },
  {
    "link_thumb": "https://live.staticflickr.com/65535/51550612809_8b15349a28_n.jpg",
    "id_album": "-89234980",
    "description": "ANIME_PIC_1d85f08139abb07f680dfe58c4257145,[GirlsCuteCool],[isGirlAnime],[isCuteAnime],[isGirlsHatsHoodieAnime]",
    "title": "ANIME_PIC_1d85f08139abb07f680dfe58c4257145",
    "link_img": "https://live.staticflickr.com/65535/51550612809_9a7d354ff3_o.jpg",
    "id_image": "ANIME_PIC_1d85f08139abb07f680dfe58c4257145",
    "count_view": 0
  },
  {
    "link_thumb": "https://live.staticflickr.com/65535/51550613264_1abbf0dc84_n.jpg",
    "id_album": "-89234980",
    "description": "ANIME_PIC_1d871085f3f1b4d1554aa78953eaf7a5,[GirlsCuteCool],[isGirlAnime],[isCuteAnime],[isGirlsHatsHoodieAnime],[isGirlsLoliAnime]",
    "title": "ANIME_PIC_1d871085f3f1b4d1554aa78953eaf7a5",
    "link_img": "https://live.staticflickr.com/65535/51550613264_741178f4af_o.jpg",
    "id_image": "ANIME_PIC_1d871085f3f1b4d1554aa78953eaf7a5",
    "count_view": 0
  },
  {
    "link_thumb": "https://live.staticflickr.com/65535/51550133058_a3b335c781_n.jpg",
    "id_album": "-89234980",
    "description": "ANIME_PIC_1d8c5c63781b6e66e5f21f7dd09cc515,[GirlsCuteCool],[isGirlAnime],[isCuteAnime]",
    "title": "ANIME_PIC_1d8c5c63781b6e66e5f21f7dd09cc515",
    "link_img": "https://live.staticflickr.com/65535/51550133058_59bb2b000b_o.jpg",
    "id_image": "ANIME_PIC_1d8c5c63781b6e66e5f21f7dd09cc515",
    "count_view": 0
  },
  {
    "link_thumb": "https://live.staticflickr.com/65535/51550812825_bb780d095b_n.jpg",
    "id_album": "-89234980",
    "description": "ANIME_PIC_1d8e370b2978dcd1e63dc0d5aabd644b,[GirlsCuteCool],[isGirlAnime],[isCuteAnime],[isGirlsHatsHoodieAnime],[isSadAnimeGirl],[isSadAnime]",
    "title": "ANIME_PIC_1d8e370b2978dcd1e63dc0d5aabd644b",
    "link_img": "https://live.staticflickr.com/65535/51550812825_c2e9d06e66_o.jpg",
    "id_image": "ANIME_PIC_1d8e370b2978dcd1e63dc0d5aabd644b",
    "count_view": 0
  },
  {
    "link_thumb": "https://live.staticflickr.com/65535/51549900216_f09cf968f5_n.jpg",
    "id_album": "-89234980",
    "description": "ANIME_PIC_1d8fc6dc88c34420d130da56e94b96ee,[GirlsCuteCool],[isGirlAnime],[isCuteAnime]",
    "title": "ANIME_PIC_1d8fc6dc88c34420d130da56e94b96ee",
    "link_img": "https://live.staticflickr.com/65535/51549900216_f068f70596_o.jpg",
    "id_image": "ANIME_PIC_1d8fc6dc88c34420d130da56e94b96ee",
    "count_view": 0
  },
  {
    "link_thumb": "https://live.staticflickr.com/65535/51549096877_7b7e146d95_n.jpg",
    "id_album": "-89234980",
    "description": "ANIME_PIC_1d94714cf25ee7e45c9752d1bc1a5b24,[GirlsCuteCool],[isGirlAnime],[isCuteAnime]",
    "title": "ANIME_PIC_1d94714cf25ee7e45c9752d1bc1a5b24",
    "link_img": "https://live.staticflickr.com/65535/51549096877_af93f06f9c_o.jpg",
    "id_image": "ANIME_PIC_1d94714cf25ee7e45c9752d1bc1a5b24",
    "count_view": 0
  },
  {
    "link_thumb": "https://live.staticflickr.com/65535/51550615979_04eebb7e20_n.jpg",
    "id_album": "-89234980",
    "description": "ANIME_PIC_1d949c7f0cb4c77bea53d12b412b8a90,[GirlsCuteCool],[isGirlAnime],[isCuteAnime],[isGirlsLoliAnime],[isSadAnimeGirl],[isSadAnime]",
    "title": "ANIME_PIC_1d949c7f0cb4c77bea53d12b412b8a90",
    "link_img": "https://live.staticflickr.com/65535/51550615979_699225631d_o.png",
    "id_image": "ANIME_PIC_1d949c7f0cb4c77bea53d12b412b8a90",
    "count_view": 0
  },
  {
    "link_thumb": "https://live.staticflickr.com/65535/51549902051_96b60edfac_n.jpg",
    "id_album": "-89234980",
    "description": "ANIME_PIC_1d94b49040344c92eb9e2553a4be25a6,[GirlsCuteCool],[isGirlAnime],[isCuteAnime],[isSadAnimeGirl],[isSadAnime]",
    "title": "ANIME_PIC_1d94b49040344c92eb9e2553a4be25a6",
    "link_img": "https://live.staticflickr.com/65535/51549902051_a38d991e21_o.jpg",
    "id_image": "ANIME_PIC_1d94b49040344c92eb9e2553a4be25a6",
    "count_view": 0
  },
  {
    "link_thumb": "https://live.staticflickr.com/65535/51550815905_99b2af61b8_n.jpg",
    "id_album": "-89234980",
    "description": "ANIME_PIC_1d9575f37ad1ee703648dfd9d4445213,[GirlsCuteCool],[isGirlAnime],[isCuteAnime]",
    "title": "ANIME_PIC_1d9575f37ad1ee703648dfd9d4445213",
    "link_img": "https://live.staticflickr.com/65535/51550815905_8f05f2baea_o.jpg",
    "id_image": "ANIME_PIC_1d9575f37ad1ee703648dfd9d4445213",
    "count_view": 0
  },
  {
    "link_thumb": "https://live.staticflickr.com/65535/51549903581_785f8bd5cb_n.jpg",
    "id_album": "-89234980",
    "description": "ANIME_PIC_1d977c5f146f28035b8ede8e48c775b0,[GirlsCuteCool],[isBoyAnime],[isGirlAnime],[isCuteAnime]",
    "title": "ANIME_PIC_1d977c5f146f28035b8ede8e48c775b0",
    "link_img": "https://live.staticflickr.com/65535/51549903581_657681ba12_o.jpg",
    "id_image": "ANIME_PIC_1d977c5f146f28035b8ede8e48c775b0",
    "count_view": 0
  },
  {
    "link_thumb": "https://live.staticflickr.com/65535/51550817255_a3162399aa_n.jpg",
    "id_album": "-89234980",
    "description": "ANIME_PIC_1d97e9891067fa1ae1b7ea3d47242952,[GirlsCuteCool],[isGirlAnime],[isCuteAnime],[isGirlEarsNekoAnime],[isGirlsHornsAnime],[isGirlsLoliAnime],[isGirlsSharpCanineToothAnime]",
    "title": "ANIME_PIC_1d97e9891067fa1ae1b7ea3d47242952",
    "link_img": "https://live.staticflickr.com/65535/51550817255_13da7c5858_o.png",
    "id_image": "ANIME_PIC_1d97e9891067fa1ae1b7ea3d47242952",
    "count_view": 0
  },
  {
    "link_thumb": "https://live.staticflickr.com/65535/51549905001_b1e1c191f5_n.jpg",
    "id_album": "-89234980",
    "description": "ANIME_PIC_1d997d83d0b560db03236ac6128220e7,[GirlsCuteCool],[isGirlAnime],[isCuteAnime]",
    "title": "ANIME_PIC_1d997d83d0b560db03236ac6128220e7",
    "link_img": "https://live.staticflickr.com/65535/51549905001_ee01564c43_o.png",
    "id_image": "ANIME_PIC_1d997d83d0b560db03236ac6128220e7",
    "count_view": 0
  },
  {
    "link_thumb": "https://live.staticflickr.com/65535/51549102577_f33a90d803_n.jpg",
    "id_album": "-89234980",
    "description": "ANIME_PIC_1d9de9a5b5de400065c962eb981d4016,[GirlsCuteCool],[isGirlAnime],[isCuteAnime]",
    "title": "ANIME_PIC_1d9de9a5b5de400065c962eb981d4016",
    "link_img": "https://live.staticflickr.com/65535/51549102577_169e851517_o.jpg",
    "id_image": "ANIME_PIC_1d9de9a5b5de400065c962eb981d4016",
    "count_view": 0
  },
  {
    "link_thumb": "https://live.staticflickr.com/65535/51549103172_348233bb51_n.jpg",
    "id_album": "-89234980",
    "description": "ANIME_PIC_1d9f57268d28ebd581d9d54737d86d40,[GirlsCuteCool],[isGirlAnime],[isCuteAnime],[isGirlsHatsHoodieAnime],[isGirlsLoliAnime]",
    "title": "ANIME_PIC_1d9f57268d28ebd581d9d54737d86d40",
    "link_img": "https://live.staticflickr.com/65535/51549103172_de0636fcfa_o.jpg",
    "id_image": "ANIME_PIC_1d9f57268d28ebd581d9d54737d86d40",
    "count_view": 0
  },
  {
    "link_thumb": "https://live.staticflickr.com/65535/51550820430_555be3aeee_n.jpg",
    "id_album": "-89234980",
    "description": "ANIME_PIC_1da511b67a065f0859f1bdd146ee4952,[GirlsCuteCool],[isGirlAnime],[isCuteAnime]",
    "title": "ANIME_PIC_1da511b67a065f0859f1bdd146ee4952",
    "link_img": "https://live.staticflickr.com/65535/51550820430_574dd68880_o.jpg",
    "id_image": "ANIME_PIC_1da511b67a065f0859f1bdd146ee4952",
    "count_view": 0
  },
  {
    "link_thumb": "https://live.staticflickr.com/65535/51549908081_1e4ff9d001_n.jpg",
    "id_album": "-89234980",
    "description": "ANIME_PIC_1da53e22e8b786bea2a528471e0b7076,[GirlsCuteCool],[isGirlAnime],[isCuteAnime]",
    "title": "ANIME_PIC_1da53e22e8b786bea2a528471e0b7076",
    "link_img": "https://live.staticflickr.com/65535/51549908081_7060ace06a_o.png",
    "id_image": "ANIME_PIC_1da53e22e8b786bea2a528471e0b7076",
    "count_view": 0
  },
  {
    "link_thumb": "https://live.staticflickr.com/65535/51550623694_cf0899f9d3_n.jpg",
    "id_album": "-89234980",
    "description": "ANIME_PIC_1da6a637e5594c986dca90e19a6e6986,[GirlsCuteCool],[isGirlAnime],[isCuteAnime],[isGirlsHatsHoodieAnime],[isGirlsLoliAnime]",
    "title": "ANIME_PIC_1da6a637e5594c986dca90e19a6e6986",
    "link_img": "https://live.staticflickr.com/65535/51550623694_9e2b616bba_o.png",
    "id_image": "ANIME_PIC_1da6a637e5594c986dca90e19a6e6986",
    "count_view": 0
  },
  {
    "link_thumb": "https://live.staticflickr.com/65535/51550822465_9f479ac402_n.jpg",
    "id_album": "-89234980",
    "description": "ANIME_PIC_1da86570da43b21921645d0fa34daec5,[GirlsCuteCool],[isGirlAnime],[isCuteAnime]",
    "title": "ANIME_PIC_1da86570da43b21921645d0fa34daec5",
    "link_img": "https://live.staticflickr.com/65535/51550822465_26de44336e_o.jpg",
    "id_image": "ANIME_PIC_1da86570da43b21921645d0fa34daec5",
    "count_view": 0
  },
  {
    "link_thumb": "https://live.staticflickr.com/65535/51549106072_b9e26bd43c_n.jpg",
    "id_album": "-89234980",
    "description": "ANIME_PIC_1da89aa7bd6e75a81528f2f809d637f1,[GirlsCuteCool],[isGirlAnime],[isCuteAnime],[isSadAnimeGirl],[isSadAnime]",
    "title": "ANIME_PIC_1da89aa7bd6e75a81528f2f809d637f1",
    "link_img": "https://live.staticflickr.com/65535/51549106072_1574521f07_o.jpg",
    "id_image": "ANIME_PIC_1da89aa7bd6e75a81528f2f809d637f1",
    "count_view": 0
  },
  {
    "link_thumb": "https://live.staticflickr.com/65535/51550823330_c99757a723_n.jpg",
    "id_album": "-89234980",
    "description": "ANIME_PIC_1dab2fe9e4c23f5112eac82d01807d6a,[GirlsCuteCool],[isGirlAnime],[isCuteAnime],[isSadAnimeGirl],[isSadAnime]",
    "title": "ANIME_PIC_1dab2fe9e4c23f5112eac82d01807d6a",
    "link_img": "https://live.staticflickr.com/65535/51550823330_087974e840_o.jpg",
    "id_image": "ANIME_PIC_1dab2fe9e4c23f5112eac82d01807d6a",
    "count_view": 0
  },
  {
    "link_thumb": "https://live.staticflickr.com/65535/51549911166_c8880fb385_n.jpg",
    "id_album": "-89234980",
    "description": "ANIME_PIC_1dab4e56e7e56a35baa358b44b61b9ae,[GirlsCuteCool],[isGirlAnime],[isCuteAnime],[isGirlsLoliAnime]",
    "title": "ANIME_PIC_1dab4e56e7e56a35baa358b44b61b9ae",
    "link_img": "https://live.staticflickr.com/65535/51549911166_7798c8dcf4_o.jpg",
    "id_image": "ANIME_PIC_1dab4e56e7e56a35baa358b44b61b9ae",
    "count_view": 0
  },
  {
    "link_thumb": "https://live.staticflickr.com/65535/51550145623_2eba0f4eb9_n.jpg",
    "id_album": "-89234980",
    "description": "ANIME_PIC_1dadd2da017281db5b433a600d996a45,[GirlsCuteCool],[isGirlAnime],[isCuteAnime],[isGirlsLoliAnime]",
    "title": "ANIME_PIC_1dadd2da017281db5b433a600d996a45",
    "link_img": "https://live.staticflickr.com/65535/51550145623_06d325d4f2_o.png",
    "id_image": "ANIME_PIC_1dadd2da017281db5b433a600d996a45",
    "count_view": 0
  },
  {
    "link_thumb": "https://live.staticflickr.com/65535/51549108657_56ed230762_n.jpg",
    "id_album": "-89234980",
    "description": "ANIME_PIC_1db2fd157467bb2d102148671b9642b6,[GirlsCuteCool],[isGirlAnime],[isCuteAnime],[isGirlsHornsAnime],[isGirlsLoliAnime]",
    "title": "ANIME_PIC_1db2fd157467bb2d102148671b9642b6",
    "link_img": "https://live.staticflickr.com/65535/51549108657_83af78c14a_o.jpg",
    "id_image": "ANIME_PIC_1db2fd157467bb2d102148671b9642b6",
    "count_view": 0
  },
  {
    "link_thumb": "https://live.staticflickr.com/65535/51549913201_2d2a36c554_n.jpg",
    "id_album": "-89234980",
    "description": "ANIME_PIC_1db669b4814f762997183e97cdf44e98,[GirlsCuteCool],[isGirlAnime],[isCuteAnime],[isGirlEarsNekoAnime],[isGirlsLoliAnime],[isGirlsSharpCanineToothAnime]",
    "title": "ANIME_PIC_1db669b4814f762997183e97cdf44e98",
    "link_img": "https://live.staticflickr.com/65535/51549913201_a15fca60fe_o.png",
    "id_image": "ANIME_PIC_1db669b4814f762997183e97cdf44e98",
    "count_view": 0
  },
  {
    "link_thumb": "https://live.staticflickr.com/65535/51549914481_2233decbf9_n.jpg",
    "id_album": "-89234980",
    "description": "ANIME_PIC_1db8dece506988fad4c288bda11ecf29,[GirlsCuteCool],[isGirlAnime],[isCuteAnime]",
    "title": "ANIME_PIC_1db8dece506988fad4c288bda11ecf29",
    "link_img": "https://live.staticflickr.com/65535/51549914481_40be2bcfd0_o.jpg",
    "id_image": "ANIME_PIC_1db8dece506988fad4c288bda11ecf29",
    "count_view": 0
  },
  {
    "link_thumb": "https://live.staticflickr.com/65535/51549110817_f3369b2437_n.jpg",
    "id_album": "-89234980",
    "description": "ANIME_PIC_1db9a86ecb4876acf778b0e584d11b61,[GirlsCuteCool],[isGirlAnime],[isCuteAnime],[isGirlsLoliAnime]",
    "title": "ANIME_PIC_1db9a86ecb4876acf778b0e584d11b61",
    "link_img": "https://live.staticflickr.com/65535/51549110817_b3fb937ca5_o.jpg",
    "id_image": "ANIME_PIC_1db9a86ecb4876acf778b0e584d11b61",
    "count_view": 0
  },
  {
    "link_thumb": "https://live.staticflickr.com/65535/51550827865_1c881cc008_n.jpg",
    "id_album": "-89234980",
    "description": "ANIME_PIC_1dbad64d15e8e2104ebf1efca000c4bc,[GirlsCuteCool],[isGirlAnime],[isCuteAnime],[isGirlsHatsHoodieAnime],[isGirlsLoliAnime]",
    "title": "ANIME_PIC_1dbad64d15e8e2104ebf1efca000c4bc",
    "link_img": "https://live.staticflickr.com/65535/51550827865_3a7c98cd1b_o.jpg",
    "id_image": "ANIME_PIC_1dbad64d15e8e2104ebf1efca000c4bc",
    "count_view": 0
  }
]