[
  {
    "total_img": 98,
    "number_page": 1,
    "title": "To Aru Kagaku No Railgun",
    "tag": "To Aru Kagaku No Railgun, Mikoto Misaka, A Certain Scientific Railgun, Erii Haruue, Grass, Kuroko Shirai, Long Hair, Coin, Wataru Kurozuma, Anime, Shirt, Tsuzuri Tessou, Rikou Takitsubo, Kazari Uiharu, Shorts, Umbrella, Mii Konori, Last Order, Frenda Seivelun, Glove, Cute, Aiho Yomikawa, Kinuho Wannai, Smile, Yellow Eyes, Accelerator To Aru Kagaku No Railgun, Skirt, Komoe Tsukuyomi, Blush, Saiai Kinuhata, Shizuri Mugino, Ruiko Saten, Cat, Twins, Misuzu Misaka, Sitting, Socks, Mitsuko Kongou, Vento of the Front, Blonde, Gunha Sogiita, Harumi Kiyama, Sisters Toaru Majutsu no Index, Short Hair, Maaya Awatsuki, Brown Eyes, Index Librorum Prohibitorum, Brown Hair, School Uniform, Sunset, Banri Edasaki, Teitoku Kakine, Sleeping, Hyouka Kazakiri, Misaki Shokuhou, Halloween, Kamijou Touma",
    "description": "To Aru Kagaku No Railgun",
    "link_thumb": "https://live.staticflickr.com/65535/48060091791_d08d7c9243_n.jpg",
    "id_album": "-780921342",
    "total_view": 98
  },
  {
    "total_img": 363,
    "number_page": 2,
    "title": "Brown Eyes",
    "tag": "Brown Eyes,",
    "description": "Brown Eyes",
    "link_thumb": "https://live.staticflickr.com/65535/48609891276_d6beb9cf73_n.jpg",
    "id_album": "-346700115",
    "total_view": 363
  },
  {
    "total_img": 718,
    "number_page": 4,
    "title": "Brown Hair",
    "tag": "Brown Hair,",
    "description": "Brown Hair",
    "link_thumb": "https://live.staticflickr.com/65535/48609891276_d6beb9cf73_n.jpg",
    "id_album": "119672248",
    "total_view": 718
  },
  {
    "total_img": 77,
    "number_page": 1,
    "title": "Mikoto Misaka",
    "tag": "Mikoto Misaka,",
    "description": "Mikoto Misaka",
    "link_thumb": "https://live.staticflickr.com/65535/48060294456_8ed4e7cae0_n.jpg",
    "id_album": "495690042",
    "total_view": 77
  },
  {
    "total_img": 31,
    "number_page": 1,
    "title": "Ruiko Saten",
    "tag": "Ruiko Saten,",
    "description": "Ruiko Saten",
    "link_thumb": "https://live.staticflickr.com/65535/48060291496_68ba163bcf_n.jpg",
    "id_album": "-764316648",
    "total_view": 31
  },
  {
    "total_img": 436,
    "number_page": 3,
    "title": "School Uniform",
    "tag": "School Uniform,",
    "description": "School Uniform",
    "link_thumb": "https://live.staticflickr.com/65535/48066912028_16d8f475b6_n.jpg",
    "id_album": "873278772",
    "total_view": 436
  },
  {
    "total_img": 900,
    "number_page": 5,
    "title": "Short Hair",
    "tag": "Short Hair,",
    "description": "Short Hair",
    "link_thumb": "https://live.staticflickr.com/65535/48066522393_1c85dd9992_n.jpg",
    "id_album": "1749242000",
    "total_view": 900
  },
  {
    "total_img": 354,
    "number_page": 2,
    "title": "Skirt",
    "tag": "Skirt,",
    "description": "Skirt",
    "link_thumb": "https://live.staticflickr.com/65535/48066953706_2771a62522_n.jpg",
    "id_album": "-1959065500",
    "total_view": 354
  }
]