[
  {
    "total_img": 20,
    "number_page": 1,
    "title": "Manaria Friends",
    "tag": "Manaria Friends",
    "description": "Manaria Friends",
    "link_thumb": "https://live.staticflickr.com/65535/48070489038_6ae9784b6c_n.jpg",
    "id_album": "1880284809",
    "total_view": 20
  }
]