[
  {
    "total_img": 926,
    "number_page": 5,
    "title": "Original",
    "tag": "Heart, Water, Green Hair, Wind, Shield, Wink, Clock, Weapon, Bouquet, Sphere, Helmet, Dawn, Lion, Shorts, Umbrella, Street, Veil, Bike, Space, Arrow, Glove, Chibi, Black Dress, Pond, Building, Orange Hair, Paper Plane, White Dress, Dragon, Tail, Watch, Feather, Ocean, Food, Original Anime, Motorcycle, Mummy, Blue, Brown Hair, Nazi, Pink Hair, Sake, Tie, Blue Eyes, Cyberpunk, Dance, Sketch, Elf, Green Eyes, Sand, Cooking, Stars, Scythe, Underwater, Tattoo, Wire, Long Hair, New Year, Winter, Light, Kimono, White Eyes, Knight, Heterochromia, Camera, Fog, Festival, Purple Hair, Tea Cup, Elephant, Glasses, Sunflower, Eye Patch, Bridge, Smoking, Bird, Assassin, Gas Mask, Sitting, Brush, Blonde, Twintails, School, Roof, Rainbow, orange Color, Classroom, Skeleton, TwoToned Hair, Room, Maple Leaf, People, Pink Eyes, Truck, Apron, School Uniform, Bicycle, Apple, Airplane, Jellyfish, Pointed Ears, Sleeping, Grey Hair, Scissors, Pen, Duck, Waiter, Sky, Colorful, Doughnut, Juice, Drone, Crying, Chakram, Schoolgirl, Peacock, Sword, Aquarium, Windmill, Braid, Dog, Hood, Earrings, Gun, Happy New Year, Scarf, Demon, Reflection, Bull, Deer, Sunglasses, Sci Fi, Panda, Wikiba Asias Mascot, Belt, Man, Bell, Warplane, Bamboo, Train, Chain, Lantern, Evening, Chair, Black  White, Rabbit, Rose, Wings, River, Tea Set, Teacup, Fireworks, Headband, Text, Heart Level Up, Concert, Teapot, Wedding, Plush, Temple, Grey Eyes, Seashore, Smartphone, Ipod, Boat, Black Eyes, Snow, Akashi Kuroyuki, Penguin, Lake, Smoke, Grass, Tomato, Bandage, Evil, Strawberry, Coat, Samurai, Violin, Bow, Yellow Eyes, Boy, orange Fruit, Piano, Saitama OnePunch Man, Shrine, Pink, Tanabata, Mage, Fantasy, Fairy, Bench, Orange Eyes, Microphone, Blacksmith, Playing, Butterfly, Makeup, Admiral, Red Flower, bow Clothing, Bones, Short Hair, Shooting Gallery, Dress, Brown Eyes, Snake, Magic, Blue Dress, Maid, Telephone Pole, Reading, Costume, Bookshelf, Cloud, Forest, Yukata, Petal, Pilot, Military Uniform, Black Hair, Staff, Wand, Blood, Eye, Hairpin, Goggles, Swing, Rifle, PictureInPicture, Cup, Village, Smile, Spring, Giraffe, Skirt, Girl Band, Bunny Ears, Running, Dog Tag, Martial Arts, Waterfall, Cake, Oni, Train Station, Shooting Star, Earbuds, Valentines Day, Star, Stairs, Fish, Portal, Yuri, Tablet, Wolf, Traffic Light, Nature, Chips, Chocolate, Starry Sky, Thigh Boots, Hoodie, Chandelier, Fire, Yandere, Hat, Synthwave, Animal Ears, Parasol, Ice Cream, Pumpkin, Morning, Snowfall, Lemon, Thigh Highs, Beach, Rooftop, Uzumaki Arico, Town, Crow, Headdress, Cute, Pigeon, College, Mirror, Bunny, Santa Hat, Laptop, Trick Or Treat, Basketball, Knife, Plant, Mountain, Armor, Magical, Monk, Katana, Antenna, Eating, Scenery, Blueprint, Dusk, Jeans, Purple Lightsaber, Sniper, Ruin, Axe, Sunset, Fan, Wind Turbine, Yosakoi, Castle, Vampire, Robot, Tears, Roadway, Moon, Shark, Balloon, Flute, Dessert, Cigarette, Bottle, White Hair, Book, Pistol, Wind Chime, Computer, Horns, Planet, Child, Flame, Purple Eyes, Jacket, Violinist, Mask, House, Shoe, Red Hair, Kitkum Sayre, Lollipop, Shop, Blush, Grapes, Animal, Lightsaber, Silhouette, Doll, Coffee, Soldier, Monster, Witch, Guitar, Warrior, Railroad, Road, Level Crossing, Crown, Lily Pad, Polyscape, Halloween, Pumpkinhead, Priestess, Ferris Wheel, Sakura Blossom, Laundry, Spear, Pancake, Night, Hoshoku Sha, Mecha, Summer, Uniform, Wedding Dress, Abandoned, Rain, Bubble, Anime, Technology, Horse, Tree, Stream, Woman, Mug, OnePunch Man, Scientist, Drinking, Street Light, Flag, Red Eyes, Christmas Lights, Cap, Orange Anime, Car, Dark, Love, Cat, Sad, Fall, Ponytail, Praying, Cherry Blossom, Hair Ornament, Broom, Bear, Earth, Dinosaur, Flower, Cat Girl, Fruit, Notebook, Bag, Woman Warrior, Marines, Police, Bride, Post Apocalyptic, Tea, Bar, Blue Hair, Bat, Skull, Fight, Original",
    "description": "Original",
    "link_thumb": "https://live.staticflickr.com/65535/48092769111_525d871fc9_n.jpg",
    "id_album": "693038864",
    "total_view": 926
  },
  {
    "total_img": 234,
    "number_page": 2,
    "title": "Cloud",
    "tag": "Cloud,",
    "description": "Cloud",
    "link_thumb": "https://live.staticflickr.com/65535/48066759286_633ba4266f_n.jpg",
    "id_album": "-1193819610",
    "total_view": 234
  },
  {
    "total_img": 45,
    "number_page": 1,
    "title": "Forest",
    "tag": "Forest,",
    "description": "Forest",
    "link_thumb": "https://live.staticflickr.com/65535/48064512828_7bb061251f_n.jpg",
    "id_album": "-1083189875",
    "total_view": 45
  },
  {
    "total_img": 33,
    "number_page": 1,
    "title": "Mountain",
    "tag": "Mountain,",
    "description": "Mountain",
    "link_thumb": "https://live.staticflickr.com/65535/48609523243_335d5cddc0_n.jpg",
    "id_album": "984446105",
    "total_view": 33
  },
  {
    "total_img": 17,
    "number_page": 1,
    "title": "Scenery",
    "tag": "Scenery,",
    "description": "Scenery",
    "link_thumb": "https://live.staticflickr.com/65535/48066808158_29ab2148fd_n.jpg",
    "id_album": "-165563660",
    "total_view": 17
  }
]