[
  {
    "total_img": 113,
    "number_page": 1,
    "title": "Chobits",
    "tag": "Legs, Cute, Artistic, Freya Chobits, Shoe, Yellow Eyes, Feet, Long Hair, Blonde, Chobits, Woman, Manga, Chi Chobits",
    "description": "Chobits",
    "link_thumb": "https://live.staticflickr.com/65535/47911797691_99cce0d30a_n.jpg",
    "id_album": "644577300",
    "total_view": 113
  }
]