[
  {
    "link_thumb": "https://live.staticflickr.com/65535/48047165783_a022fd1465_n.jpg",
    "id_album": "537650122",
    "description": "KantaiCollection_571920",
    "title": "KantaiCollection_571920",
    "link_img": "https://live.staticflickr.com/65535/48047165783_39bff765da_o.jpg",
    "id_image": "KantaiCollection_571920",
    "count_view": 0
  },
  {
    "link_thumb": "https://live.staticflickr.com/65535/48047229557_8084ea4acd_n.jpg",
    "id_album": "537650122",
    "description": "KantaiCollection_656194",
    "title": "KantaiCollection_656194",
    "link_img": "https://live.staticflickr.com/65535/48047229557_23390b8fd5_o.jpg",
    "id_image": "KantaiCollection_656194",
    "count_view": 0
  },
  {
    "link_thumb": "https://live.staticflickr.com/65535/48047144536_12ceb60fe1_n.jpg",
    "id_album": "537650122",
    "description": "KantaiCollection_656198",
    "title": "KantaiCollection_656198",
    "link_img": "https://live.staticflickr.com/65535/48047144536_88e7bea0ea_o.jpg",
    "id_image": "KantaiCollection_656198",
    "count_view": 0
  },
  {
    "link_thumb": "https://live.staticflickr.com/65535/48047237017_e26613966f_n.jpg",
    "id_album": "537650122",
    "description": "KantaiCollection_669541",
    "title": "KantaiCollection_669541",
    "link_img": "https://live.staticflickr.com/65535/48047237017_a8895ae86b_o.jpg",
    "id_image": "KantaiCollection_669541",
    "count_view": 0
  },
  {
    "link_thumb": "https://live.staticflickr.com/65535/48047156101_e619960e60_n.jpg",
    "id_album": "537650122",
    "description": "KantaiCollection_674776",
    "title": "KantaiCollection_674776",
    "link_img": "https://live.staticflickr.com/65535/48047156101_3ca57421f1_o.jpg",
    "id_image": "KantaiCollection_674776",
    "count_view": 0
  },
  {
    "link_thumb": "https://live.staticflickr.com/65535/48047205698_ba311ef127_n.jpg",
    "id_album": "537650122",
    "description": "KantaiCollection_683698",
    "title": "KantaiCollection_683698",
    "link_img": "https://live.staticflickr.com/65535/48047205698_37d03b2009_o.jpg",
    "id_image": "KantaiCollection_683698",
    "count_view": 0
  },
  {
    "link_thumb": "https://live.staticflickr.com/65535/48047165756_fc85123144_n.jpg",
    "id_album": "537650122",
    "description": "KantaiCollection_684707",
    "title": "KantaiCollection_684707",
    "link_img": "https://live.staticflickr.com/65535/48047165756_f2aebdf50f_o.jpg",
    "id_image": "KantaiCollection_684707",
    "count_view": 0
  },
  {
    "link_thumb": "https://live.staticflickr.com/65535/48047256207_336fc4995f_n.jpg",
    "id_album": "537650122",
    "description": "KantaiCollection_691956",
    "title": "KantaiCollection_691956",
    "link_img": "https://live.staticflickr.com/65535/48047256207_776ece37ea_o.jpg",
    "id_image": "KantaiCollection_691956",
    "count_view": 0
  },
  {
    "link_thumb": "https://live.staticflickr.com/65535/48047212758_b004905e7c_n.jpg",
    "id_album": "537650122",
    "description": "KantaiCollection_692753",
    "title": "KantaiCollection_692753",
    "link_img": "https://live.staticflickr.com/65535/48047212758_5e18db4680_o.jpg",
    "id_image": "KantaiCollection_692753",
    "count_view": 0
  },
  {
    "link_thumb": "https://live.staticflickr.com/65535/48047213893_ab72af751d_n.jpg",
    "id_album": "537650122",
    "description": "KantaiCollection_693316",
    "title": "KantaiCollection_693316",
    "link_img": "https://live.staticflickr.com/65535/48047213893_e6d366d423_o.jpg",
    "id_image": "KantaiCollection_693316",
    "count_view": 0
  },
  {
    "link_thumb": "https://live.staticflickr.com/65535/48047174316_2e54d0dce6_n.jpg",
    "id_album": "537650122",
    "description": "KantaiCollection_694565",
    "title": "KantaiCollection_694565",
    "link_img": "https://live.staticflickr.com/65535/48047174316_013f26a323_o.jpg",
    "id_image": "KantaiCollection_694565",
    "count_view": 0
  },
  {
    "link_thumb": "https://live.staticflickr.com/65535/48047184641_e9fe0f704c_n.jpg",
    "id_album": "537650122",
    "description": "KantaiCollection_707080",
    "title": "KantaiCollection_707080",
    "link_img": "https://live.staticflickr.com/65535/48047184641_241f250560_o.jpg",
    "id_image": "KantaiCollection_707080",
    "count_view": 0
  },
  {
    "link_thumb": "https://live.staticflickr.com/65535/48047271982_3fab75de1f_n.jpg",
    "id_album": "537650122",
    "description": "KantaiCollection_707209",
    "title": "KantaiCollection_707209",
    "link_img": "https://live.staticflickr.com/65535/48047271982_f2b25ff048_o.jpg",
    "id_image": "KantaiCollection_707209",
    "count_view": 0
  },
  {
    "link_thumb": "https://live.staticflickr.com/65535/48047228583_a43704b6e6_n.jpg",
    "id_album": "537650122",
    "description": "KantaiCollection_707448",
    "title": "KantaiCollection_707448",
    "link_img": "https://live.staticflickr.com/65535/48047228583_9ba6578c59_o.jpg",
    "id_image": "KantaiCollection_707448",
    "count_view": 0
  },
  {
    "link_thumb": "https://live.staticflickr.com/65535/48047250903_c15bd07a44_n.jpg",
    "id_album": "537650122",
    "description": "KantaiCollection_736033",
    "title": "KantaiCollection_736033",
    "link_img": "https://live.staticflickr.com/65535/48047250903_8b0b3f64dc_o.jpg",
    "id_image": "KantaiCollection_736033",
    "count_view": 0
  },
  {
    "link_thumb": "https://live.staticflickr.com/65535/48047308738_c660dc0dbf_n.jpg",
    "id_album": "537650122",
    "description": "KantaiCollection_752625",
    "title": "KantaiCollection_752625",
    "link_img": "https://live.staticflickr.com/65535/48047308738_2774dec12d_o.jpg",
    "id_image": "KantaiCollection_752625",
    "count_view": 0
  },
  {
    "link_thumb": "https://live.staticflickr.com/65535/48047309878_ef7039ed02_n.jpg",
    "id_album": "537650122",
    "description": "KantaiCollection_752630",
    "title": "KantaiCollection_752630",
    "link_img": "https://live.staticflickr.com/65535/48047309878_e3c216a629_o.jpg",
    "id_image": "KantaiCollection_752630",
    "count_view": 0
  },
  {
    "link_thumb": "https://live.staticflickr.com/65535/48047354282_085ec06a8c_n.jpg",
    "id_album": "537650122",
    "description": "KantaiCollection_752632",
    "title": "KantaiCollection_752632",
    "link_img": "https://live.staticflickr.com/65535/48047354282_ca1d4072d3_o.jpg",
    "id_image": "KantaiCollection_752632",
    "count_view": 0
  },
  {
    "link_thumb": "https://live.staticflickr.com/65535/48047271416_ec96b0c17b_n.jpg",
    "id_album": "537650122",
    "description": "KantaiCollection_752634",
    "title": "KantaiCollection_752634",
    "link_img": "https://live.staticflickr.com/65535/48047271416_09c57695b5_o.jpg",
    "id_image": "KantaiCollection_752634",
    "count_view": 0
  },
  {
    "link_thumb": "https://live.staticflickr.com/65535/48047274421_eab2bcac2d_n.jpg",
    "id_album": "537650122",
    "description": "KantaiCollection_752650",
    "title": "KantaiCollection_752650",
    "link_img": "https://live.staticflickr.com/65535/48047274421_95f67090c5_o.jpg",
    "id_image": "KantaiCollection_752650",
    "count_view": 0
  },
  {
    "link_thumb": "https://live.staticflickr.com/65535/48047275161_4cd2605e20_n.jpg",
    "id_album": "537650122",
    "description": "KantaiCollection_752654",
    "title": "KantaiCollection_752654",
    "link_img": "https://live.staticflickr.com/65535/48047275161_110ba3d5ba_o.jpg",
    "id_image": "KantaiCollection_752654",
    "count_view": 0
  },
  {
    "link_thumb": "https://live.staticflickr.com/65535/48047495822_4ab910b810_n.jpg",
    "id_album": "537650122",
    "description": "KantaiCollection_817600",
    "title": "KantaiCollection_817600",
    "link_img": "https://live.staticflickr.com/65535/48047495822_d2b39fb8ff_o.jpg",
    "id_image": "KantaiCollection_817600",
    "count_view": 0
  },
  {
    "link_thumb": "https://live.staticflickr.com/65535/48047466778_03e9dd54c6_n.jpg",
    "id_album": "537650122",
    "description": "KantaiCollection_837927",
    "title": "KantaiCollection_837927",
    "link_img": "https://live.staticflickr.com/65535/48047466778_b720d5184d_o.jpg",
    "id_image": "KantaiCollection_837927",
    "count_view": 0
  },
  {
    "link_thumb": "https://live.staticflickr.com/65535/48047474968_232117bcd7_n.jpg",
    "id_album": "537650122",
    "description": "KantaiCollection_839001",
    "title": "KantaiCollection_839001",
    "link_img": "https://live.staticflickr.com/65535/48047474968_586f1a26fc_o.jpg",
    "id_image": "KantaiCollection_839001",
    "count_view": 0
  },
  {
    "link_thumb": "https://live.staticflickr.com/65535/48047540542_2f00ffdec8_n.jpg",
    "id_album": "537650122",
    "description": "KantaiCollection_845276",
    "title": "KantaiCollection_845276",
    "link_img": "https://live.staticflickr.com/65535/48047540542_c13ea7a369_o.jpg",
    "id_image": "KantaiCollection_845276",
    "count_view": 0
  },
  {
    "link_thumb": "https://live.staticflickr.com/65535/48047512503_f590bba9fe_n.jpg",
    "id_album": "537650122",
    "description": "KantaiCollection_855170",
    "title": "KantaiCollection_855170",
    "link_img": "https://live.staticflickr.com/65535/48047512503_23ae780a98_o.jpg",
    "id_image": "KantaiCollection_855170",
    "count_view": 0
  },
  {
    "link_thumb": "https://live.staticflickr.com/65535/48047529863_9b556bb45e_n.jpg",
    "id_album": "537650122",
    "description": "KantaiCollection_855284",
    "title": "KantaiCollection_855284",
    "link_img": "https://live.staticflickr.com/65535/48047529863_22671e4f51_o.jpg",
    "id_image": "KantaiCollection_855284",
    "count_view": 0
  },
  {
    "link_thumb": "https://live.staticflickr.com/65535/48047587297_1c79c4817e_n.jpg",
    "id_album": "537650122",
    "description": "KantaiCollection_855385",
    "title": "KantaiCollection_855385",
    "link_img": "https://live.staticflickr.com/65535/48047587297_628fce6b4f_o.jpg",
    "id_image": "KantaiCollection_855385",
    "count_view": 0
  },
  {
    "link_thumb": "https://live.staticflickr.com/65535/48047506451_40f19f112f_n.jpg",
    "id_album": "537650122",
    "description": "KantaiCollection_855405",
    "title": "KantaiCollection_855405",
    "link_img": "https://live.staticflickr.com/65535/48047506451_6a2163cdd7_o.jpg",
    "id_image": "KantaiCollection_855405",
    "count_view": 0
  },
  {
    "link_thumb": "https://live.staticflickr.com/65535/48047565563_3683591f9c_n.jpg",
    "id_album": "537650122",
    "description": "KantaiCollection_858355",
    "title": "KantaiCollection_858355",
    "link_img": "https://live.staticflickr.com/65535/48047565563_2d75c50780_o.jpg",
    "id_image": "KantaiCollection_858355",
    "count_view": 0
  },
  {
    "link_thumb": "https://live.staticflickr.com/65535/48047637537_544830f40a_n.jpg",
    "id_album": "537650122",
    "description": "KantaiCollection_868031",
    "title": "KantaiCollection_868031",
    "link_img": "https://live.staticflickr.com/65535/48047637537_687840b837_o.jpg",
    "id_image": "KantaiCollection_868031",
    "count_view": 0
  },
  {
    "link_thumb": "https://live.staticflickr.com/65535/48047601401_fda917c46e_n.jpg",
    "id_album": "537650122",
    "description": "KantaiCollection_906250",
    "title": "KantaiCollection_906250",
    "link_img": "https://live.staticflickr.com/65535/48047601401_b87304ecbb_o.jpg",
    "id_image": "KantaiCollection_906250",
    "count_view": 0
  },
  {
    "link_thumb": "https://live.staticflickr.com/65535/48047637686_ecb08b4f37_n.jpg",
    "id_album": "537650122",
    "description": "KantaiCollection_950083",
    "title": "KantaiCollection_950083",
    "link_img": "https://live.staticflickr.com/65535/48047637686_49ef684034_o.jpg",
    "id_image": "KantaiCollection_950083",
    "count_view": 0
  },
  {
    "link_thumb": "https://live.staticflickr.com/65535/48047684863_e3c57387f5_n.jpg",
    "id_album": "537650122",
    "description": "KantaiCollection_952496",
    "title": "KantaiCollection_952496",
    "link_img": "https://live.staticflickr.com/65535/48047684863_50d1bdd3f3_o.jpg",
    "id_image": "KantaiCollection_952496",
    "count_view": 0
  },
  {
    "link_thumb": "https://live.staticflickr.com/65535/48047685403_76a4e1fbdf_n.jpg",
    "id_album": "537650122",
    "description": "KantaiCollection_952501",
    "title": "KantaiCollection_952501",
    "link_img": "https://live.staticflickr.com/65535/48047685403_d30ec6fff3_o.jpg",
    "id_image": "KantaiCollection_952501",
    "count_view": 0
  },
  {
    "link_thumb": "https://live.staticflickr.com/65535/48047730227_60e7df1223_n.jpg",
    "id_album": "537650122",
    "description": "KantaiCollection_953775",
    "title": "KantaiCollection_953775",
    "link_img": "https://live.staticflickr.com/65535/48047730227_15ca45e5ca_o.jpg",
    "id_image": "KantaiCollection_953775",
    "count_view": 0
  }
]