[
  {
    "link_thumb": "https://live.staticflickr.com/65535/47999524213_9285135a15_n.jpg",
    "id_album": "-1067866280",
    "description": "HousekinoKuni_911748",
    "title": "HousekinoKuni_911748",
    "link_img": "https://live.staticflickr.com/65535/47999524213_0cbb72924f_o.jpg",
    "id_image": "HousekinoKuni_911748",
    "count_view": 0
  },
  {
    "link_thumb": "https://live.staticflickr.com/65535/47999558102_6a53fd9895_n.jpg",
    "id_album": "-1067866280",
    "description": "HousekinoKuni_923749",
    "title": "HousekinoKuni_923749",
    "link_img": "https://live.staticflickr.com/65535/47999558102_4045bc6118_o.jpg",
    "id_image": "HousekinoKuni_923749",
    "count_view": 0
  },
  {
    "link_thumb": "https://live.staticflickr.com/65535/47999558432_f8dfcf3e05_n.jpg",
    "id_album": "-1067866280",
    "description": "HousekinoKuni_923750",
    "title": "HousekinoKuni_923750",
    "link_img": "https://live.staticflickr.com/65535/47999558432_7437f4e9e9_o.jpg",
    "id_image": "HousekinoKuni_923750",
    "count_view": 0
  },
  {
    "link_thumb": "https://live.staticflickr.com/65535/47999598176_85f404cf1e_n.jpg",
    "id_album": "-1067866280",
    "description": "HousekinoKuni_923751",
    "title": "HousekinoKuni_923751",
    "link_img": "https://live.staticflickr.com/65535/47999598176_a0c2b6c2df_o.jpg",
    "id_image": "HousekinoKuni_923751",
    "count_view": 0
  },
  {
    "link_thumb": "https://live.staticflickr.com/65535/47999617296_8036bcc618_n.jpg",
    "id_album": "-1067866280",
    "description": "HousekinoKuni_952729",
    "title": "HousekinoKuni_952729",
    "link_img": "https://live.staticflickr.com/65535/47999617296_837edc280b_o.jpg",
    "id_image": "HousekinoKuni_952729",
    "count_view": 0
  }
]