[
  {
    "total_img": 77,
    "number_page": 1,
    "title": "Tsubasa Reservoir Chronicle",
    "tag": "Mokona Modoki, Kurogane Tsubasa Reservoir Chronicle, Balloon, Princess Tsubasa, Kamui Tsubasa, Kobato Anime, Syaoran Li, Tsubasa Li, Sakura Kinomoto, Sakura Tsubasa Reservoir Chronicle, Tsubasa Reservoir Chronicle, Sword, Princess Sakura, Kimihiro Watanuki, Syaoran Tsubasa Reservoir Chronicle, Fai D Flowright, Fay D Flourite, Halloween, xxxHOLiC, Chi Chobits",
    "description": "Tsubasa Reservoir Chronicle",
    "link_thumb": "https://live.staticflickr.com/65535/48063101777_0e51d2801b_n.jpg",
    "id_album": "947714697",
    "total_view": 77
  }
]