[
  {
    "link_thumb": "https://live.staticflickr.com/65535/47121168504_9938de79a7_n.jpg",
    "id_album": "159209244",
    "description": "BungouStrayDogs_700760",
    "title": "BungouStrayDogs_700760",
    "link_img": "https://live.staticflickr.com/65535/47121168504_670470e28d_o.jpg",
    "id_image": "BungouStrayDogs_700760",
    "count_view": 0
  },
  {
    "link_thumb": "https://live.staticflickr.com/65535/47858501672_8eb7f77135_n.jpg",
    "id_album": "159209244",
    "description": "BungouStrayDogs_711169",
    "title": "BungouStrayDogs_711169",
    "link_img": "https://live.staticflickr.com/65535/47858501672_cd935e0e25_o.jpg",
    "id_image": "BungouStrayDogs_711169",
    "count_view": 0
  },
  {
    "link_thumb": "https://live.staticflickr.com/65535/47121174124_bf7ec590e4_n.jpg",
    "id_album": "159209244",
    "description": "BungouStrayDogs_720823",
    "title": "BungouStrayDogs_720823",
    "link_img": "https://live.staticflickr.com/65535/47121174124_45775d3826_o.jpg",
    "id_image": "BungouStrayDogs_720823",
    "count_view": 0
  },
  {
    "link_thumb": "https://live.staticflickr.com/65535/47121236824_c19c39da2f_n.jpg",
    "id_album": "159209244",
    "description": "BungouStrayDogs_747590",
    "title": "BungouStrayDogs_747590",
    "link_img": "https://live.staticflickr.com/65535/47121236824_82d47c7aab_o.jpg",
    "id_image": "BungouStrayDogs_747590",
    "count_view": 0
  },
  {
    "link_thumb": "https://live.staticflickr.com/65535/47858600902_45cfd6d738_n.jpg",
    "id_album": "159209244",
    "description": "BungouStrayDogs_940704",
    "title": "BungouStrayDogs_940704",
    "link_img": "https://live.staticflickr.com/65535/47858600902_062bfd22c6_o.jpg",
    "id_image": "BungouStrayDogs_940704",
    "count_view": 0
  },
  {
    "link_thumb": "https://live.staticflickr.com/65535/47121274134_6705a7b8f8_n.jpg",
    "id_album": "159209244",
    "description": "BungouStrayDogs_956516",
    "title": "BungouStrayDogs_956516",
    "link_img": "https://live.staticflickr.com/65535/47121274134_ff57e2966b_o.jpg",
    "id_image": "BungouStrayDogs_956516",
    "count_view": 0
  },
  {
    "link_thumb": "https://live.staticflickr.com/65535/47858602362_e913bea4ae_n.jpg",
    "id_album": "159209244",
    "description": "BungouStrayDogs_956517",
    "title": "BungouStrayDogs_956517",
    "link_img": "https://live.staticflickr.com/65535/47858602362_79b026d50c_o.jpg",
    "id_image": "BungouStrayDogs_956517",
    "count_view": 0
  },
  {
    "link_thumb": "https://live.staticflickr.com/65535/46994645915_9574ecc0e1_n.jpg",
    "id_album": "159209244",
    "description": "BungouStrayDogs_956518",
    "title": "BungouStrayDogs_956518",
    "link_img": "https://live.staticflickr.com/65535/46994645915_9831af8e89_o.jpg",
    "id_image": "BungouStrayDogs_956518",
    "count_view": 0
  },
  {
    "link_thumb": "https://live.staticflickr.com/65535/40944039113_71667d7153_n.jpg",
    "id_album": "159209244",
    "description": "BungouStrayDogs_965384",
    "title": "BungouStrayDogs_965384",
    "link_img": "https://live.staticflickr.com/65535/40944039113_bc4bafc13f_o.jpg",
    "id_image": "BungouStrayDogs_965384",
    "count_view": 0
  },
  {
    "link_thumb": "https://live.staticflickr.com/65535/47858631482_ea3697f688_n.jpg",
    "id_album": "159209244",
    "description": "BungouStrayDogs_966486",
    "title": "BungouStrayDogs_966486",
    "link_img": "https://live.staticflickr.com/65535/47858631482_fbc723d617_o.jpg",
    "id_image": "BungouStrayDogs_966486",
    "count_view": 0
  },
  {
    "link_thumb": "https://live.staticflickr.com/65535/47858643812_980ebdaf90_n.jpg",
    "id_album": "159209244",
    "description": "BungouStrayDogs_966508",
    "title": "BungouStrayDogs_966508",
    "link_img": "https://live.staticflickr.com/65535/47858643812_14b79f3efe_o.jpg",
    "id_image": "BungouStrayDogs_966508",
    "count_view": 0
  },
  {
    "link_thumb": "https://live.staticflickr.com/65535/47858649682_63827c7e7e_n.jpg",
    "id_album": "159209244",
    "description": "BungouStrayDogs_966685",
    "title": "BungouStrayDogs_966685",
    "link_img": "https://live.staticflickr.com/65535/47858649682_410621a6b2_o.jpg",
    "id_image": "BungouStrayDogs_966685",
    "count_view": 0
  },
  {
    "link_thumb": "https://live.staticflickr.com/65535/46994686505_1ebd3d37f0_n.jpg",
    "id_album": "159209244",
    "description": "BungouStrayDogs_966686",
    "title": "BungouStrayDogs_966686",
    "link_img": "https://live.staticflickr.com/65535/46994686505_e3508f9042_o.jpg",
    "id_image": "BungouStrayDogs_966686",
    "count_view": 0
  },
  {
    "link_thumb": "https://live.staticflickr.com/65535/46994686965_86e0093c22_n.jpg",
    "id_album": "159209244",
    "description": "BungouStrayDogs_966687",
    "title": "BungouStrayDogs_966687",
    "link_img": "https://live.staticflickr.com/65535/46994686965_8502ebb0b6_o.jpg",
    "id_image": "BungouStrayDogs_966687",
    "count_view": 0
  },
  {
    "link_thumb": "https://live.staticflickr.com/65535/40944070183_ff1520c792_n.jpg",
    "id_album": "159209244",
    "description": "BungouStrayDogs_966688",
    "title": "BungouStrayDogs_966688",
    "link_img": "https://live.staticflickr.com/65535/40944070183_b2303d0698_o.jpg",
    "id_image": "BungouStrayDogs_966688",
    "count_view": 0
  },
  {
    "link_thumb": "https://live.staticflickr.com/65535/47858654122_fe00dae698_n.jpg",
    "id_album": "159209244",
    "description": "BungouStrayDogs_966692",
    "title": "BungouStrayDogs_966692",
    "link_img": "https://live.staticflickr.com/65535/47858654122_b4b7ec1e21_o.jpg",
    "id_image": "BungouStrayDogs_966692",
    "count_view": 0
  },
  {
    "link_thumb": "https://live.staticflickr.com/65535/47858704432_2aba1cc367_n.jpg",
    "id_album": "159209244",
    "description": "BungouStrayDogs_973030",
    "title": "BungouStrayDogs_973030",
    "link_img": "https://live.staticflickr.com/65535/47858704432_427138575f_o.jpg",
    "id_image": "BungouStrayDogs_973030",
    "count_view": 0
  }
]