[
  {
    "total_img": 798,
    "number_page": 4,
    "title": "Original 5",
    "tag": "Water, Wink, Canal, Black Hair, Staff, Jewelry, Black, Weapon, Umbrella, Lion, Space, Spring, Smile, Sun, Giraffe, Skirt, Alley, Chicken, Tower, Building, Lips, Train Station, Dragon, Tiger, Shooting Star, Valentines Day, Japanese Clothes, Tail, Fish, Feather, Ocean, Yuri, Wolf, Food, Nature, Original Anime, CGI, Blue, Nekomimi, Brown Hair, Couch, Pink Hair, 3D, Tie, Blue Eyes, Kitsune, Yandere, Fire, Snowman, Sunrise, Hat, Ship, Animal Ears, Kiss, Green Eyes, Astronaut, Stars, Underwater, Twilight, Long Hair, Thigh Highs, Winter, Town, Light, Knight, Kimono, Crow, Headdress, Heterochromia, Fog, Turtle, Oriental, Pier, Purple Hair, Aqua Hair, Elephant, Glasses, Sunflower, Bridge, Bird, Light Bulb, Blonde, Twintails, Plant, Mountain, Armor, Classroom, Onmyoji, Room, Katana, Row Boat, Pink Eyes, 5 Nenme no Houkago, School Uniform, Romantic, Sunset, Airplane, Sleeping, Lying Down, Castle, Blossom, Robot, Green, Sky, Moon, Colorful, Dessert, Sword, Ribbon, White Hair, Book, Suzuki, Horns, Braid, Planet, Child, Purple Eyes, Scarf, Mask, Reflection, House, Oasis, Red Hair, Aqua Eyes, Blush, Animal, Man, Train, Lantern, Water Lily, Chair, Aurora Borealis, Silhouette, Original 5, Sunbeam, Wings, Happy Birthday, Temple, Pillow, Boat, Snow, Night, Digital Art, Penguin, Grass, Rain, Bubble, Coast, Anime, Asteroid, Tree, Woman, Rock, Violin, Yellow Eyes, Sakura, Boy, Red Eyes, Piano, Pink, Dark, Cat, Fantasy, Library, Ponytail, Giant, Fairy, Bench, Cherry Blossom, Kasane Teto, Butterfly, Cross, Broom, Earth, Dinosaur, bow Clothing, Horizon, Short Hair, Swimsuit, Lamp, Necklace, Flower, Dress, Cat Girl, Easel, Brown Eyes, Mitsuha Miyamizu, Blue Dress, Blue Hair, Whale, Cloud, Skull, Forest, Yukata, Sweets, Petal, Wizard, Power Line",
    "description": "Original 5",
    "link_thumb": "https://live.staticflickr.com/65535/48077186191_b5e3c8489a_n.jpg",
    "id_album": "1165116894",
    "total_view": 798
  },
  {
    "total_img": 34,
    "number_page": 1,
    "title": "Food",
    "tag": "Food,",
    "description": "Food",
    "link_thumb": "https://live.staticflickr.com/65535/48609891276_d6beb9cf73_n.jpg",
    "id_album": "-730659383",
    "total_view": 34
  },
  {
    "total_img": 5,
    "number_page": 1,
    "title": "Sweets",
    "tag": "Sweets,",
    "description": "Sweets",
    "link_thumb": "https://live.staticflickr.com/65535/48064582491_765a48e221_n.jpg",
    "id_album": "-758743128",
    "total_view": 5
  }
]