[
  {
    "total_img": 7,
    "number_page": 1,
    "title": "Non Non Biyori",
    "tag": "Water, Green Eyes, Orange Eyes, Black Hair, Sitting, Long Hair, Twintails, Blonde, Natsumi Koshigaya, Thigh Highs, Anime, Hotaru Ichijou, Natsuki Nakagawa, White Hair, Komari Koshigaya, Kimono, Bikini, Pool, Leaf, Swimsuit, Non Non Biyori, Fireworks, Purple Hair, Watermelon, Brown Hair, Bag, Smile, Red Hair, Red Eyes, Skirt, Blue Eyes, Fan, Sweater, Blush, Belt, Pantyhose, Renge Miyauchi",
    "description": "Non Non Biyori",
    "link_thumb": "https://live.staticflickr.com/65535/48073421798_e3dbc20411_n.jpg",
    "id_album": "1726545162",
    "total_view": 7
  },
  {
    "total_img": 1083,
    "number_page": 6,
    "title": "Anime",
    "tag": "Anime,",
    "description": "Anime",
    "link_thumb": "https://live.staticflickr.com/65535/48066953706_2771a62522_n.jpg",
    "id_album": "-1920923841",
    "total_view": 1083
  }
]