[
  {
    "total_img": 79,
    "number_page": 1,
    "title": "Kagerou Project",
    "tag": "Sky, Butterfly, Shintaro Kisaragi, Bird, Wink, Black Hair, Takane Ene Enomoto, Long Hair, Azami Kagerou Project, Twintails, Hairpin, Thigh Highs, Anime, Winter, White Hair, Kagerou Project, Short Hair, Seagull, Ayano Tateyama, Scarf, Brown Hair, Marry Kozakura, Pink Eyes, Kousuke Seto, School Uniform, Tsubomi Kido, Smile, Zipper, Yellow Eyes, Gothic, Boy, Sea, Red Eyes, Kagerou Days, Shuuya Kano, Skirt, Konoha Kagerou Project, Sunset, Blue Hair, Pink, Hiyori Asahina, Sunlight, Momo Kisaragi, Hibiya Amamiya",
    "description": "Kagerou Project",
    "link_thumb": "https://live.staticflickr.com/65535/48046945568_b86954f148_n.jpg",
    "id_album": "1417389800",
    "total_view": 79
  },
  {
    "total_img": 14,
    "number_page": 1,
    "title": "Ayano Tateyama",
    "tag": "Ayano Tateyama,",
    "description": "Ayano Tateyama",
    "link_thumb": "https://live.staticflickr.com/65535/48046968911_afa69f0091_n.jpg",
    "id_album": "39220416",
    "total_view": 14
  }
]