[
  {
    "link_thumb": "https://live.staticflickr.com/65535/48079270102_b594389e27_n.jpg",
    "id_album": "186170098",
    "description": "Original_858182",
    "title": "Original_858182",
    "link_img": "https://live.staticflickr.com/65535/48079270102_48d59d412b_o.jpg",
    "id_image": "Original_858182",
    "count_view": 0
  },
  {
    "link_thumb": "https://live.staticflickr.com/65535/48079172181_20a2727f0d_n.jpg",
    "id_album": "186170098",
    "description": "Original_858291",
    "title": "Original_858291",
    "link_img": "https://live.staticflickr.com/65535/48079172181_a8e7fe2b91_o.jpg",
    "id_image": "Original_858291",
    "count_view": 0
  },
  {
    "link_thumb": "https://live.staticflickr.com/65535/48079178836_cbc26d4911_n.jpg",
    "id_album": "186170098",
    "description": "Original_858526",
    "title": "Original_858526",
    "link_img": "https://live.staticflickr.com/65535/48079178836_bb733c9e30_o.jpg",
    "id_image": "Original_858526",
    "count_view": 0
  },
  {
    "link_thumb": "https://live.staticflickr.com/65535/48079180571_3d52e351c9_n.jpg",
    "id_album": "186170098",
    "description": "Original_858532",
    "title": "Original_858532",
    "link_img": "https://live.staticflickr.com/65535/48079180571_3f70f69165_o.jpg",
    "id_image": "Original_858532",
    "count_view": 0
  },
  {
    "link_thumb": "https://live.staticflickr.com/65535/48079283757_89eee7c32b_n.jpg",
    "id_album": "186170098",
    "description": "Original_858535",
    "title": "Original_858535",
    "link_img": "https://live.staticflickr.com/65535/48079283757_bb03dca8df_o.jpg",
    "id_image": "Original_858535",
    "count_view": 0
  },
  {
    "link_thumb": "https://live.staticflickr.com/65535/48079288412_7e0316b35d_n.jpg",
    "id_album": "186170098",
    "description": "Original_859395",
    "title": "Original_859395",
    "link_img": "https://live.staticflickr.com/65535/48079288412_0b38a87f39_o.jpg",
    "id_image": "Original_859395",
    "count_view": 0
  },
  {
    "link_thumb": "https://live.staticflickr.com/65535/48079222598_6e82c65fc0_n.jpg",
    "id_album": "186170098",
    "description": "Original_859602",
    "title": "Original_859602",
    "link_img": "https://live.staticflickr.com/65535/48079222598_166786b81f_o.jpg",
    "id_image": "Original_859602",
    "count_view": 0
  },
  {
    "link_thumb": "https://live.staticflickr.com/65535/48079303782_67480b0b19_n.jpg",
    "id_album": "186170098",
    "description": "Original_860483",
    "title": "Original_860483",
    "link_img": "https://live.staticflickr.com/65535/48079303782_e8730ff025_o.jpg",
    "id_image": "Original_860483",
    "count_view": 0
  },
  {
    "link_thumb": "https://live.staticflickr.com/65535/48079312632_2064078cbf_n.jpg",
    "id_album": "186170098",
    "description": "Original_861395",
    "title": "Original_861395",
    "link_img": "https://live.staticflickr.com/65535/48079312632_a3f23a5f98_o.jpg",
    "id_image": "Original_861395",
    "count_view": 0
  },
  {
    "link_thumb": "https://live.staticflickr.com/65535/48079317402_d928a27413_n.jpg",
    "id_album": "186170098",
    "description": "Original_861577",
    "title": "Original_861577",
    "link_img": "https://live.staticflickr.com/65535/48079317402_9b291b7aca_o.jpg",
    "id_image": "Original_861577",
    "count_view": 0
  },
  {
    "link_thumb": "https://live.staticflickr.com/65535/48079300238_c4dd3dee6f_n.jpg",
    "id_album": "186170098",
    "description": "Original_864244",
    "title": "Original_864244",
    "link_img": "https://live.staticflickr.com/65535/48079300238_2940519de5_o.jpg",
    "id_image": "Original_864244",
    "count_view": 0
  },
  {
    "link_thumb": "https://live.staticflickr.com/65535/48079343103_f72ed9b766_n.jpg",
    "id_album": "186170098",
    "description": "Original_866290",
    "title": "Original_866290",
    "link_img": "https://live.staticflickr.com/65535/48079343103_819b12511e_o.jpg",
    "id_image": "Original_866290",
    "count_view": 0
  },
  {
    "link_thumb": "https://live.staticflickr.com/65535/48079358483_1e0c558d79_n.jpg",
    "id_album": "186170098",
    "description": "Original_866702",
    "title": "Original_866702",
    "link_img": "https://live.staticflickr.com/65535/48079358483_ed4a0f51c3_o.jpg",
    "id_image": "Original_866702",
    "count_view": 0
  },
  {
    "link_thumb": "https://live.staticflickr.com/65535/48079863458_be7291b59d_n.jpg",
    "id_album": "186170098",
    "description": "Original_868175",
    "title": "Original_868175",
    "link_img": "https://live.staticflickr.com/65535/48079863458_9df0e2b0ed_o.jpg",
    "id_image": "Original_868175",
    "count_view": 0
  },
  {
    "link_thumb": "https://live.staticflickr.com/65535/48079862291_b76084e084_n.jpg",
    "id_album": "186170098",
    "description": "Original_869284",
    "title": "Original_869284",
    "link_img": "https://live.staticflickr.com/65535/48079862291_092d66e859_o.jpg",
    "id_image": "Original_869284",
    "count_view": 0
  },
  {
    "link_thumb": "https://live.staticflickr.com/65535/48079964837_90ed420706_n.jpg",
    "id_album": "186170098",
    "description": "Original_869428",
    "title": "Original_869428",
    "link_img": "https://live.staticflickr.com/65535/48079964837_72b43cdc2b_o.jpg",
    "id_image": "Original_869428",
    "count_view": 0
  },
  {
    "link_thumb": "https://live.staticflickr.com/65535/48079976862_238ae4c39c_n.jpg",
    "id_album": "186170098",
    "description": "Original_869612",
    "title": "Original_869612",
    "link_img": "https://live.staticflickr.com/65535/48079976862_6fc63dbc58_o.jpg",
    "id_image": "Original_869612",
    "count_view": 0
  },
  {
    "link_thumb": "https://live.staticflickr.com/65535/48079923258_b23ca9623f_n.jpg",
    "id_album": "186170098",
    "description": "Original_870085",
    "title": "Original_870085",
    "link_img": "https://live.staticflickr.com/65535/48079923258_0c81ea1f81_o.jpg",
    "id_image": "Original_870085",
    "count_view": 0
  },
  {
    "link_thumb": "https://live.staticflickr.com/65535/48079923768_5dd470fb18_n.jpg",
    "id_album": "186170098",
    "description": "Original_870086",
    "title": "Original_870086",
    "link_img": "https://live.staticflickr.com/65535/48079923768_f6779f540c_o.jpg",
    "id_image": "Original_870086",
    "count_view": 0
  },
  {
    "link_thumb": "https://live.staticflickr.com/65535/48080004797_48ce1b9ed9_n.jpg",
    "id_album": "186170098",
    "description": "Original_870325",
    "title": "Original_870325",
    "link_img": "https://live.staticflickr.com/65535/48080004797_561a1fc9db_o.jpg",
    "id_image": "Original_870325",
    "count_view": 0
  },
  {
    "link_thumb": "https://live.staticflickr.com/65535/48080008792_1b4bed9dfb_n.jpg",
    "id_album": "186170098",
    "description": "Original_870529",
    "title": "Original_870529",
    "link_img": "https://live.staticflickr.com/65535/48080008792_8273d6df2f_o.jpg",
    "id_image": "Original_870529",
    "count_view": 0
  },
  {
    "link_thumb": "https://live.staticflickr.com/65535/48079911706_8d8a7152b5_n.jpg",
    "id_album": "186170098",
    "description": "Original_870671",
    "title": "Original_870671",
    "link_img": "https://live.staticflickr.com/65535/48079911706_bcd35d827a_o.jpg",
    "id_image": "Original_870671",
    "count_view": 0
  },
  {
    "link_thumb": "https://live.staticflickr.com/65535/48079918176_4cd1318223_n.jpg",
    "id_album": "186170098",
    "description": "Original_870849",
    "title": "Original_870849",
    "link_img": "https://live.staticflickr.com/65535/48079918176_0154943c9b_o.jpg",
    "id_image": "Original_870849",
    "count_view": 0
  },
  {
    "link_thumb": "https://live.staticflickr.com/65535/48079966988_9b9699e08c_n.jpg",
    "id_album": "186170098",
    "description": "Original_871473",
    "title": "Original_871473",
    "link_img": "https://live.staticflickr.com/65535/48079966988_29f8a619bb_o.jpg",
    "id_image": "Original_871473",
    "count_view": 0
  },
  {
    "link_thumb": "https://live.staticflickr.com/65535/48079992988_27851cf99e_n.jpg",
    "id_album": "186170098",
    "description": "Original_872024",
    "title": "Original_872024",
    "link_img": "https://live.staticflickr.com/65535/48079992988_945fb2b929_o.jpg",
    "id_image": "Original_872024",
    "count_view": 0
  },
  {
    "link_thumb": "https://live.staticflickr.com/65535/48079971446_f30ec71879_n.jpg",
    "id_album": "186170098",
    "description": "Original_872159",
    "title": "Original_872159",
    "link_img": "https://live.staticflickr.com/65535/48079971446_f2c07359cd_o.jpg",
    "id_image": "Original_872159",
    "count_view": 0
  },
  {
    "link_thumb": "https://live.staticflickr.com/65535/48079971766_855793d16a_n.jpg",
    "id_album": "186170098",
    "description": "Original_872160",
    "title": "Original_872160",
    "link_img": "https://live.staticflickr.com/65535/48079971766_8f90402d88_o.jpg",
    "id_image": "Original_872160",
    "count_view": 0
  },
  {
    "link_thumb": "https://live.staticflickr.com/65535/48080625251_0f35c298af_n.jpg",
    "id_album": "186170098",
    "description": "Original_872388",
    "title": "Original_872388",
    "link_img": "https://live.staticflickr.com/65535/48080625251_ef73bf3669_o.jpg",
    "id_image": "Original_872388",
    "count_view": 0
  },
  {
    "link_thumb": "https://live.staticflickr.com/65535/48080723187_cfa406c447_n.jpg",
    "id_album": "186170098",
    "description": "Original_872389",
    "title": "Original_872389",
    "link_img": "https://live.staticflickr.com/65535/48080723187_7f7dca3e39_o.jpg",
    "id_image": "Original_872389",
    "count_view": 0
  },
  {
    "link_thumb": "https://live.staticflickr.com/65535/48080726917_a585767ced_n.jpg",
    "id_album": "186170098",
    "description": "Original_872514",
    "title": "Original_872514",
    "link_img": "https://live.staticflickr.com/65535/48080726917_e8cab0fe2d_o.jpg",
    "id_image": "Original_872514",
    "count_view": 0
  },
  {
    "link_thumb": "https://live.staticflickr.com/65535/48080631296_8f4717307d_n.jpg",
    "id_album": "186170098",
    "description": "Original_872525",
    "title": "Original_872525",
    "link_img": "https://live.staticflickr.com/65535/48080631296_77c0ee29f2_o.jpg",
    "id_image": "Original_872525",
    "count_view": 0
  },
  {
    "link_thumb": "https://live.staticflickr.com/65535/48080636071_2fc0f3106d_n.jpg",
    "id_album": "186170098",
    "description": "Original_872757",
    "title": "Original_872757",
    "link_img": "https://live.staticflickr.com/65535/48080636071_b36ebe1d5c_o.jpg",
    "id_image": "Original_872757",
    "count_view": 0
  },
  {
    "link_thumb": "https://live.staticflickr.com/65535/48092017947_45372108f0_n.jpg",
    "id_album": "186170098",
    "description": "Original_873395",
    "title": "Original_873395",
    "link_img": "https://live.staticflickr.com/65535/48092017947_90ab7e1a2f_o.jpg",
    "id_image": "Original_873395",
    "count_view": 0
  },
  {
    "link_thumb": "https://live.staticflickr.com/65535/48091923336_116bc467dd_n.jpg",
    "id_album": "186170098",
    "description": "Original_873396",
    "title": "Original_873396",
    "link_img": "https://live.staticflickr.com/65535/48091923336_242d8264c1_o.jpg",
    "id_image": "Original_873396",
    "count_view": 0
  },
  {
    "link_thumb": "https://live.staticflickr.com/65535/48092018322_ff1d108416_n.jpg",
    "id_album": "186170098",
    "description": "Original_873397",
    "title": "Original_873397",
    "link_img": "https://live.staticflickr.com/65535/48092018322_dc9f7fa5e2_o.jpg",
    "id_image": "Original_873397",
    "count_view": 0
  },
  {
    "link_thumb": "https://live.staticflickr.com/65535/48091961703_d5ecb4ca49_n.jpg",
    "id_album": "186170098",
    "description": "Original_873398",
    "title": "Original_873398",
    "link_img": "https://live.staticflickr.com/65535/48091961703_a9e3431d1a_o.jpg",
    "id_image": "Original_873398",
    "count_view": 0
  },
  {
    "link_thumb": "https://live.staticflickr.com/65535/48091961893_450872c1f9_n.jpg",
    "id_album": "186170098",
    "description": "Original_873399",
    "title": "Original_873399",
    "link_img": "https://live.staticflickr.com/65535/48091961893_9711c32f35_o.jpg",
    "id_image": "Original_873399",
    "count_view": 0
  },
  {
    "link_thumb": "https://live.staticflickr.com/65535/48091924751_c8a201287f_n.jpg",
    "id_album": "186170098",
    "description": "Original_873404",
    "title": "Original_873404",
    "link_img": "https://live.staticflickr.com/65535/48091924751_695fc3bba5_o.jpg",
    "id_image": "Original_873404",
    "count_view": 0
  },
  {
    "link_thumb": "https://live.staticflickr.com/65535/48091963123_7f2bc03935_n.jpg",
    "id_album": "186170098",
    "description": "Original_873405",
    "title": "Original_873405",
    "link_img": "https://live.staticflickr.com/65535/48091963123_28d337dd70_o.jpg",
    "id_image": "Original_873405",
    "count_view": 0
  },
  {
    "link_thumb": "https://live.staticflickr.com/65535/48092020072_75dd4617c2_n.jpg",
    "id_album": "186170098",
    "description": "Original_873406",
    "title": "Original_873406",
    "link_img": "https://live.staticflickr.com/65535/48092020072_f065d7a2d0_o.jpg",
    "id_image": "Original_873406",
    "count_view": 0
  },
  {
    "link_thumb": "https://live.staticflickr.com/65535/48091965993_d2c1b1176c_n.jpg",
    "id_album": "186170098",
    "description": "Original_873547",
    "title": "Original_873547",
    "link_img": "https://live.staticflickr.com/65535/48091965993_308ba7099d_o.jpg",
    "id_image": "Original_873547",
    "count_view": 0
  },
  {
    "link_thumb": "https://live.staticflickr.com/65535/48091966333_93b39ed3d1_n.jpg",
    "id_album": "186170098",
    "description": "Original_873553",
    "title": "Original_873553",
    "link_img": "https://live.staticflickr.com/65535/48091966333_6d269b4897_o.jpg",
    "id_image": "Original_873553",
    "count_view": 0
  },
  {
    "link_thumb": "https://live.staticflickr.com/65535/48091967358_123e5239b5_n.jpg",
    "id_album": "186170098",
    "description": "Original_873563",
    "title": "Original_873563",
    "link_img": "https://live.staticflickr.com/65535/48091967358_283775cab9_o.jpg",
    "id_image": "Original_873563",
    "count_view": 0
  },
  {
    "link_thumb": "https://live.staticflickr.com/65535/48082498788_bf36b22ef4_n.jpg",
    "id_album": "186170098",
    "description": "Original_875163",
    "title": "Original_875163",
    "link_img": "https://live.staticflickr.com/65535/48082498788_57e5dceb48_o.jpg",
    "id_image": "Original_875163",
    "count_view": 0
  },
  {
    "link_thumb": "https://live.staticflickr.com/65535/48082565952_d6f21f9ba9_n.jpg",
    "id_album": "186170098",
    "description": "Original_875164",
    "title": "Original_875164",
    "link_img": "https://live.staticflickr.com/65535/48082565952_61c569bd35_o.jpg",
    "id_image": "Original_875164",
    "count_view": 0
  },
  {
    "link_thumb": "https://live.staticflickr.com/65535/48082592057_6fc008aff1_n.jpg",
    "id_album": "186170098",
    "description": "Original_876349",
    "title": "Original_876349",
    "link_img": "https://live.staticflickr.com/65535/48082592057_96a361052e_o.jpg",
    "id_image": "Original_876349",
    "count_view": 0
  },
  {
    "link_thumb": "https://live.staticflickr.com/65535/48082577503_551cafd64e_n.jpg",
    "id_album": "186170098",
    "description": "Original_878729",
    "title": "Original_878729",
    "link_img": "https://live.staticflickr.com/65535/48082577503_d9cec6a6fc_o.jpg",
    "id_image": "Original_878729",
    "count_view": 0
  },
  {
    "link_thumb": "https://live.staticflickr.com/65535/48082593553_47ed263b54_n.jpg",
    "id_album": "186170098",
    "description": "Original_879906",
    "title": "Original_879906",
    "link_img": "https://live.staticflickr.com/65535/48082593553_91cbe1c719_o.jpg",
    "id_image": "Original_879906",
    "count_view": 0
  },
  {
    "link_thumb": "https://live.staticflickr.com/65535/48082624743_b58ee536a0_n.jpg",
    "id_album": "186170098",
    "description": "Original_881550",
    "title": "Original_881550",
    "link_img": "https://live.staticflickr.com/65535/48082624743_600ff73bf7_o.jpg",
    "id_image": "Original_881550",
    "count_view": 0
  },
  {
    "link_thumb": "https://live.staticflickr.com/65535/48082627198_8f2d04b0a2_n.jpg",
    "id_album": "186170098",
    "description": "Original_881803",
    "title": "Original_881803",
    "link_img": "https://live.staticflickr.com/65535/48082627198_ac9f900209_o.jpg",
    "id_image": "Original_881803",
    "count_view": 0
  },
  {
    "link_thumb": "https://live.staticflickr.com/65535/48082633298_8c1ab25c07_n.jpg",
    "id_album": "186170098",
    "description": "Original_882092",
    "title": "Original_882092",
    "link_img": "https://live.staticflickr.com/65535/48082633298_4891eaa2a3_o.jpg",
    "id_image": "Original_882092",
    "count_view": 0
  },
  {
    "link_thumb": "https://live.staticflickr.com/65535/48082634588_edf0b3cb64_n.jpg",
    "id_album": "186170098",
    "description": "Original_882101",
    "title": "Original_882101",
    "link_img": "https://live.staticflickr.com/65535/48082634588_85fdf3d25e_o.jpg",
    "id_image": "Original_882101",
    "count_view": 0
  },
  {
    "link_thumb": "https://live.staticflickr.com/65535/48082701407_63ca809a55_n.jpg",
    "id_album": "186170098",
    "description": "Original_882306",
    "title": "Original_882306",
    "link_img": "https://live.staticflickr.com/65535/48082701407_5e4a9c6705_o.jpg",
    "id_image": "Original_882306",
    "count_view": 0
  },
  {
    "link_thumb": "https://live.staticflickr.com/65535/48082602581_8fccdd828f_n.jpg",
    "id_album": "186170098",
    "description": "Original_882354",
    "title": "Original_882354",
    "link_img": "https://live.staticflickr.com/65535/48082602581_b565bd8bd9_o.jpg",
    "id_image": "Original_882354",
    "count_view": 0
  },
  {
    "link_thumb": "https://live.staticflickr.com/65535/48082711787_0a23a5be2b_n.jpg",
    "id_album": "186170098",
    "description": "Original_883044",
    "title": "Original_883044",
    "link_img": "https://live.staticflickr.com/65535/48082711787_527d958476_o.jpg",
    "id_image": "Original_883044",
    "count_view": 0
  },
  {
    "link_thumb": "https://live.staticflickr.com/65535/48082654483_be24f9c856_n.jpg",
    "id_album": "186170098",
    "description": "Original_883431",
    "title": "Original_883431",
    "link_img": "https://live.staticflickr.com/65535/48082654483_3ebc554f84_o.jpg",
    "id_image": "Original_883431",
    "count_view": 0
  },
  {
    "link_thumb": "https://live.staticflickr.com/65535/48085488617_eca558a33e_n.jpg",
    "id_album": "186170098",
    "description": "Original_889866",
    "title": "Original_889866",
    "link_img": "https://live.staticflickr.com/65535/48085488617_fd1d2a0c70_o.jpg",
    "id_image": "Original_889866",
    "count_view": 0
  },
  {
    "link_thumb": "https://live.staticflickr.com/65535/48091961966_9a2e28dc58_n.jpg",
    "id_album": "186170098",
    "description": "Original_892750",
    "title": "Original_892750",
    "link_img": "https://live.staticflickr.com/65535/48091961966_367bac10fe_o.jpg",
    "id_image": "Original_892750",
    "count_view": 0
  },
  {
    "link_thumb": "https://live.staticflickr.com/65535/48091962126_6db8b036fe_n.jpg",
    "id_album": "186170098",
    "description": "Original_892762",
    "title": "Original_892762",
    "link_img": "https://live.staticflickr.com/65535/48091962126_205d62b94e_o.jpg",
    "id_image": "Original_892762",
    "count_view": 0
  },
  {
    "link_thumb": "https://live.staticflickr.com/65535/48091974626_3fdfdd21db_n.jpg",
    "id_album": "186170098",
    "description": "Original_893565",
    "title": "Original_893565",
    "link_img": "https://live.staticflickr.com/65535/48091974626_0447d783e3_o.jpg",
    "id_image": "Original_893565",
    "count_view": 0
  },
  {
    "link_thumb": "https://live.staticflickr.com/65535/48091983271_398e696b3d_n.jpg",
    "id_album": "186170098",
    "description": "Original_894143",
    "title": "Original_894143",
    "link_img": "https://live.staticflickr.com/65535/48091983271_67f394c158_o.jpg",
    "id_image": "Original_894143",
    "count_view": 0
  },
  {
    "link_thumb": "https://live.staticflickr.com/65535/48091984206_338bfdbd93_n.jpg",
    "id_album": "186170098",
    "description": "Original_894148",
    "title": "Original_894148",
    "link_img": "https://live.staticflickr.com/65535/48091984206_85ab5cf1e2_o.jpg",
    "id_image": "Original_894148",
    "count_view": 0
  },
  {
    "link_thumb": "https://live.staticflickr.com/65535/48092080467_04a4a270b3_n.jpg",
    "id_album": "186170098",
    "description": "Original_894151",
    "title": "Original_894151",
    "link_img": "https://live.staticflickr.com/65535/48092080467_c001d9e3b7_o.jpg",
    "id_image": "Original_894151",
    "count_view": 0
  },
  {
    "link_thumb": "https://live.staticflickr.com/65535/48091988226_0edc2f6b89_n.jpg",
    "id_album": "186170098",
    "description": "Original_894523",
    "title": "Original_894523",
    "link_img": "https://live.staticflickr.com/65535/48091988226_1d26276031_o.jpg",
    "id_image": "Original_894523",
    "count_view": 0
  },
  {
    "link_thumb": "https://live.staticflickr.com/65535/48092033818_3f6fbb8791_n.jpg",
    "id_album": "186170098",
    "description": "Original_895084",
    "title": "Original_895084",
    "link_img": "https://live.staticflickr.com/65535/48092033818_a38806be0b_o.jpg",
    "id_image": "Original_895084",
    "count_view": 0
  },
  {
    "link_thumb": "https://live.staticflickr.com/65535/48092169392_fccb48b800_n.jpg",
    "id_album": "186170098",
    "description": "Original_900602",
    "title": "Original_900602",
    "link_img": "https://live.staticflickr.com/65535/48092169392_4fdacf016a_o.jpg",
    "id_image": "Original_900602",
    "count_view": 0
  },
  {
    "link_thumb": "https://live.staticflickr.com/65535/48092105381_2a5d8b53c3_n.jpg",
    "id_album": "186170098",
    "description": "Original_902972",
    "title": "Original_902972",
    "link_img": "https://live.staticflickr.com/65535/48092105381_3c65e7ea15_o.jpg",
    "id_image": "Original_902972",
    "count_view": 0
  },
  {
    "link_thumb": "https://live.staticflickr.com/65535/48094925513_d4d02bce08_n.jpg",
    "id_album": "186170098",
    "description": "Original_902973",
    "title": "Original_902973",
    "link_img": "https://live.staticflickr.com/65535/48094925513_31bfe293e0_o.jpg",
    "id_image": "Original_902973",
    "count_view": 0
  },
  {
    "link_thumb": "https://live.staticflickr.com/65535/48092105696_326c007f5b_n.jpg",
    "id_album": "186170098",
    "description": "Original_902974",
    "title": "Original_902974",
    "link_img": "https://live.staticflickr.com/65535/48092105696_e876e3b631_o.jpg",
    "id_image": "Original_902974",
    "count_view": 0
  },
  {
    "link_thumb": "https://live.staticflickr.com/65535/48092203577_60d9e7a7fb_n.jpg",
    "id_album": "186170098",
    "description": "Original_902987",
    "title": "Original_902987",
    "link_img": "https://live.staticflickr.com/65535/48092203577_954ecefdfd_o.jpg",
    "id_image": "Original_902987",
    "count_view": 0
  },
  {
    "link_thumb": "https://live.staticflickr.com/65535/48092203827_5484d3b326_n.jpg",
    "id_album": "186170098",
    "description": "Original_902990",
    "title": "Original_902990",
    "link_img": "https://live.staticflickr.com/65535/48092203827_27a48c2f6d_o.jpg",
    "id_image": "Original_902990",
    "count_view": 0
  },
  {
    "link_thumb": "https://live.staticflickr.com/65535/48092126171_49a74318be_n.jpg",
    "id_album": "186170098",
    "description": "Original_903370",
    "title": "Original_903370",
    "link_img": "https://live.staticflickr.com/65535/48092126171_065fa19055_o.jpg",
    "id_image": "Original_903370",
    "count_view": 0
  },
  {
    "link_thumb": "https://live.staticflickr.com/65535/48092178076_4b859c6ba7_n.jpg",
    "id_album": "186170098",
    "description": "Original_906360",
    "title": "Original_906360",
    "link_img": "https://live.staticflickr.com/65535/48092178076_fb25d78565_o.jpg",
    "id_image": "Original_906360",
    "count_view": 0
  },
  {
    "link_thumb": "https://live.staticflickr.com/65535/48092274492_e6f3d543fb_n.jpg",
    "id_album": "186170098",
    "description": "Original_906365",
    "title": "Original_906365",
    "link_img": "https://live.staticflickr.com/65535/48092274492_4f11dab98f_o.jpg",
    "id_image": "Original_906365",
    "count_view": 0
  },
  {
    "link_thumb": "https://live.staticflickr.com/65535/48092284512_14c9d3d86a_n.jpg",
    "id_album": "186170098",
    "description": "Original_907317",
    "title": "Original_907317",
    "link_img": "https://live.staticflickr.com/65535/48092284512_7e8274c921_o.jpg",
    "id_image": "Original_907317",
    "count_view": 0
  },
  {
    "link_thumb": "https://live.staticflickr.com/65535/48092284747_ea52f54072_n.jpg",
    "id_album": "186170098",
    "description": "Original_907318",
    "title": "Original_907318",
    "link_img": "https://live.staticflickr.com/65535/48092284747_1cfb17bf68_o.jpg",
    "id_image": "Original_907318",
    "count_view": 0
  },
  {
    "link_thumb": "https://live.staticflickr.com/65535/48092229118_c7d9739647_n.jpg",
    "id_album": "186170098",
    "description": "Original_907497",
    "title": "Original_907497",
    "link_img": "https://live.staticflickr.com/65535/48092229118_5fdbe35a7f_o.jpg",
    "id_image": "Original_907497",
    "count_view": 0
  },
  {
    "link_thumb": "https://live.staticflickr.com/65535/48092231023_fb04252dee_n.jpg",
    "id_album": "186170098",
    "description": "Original_907516",
    "title": "Original_907516",
    "link_img": "https://live.staticflickr.com/65535/48092231023_ccdeb797a7_o.jpg",
    "id_image": "Original_907516",
    "count_view": 0
  },
  {
    "link_thumb": "https://live.staticflickr.com/65535/48092192041_da6b1180e0_n.jpg",
    "id_album": "186170098",
    "description": "Original_907520",
    "title": "Original_907520",
    "link_img": "https://live.staticflickr.com/65535/48092192041_229467aff5_o.jpg",
    "id_image": "Original_907520",
    "count_view": 0
  },
  {
    "link_thumb": "https://live.staticflickr.com/65535/48092232323_d21f77262a_n.jpg",
    "id_album": "186170098",
    "description": "Original_907524",
    "title": "Original_907524",
    "link_img": "https://live.staticflickr.com/65535/48092232323_9b9691cf86_o.jpg",
    "id_image": "Original_907524",
    "count_view": 0
  },
  {
    "link_thumb": "https://live.staticflickr.com/65535/48092193341_77a75145d0_n.jpg",
    "id_album": "186170098",
    "description": "Original_907526",
    "title": "Original_907526",
    "link_img": "https://live.staticflickr.com/65535/48092193341_f76950eae4_o.jpg",
    "id_image": "Original_907526",
    "count_view": 0
  },
  {
    "link_thumb": "https://live.staticflickr.com/65535/48092193631_7ca2be646b_n.jpg",
    "id_album": "186170098",
    "description": "Original_907528",
    "title": "Original_907528",
    "link_img": "https://live.staticflickr.com/65535/48092193631_53a647d7c2_o.jpg",
    "id_image": "Original_907528",
    "count_view": 0
  },
  {
    "link_thumb": "https://live.staticflickr.com/65535/48092293507_0290cdf892_n.jpg",
    "id_album": "186170098",
    "description": "Original_907703",
    "title": "Original_907703",
    "link_img": "https://live.staticflickr.com/65535/48092293507_f67f00f897_o.jpg",
    "id_image": "Original_907703",
    "count_view": 0
  },
  {
    "link_thumb": "https://live.staticflickr.com/65535/48092293882_5bd3b83ed5_n.jpg",
    "id_album": "186170098",
    "description": "Original_907704",
    "title": "Original_907704",
    "link_img": "https://live.staticflickr.com/65535/48092293882_fd677cebb1_o.jpg",
    "id_image": "Original_907704",
    "count_view": 0
  },
  {
    "link_thumb": "https://live.staticflickr.com/65535/48092294162_c33e48c5c4_n.jpg",
    "id_album": "186170098",
    "description": "Original_907705",
    "title": "Original_907705",
    "link_img": "https://live.staticflickr.com/65535/48092294162_07784c2b34_o.jpg",
    "id_image": "Original_907705",
    "count_view": 0
  },
  {
    "link_thumb": "https://live.staticflickr.com/65535/48092294657_4f0b13c003_n.jpg",
    "id_album": "186170098",
    "description": "Original_907707",
    "title": "Original_907707",
    "link_img": "https://live.staticflickr.com/65535/48092294657_41ece372e2_o.jpg",
    "id_image": "Original_907707",
    "count_view": 0
  },
  {
    "link_thumb": "https://live.staticflickr.com/65535/48092198691_5666539739_n.jpg",
    "id_album": "186170098",
    "description": "Original_907708",
    "title": "Original_907708",
    "link_img": "https://live.staticflickr.com/65535/48092198691_66be304db7_o.jpg",
    "id_image": "Original_907708",
    "count_view": 0
  },
  {
    "link_thumb": "https://live.staticflickr.com/65535/48092295132_976ea4de71_n.jpg",
    "id_album": "186170098",
    "description": "Original_907709",
    "title": "Original_907709",
    "link_img": "https://live.staticflickr.com/65535/48092295132_81ea4023fc_o.jpg",
    "id_image": "Original_907709",
    "count_view": 0
  },
  {
    "link_thumb": "https://live.staticflickr.com/65535/48092199851_e8d769d7f8_n.jpg",
    "id_album": "186170098",
    "description": "Original_907716",
    "title": "Original_907716",
    "link_img": "https://live.staticflickr.com/65535/48092199851_8c207ebc9e_o.jpg",
    "id_image": "Original_907716",
    "count_view": 0
  },
  {
    "link_thumb": "https://live.staticflickr.com/65535/48092239688_08a7bf925d_n.jpg",
    "id_album": "186170098",
    "description": "Original_907720",
    "title": "Original_907720",
    "link_img": "https://live.staticflickr.com/65535/48092239688_23f3b3f8c7_o.jpg",
    "id_image": "Original_907720",
    "count_view": 0
  },
  {
    "link_thumb": "https://live.staticflickr.com/65535/48092240573_1b67527a2d_n.jpg",
    "id_album": "186170098",
    "description": "Original_907723",
    "title": "Original_907723",
    "link_img": "https://live.staticflickr.com/65535/48092240573_f3bc51bd04_o.jpg",
    "id_image": "Original_907723",
    "count_view": 0
  },
  {
    "link_thumb": "https://live.staticflickr.com/65535/48092201841_70601fb93f_n.jpg",
    "id_album": "186170098",
    "description": "Original_907727",
    "title": "Original_907727",
    "link_img": "https://live.staticflickr.com/65535/48092201841_39ab597368_o.jpg",
    "id_image": "Original_907727",
    "count_view": 0
  },
  {
    "link_thumb": "https://live.staticflickr.com/65535/48092301062_f034f33acd_n.jpg",
    "id_album": "186170098",
    "description": "Original_907754",
    "title": "Original_907754",
    "link_img": "https://live.staticflickr.com/65535/48092301062_a7053e0799_o.jpg",
    "id_image": "Original_907754",
    "count_view": 0
  },
  {
    "link_thumb": "https://live.staticflickr.com/65535/48092301992_27d435d4b7_n.jpg",
    "id_album": "186170098",
    "description": "Original_907758",
    "title": "Original_907758",
    "link_img": "https://live.staticflickr.com/65535/48092301992_976e4fb4de_o.jpg",
    "id_image": "Original_907758",
    "count_view": 0
  },
  {
    "link_thumb": "https://live.staticflickr.com/65535/48092207991_ff96c29628_n.jpg",
    "id_album": "186170098",
    "description": "Original_907764",
    "title": "Original_907764",
    "link_img": "https://live.staticflickr.com/65535/48092207991_30cc9a450b_o.jpg",
    "id_image": "Original_907764",
    "count_view": 0
  },
  {
    "link_thumb": "https://live.staticflickr.com/65535/48092247908_a2550b4618_n.jpg",
    "id_album": "186170098",
    "description": "Original_907765",
    "title": "Original_907765",
    "link_img": "https://live.staticflickr.com/65535/48092247908_82bd210e3f_o.jpg",
    "id_image": "Original_907765",
    "count_view": 0
  },
  {
    "link_thumb": "https://live.staticflickr.com/65535/48092248093_8b500ef312_n.jpg",
    "id_album": "186170098",
    "description": "Original_907766",
    "title": "Original_907766",
    "link_img": "https://live.staticflickr.com/65535/48092248093_f3013dfbb9_o.jpg",
    "id_image": "Original_907766",
    "count_view": 0
  },
  {
    "link_thumb": "https://live.staticflickr.com/65535/48092304642_d476b5cc8d_n.jpg",
    "id_album": "186170098",
    "description": "Original_907767",
    "title": "Original_907767",
    "link_img": "https://live.staticflickr.com/65535/48092304642_0e7e9686e4_o.jpg",
    "id_image": "Original_907767",
    "count_view": 0
  },
  {
    "link_thumb": "https://live.staticflickr.com/65535/48092209211_d8aab2b7bf_n.jpg",
    "id_album": "186170098",
    "description": "Original_907769",
    "title": "Original_907769",
    "link_img": "https://live.staticflickr.com/65535/48092209211_8e42c49b9e_o.jpg",
    "id_image": "Original_907769",
    "count_view": 0
  },
  {
    "link_thumb": "https://live.staticflickr.com/65535/48092209721_f537dc0b4c_n.jpg",
    "id_album": "186170098",
    "description": "Original_907771",
    "title": "Original_907771",
    "link_img": "https://live.staticflickr.com/65535/48092209721_8174c11a56_o.jpg",
    "id_image": "Original_907771",
    "count_view": 0
  },
  {
    "link_thumb": "https://live.staticflickr.com/65535/48092250293_c2d06b1e3b_n.jpg",
    "id_album": "186170098",
    "description": "Original_907784",
    "title": "Original_907784",
    "link_img": "https://live.staticflickr.com/65535/48092250293_5200f70e7b_o.jpg",
    "id_image": "Original_907784",
    "count_view": 0
  },
  {
    "link_thumb": "https://live.staticflickr.com/65535/48092212056_c769a5102f_n.jpg",
    "id_album": "186170098",
    "description": "Original_907801",
    "title": "Original_907801",
    "link_img": "https://live.staticflickr.com/65535/48092212056_de6cf7ee61_o.jpg",
    "id_image": "Original_907801",
    "count_view": 0
  },
  {
    "link_thumb": "https://live.staticflickr.com/65535/48092252088_2c2770fed9_n.jpg",
    "id_album": "186170098",
    "description": "Original_907802",
    "title": "Original_907802",
    "link_img": "https://live.staticflickr.com/65535/48092252088_a4599a3be8_o.jpg",
    "id_image": "Original_907802",
    "count_view": 0
  },
  {
    "link_thumb": "https://live.staticflickr.com/65535/48092308572_c7c4b400dd_n.jpg",
    "id_album": "186170098",
    "description": "Original_907803",
    "title": "Original_907803",
    "link_img": "https://live.staticflickr.com/65535/48092308572_be026127bc_o.jpg",
    "id_image": "Original_907803",
    "count_view": 0
  },
  {
    "link_thumb": "https://live.staticflickr.com/65535/48092252678_a5d2c51070_n.jpg",
    "id_album": "186170098",
    "description": "Original_907804",
    "title": "Original_907804",
    "link_img": "https://live.staticflickr.com/65535/48092252678_54221a72fd_o.jpg",
    "id_image": "Original_907804",
    "count_view": 0
  },
  {
    "link_thumb": "https://live.staticflickr.com/65535/48092253548_e9abebdbfa_n.jpg",
    "id_album": "186170098",
    "description": "Original_907807",
    "title": "Original_907807",
    "link_img": "https://live.staticflickr.com/65535/48092253548_19ebaf80d0_o.jpg",
    "id_image": "Original_907807",
    "count_view": 0
  },
  {
    "link_thumb": "https://live.staticflickr.com/65535/48092309872_d3ba454a18_n.jpg",
    "id_album": "186170098",
    "description": "Original_907808",
    "title": "Original_907808",
    "link_img": "https://live.staticflickr.com/65535/48092309872_390994bf4f_o.jpg",
    "id_image": "Original_907808",
    "count_view": 0
  },
  {
    "link_thumb": "https://live.staticflickr.com/65535/48092310277_696bbc09f6_n.jpg",
    "id_album": "186170098",
    "description": "Original_907813",
    "title": "Original_907813",
    "link_img": "https://live.staticflickr.com/65535/48092310277_5469f00625_o.jpg",
    "id_image": "Original_907813",
    "count_view": 0
  },
  {
    "link_thumb": "https://live.staticflickr.com/65535/48092214526_c8d58a1f14_n.jpg",
    "id_album": "186170098",
    "description": "Original_907815",
    "title": "Original_907815",
    "link_img": "https://live.staticflickr.com/65535/48092214526_d35c11b86a_o.jpg",
    "id_image": "Original_907815",
    "count_view": 0
  },
  {
    "link_thumb": "https://live.staticflickr.com/65535/48092215601_f43db1569a_n.jpg",
    "id_album": "186170098",
    "description": "Original_907818",
    "title": "Original_907818",
    "link_img": "https://live.staticflickr.com/65535/48092215601_15858baaa1_o.jpg",
    "id_image": "Original_907818",
    "count_view": 0
  },
  {
    "link_thumb": "https://live.staticflickr.com/65535/48092216296_03059c0c50_n.jpg",
    "id_album": "186170098",
    "description": "Original_907820",
    "title": "Original_907820",
    "link_img": "https://live.staticflickr.com/65535/48092216296_fda4ac6663_o.jpg",
    "id_image": "Original_907820",
    "count_view": 0
  },
  {
    "link_thumb": "https://live.staticflickr.com/65535/48092312462_6f3e076291_n.jpg",
    "id_album": "186170098",
    "description": "Original_907823",
    "title": "Original_907823",
    "link_img": "https://live.staticflickr.com/65535/48092312462_d16d4a4f9b_o.jpg",
    "id_image": "Original_907823",
    "count_view": 0
  },
  {
    "link_thumb": "https://live.staticflickr.com/65535/48092217051_35a7d4c196_n.jpg",
    "id_album": "186170098",
    "description": "Original_907828",
    "title": "Original_907828",
    "link_img": "https://live.staticflickr.com/65535/48092217051_476a44dc72_o.jpg",
    "id_image": "Original_907828",
    "count_view": 0
  },
  {
    "link_thumb": "https://live.staticflickr.com/65535/48092257208_d24e597fc6_n.jpg",
    "id_album": "186170098",
    "description": "Original_907829",
    "title": "Original_907829",
    "link_img": "https://live.staticflickr.com/65535/48092257208_2577183735_o.jpg",
    "id_image": "Original_907829",
    "count_view": 0
  },
  {
    "link_thumb": "https://live.staticflickr.com/65535/48092217701_896b40e0fc_n.jpg",
    "id_album": "186170098",
    "description": "Original_907830",
    "title": "Original_907830",
    "link_img": "https://live.staticflickr.com/65535/48092217701_60f2428386_o.jpg",
    "id_image": "Original_907830",
    "count_view": 0
  },
  {
    "link_thumb": "https://live.staticflickr.com/65535/48092314612_755e8652ef_n.jpg",
    "id_album": "186170098",
    "description": "Original_907837",
    "title": "Original_907837",
    "link_img": "https://live.staticflickr.com/65535/48092314612_383ee22c60_o.jpg",
    "id_image": "Original_907837",
    "count_view": 0
  },
  {
    "link_thumb": "https://live.staticflickr.com/65535/48092314877_2245e188ce_n.jpg",
    "id_album": "186170098",
    "description": "Original_907838",
    "title": "Original_907838",
    "link_img": "https://live.staticflickr.com/65535/48092314877_db8ede98e0_o.jpg",
    "id_image": "Original_907838",
    "count_view": 0
  },
  {
    "link_thumb": "https://live.staticflickr.com/65535/48092259618_790a0d0b89_n.jpg",
    "id_album": "186170098",
    "description": "Original_907841",
    "title": "Original_907841",
    "link_img": "https://live.staticflickr.com/65535/48092259618_2a552d25d7_o.jpg",
    "id_image": "Original_907841",
    "count_view": 0
  },
  {
    "link_thumb": "https://live.staticflickr.com/65535/48092259863_a0c2a57de5_n.jpg",
    "id_album": "186170098",
    "description": "Original_907843",
    "title": "Original_907843",
    "link_img": "https://live.staticflickr.com/65535/48092259863_54c6918d86_o.jpg",
    "id_image": "Original_907843",
    "count_view": 0
  },
  {
    "link_thumb": "https://live.staticflickr.com/65535/48092260608_9260706464_n.jpg",
    "id_album": "186170098",
    "description": "Original_907848",
    "title": "Original_907848",
    "link_img": "https://live.staticflickr.com/65535/48092260608_b75db88f0a_o.jpg",
    "id_image": "Original_907848",
    "count_view": 0
  },
  {
    "link_thumb": "https://live.staticflickr.com/65535/48092260983_19a3c6af7b_n.jpg",
    "id_album": "186170098",
    "description": "Original_907849",
    "title": "Original_907849",
    "link_img": "https://live.staticflickr.com/65535/48092260983_54806c9a85_o.jpg",
    "id_image": "Original_907849",
    "count_view": 0
  },
  {
    "link_thumb": "https://live.staticflickr.com/65535/48092261398_37e3d75998_n.jpg",
    "id_album": "186170098",
    "description": "Original_907850",
    "title": "Original_907850",
    "link_img": "https://live.staticflickr.com/65535/48092261398_808d4ed3f5_o.jpg",
    "id_image": "Original_907850",
    "count_view": 0
  },
  {
    "link_thumb": "https://live.staticflickr.com/65535/48092262008_488fb19e79_n.jpg",
    "id_album": "186170098",
    "description": "Original_907852",
    "title": "Original_907852",
    "link_img": "https://live.staticflickr.com/65535/48092262008_1f0f3b7e75_o.jpg",
    "id_image": "Original_907852",
    "count_view": 0
  },
  {
    "link_thumb": "https://live.staticflickr.com/65535/48092262268_dc91fd51a3_n.jpg",
    "id_album": "186170098",
    "description": "Original_907855",
    "title": "Original_907855",
    "link_img": "https://live.staticflickr.com/65535/48092262268_eb12cae9e8_o.jpg",
    "id_image": "Original_907855",
    "count_view": 0
  },
  {
    "link_thumb": "https://live.staticflickr.com/65535/48092222726_247df621ca_n.jpg",
    "id_album": "186170098",
    "description": "Original_907857",
    "title": "Original_907857",
    "link_img": "https://live.staticflickr.com/65535/48092222726_7b4d9d74f0_o.jpg",
    "id_image": "Original_907857",
    "count_view": 0
  },
  {
    "link_thumb": "https://live.staticflickr.com/65535/48092222971_753bae80e6_n.jpg",
    "id_album": "186170098",
    "description": "Original_907858",
    "title": "Original_907858",
    "link_img": "https://live.staticflickr.com/65535/48092222971_eeb480ac75_o.jpg",
    "id_image": "Original_907858",
    "count_view": 0
  },
  {
    "link_thumb": "https://live.staticflickr.com/65535/48092223311_76ccb7139f_n.jpg",
    "id_album": "186170098",
    "description": "Original_907860",
    "title": "Original_907860",
    "link_img": "https://live.staticflickr.com/65535/48092223311_0f0191b2a5_o.jpg",
    "id_image": "Original_907860",
    "count_view": 0
  },
  {
    "link_thumb": "https://live.staticflickr.com/65535/48092263698_a78e795719_n.jpg",
    "id_album": "186170098",
    "description": "Original_907861",
    "title": "Original_907861",
    "link_img": "https://live.staticflickr.com/65535/48092263698_9c2c8c0e44_o.jpg",
    "id_image": "Original_907861",
    "count_view": 0
  },
  {
    "link_thumb": "https://live.staticflickr.com/65535/48092263993_03c0e73a9a_n.jpg",
    "id_album": "186170098",
    "description": "Original_907864",
    "title": "Original_907864",
    "link_img": "https://live.staticflickr.com/65535/48092263993_166cf900b4_o.jpg",
    "id_image": "Original_907864",
    "count_view": 0
  },
  {
    "link_thumb": "https://live.staticflickr.com/65535/48092264883_e83d9a282d_n.jpg",
    "id_album": "186170098",
    "description": "Original_907868",
    "title": "Original_907868",
    "link_img": "https://live.staticflickr.com/65535/48092264883_d7d3692325_o.jpg",
    "id_image": "Original_907868",
    "count_view": 0
  },
  {
    "link_thumb": "https://live.staticflickr.com/65535/48092225191_ce13053465_n.jpg",
    "id_album": "186170098",
    "description": "Original_907869",
    "title": "Original_907869",
    "link_img": "https://live.staticflickr.com/65535/48092225191_38431f1176_o.jpg",
    "id_image": "Original_907869",
    "count_view": 0
  },
  {
    "link_thumb": "https://live.staticflickr.com/65535/48092322102_09872df419_n.jpg",
    "id_album": "186170098",
    "description": "Original_907872",
    "title": "Original_907872",
    "link_img": "https://live.staticflickr.com/65535/48092322102_5f369d6d6c_o.jpg",
    "id_image": "Original_907872",
    "count_view": 0
  },
  {
    "link_thumb": "https://live.staticflickr.com/65535/48092268108_a4a1a81e2d_n.jpg",
    "id_album": "186170098",
    "description": "Original_908042",
    "title": "Original_908042",
    "link_img": "https://live.staticflickr.com/65535/48092268108_cd979ee3a6_o.jpg",
    "id_image": "Original_908042",
    "count_view": 0
  },
  {
    "link_thumb": "https://live.staticflickr.com/65535/48092268908_f00f803bdf_n.jpg",
    "id_album": "186170098",
    "description": "Original_908050",
    "title": "Original_908050",
    "link_img": "https://live.staticflickr.com/65535/48092268908_f17fcf02c2_o.jpg",
    "id_image": "Original_908050",
    "count_view": 0
  },
  {
    "link_thumb": "https://live.staticflickr.com/65535/48092270843_5097350990_n.jpg",
    "id_album": "186170098",
    "description": "Original_908056",
    "title": "Original_908056",
    "link_img": "https://live.staticflickr.com/65535/48092270843_24eb67eaa4_o.jpg",
    "id_image": "Original_908056",
    "count_view": 0
  },
  {
    "link_thumb": "https://live.staticflickr.com/65535/48092271363_3159f14533_n.jpg",
    "id_album": "186170098",
    "description": "Original_908058",
    "title": "Original_908058",
    "link_img": "https://live.staticflickr.com/65535/48092271363_122c57be74_o.jpg",
    "id_image": "Original_908058",
    "count_view": 0
  },
  {
    "link_thumb": "https://live.staticflickr.com/65535/48092231541_e545b50cec_n.jpg",
    "id_album": "186170098",
    "description": "Original_908059",
    "title": "Original_908059",
    "link_img": "https://live.staticflickr.com/65535/48092231541_470c1020f7_o.jpg",
    "id_image": "Original_908059",
    "count_view": 0
  },
  {
    "link_thumb": "https://live.staticflickr.com/65535/48092272768_1a68d3ff07_n.jpg",
    "id_album": "186170098",
    "description": "Original_908071",
    "title": "Original_908071",
    "link_img": "https://live.staticflickr.com/65535/48092272768_4704745d1c_o.jpg",
    "id_image": "Original_908071",
    "count_view": 0
  },
  {
    "link_thumb": "https://live.staticflickr.com/65535/48092273658_0792bd2a64_n.jpg",
    "id_album": "186170098",
    "description": "Original_908074",
    "title": "Original_908074",
    "link_img": "https://live.staticflickr.com/65535/48092273658_636c832fb1_o.jpg",
    "id_image": "Original_908074",
    "count_view": 0
  },
  {
    "link_thumb": "https://live.staticflickr.com/65535/48092233766_781003cd08_n.jpg",
    "id_album": "186170098",
    "description": "Original_908075",
    "title": "Original_908075",
    "link_img": "https://live.staticflickr.com/65535/48092233766_63a46ce45e_o.jpg",
    "id_image": "Original_908075",
    "count_view": 0
  },
  {
    "link_thumb": "https://live.staticflickr.com/65535/48092274203_0ccdccdd0c_n.jpg",
    "id_album": "186170098",
    "description": "Original_908076",
    "title": "Original_908076",
    "link_img": "https://live.staticflickr.com/65535/48092274203_7bb2e12002_o.jpg",
    "id_image": "Original_908076",
    "count_view": 0
  },
  {
    "link_thumb": "https://live.staticflickr.com/65535/48092330982_901d1cd78a_n.jpg",
    "id_album": "186170098",
    "description": "Original_908078",
    "title": "Original_908078",
    "link_img": "https://live.staticflickr.com/65535/48092330982_eaab2faf70_o.jpg",
    "id_image": "Original_908078",
    "count_view": 0
  },
  {
    "link_thumb": "https://live.staticflickr.com/65535/48092331552_eb9bd5547d_n.jpg",
    "id_album": "186170098",
    "description": "Original_908080",
    "title": "Original_908080",
    "link_img": "https://live.staticflickr.com/65535/48092331552_6dfca7a619_o.jpg",
    "id_image": "Original_908080",
    "count_view": 0
  },
  {
    "link_thumb": "https://live.staticflickr.com/65535/48092331852_372c3711a7_n.jpg",
    "id_album": "186170098",
    "description": "Original_908081",
    "title": "Original_908081",
    "link_img": "https://live.staticflickr.com/65535/48092331852_9aa36be5ee_o.jpg",
    "id_image": "Original_908081",
    "count_view": 0
  },
  {
    "link_thumb": "https://live.staticflickr.com/65535/48092275828_2113e19865_n.jpg",
    "id_album": "186170098",
    "description": "Original_908082",
    "title": "Original_908082",
    "link_img": "https://live.staticflickr.com/65535/48092275828_9a3c5cb5fa_o.jpg",
    "id_image": "Original_908082",
    "count_view": 0
  },
  {
    "link_thumb": "https://live.staticflickr.com/65535/48092235796_8dccbdb8f3_n.jpg",
    "id_album": "186170098",
    "description": "Original_908083",
    "title": "Original_908083",
    "link_img": "https://live.staticflickr.com/65535/48092235796_b20c1ed9dd_o.jpg",
    "id_image": "Original_908083",
    "count_view": 0
  },
  {
    "link_thumb": "https://live.staticflickr.com/65535/48092236116_ddbac5a2ac_n.jpg",
    "id_album": "186170098",
    "description": "Original_908084",
    "title": "Original_908084",
    "link_img": "https://live.staticflickr.com/65535/48092236116_fae1fd8a86_o.jpg",
    "id_image": "Original_908084",
    "count_view": 0
  },
  {
    "link_thumb": "https://live.staticflickr.com/65535/48092236376_ec8cd7e373_n.jpg",
    "id_album": "186170098",
    "description": "Original_908085",
    "title": "Original_908085",
    "link_img": "https://live.staticflickr.com/65535/48092236376_2f14bd7055_o.jpg",
    "id_image": "Original_908085",
    "count_view": 0
  },
  {
    "link_thumb": "https://live.staticflickr.com/65535/48092333502_96f853603a_n.jpg",
    "id_album": "186170098",
    "description": "Original_908088",
    "title": "Original_908088",
    "link_img": "https://live.staticflickr.com/65535/48092333502_62be54e4d8_o.jpg",
    "id_image": "Original_908088",
    "count_view": 0
  },
  {
    "link_thumb": "https://live.staticflickr.com/65535/48092334242_2b2d35ddcb_n.jpg",
    "id_album": "186170098",
    "description": "Original_908091",
    "title": "Original_908091",
    "link_img": "https://live.staticflickr.com/65535/48092334242_7595ef7661_o.jpg",
    "id_image": "Original_908091",
    "count_view": 0
  },
  {
    "link_thumb": "https://live.staticflickr.com/65535/48092278923_bc3cd4bccd_n.jpg",
    "id_album": "186170098",
    "description": "Original_908094",
    "title": "Original_908094",
    "link_img": "https://live.staticflickr.com/65535/48092278923_703f9ef8dc_o.jpg",
    "id_image": "Original_908094",
    "count_view": 0
  },
  {
    "link_thumb": "https://live.staticflickr.com/65535/48092239171_736159c67d_n.jpg",
    "id_album": "186170098",
    "description": "Original_908095",
    "title": "Original_908095",
    "link_img": "https://live.staticflickr.com/65535/48092239171_7647174824_o.jpg",
    "id_image": "Original_908095",
    "count_view": 0
  },
  {
    "link_thumb": "https://live.staticflickr.com/65535/48092279503_94a38e0edc_n.jpg",
    "id_album": "186170098",
    "description": "Original_908097",
    "title": "Original_908097",
    "link_img": "https://live.staticflickr.com/65535/48092279503_528010ba31_o.jpg",
    "id_image": "Original_908097",
    "count_view": 0
  },
  {
    "link_thumb": "https://live.staticflickr.com/65535/48092241166_3235ffff3c_n.jpg",
    "id_album": "186170098",
    "description": "Original_908104",
    "title": "Original_908104",
    "link_img": "https://live.staticflickr.com/65535/48092241166_64c974113e_o.jpg",
    "id_image": "Original_908104",
    "count_view": 0
  },
  {
    "link_thumb": "https://live.staticflickr.com/65535/48092283208_66a7492550_n.jpg",
    "id_album": "186170098",
    "description": "Original_908118",
    "title": "Original_908118",
    "link_img": "https://live.staticflickr.com/65535/48092283208_02bea7a79b_o.jpg",
    "id_image": "Original_908118",
    "count_view": 0
  },
  {
    "link_thumb": "https://live.staticflickr.com/65535/48092340367_1366a4b264_n.jpg",
    "id_album": "186170098",
    "description": "Original_908120",
    "title": "Original_908120",
    "link_img": "https://live.staticflickr.com/65535/48092340367_7d3e466147_o.jpg",
    "id_image": "Original_908120",
    "count_view": 0
  },
  {
    "link_thumb": "https://live.staticflickr.com/65535/48092284048_2d2b16f8bf_n.jpg",
    "id_album": "186170098",
    "description": "Original_908121",
    "title": "Original_908121",
    "link_img": "https://live.staticflickr.com/65535/48092284048_ac53643689_o.jpg",
    "id_image": "Original_908121",
    "count_view": 0
  },
  {
    "link_thumb": "https://live.staticflickr.com/65535/48092244866_329704fec2_n.jpg",
    "id_album": "186170098",
    "description": "Original_908156",
    "title": "Original_908156",
    "link_img": "https://live.staticflickr.com/65535/48092244866_c7f6648046_o.jpg",
    "id_image": "Original_908156",
    "count_view": 0
  },
  {
    "link_thumb": "https://live.staticflickr.com/65535/48092245971_641091f76e_n.jpg",
    "id_album": "186170098",
    "description": "Original_908197",
    "title": "Original_908197",
    "link_img": "https://live.staticflickr.com/65535/48092245971_4d1ae00029_o.jpg",
    "id_image": "Original_908197",
    "count_view": 0
  },
  {
    "link_thumb": "https://live.staticflickr.com/65535/48092287033_7aa7d6854c_n.jpg",
    "id_album": "186170098",
    "description": "Original_908206",
    "title": "Original_908206",
    "link_img": "https://live.staticflickr.com/65535/48092287033_0ce2509ba5_o.jpg",
    "id_image": "Original_908206",
    "count_view": 0
  },
  {
    "link_thumb": "https://live.staticflickr.com/65535/48092247836_27501b94be_n.jpg",
    "id_album": "186170098",
    "description": "Original_908215",
    "title": "Original_908215",
    "link_img": "https://live.staticflickr.com/65535/48092247836_91331f8d4c_o.jpg",
    "id_image": "Original_908215",
    "count_view": 0
  },
  {
    "link_thumb": "https://live.staticflickr.com/65535/48092248661_ef5df5856b_n.jpg",
    "id_album": "186170098",
    "description": "Original_908274",
    "title": "Original_908274",
    "link_img": "https://live.staticflickr.com/65535/48092248661_db0af4b290_o.jpg",
    "id_image": "Original_908274",
    "count_view": 0
  },
  {
    "link_thumb": "https://live.staticflickr.com/65535/48092248891_09d376c44c_n.jpg",
    "id_album": "186170098",
    "description": "Original_908275",
    "title": "Original_908275",
    "link_img": "https://live.staticflickr.com/65535/48092248891_68b3c80613_o.jpg",
    "id_image": "Original_908275",
    "count_view": 0
  },
  {
    "link_thumb": "https://live.staticflickr.com/65535/48092249111_4d0a51aaa1_n.jpg",
    "id_album": "186170098",
    "description": "Original_908277",
    "title": "Original_908277",
    "link_img": "https://live.staticflickr.com/65535/48092249111_8e2d7a352f_o.jpg",
    "id_image": "Original_908277",
    "count_view": 0
  },
  {
    "link_thumb": "https://live.staticflickr.com/65535/48092289328_a9bff32c70_n.jpg",
    "id_album": "186170098",
    "description": "Original_908282",
    "title": "Original_908282",
    "link_img": "https://live.staticflickr.com/65535/48092289328_5aa0dc7ae6_o.jpg",
    "id_image": "Original_908282",
    "count_view": 0
  },
  {
    "link_thumb": "https://live.staticflickr.com/65535/48092294843_7c7f9ecdca_n.jpg",
    "id_album": "186170098",
    "description": "Original_909205",
    "title": "Original_909205",
    "link_img": "https://live.staticflickr.com/65535/48092294843_ed7050d8e2_o.jpg",
    "id_image": "Original_909205",
    "count_view": 0
  },
  {
    "link_thumb": "https://live.staticflickr.com/65535/48092385807_d47ff81c1a_n.jpg",
    "id_album": "186170098",
    "description": "Original_910847",
    "title": "Original_910847",
    "link_img": "https://live.staticflickr.com/65535/48092385807_611d7cbab7_o.jpg",
    "id_image": "Original_910847",
    "count_view": 0
  },
  {
    "link_thumb": "https://live.staticflickr.com/65535/48092390752_b74990a94c_n.jpg",
    "id_album": "186170098",
    "description": "Original_911008",
    "title": "Original_911008",
    "link_img": "https://live.staticflickr.com/65535/48092390752_d16a8ea373_o.jpg",
    "id_image": "Original_911008",
    "count_view": 0
  },
  {
    "link_thumb": "https://live.staticflickr.com/65535/48092294706_dd5a53603d_n.jpg",
    "id_album": "186170098",
    "description": "Original_911152",
    "title": "Original_911152",
    "link_img": "https://live.staticflickr.com/65535/48092294706_de1cf5c731_o.jpg",
    "id_image": "Original_911152",
    "count_view": 0
  },
  {
    "link_thumb": "https://live.staticflickr.com/65535/48092391747_d9e8160ef9_n.jpg",
    "id_album": "186170098",
    "description": "Original_911153",
    "title": "Original_911153",
    "link_img": "https://live.staticflickr.com/65535/48092391747_4419a19cb2_o.jpg",
    "id_image": "Original_911153",
    "count_view": 0
  },
  {
    "link_thumb": "https://live.staticflickr.com/65535/48092295116_9af9b50041_n.jpg",
    "id_album": "186170098",
    "description": "Original_911154",
    "title": "Original_911154",
    "link_img": "https://live.staticflickr.com/65535/48092295116_64c4931f1e_o.jpg",
    "id_image": "Original_911154",
    "count_view": 0
  },
  {
    "link_thumb": "https://live.staticflickr.com/65535/48092392572_9e2b8efe96_n.jpg",
    "id_album": "186170098",
    "description": "Original_911161",
    "title": "Original_911161",
    "link_img": "https://live.staticflickr.com/65535/48092392572_d2abcfd901_o.jpg",
    "id_image": "Original_911161",
    "count_view": 0
  },
  {
    "link_thumb": "https://live.staticflickr.com/65535/48092360733_9a16a02e8b_n.jpg",
    "id_album": "186170098",
    "description": "Original_912221",
    "title": "Original_912221",
    "link_img": "https://live.staticflickr.com/65535/48092360733_e7fb629a9e_o.jpg",
    "id_image": "Original_912221",
    "count_view": 0
  },
  {
    "link_thumb": "https://live.staticflickr.com/65535/48092376333_2204fe72f0_n.jpg",
    "id_album": "186170098",
    "description": "Original_912910",
    "title": "Original_912910",
    "link_img": "https://live.staticflickr.com/65535/48092376333_07f50e2fa6_o.jpg",
    "id_image": "Original_912910",
    "count_view": 0
  },
  {
    "link_thumb": "https://live.staticflickr.com/65535/48092337231_25106c46b8_n.jpg",
    "id_album": "186170098",
    "description": "Original_912911",
    "title": "Original_912911",
    "link_img": "https://live.staticflickr.com/65535/48092337231_e29056e60c_o.jpg",
    "id_image": "Original_912911",
    "count_view": 0
  },
  {
    "link_thumb": "https://live.staticflickr.com/65535/48092337496_2197124080_n.jpg",
    "id_album": "186170098",
    "description": "Original_912912",
    "title": "Original_912912",
    "link_img": "https://live.staticflickr.com/65535/48092337496_c04774b701_o.jpg",
    "id_image": "Original_912912",
    "count_view": 0
  },
  {
    "link_thumb": "https://live.staticflickr.com/65535/48092377603_a96b51070f_n.jpg",
    "id_album": "186170098",
    "description": "Original_912913",
    "title": "Original_912913",
    "link_img": "https://live.staticflickr.com/65535/48092377603_3229004418_o.jpg",
    "id_image": "Original_912913",
    "count_view": 0
  },
  {
    "link_thumb": "https://live.staticflickr.com/65535/48092338181_502dde7475_n.jpg",
    "id_album": "186170098",
    "description": "Original_912914",
    "title": "Original_912914",
    "link_img": "https://live.staticflickr.com/65535/48092338181_4c4426cbb2_o.jpg",
    "id_image": "Original_912914",
    "count_view": 0
  },
  {
    "link_thumb": "https://live.staticflickr.com/65535/48092378213_15b72ecbd2_n.jpg",
    "id_album": "186170098",
    "description": "Original_912916",
    "title": "Original_912916",
    "link_img": "https://live.staticflickr.com/65535/48092378213_0cbed3d191_o.jpg",
    "id_image": "Original_912916",
    "count_view": 0
  },
  {
    "link_thumb": "https://live.staticflickr.com/65535/48092338821_5e69d5ff51_n.jpg",
    "id_album": "186170098",
    "description": "Original_912918",
    "title": "Original_912918",
    "link_img": "https://live.staticflickr.com/65535/48092338821_b94d07d2a2_o.jpg",
    "id_image": "Original_912918",
    "count_view": 0
  },
  {
    "link_thumb": "https://live.staticflickr.com/65535/48092379163_9560c587df_n.jpg",
    "id_album": "186170098",
    "description": "Original_912928",
    "title": "Original_912928",
    "link_img": "https://live.staticflickr.com/65535/48092379163_82eeb12a80_o.jpg",
    "id_image": "Original_912928",
    "count_view": 0
  },
  {
    "link_thumb": "https://live.staticflickr.com/65535/48092435872_2d6d7b142a_n.jpg",
    "id_album": "186170098",
    "description": "Original_912929",
    "title": "Original_912929",
    "link_img": "https://live.staticflickr.com/65535/48092435872_1d2fcfe821_o.jpg",
    "id_image": "Original_912929",
    "count_view": 0
  },
  {
    "link_thumb": "https://live.staticflickr.com/65535/48092437112_de4b38785b_n.jpg",
    "id_album": "186170098",
    "description": "Original_912948",
    "title": "Original_912948",
    "link_img": "https://live.staticflickr.com/65535/48092437112_20036dac5e_o.jpg",
    "id_image": "Original_912948",
    "count_view": 0
  },
  {
    "link_thumb": "https://live.staticflickr.com/65535/48092381778_f17a4c7424_n.jpg",
    "id_album": "186170098",
    "description": "Original_913055",
    "title": "Original_913055",
    "link_img": "https://live.staticflickr.com/65535/48092381778_1f10b02827_o.jpg",
    "id_image": "Original_913055",
    "count_view": 0
  },
  {
    "link_thumb": "https://live.staticflickr.com/65535/48092447092_4f26210eab_n.jpg",
    "id_album": "186170098",
    "description": "Original_913408",
    "title": "Original_913408",
    "link_img": "https://live.staticflickr.com/65535/48092447092_75496ca60b_o.jpg",
    "id_image": "Original_913408",
    "count_view": 0
  },
  {
    "link_thumb": "https://live.staticflickr.com/65535/48092353011_5240043ae7_n.jpg",
    "id_album": "186170098",
    "description": "Original_913424",
    "title": "Original_913424",
    "link_img": "https://live.staticflickr.com/65535/48092353011_e481f0d0b1_o.jpg",
    "id_image": "Original_913424",
    "count_view": 0
  },
  {
    "link_thumb": "https://live.staticflickr.com/65535/48092360941_74edfc3b88_n.jpg",
    "id_album": "186170098",
    "description": "Original_913842",
    "title": "Original_913842",
    "link_img": "https://live.staticflickr.com/65535/48092360941_124214874c_o.jpg",
    "id_image": "Original_913842",
    "count_view": 0
  },
  {
    "link_thumb": "https://live.staticflickr.com/65535/48092367406_2d9f87d8b2_n.jpg",
    "id_album": "186170098",
    "description": "Original_914010",
    "title": "Original_914010",
    "link_img": "https://live.staticflickr.com/65535/48092367406_ccd08a16f5_o.jpg",
    "id_image": "Original_914010",
    "count_view": 0
  },
  {
    "link_thumb": "https://live.staticflickr.com/65535/48092463497_8d3a724420_n.jpg",
    "id_album": "186170098",
    "description": "Original_914013",
    "title": "Original_914013",
    "link_img": "https://live.staticflickr.com/65535/48092463497_103487bed7_o.jpg",
    "id_image": "Original_914013",
    "count_view": 0
  },
  {
    "link_thumb": "https://live.staticflickr.com/65535/48092411123_400241121e_n.jpg",
    "id_album": "186170098",
    "description": "Original_914156",
    "title": "Original_914156",
    "link_img": "https://live.staticflickr.com/65535/48092411123_d2e02414ff_o.jpg",
    "id_image": "Original_914156",
    "count_view": 0
  },
  {
    "link_thumb": "https://live.staticflickr.com/65535/48092468462_34a7027079_n.jpg",
    "id_album": "186170098",
    "description": "Original_914164",
    "title": "Original_914164",
    "link_img": "https://live.staticflickr.com/65535/48092468462_47b45f51dc_o.jpg",
    "id_image": "Original_914164",
    "count_view": 0
  },
  {
    "link_thumb": "https://live.staticflickr.com/65535/48092372971_5b386a2842_n.jpg",
    "id_album": "186170098",
    "description": "Original_914165",
    "title": "Original_914165",
    "link_img": "https://live.staticflickr.com/65535/48092372971_c25530bd93_o.jpg",
    "id_image": "Original_914165",
    "count_view": 0
  },
  {
    "link_thumb": "https://live.staticflickr.com/65535/48092481462_ca7b8c45ed_n.jpg",
    "id_album": "186170098",
    "description": "Original_914300",
    "title": "Original_914300",
    "link_img": "https://live.staticflickr.com/65535/48092481462_0cca6fea46_o.jpg",
    "id_image": "Original_914300",
    "count_view": 0
  },
  {
    "link_thumb": "https://live.staticflickr.com/65535/48092428063_c2ae4db558_n.jpg",
    "id_album": "186170098",
    "description": "Original_914310",
    "title": "Original_914310",
    "link_img": "https://live.staticflickr.com/65535/48092428063_b1fac50490_o.jpg",
    "id_image": "Original_914310",
    "count_view": 0
  },
  {
    "link_thumb": "https://live.staticflickr.com/65535/48092497117_fb29cd9a1b_n.jpg",
    "id_album": "186170098",
    "description": "Original_914505",
    "title": "Original_914505",
    "link_img": "https://live.staticflickr.com/65535/48092497117_0ef36bb63b_o.jpg",
    "id_image": "Original_914505",
    "count_view": 0
  },
  {
    "link_thumb": "https://live.staticflickr.com/65535/48092407431_aa5d4d1a50_n.jpg",
    "id_album": "186170098",
    "description": "Original_914728",
    "title": "Original_914728",
    "link_img": "https://live.staticflickr.com/65535/48092407431_558b922766_o.jpg",
    "id_image": "Original_914728",
    "count_view": 0
  },
  {
    "link_thumb": "https://live.staticflickr.com/65535/48092515927_029bffb665_n.jpg",
    "id_album": "186170098",
    "description": "Original_915079",
    "title": "Original_915079",
    "link_img": "https://live.staticflickr.com/65535/48092515927_9f283f3e6c_o.jpg",
    "id_image": "Original_915079",
    "count_view": 0
  },
  {
    "link_thumb": "https://live.staticflickr.com/65535/48092459418_69a6125863_n.jpg",
    "id_album": "186170098",
    "description": "Original_915091",
    "title": "Original_915091",
    "link_img": "https://live.staticflickr.com/65535/48092459418_111b2e9c1b_o.jpg",
    "id_image": "Original_915091",
    "count_view": 0
  },
  {
    "link_thumb": "https://live.staticflickr.com/65535/48092459973_1719027434_n.jpg",
    "id_album": "186170098",
    "description": "Original_915093",
    "title": "Original_915093",
    "link_img": "https://live.staticflickr.com/65535/48092459973_86a32bc90f_o.jpg",
    "id_image": "Original_915093",
    "count_view": 0
  },
  {
    "link_thumb": "https://live.staticflickr.com/65535/48092519397_26aefe73d8_n.jpg",
    "id_album": "186170098",
    "description": "Original_915120",
    "title": "Original_915120",
    "link_img": "https://live.staticflickr.com/65535/48092519397_b8d5367416_o.jpg",
    "id_image": "Original_915120",
    "count_view": 0
  }
]