[
  {
    "total_img": 9,
    "number_page": 1,
    "title": "Yuukyuu no Tierblade",
    "tag": "Yuukyuu no Tierblade",
    "description": "Yuukyuu no Tierblade",
    "link_thumb": "https://live.staticflickr.com/65535/49180619861_c2856a083c_n.jpg",
    "id_album": "730003082",
    "total_view": 9
  }
]