[
  {
    "total_img": 415,
    "number_page": 3,
    "title": "EroMangaSensei",
    "tag": "Izumi Miyamura, EroMangaSensei, Long Hair, Blonde, Schoolgirl, Anime, White Hair, Senju Muramasa, Kimono, bow Clothing, Bikini, Takasago Tomoe, Face, Tomoe Takasago, Kagurazaka Ayame, Elf Yamada, Masamune Izumi, School Uniform, Sagiri Izumi, Smile, Bride, Aqua Eyes, Red Eyes, Cosplay, Blue Eyes, Blue Hair, Blush, Grey Hair, Megumi Jinno, Yukata",
    "description": "EroMangaSensei",
    "link_thumb": "https://live.staticflickr.com/65535/47972328112_52523cd49b_n.jpg",
    "id_album": "-1867227539",
    "total_view": 415
  },
  {
    "total_img": 48,
    "number_page": 1,
    "title": "Elf Yamada",
    "tag": "Elf Yamada,",
    "description": "Elf Yamada",
    "link_thumb": "https://live.staticflickr.com/65535/47972751931_f9f397e9f8_n.jpg",
    "id_album": "-119864724",
    "total_view": 48
  },
  {
    "total_img": 366,
    "number_page": 2,
    "title": "Sagiri Izumi",
    "tag": "Sagiri Izumi,",
    "description": "Sagiri Izumi",
    "link_thumb": "https://live.staticflickr.com/65535/47972694462_41fc3e5d92_n.jpg",
    "id_album": "-742705435",
    "total_view": 366
  }
]