[
  {
    "link_thumb": "https://live.staticflickr.com/65535/48052654612_1991e555e6_n.jpg",
    "id_album": "1788523338",
    "description": "PrincessPrincipal_873181",
    "title": "PrincessPrincipal_873181",
    "link_img": "https://live.staticflickr.com/65535/48052654612_7b401d1cef_o.jpg",
    "id_image": "PrincessPrincipal_873181",
    "count_view": 0
  },
  {
    "link_thumb": "https://live.staticflickr.com/65535/48052655727_4acb65812f_n.jpg",
    "id_album": "1788523338",
    "description": "PrincessPrincipal_975556",
    "title": "PrincessPrincipal_975556",
    "link_img": "https://live.staticflickr.com/65535/48052655727_a1008afc60_o.jpg",
    "id_image": "PrincessPrincipal_975556",
    "count_view": 0
  }
]