[
  {
    "total_img": 19,
    "number_page": 1,
    "title": "Ajin DemiHuman",
    "tag": "Building, Horror, Sato Ajin, Black  White, Shadow, Black, Invisible Black Matter, Kaito Ajin, Kei Nagai, Creepy, Anime, Takeshi Kotobuki, Purple, Dark, Ghost, Monster, Ajin DemiHuman",
    "description": "Ajin DemiHuman",
    "link_thumb": "https://live.staticflickr.com/65535/47890978341_a9ee1f8c5e_n.jpg",
    "id_album": "2113250260",
    "total_view": 19
  },
  {
    "total_img": 1083,
    "number_page": 6,
    "title": "Anime",
    "tag": "Anime,",
    "description": "Anime",
    "link_thumb": "https://live.staticflickr.com/65535/48066953706_2771a62522_n.jpg",
    "id_album": "-1920923841",
    "total_view": 1083
  },
  {
    "total_img": 20,
    "number_page": 1,
    "title": "Black",
    "tag": "Black,",
    "description": "Black",
    "link_thumb": "https://live.staticflickr.com/65535/48066127517_3fea9bf48a_n.jpg",
    "id_album": "1587587886",
    "total_view": 20
  },
  {
    "total_img": 6,
    "number_page": 1,
    "title": "Creepy",
    "tag": "Creepy,",
    "description": "Creepy",
    "link_thumb": "https://live.staticflickr.com/65535/48060310591_1caffe351e_n.jpg",
    "id_album": "-735609420",
    "total_view": 6
  },
  {
    "total_img": 58,
    "number_page": 1,
    "title": "Dark",
    "tag": "Dark,",
    "description": "Dark",
    "link_thumb": "https://live.staticflickr.com/65535/48066127517_3fea9bf48a_n.jpg",
    "id_album": "2021464556",
    "total_view": 58
  },
  {
    "total_img": 9,
    "number_page": 1,
    "title": "Monster",
    "tag": "Monster,",
    "description": "Monster",
    "link_thumb": "https://live.staticflickr.com/65535/48095131323_1aa1ba55cc_n.jpg",
    "id_album": "44895381",
    "total_view": 9
  }
]