[
  {
    "link_thumb": "https://live.staticflickr.com/65535/48070425966_a8311e1120_n.jpg",
    "id_album": "1931398473",
    "description": "MagusTale_215740",
    "title": "MagusTale_215740",
    "link_img": "https://live.staticflickr.com/65535/48070425966_23e3037a31_o.jpg",
    "id_image": "MagusTale_215740",
    "count_view": 0
  },
  {
    "link_thumb": "https://live.staticflickr.com/65535/48070532112_956d775473_n.jpg",
    "id_album": "1931398473",
    "description": "MagusTale_215745",
    "title": "MagusTale_215745",
    "link_img": "https://live.staticflickr.com/65535/48070532112_22202d5b14_o.jpg",
    "id_image": "MagusTale_215745",
    "count_view": 0
  },
  {
    "link_thumb": "https://live.staticflickr.com/65535/48070430346_d033b58043_n.jpg",
    "id_album": "1931398473",
    "description": "MagusTale_721161",
    "title": "MagusTale_721161",
    "link_img": "https://live.staticflickr.com/65535/48070430346_86b7145c19_o.jpg",
    "id_image": "MagusTale_721161",
    "count_view": 0
  }
]