[
  {
    "link_thumb": "https://live.staticflickr.com/65535/46995493315_5523066924_n.jpg",
    "id_album": "-1017029057",
    "description": "CardcaptorSakura_908589",
    "title": "CardcaptorSakura_908589",
    "link_img": "https://live.staticflickr.com/65535/46995493315_8ba8490cb0_o.jpg",
    "id_image": "CardcaptorSakura_908589",
    "count_view": 0
  },
  {
    "link_thumb": "https://live.staticflickr.com/65535/47122101454_1af88928bb_n.jpg",
    "id_album": "-1017029057",
    "description": "CardcaptorSakura_908592",
    "title": "CardcaptorSakura_908592",
    "link_img": "https://live.staticflickr.com/65535/47122101454_cfb2688d4f_o.jpg",
    "id_image": "CardcaptorSakura_908592",
    "count_view": 0
  },
  {
    "link_thumb": "https://live.staticflickr.com/65535/40944836783_3c69eee1b0_n.jpg",
    "id_album": "-1017029057",
    "description": "CardcaptorSakura_908611",
    "title": "CardcaptorSakura_908611",
    "link_img": "https://live.staticflickr.com/65535/40944836783_a057189317_o.jpg",
    "id_image": "CardcaptorSakura_908611",
    "count_view": 0
  },
  {
    "link_thumb": "https://live.staticflickr.com/65535/47122103194_4bf23f9228_n.jpg",
    "id_album": "-1017029057",
    "description": "CardcaptorSakura_908613",
    "title": "CardcaptorSakura_908613",
    "link_img": "https://live.staticflickr.com/65535/47122103194_5019a834ca_o.jpg",
    "id_image": "CardcaptorSakura_908613",
    "count_view": 0
  },
  {
    "link_thumb": "https://live.staticflickr.com/65535/40944838303_3336ec4b69_n.jpg",
    "id_album": "-1017029057",
    "description": "CardcaptorSakura_908614",
    "title": "CardcaptorSakura_908614",
    "link_img": "https://live.staticflickr.com/65535/40944838303_52106cb2c1_o.jpg",
    "id_image": "CardcaptorSakura_908614",
    "count_view": 0
  },
  {
    "link_thumb": "https://live.staticflickr.com/65535/47122105104_ee6fc59331_n.jpg",
    "id_album": "-1017029057",
    "description": "CardcaptorSakura_908647",
    "title": "CardcaptorSakura_908647",
    "link_img": "https://live.staticflickr.com/65535/47122105104_66016b4965_o.jpg",
    "id_image": "CardcaptorSakura_908647",
    "count_view": 0
  },
  {
    "link_thumb": "https://live.staticflickr.com/65535/47122105414_578205ab47_n.jpg",
    "id_album": "-1017029057",
    "description": "CardcaptorSakura_908656",
    "title": "CardcaptorSakura_908656",
    "link_img": "https://live.staticflickr.com/65535/47122105414_9d10b6956e_o.jpg",
    "id_image": "CardcaptorSakura_908656",
    "count_view": 0
  },
  {
    "link_thumb": "https://live.staticflickr.com/65535/46995500165_f0a432965f_n.jpg",
    "id_album": "-1017029057",
    "description": "CardcaptorSakura_908657",
    "title": "CardcaptorSakura_908657",
    "link_img": "https://live.staticflickr.com/65535/46995500165_192d9e9e13_o.jpg",
    "id_image": "CardcaptorSakura_908657",
    "count_view": 0
  },
  {
    "link_thumb": "https://live.staticflickr.com/65535/47859442812_c5c8793f86_n.jpg",
    "id_album": "-1017029057",
    "description": "CardcaptorSakura_908660",
    "title": "CardcaptorSakura_908660",
    "link_img": "https://live.staticflickr.com/65535/47859442812_d7a02b5e29_o.jpg",
    "id_image": "CardcaptorSakura_908660",
    "count_view": 0
  },
  {
    "link_thumb": "https://live.staticflickr.com/65535/46995502225_35a01d20cb_n.jpg",
    "id_album": "-1017029057",
    "description": "CardcaptorSakura_908662",
    "title": "CardcaptorSakura_908662",
    "link_img": "https://live.staticflickr.com/65535/46995502225_b630ac84db_o.jpg",
    "id_image": "CardcaptorSakura_908662",
    "count_view": 0
  },
  {
    "link_thumb": "https://live.staticflickr.com/65535/47859445762_04a4e56241_n.jpg",
    "id_album": "-1017029057",
    "description": "CardcaptorSakura_908663",
    "title": "CardcaptorSakura_908663",
    "link_img": "https://live.staticflickr.com/65535/47859445762_734d86c251_o.jpg",
    "id_image": "CardcaptorSakura_908663",
    "count_view": 0
  },
  {
    "link_thumb": "https://live.staticflickr.com/65535/47911452101_216cd9bfd6_n.jpg",
    "id_album": "-1017029057",
    "description": "CardcaptorSakura_908668",
    "title": "CardcaptorSakura_908668",
    "link_img": "https://live.staticflickr.com/65535/47911452101_a799f12339_o.jpg",
    "id_image": "CardcaptorSakura_908668",
    "count_view": 0
  },
  {
    "link_thumb": "https://live.staticflickr.com/65535/47859453252_66755a39b0_n.jpg",
    "id_album": "-1017029057",
    "description": "CardcaptorSakura_908670",
    "title": "CardcaptorSakura_908670",
    "link_img": "https://live.staticflickr.com/65535/47859453252_4dca2e0549_o.jpg",
    "id_image": "CardcaptorSakura_908670",
    "count_view": 0
  },
  {
    "link_thumb": "https://live.staticflickr.com/65535/47859454652_9c1f75bca8_n.jpg",
    "id_album": "-1017029057",
    "description": "CardcaptorSakura_908671",
    "title": "CardcaptorSakura_908671",
    "link_img": "https://live.staticflickr.com/65535/47859454652_481e461337_o.jpg",
    "id_image": "CardcaptorSakura_908671",
    "count_view": 0
  },
  {
    "link_thumb": "https://live.staticflickr.com/65535/47122114744_0c0e7fbbbf_n.jpg",
    "id_album": "-1017029057",
    "description": "CardcaptorSakura_908672",
    "title": "CardcaptorSakura_908672",
    "link_img": "https://live.staticflickr.com/65535/47122114744_7daea1ed41_o.jpg",
    "id_image": "CardcaptorSakura_908672",
    "count_view": 0
  },
  {
    "link_thumb": "https://live.staticflickr.com/65535/47911453941_9ee233d89a_n.jpg",
    "id_album": "-1017029057",
    "description": "CardcaptorSakura_908674",
    "title": "CardcaptorSakura_908674",
    "link_img": "https://live.staticflickr.com/65535/47911453941_edc318da99_o.jpg",
    "id_image": "CardcaptorSakura_908674",
    "count_view": 0
  },
  {
    "link_thumb": "https://live.staticflickr.com/65535/47122118014_a5f7819cef_n.jpg",
    "id_album": "-1017029057",
    "description": "CardcaptorSakura_908675",
    "title": "CardcaptorSakura_908675",
    "link_img": "https://live.staticflickr.com/65535/47122118014_fca7fe482c_o.jpg",
    "id_image": "CardcaptorSakura_908675",
    "count_view": 0
  },
  {
    "link_thumb": "https://live.staticflickr.com/65535/47911455491_5a40114e07_n.jpg",
    "id_album": "-1017029057",
    "description": "CardcaptorSakura_908678",
    "title": "CardcaptorSakura_908678",
    "link_img": "https://live.staticflickr.com/65535/47911455491_b566aa1ac4_o.jpg",
    "id_image": "CardcaptorSakura_908678",
    "count_view": 0
  },
  {
    "link_thumb": "https://live.staticflickr.com/65535/47859460782_c9d83867a2_n.jpg",
    "id_album": "-1017029057",
    "description": "CardcaptorSakura_908679",
    "title": "CardcaptorSakura_908679",
    "link_img": "https://live.staticflickr.com/65535/47859460782_b610e7523b_o.jpg",
    "id_image": "CardcaptorSakura_908679",
    "count_view": 0
  },
  {
    "link_thumb": "https://live.staticflickr.com/65535/47122119994_c1f5118c00_n.jpg",
    "id_album": "-1017029057",
    "description": "CardcaptorSakura_908680",
    "title": "CardcaptorSakura_908680",
    "link_img": "https://live.staticflickr.com/65535/47122119994_1f40183163_o.jpg",
    "id_image": "CardcaptorSakura_908680",
    "count_view": 0
  },
  {
    "link_thumb": "https://live.staticflickr.com/65535/40944857543_c094d29545_n.jpg",
    "id_album": "-1017029057",
    "description": "CardcaptorSakura_908682",
    "title": "CardcaptorSakura_908682",
    "link_img": "https://live.staticflickr.com/65535/40944857543_daede2c506_o.jpg",
    "id_image": "CardcaptorSakura_908682",
    "count_view": 0
  },
  {
    "link_thumb": "https://live.staticflickr.com/65535/40944858283_35f019d704_n.jpg",
    "id_album": "-1017029057",
    "description": "CardcaptorSakura_908683",
    "title": "CardcaptorSakura_908683",
    "link_img": "https://live.staticflickr.com/65535/40944858283_8e8a530ffb_o.jpg",
    "id_image": "CardcaptorSakura_908683",
    "count_view": 0
  },
  {
    "link_thumb": "https://live.staticflickr.com/65535/47911458691_158d0d7884_n.jpg",
    "id_album": "-1017029057",
    "description": "CardcaptorSakura_908684",
    "title": "CardcaptorSakura_908684",
    "link_img": "https://live.staticflickr.com/65535/47911458691_994af42776_o.jpg",
    "id_image": "CardcaptorSakura_908684",
    "count_view": 0
  },
  {
    "link_thumb": "https://live.staticflickr.com/65535/47911459391_af360baf2f_n.jpg",
    "id_album": "-1017029057",
    "description": "CardcaptorSakura_908685",
    "title": "CardcaptorSakura_908685",
    "link_img": "https://live.staticflickr.com/65535/47911459391_5bef468a62_o.jpg",
    "id_image": "CardcaptorSakura_908685",
    "count_view": 0
  },
  {
    "link_thumb": "https://live.staticflickr.com/65535/46995514505_428b8b1d95_n.jpg",
    "id_album": "-1017029057",
    "description": "CardcaptorSakura_908686",
    "title": "CardcaptorSakura_908686",
    "link_img": "https://live.staticflickr.com/65535/46995514505_1654b028e6_o.jpg",
    "id_image": "CardcaptorSakura_908686",
    "count_view": 0
  },
  {
    "link_thumb": "https://live.staticflickr.com/65535/47911461001_ce7e4772c6_n.jpg",
    "id_album": "-1017029057",
    "description": "CardcaptorSakura_908687",
    "title": "CardcaptorSakura_908687",
    "link_img": "https://live.staticflickr.com/65535/47911461001_d4a57cd52f_o.jpg",
    "id_image": "CardcaptorSakura_908687",
    "count_view": 0
  },
  {
    "link_thumb": "https://live.staticflickr.com/65535/47911461881_a088780603_n.jpg",
    "id_album": "-1017029057",
    "description": "CardcaptorSakura_908797",
    "title": "CardcaptorSakura_908797",
    "link_img": "https://live.staticflickr.com/65535/47911461881_9b8ecc7e8d_o.jpg",
    "id_image": "CardcaptorSakura_908797",
    "count_view": 0
  },
  {
    "link_thumb": "https://live.staticflickr.com/65535/47122124604_91ef42bb9e_n.jpg",
    "id_album": "-1017029057",
    "description": "CardcaptorSakura_908798",
    "title": "CardcaptorSakura_908798",
    "link_img": "https://live.staticflickr.com/65535/47122124604_c64147c53b_o.jpg",
    "id_image": "CardcaptorSakura_908798",
    "count_view": 0
  },
  {
    "link_thumb": "https://live.staticflickr.com/65535/40944864593_df9e38e42d_n.jpg",
    "id_album": "-1017029057",
    "description": "CardcaptorSakura_908800",
    "title": "CardcaptorSakura_908800",
    "link_img": "https://live.staticflickr.com/65535/40944864593_51cd0cbd29_o.jpg",
    "id_image": "CardcaptorSakura_908800",
    "count_view": 0
  },
  {
    "link_thumb": "https://live.staticflickr.com/65535/47859466022_dc0152b443_n.jpg",
    "id_album": "-1017029057",
    "description": "CardcaptorSakura_908801",
    "title": "CardcaptorSakura_908801",
    "link_img": "https://live.staticflickr.com/65535/47859466022_65c3b43862_o.jpg",
    "id_image": "CardcaptorSakura_908801",
    "count_view": 0
  },
  {
    "link_thumb": "https://live.staticflickr.com/65535/47911465661_b6ddd39571_n.jpg",
    "id_album": "-1017029057",
    "description": "CardcaptorSakura_908802",
    "title": "CardcaptorSakura_908802",
    "link_img": "https://live.staticflickr.com/65535/47911465661_53b9509784_o.jpg",
    "id_image": "CardcaptorSakura_908802",
    "count_view": 0
  },
  {
    "link_thumb": "https://live.staticflickr.com/65535/46995523255_d6a7f98437_n.jpg",
    "id_album": "-1017029057",
    "description": "CardcaptorSakura_908807",
    "title": "CardcaptorSakura_908807",
    "link_img": "https://live.staticflickr.com/65535/46995523255_cd05d7e506_o.jpg",
    "id_image": "CardcaptorSakura_908807",
    "count_view": 0
  },
  {
    "link_thumb": "https://live.staticflickr.com/65535/40944869703_be1e34c809_n.jpg",
    "id_album": "-1017029057",
    "description": "CardcaptorSakura_908809",
    "title": "CardcaptorSakura_908809",
    "link_img": "https://live.staticflickr.com/65535/40944869703_b1c8162ef4_o.jpg",
    "id_image": "CardcaptorSakura_908809",
    "count_view": 0
  },
  {
    "link_thumb": "https://live.staticflickr.com/65535/47859472182_2e72e96dd1_n.jpg",
    "id_album": "-1017029057",
    "description": "CardcaptorSakura_908810",
    "title": "CardcaptorSakura_908810",
    "link_img": "https://live.staticflickr.com/65535/47859472182_745935d55e_o.jpg",
    "id_image": "CardcaptorSakura_908810",
    "count_view": 0
  },
  {
    "link_thumb": "https://live.staticflickr.com/65535/47122130384_2f2d670272_n.jpg",
    "id_album": "-1017029057",
    "description": "CardcaptorSakura_908812",
    "title": "CardcaptorSakura_908812",
    "link_img": "https://live.staticflickr.com/65535/47122130384_1736632c79_o.jpg",
    "id_image": "CardcaptorSakura_908812",
    "count_view": 0
  },
  {
    "link_thumb": "https://live.staticflickr.com/65535/47859473892_bb685aeec7_n.jpg",
    "id_album": "-1017029057",
    "description": "CardcaptorSakura_908813",
    "title": "CardcaptorSakura_908813",
    "link_img": "https://live.staticflickr.com/65535/47859473892_0665752bf2_o.jpg",
    "id_image": "CardcaptorSakura_908813",
    "count_view": 0
  },
  {
    "link_thumb": "https://live.staticflickr.com/65535/47911471481_038b415d3b_n.jpg",
    "id_album": "-1017029057",
    "description": "CardcaptorSakura_908814",
    "title": "CardcaptorSakura_908814",
    "link_img": "https://live.staticflickr.com/65535/47911471481_3a246f0435_o.jpg",
    "id_image": "CardcaptorSakura_908814",
    "count_view": 0
  },
  {
    "link_thumb": "https://live.staticflickr.com/65535/47911471991_e57ed462c7_n.jpg",
    "id_album": "-1017029057",
    "description": "CardcaptorSakura_908815",
    "title": "CardcaptorSakura_908815",
    "link_img": "https://live.staticflickr.com/65535/47911471991_62ea62bdca_o.jpg",
    "id_image": "CardcaptorSakura_908815",
    "count_view": 0
  },
  {
    "link_thumb": "https://live.staticflickr.com/65535/47122132624_d31de9b4d4_n.jpg",
    "id_album": "-1017029057",
    "description": "CardcaptorSakura_908816",
    "title": "CardcaptorSakura_908816",
    "link_img": "https://live.staticflickr.com/65535/47122132624_45489e1fc6_o.jpg",
    "id_image": "CardcaptorSakura_908816",
    "count_view": 0
  },
  {
    "link_thumb": "https://live.staticflickr.com/65535/47911473051_aaff0ea950_n.jpg",
    "id_album": "-1017029057",
    "description": "CardcaptorSakura_908817",
    "title": "CardcaptorSakura_908817",
    "link_img": "https://live.staticflickr.com/65535/47911473051_3888c8458f_o.jpg",
    "id_image": "CardcaptorSakura_908817",
    "count_view": 0
  },
  {
    "link_thumb": "https://live.staticflickr.com/65535/47122133794_257970631c_n.jpg",
    "id_album": "-1017029057",
    "description": "CardcaptorSakura_908818",
    "title": "CardcaptorSakura_908818",
    "link_img": "https://live.staticflickr.com/65535/47122133794_2066d66952_o.jpg",
    "id_image": "CardcaptorSakura_908818",
    "count_view": 0
  },
  {
    "link_thumb": "https://live.staticflickr.com/65535/46995529565_0245d1b080_n.jpg",
    "id_album": "-1017029057",
    "description": "CardcaptorSakura_908819",
    "title": "CardcaptorSakura_908819",
    "link_img": "https://live.staticflickr.com/65535/46995529565_20d74bfa36_o.jpg",
    "id_image": "CardcaptorSakura_908819",
    "count_view": 0
  },
  {
    "link_thumb": "https://live.staticflickr.com/65535/40944877403_de57176bd8_n.jpg",
    "id_album": "-1017029057",
    "description": "CardcaptorSakura_908821",
    "title": "CardcaptorSakura_908821",
    "link_img": "https://live.staticflickr.com/65535/40944877403_3fa44caeb0_o.jpg",
    "id_image": "CardcaptorSakura_908821",
    "count_view": 0
  },
  {
    "link_thumb": "https://live.staticflickr.com/65535/47859480092_88d2840cbe_n.jpg",
    "id_album": "-1017029057",
    "description": "CardcaptorSakura_908822",
    "title": "CardcaptorSakura_908822",
    "link_img": "https://live.staticflickr.com/65535/47859480092_8caeea7b71_o.jpg",
    "id_image": "CardcaptorSakura_908822",
    "count_view": 0
  },
  {
    "link_thumb": "https://live.staticflickr.com/65535/46995537435_80c69beea1_n.jpg",
    "id_album": "-1017029057",
    "description": "CardcaptorSakura_908831",
    "title": "CardcaptorSakura_908831",
    "link_img": "https://live.staticflickr.com/65535/46995537435_a70a58f91e_o.jpg",
    "id_image": "CardcaptorSakura_908831",
    "count_view": 0
  },
  {
    "link_thumb": "https://live.staticflickr.com/65535/47122141554_e3c8eb1718_n.jpg",
    "id_album": "-1017029057",
    "description": "CardcaptorSakura_908832",
    "title": "CardcaptorSakura_908832",
    "link_img": "https://live.staticflickr.com/65535/47122141554_8742a14231_o.jpg",
    "id_image": "CardcaptorSakura_908832",
    "count_view": 0
  },
  {
    "link_thumb": "https://live.staticflickr.com/65535/46995538775_ab4183cd6b_n.jpg",
    "id_album": "-1017029057",
    "description": "CardcaptorSakura_908833",
    "title": "CardcaptorSakura_908833",
    "link_img": "https://live.staticflickr.com/65535/46995538775_e9f1bdd97e_o.jpg",
    "id_image": "CardcaptorSakura_908833",
    "count_view": 0
  },
  {
    "link_thumb": "https://live.staticflickr.com/65535/47859489382_b24772a180_n.jpg",
    "id_album": "-1017029057",
    "description": "CardcaptorSakura_908834",
    "title": "CardcaptorSakura_908834",
    "link_img": "https://live.staticflickr.com/65535/47859489382_de747fbe8e_o.jpg",
    "id_image": "CardcaptorSakura_908834",
    "count_view": 0
  },
  {
    "link_thumb": "https://live.staticflickr.com/65535/46995539835_2f014d6055_n.jpg",
    "id_album": "-1017029057",
    "description": "CardcaptorSakura_908835",
    "title": "CardcaptorSakura_908835",
    "link_img": "https://live.staticflickr.com/65535/46995539835_fc93403861_o.jpg",
    "id_image": "CardcaptorSakura_908835",
    "count_view": 0
  },
  {
    "link_thumb": "https://live.staticflickr.com/65535/46995540845_f8b78e91c4_n.jpg",
    "id_album": "-1017029057",
    "description": "CardcaptorSakura_908837",
    "title": "CardcaptorSakura_908837",
    "link_img": "https://live.staticflickr.com/65535/46995540845_bc701e6b77_o.jpg",
    "id_image": "CardcaptorSakura_908837",
    "count_view": 0
  },
  {
    "link_thumb": "https://live.staticflickr.com/65535/46995541415_722cba7027_n.jpg",
    "id_album": "-1017029057",
    "description": "CardcaptorSakura_908838",
    "title": "CardcaptorSakura_908838",
    "link_img": "https://live.staticflickr.com/65535/46995541415_9c11381529_o.jpg",
    "id_image": "CardcaptorSakura_908838",
    "count_view": 0
  },
  {
    "link_thumb": "https://live.staticflickr.com/65535/46995541955_f904efa552_n.jpg",
    "id_album": "-1017029057",
    "description": "CardcaptorSakura_908839",
    "title": "CardcaptorSakura_908839",
    "link_img": "https://live.staticflickr.com/65535/46995541955_138843e35f_o.jpg",
    "id_image": "CardcaptorSakura_908839",
    "count_view": 0
  },
  {
    "link_thumb": "https://live.staticflickr.com/65535/47859492642_2cd1072006_n.jpg",
    "id_album": "-1017029057",
    "description": "CardcaptorSakura_908841",
    "title": "CardcaptorSakura_908841",
    "link_img": "https://live.staticflickr.com/65535/47859492642_cb9a25aa92_o.jpg",
    "id_image": "CardcaptorSakura_908841",
    "count_view": 0
  },
  {
    "link_thumb": "https://live.staticflickr.com/65535/40944891573_ab0a3cd523_n.jpg",
    "id_album": "-1017029057",
    "description": "CardcaptorSakura_908842",
    "title": "CardcaptorSakura_908842",
    "link_img": "https://live.staticflickr.com/65535/40944891573_9870c11bfb_o.jpg",
    "id_image": "CardcaptorSakura_908842",
    "count_view": 0
  },
  {
    "link_thumb": "https://live.staticflickr.com/65535/47911488981_a113c775f7_n.jpg",
    "id_album": "-1017029057",
    "description": "CardcaptorSakura_908843",
    "title": "CardcaptorSakura_908843",
    "link_img": "https://live.staticflickr.com/65535/47911488981_d0663e0227_o.jpg",
    "id_image": "CardcaptorSakura_908843",
    "count_view": 0
  },
  {
    "link_thumb": "https://live.staticflickr.com/65535/47122148854_6f1ce332a3_n.jpg",
    "id_album": "-1017029057",
    "description": "CardcaptorSakura_908844",
    "title": "CardcaptorSakura_908844",
    "link_img": "https://live.staticflickr.com/65535/47122148854_d20e754500_o.jpg",
    "id_image": "CardcaptorSakura_908844",
    "count_view": 0
  },
  {
    "link_thumb": "https://live.staticflickr.com/65535/47911490231_9b86d60dcb_n.jpg",
    "id_album": "-1017029057",
    "description": "CardcaptorSakura_908847",
    "title": "CardcaptorSakura_908847",
    "link_img": "https://live.staticflickr.com/65535/47911490231_c8e04a5f3a_o.jpg",
    "id_image": "CardcaptorSakura_908847",
    "count_view": 0
  },
  {
    "link_thumb": "https://live.staticflickr.com/65535/46995545075_d3eb6f695e_n.jpg",
    "id_album": "-1017029057",
    "description": "CardcaptorSakura_908849",
    "title": "CardcaptorSakura_908849",
    "link_img": "https://live.staticflickr.com/65535/46995545075_6a29907834_o.jpg",
    "id_image": "CardcaptorSakura_908849",
    "count_view": 0
  },
  {
    "link_thumb": "https://live.staticflickr.com/65535/40944894023_85bfa33f52_n.jpg",
    "id_album": "-1017029057",
    "description": "CardcaptorSakura_908850",
    "title": "CardcaptorSakura_908850",
    "link_img": "https://live.staticflickr.com/65535/40944894023_c7e051b196_o.jpg",
    "id_image": "CardcaptorSakura_908850",
    "count_view": 0
  },
  {
    "link_thumb": "https://live.staticflickr.com/65535/40944894513_89848bd782_n.jpg",
    "id_album": "-1017029057",
    "description": "CardcaptorSakura_908853",
    "title": "CardcaptorSakura_908853",
    "link_img": "https://live.staticflickr.com/65535/40944894513_f203765853_o.jpg",
    "id_image": "CardcaptorSakura_908853",
    "count_view": 0
  },
  {
    "link_thumb": "https://live.staticflickr.com/65535/47859496902_ffa571305a_n.jpg",
    "id_album": "-1017029057",
    "description": "CardcaptorSakura_908855",
    "title": "CardcaptorSakura_908855",
    "link_img": "https://live.staticflickr.com/65535/47859496902_3c34c18f9d_o.jpg",
    "id_image": "CardcaptorSakura_908855",
    "count_view": 0
  },
  {
    "link_thumb": "https://live.staticflickr.com/65535/40944895593_ae6e86fd9e_n.jpg",
    "id_album": "-1017029057",
    "description": "CardcaptorSakura_908857",
    "title": "CardcaptorSakura_908857",
    "link_img": "https://live.staticflickr.com/65535/40944895593_76f599ca34_o.jpg",
    "id_image": "CardcaptorSakura_908857",
    "count_view": 0
  },
  {
    "link_thumb": "https://live.staticflickr.com/65535/46995547975_b0b7cf8e24_n.jpg",
    "id_album": "-1017029057",
    "description": "CardcaptorSakura_908860",
    "title": "CardcaptorSakura_908860",
    "link_img": "https://live.staticflickr.com/65535/46995547975_f78fbb7c08_o.jpg",
    "id_image": "CardcaptorSakura_908860",
    "count_view": 0
  },
  {
    "link_thumb": "https://live.staticflickr.com/65535/47859499902_41dc1ab4e0_n.jpg",
    "id_album": "-1017029057",
    "description": "CardcaptorSakura_908861",
    "title": "CardcaptorSakura_908861",
    "link_img": "https://live.staticflickr.com/65535/47859499902_c76527d902_o.jpg",
    "id_image": "CardcaptorSakura_908861",
    "count_view": 0
  },
  {
    "link_thumb": "https://live.staticflickr.com/65535/47859500292_de11b69b4b_n.jpg",
    "id_album": "-1017029057",
    "description": "CardcaptorSakura_908862",
    "title": "CardcaptorSakura_908862",
    "link_img": "https://live.staticflickr.com/65535/47859500292_7b126fe743_o.jpg",
    "id_image": "CardcaptorSakura_908862",
    "count_view": 0
  },
  {
    "link_thumb": "https://live.staticflickr.com/65535/47122157474_fa69e97548_n.jpg",
    "id_album": "-1017029057",
    "description": "CardcaptorSakura_908863",
    "title": "CardcaptorSakura_908863",
    "link_img": "https://live.staticflickr.com/65535/47122157474_88aa72e952_o.jpg",
    "id_image": "CardcaptorSakura_908863",
    "count_view": 0
  },
  {
    "link_thumb": "https://live.staticflickr.com/65535/47122158594_df1c810f82_n.jpg",
    "id_album": "-1017029057",
    "description": "CardcaptorSakura_908865",
    "title": "CardcaptorSakura_908865",
    "link_img": "https://live.staticflickr.com/65535/47122158594_5a5e26a707_o.jpg",
    "id_image": "CardcaptorSakura_908865",
    "count_view": 0
  },
  {
    "link_thumb": "https://live.staticflickr.com/65535/47122159714_daf3988a48_n.jpg",
    "id_album": "-1017029057",
    "description": "CardcaptorSakura_908867",
    "title": "CardcaptorSakura_908867",
    "link_img": "https://live.staticflickr.com/65535/47122159714_2470734e22_o.jpg",
    "id_image": "CardcaptorSakura_908867",
    "count_view": 0
  },
  {
    "link_thumb": "https://live.staticflickr.com/65535/47122160684_38436680e1_n.jpg",
    "id_album": "-1017029057",
    "description": "CardcaptorSakura_908870",
    "title": "CardcaptorSakura_908870",
    "link_img": "https://live.staticflickr.com/65535/47122160684_aa098f1966_o.jpg",
    "id_image": "CardcaptorSakura_908870",
    "count_view": 0
  },
  {
    "link_thumb": "https://live.staticflickr.com/65535/47122161484_3bd335bdd5_n.jpg",
    "id_album": "-1017029057",
    "description": "CardcaptorSakura_908872",
    "title": "CardcaptorSakura_908872",
    "link_img": "https://live.staticflickr.com/65535/47122161484_2200cde7b9_o.jpg",
    "id_image": "CardcaptorSakura_908872",
    "count_view": 0
  },
  {
    "link_thumb": "https://live.staticflickr.com/65535/47122161884_712afae25a_n.jpg",
    "id_album": "-1017029057",
    "description": "CardcaptorSakura_908874",
    "title": "CardcaptorSakura_908874",
    "link_img": "https://live.staticflickr.com/65535/47122161884_57327dce7c_o.jpg",
    "id_image": "CardcaptorSakura_908874",
    "count_view": 0
  },
  {
    "link_thumb": "https://live.staticflickr.com/65535/47911498711_7b833e7ce9_n.jpg",
    "id_album": "-1017029057",
    "description": "CardcaptorSakura_908875",
    "title": "CardcaptorSakura_908875",
    "link_img": "https://live.staticflickr.com/65535/47911498711_34d79a4d3e_o.jpg",
    "id_image": "CardcaptorSakura_908875",
    "count_view": 0
  },
  {
    "link_thumb": "https://live.staticflickr.com/65535/47122163624_89196c97b0_n.jpg",
    "id_album": "-1017029057",
    "description": "CardcaptorSakura_908877",
    "title": "CardcaptorSakura_908877",
    "link_img": "https://live.staticflickr.com/65535/47122163624_4c6e7253f2_o.jpg",
    "id_image": "CardcaptorSakura_908877",
    "count_view": 0
  },
  {
    "link_thumb": "https://live.staticflickr.com/65535/40944902433_4dfd5a79b2_n.jpg",
    "id_album": "-1017029057",
    "description": "CardcaptorSakura_908878",
    "title": "CardcaptorSakura_908878",
    "link_img": "https://live.staticflickr.com/65535/40944902433_e1c66e3c27_o.jpg",
    "id_image": "CardcaptorSakura_908878",
    "count_view": 0
  },
  {
    "link_thumb": "https://live.staticflickr.com/65535/47911500981_b4824ec330_n.jpg",
    "id_album": "-1017029057",
    "description": "CardcaptorSakura_908879",
    "title": "CardcaptorSakura_908879",
    "link_img": "https://live.staticflickr.com/65535/47911500981_8bf0721532_o.jpg",
    "id_image": "CardcaptorSakura_908879",
    "count_view": 0
  },
  {
    "link_thumb": "https://live.staticflickr.com/65535/40944902953_a2ba32d8f4_n.jpg",
    "id_album": "-1017029057",
    "description": "CardcaptorSakura_908880",
    "title": "CardcaptorSakura_908880",
    "link_img": "https://live.staticflickr.com/65535/40944902953_0eee3dc3bf_o.jpg",
    "id_image": "CardcaptorSakura_908880",
    "count_view": 0
  },
  {
    "link_thumb": "https://live.staticflickr.com/65535/40944905783_7d56dbd37e_n.jpg",
    "id_album": "-1017029057",
    "description": "CardcaptorSakura_908881",
    "title": "CardcaptorSakura_908881",
    "link_img": "https://live.staticflickr.com/65535/40944905783_28335214de_o.jpg",
    "id_image": "CardcaptorSakura_908881",
    "count_view": 0
  },
  {
    "link_thumb": "https://live.staticflickr.com/65535/47122171204_df9e4d810b_n.jpg",
    "id_album": "-1017029057",
    "description": "CardcaptorSakura_908882",
    "title": "CardcaptorSakura_908882",
    "link_img": "https://live.staticflickr.com/65535/47122171204_8d681b703d_o.jpg",
    "id_image": "CardcaptorSakura_908882",
    "count_view": 0
  },
  {
    "link_thumb": "https://live.staticflickr.com/65535/47859517802_30a3109faa_n.jpg",
    "id_album": "-1017029057",
    "description": "CardcaptorSakura_908883",
    "title": "CardcaptorSakura_908883",
    "link_img": "https://live.staticflickr.com/65535/47859517802_5ff6ece30a_o.jpg",
    "id_image": "CardcaptorSakura_908883",
    "count_view": 0
  },
  {
    "link_thumb": "https://live.staticflickr.com/65535/47859518662_08df2ba0c1_n.jpg",
    "id_album": "-1017029057",
    "description": "CardcaptorSakura_908884",
    "title": "CardcaptorSakura_908884",
    "link_img": "https://live.staticflickr.com/65535/47859518662_4c184b4b88_o.jpg",
    "id_image": "CardcaptorSakura_908884",
    "count_view": 0
  },
  {
    "link_thumb": "https://live.staticflickr.com/65535/47911509521_32d8f801d5_n.jpg",
    "id_album": "-1017029057",
    "description": "CardcaptorSakura_908885",
    "title": "CardcaptorSakura_908885",
    "link_img": "https://live.staticflickr.com/65535/47911509521_cd7a244139_o.jpg",
    "id_image": "CardcaptorSakura_908885",
    "count_view": 0
  },
  {
    "link_thumb": "https://live.staticflickr.com/65535/47859520532_2b6ce8e48e_n.jpg",
    "id_album": "-1017029057",
    "description": "CardcaptorSakura_908886",
    "title": "CardcaptorSakura_908886",
    "link_img": "https://live.staticflickr.com/65535/47859520532_c54af6a655_o.jpg",
    "id_image": "CardcaptorSakura_908886",
    "count_view": 0
  },
  {
    "link_thumb": "https://live.staticflickr.com/65535/47911510681_d1ea955edd_n.jpg",
    "id_album": "-1017029057",
    "description": "CardcaptorSakura_908887",
    "title": "CardcaptorSakura_908887",
    "link_img": "https://live.staticflickr.com/65535/47911510681_bdcd846e50_o.jpg",
    "id_image": "CardcaptorSakura_908887",
    "count_view": 0
  },
  {
    "link_thumb": "https://live.staticflickr.com/65535/47911511401_c3c83b471d_n.jpg",
    "id_album": "-1017029057",
    "description": "CardcaptorSakura_908888",
    "title": "CardcaptorSakura_908888",
    "link_img": "https://live.staticflickr.com/65535/47911511401_4d305026d2_o.jpg",
    "id_image": "CardcaptorSakura_908888",
    "count_view": 0
  },
  {
    "link_thumb": "https://live.staticflickr.com/65535/40944910113_a6be798763_n.jpg",
    "id_album": "-1017029057",
    "description": "CardcaptorSakura_908889",
    "title": "CardcaptorSakura_908889",
    "link_img": "https://live.staticflickr.com/65535/40944910113_9987443264_o.jpg",
    "id_image": "CardcaptorSakura_908889",
    "count_view": 0
  },
  {
    "link_thumb": "https://live.staticflickr.com/65535/47122176074_3f7e9ea713_n.jpg",
    "id_album": "-1017029057",
    "description": "CardcaptorSakura_908890",
    "title": "CardcaptorSakura_908890",
    "link_img": "https://live.staticflickr.com/65535/47122176074_2fcec2e4c4_o.jpg",
    "id_image": "CardcaptorSakura_908890",
    "count_view": 0
  },
  {
    "link_thumb": "https://live.staticflickr.com/65535/47859525442_78c95b89df_n.jpg",
    "id_album": "-1017029057",
    "description": "CardcaptorSakura_908891",
    "title": "CardcaptorSakura_908891",
    "link_img": "https://live.staticflickr.com/65535/47859525442_eb9f473bc0_o.jpg",
    "id_image": "CardcaptorSakura_908891",
    "count_view": 0
  },
  {
    "link_thumb": "https://live.staticflickr.com/65535/47911513321_a5a2d931fc_n.jpg",
    "id_album": "-1017029057",
    "description": "CardcaptorSakura_908892",
    "title": "CardcaptorSakura_908892",
    "link_img": "https://live.staticflickr.com/65535/47911513321_595ec96ecf_o.jpg",
    "id_image": "CardcaptorSakura_908892",
    "count_view": 0
  },
  {
    "link_thumb": "https://live.staticflickr.com/65535/46995565185_056e6335d8_n.jpg",
    "id_album": "-1017029057",
    "description": "CardcaptorSakura_908893",
    "title": "CardcaptorSakura_908893",
    "link_img": "https://live.staticflickr.com/65535/46995565185_e476b4c104_o.jpg",
    "id_image": "CardcaptorSakura_908893",
    "count_view": 0
  },
  {
    "link_thumb": "https://live.staticflickr.com/65535/47859527232_f00b2f441d_n.jpg",
    "id_album": "-1017029057",
    "description": "CardcaptorSakura_908894",
    "title": "CardcaptorSakura_908894",
    "link_img": "https://live.staticflickr.com/65535/47859527232_00968d0ec0_o.jpg",
    "id_image": "CardcaptorSakura_908894",
    "count_view": 0
  },
  {
    "link_thumb": "https://live.staticflickr.com/65535/46995566085_742460b5d8_n.jpg",
    "id_album": "-1017029057",
    "description": "CardcaptorSakura_908925",
    "title": "CardcaptorSakura_908925",
    "link_img": "https://live.staticflickr.com/65535/46995566085_4e64525a11_o.jpg",
    "id_image": "CardcaptorSakura_908925",
    "count_view": 0
  },
  {
    "link_thumb": "https://live.staticflickr.com/65535/47122181584_d739a0c87f_n.jpg",
    "id_album": "-1017029057",
    "description": "CardcaptorSakura_908947",
    "title": "CardcaptorSakura_908947",
    "link_img": "https://live.staticflickr.com/65535/47122181584_6318199763_o.jpg",
    "id_image": "CardcaptorSakura_908947",
    "count_view": 0
  },
  {
    "link_thumb": "https://live.staticflickr.com/65535/46995568805_c46945425c_n.jpg",
    "id_album": "-1017029057",
    "description": "CardcaptorSakura_908948",
    "title": "CardcaptorSakura_908948",
    "link_img": "https://live.staticflickr.com/65535/46995568805_bb567d8d77_o.jpg",
    "id_image": "CardcaptorSakura_908948",
    "count_view": 0
  },
  {
    "link_thumb": "https://live.staticflickr.com/65535/46995570505_7aabe04753_n.jpg",
    "id_album": "-1017029057",
    "description": "CardcaptorSakura_910072",
    "title": "CardcaptorSakura_910072",
    "link_img": "https://live.staticflickr.com/65535/46995570505_049f6f05e3_o.jpg",
    "id_image": "CardcaptorSakura_910072",
    "count_view": 0
  },
  {
    "link_thumb": "https://live.staticflickr.com/65535/47911520041_7b23b7dfc9_n.jpg",
    "id_album": "-1017029057",
    "description": "CardcaptorSakura_911447",
    "title": "CardcaptorSakura_911447",
    "link_img": "https://live.staticflickr.com/65535/47911520041_15f5445366_o.jpg",
    "id_image": "CardcaptorSakura_911447",
    "count_view": 0
  },
  {
    "link_thumb": "https://live.staticflickr.com/65535/40944918483_29650433e0_n.jpg",
    "id_album": "-1017029057",
    "description": "CardcaptorSakura_911557",
    "title": "CardcaptorSakura_911557",
    "link_img": "https://live.staticflickr.com/65535/40944918483_7c5c7abdc1_o.jpg",
    "id_image": "CardcaptorSakura_911557",
    "count_view": 0
  },
  {
    "link_thumb": "https://live.staticflickr.com/65535/47122187524_7c1efc8a0c_n.jpg",
    "id_album": "-1017029057",
    "description": "CardcaptorSakura_911695",
    "title": "CardcaptorSakura_911695",
    "link_img": "https://live.staticflickr.com/65535/47122187524_6b18330119_o.jpg",
    "id_image": "CardcaptorSakura_911695",
    "count_view": 0
  },
  {
    "link_thumb": "https://live.staticflickr.com/65535/46995574055_f1a932608f_n.jpg",
    "id_album": "-1017029057",
    "description": "CardcaptorSakura_911708",
    "title": "CardcaptorSakura_911708",
    "link_img": "https://live.staticflickr.com/65535/46995574055_6b6a103b9c_o.jpg",
    "id_image": "CardcaptorSakura_911708",
    "count_view": 0
  },
  {
    "link_thumb": "https://live.staticflickr.com/65535/46995575365_ff07b7d0af_n.jpg",
    "id_album": "-1017029057",
    "description": "CardcaptorSakura_912218",
    "title": "CardcaptorSakura_912218",
    "link_img": "https://live.staticflickr.com/65535/46995575365_de01fff5d3_o.jpg",
    "id_image": "CardcaptorSakura_912218",
    "count_view": 0
  },
  {
    "link_thumb": "https://live.staticflickr.com/65535/40944922593_8f79f2e7ab_n.jpg",
    "id_album": "-1017029057",
    "description": "CardcaptorSakura_913685",
    "title": "CardcaptorSakura_913685",
    "link_img": "https://live.staticflickr.com/65535/40944922593_0b4c805a59_o.jpg",
    "id_image": "CardcaptorSakura_913685",
    "count_view": 0
  },
  {
    "link_thumb": "https://live.staticflickr.com/65535/47122189004_a6dca06511_n.jpg",
    "id_album": "-1017029057",
    "description": "CardcaptorSakura_913687",
    "title": "CardcaptorSakura_913687",
    "link_img": "https://live.staticflickr.com/65535/47122189004_55909f7ca8_o.jpg",
    "id_image": "CardcaptorSakura_913687",
    "count_view": 0
  },
  {
    "link_thumb": "https://live.staticflickr.com/65535/40944923863_47c7015f38_n.jpg",
    "id_album": "-1017029057",
    "description": "CardcaptorSakura_913692",
    "title": "CardcaptorSakura_913692",
    "link_img": "https://live.staticflickr.com/65535/40944923863_8245d22a98_o.jpg",
    "id_image": "CardcaptorSakura_913692",
    "count_view": 0
  },
  {
    "link_thumb": "https://live.staticflickr.com/65535/47911528131_959f221171_n.jpg",
    "id_album": "-1017029057",
    "description": "CardcaptorSakura_913778",
    "title": "CardcaptorSakura_913778",
    "link_img": "https://live.staticflickr.com/65535/47911528131_43fd75b696_o.jpg",
    "id_image": "CardcaptorSakura_913778",
    "count_view": 0
  },
  {
    "link_thumb": "https://live.staticflickr.com/65535/46995581365_2a06f4a96b_n.jpg",
    "id_album": "-1017029057",
    "description": "CardcaptorSakura_914197",
    "title": "CardcaptorSakura_914197",
    "link_img": "https://live.staticflickr.com/65535/46995581365_93ce8691e9_o.jpg",
    "id_image": "CardcaptorSakura_914197",
    "count_view": 0
  },
  {
    "link_thumb": "https://live.staticflickr.com/65535/40944925453_e058b4746e_n.jpg",
    "id_album": "-1017029057",
    "description": "CardcaptorSakura_914591",
    "title": "CardcaptorSakura_914591",
    "link_img": "https://live.staticflickr.com/65535/40944925453_d6ee91081f_o.jpg",
    "id_image": "CardcaptorSakura_914591",
    "count_view": 0
  },
  {
    "link_thumb": "https://live.staticflickr.com/65535/47911529841_f663bd146b_n.jpg",
    "id_album": "-1017029057",
    "description": "CardcaptorSakura_915089",
    "title": "CardcaptorSakura_915089",
    "link_img": "https://live.staticflickr.com/65535/47911529841_aeb1d10e4e_o.jpg",
    "id_image": "CardcaptorSakura_915089",
    "count_view": 0
  },
  {
    "link_thumb": "https://live.staticflickr.com/65535/47122191354_57f44dac06_n.jpg",
    "id_album": "-1017029057",
    "description": "CardcaptorSakura_915111",
    "title": "CardcaptorSakura_915111",
    "link_img": "https://live.staticflickr.com/65535/47122191354_127c3c20d6_o.jpg",
    "id_image": "CardcaptorSakura_915111",
    "count_view": 0
  },
  {
    "link_thumb": "https://live.staticflickr.com/65535/40944927243_8eeea01119_n.jpg",
    "id_album": "-1017029057",
    "description": "CardcaptorSakura_915293",
    "title": "CardcaptorSakura_915293",
    "link_img": "https://live.staticflickr.com/65535/40944927243_165a390812_o.jpg",
    "id_image": "CardcaptorSakura_915293",
    "count_view": 0
  },
  {
    "link_thumb": "https://live.staticflickr.com/65535/47859537952_22b75be516_n.jpg",
    "id_album": "-1017029057",
    "description": "CardcaptorSakura_915298",
    "title": "CardcaptorSakura_915298",
    "link_img": "https://live.staticflickr.com/65535/47859537952_9bce686d45_o.jpg",
    "id_image": "CardcaptorSakura_915298",
    "count_view": 0
  },
  {
    "link_thumb": "https://live.staticflickr.com/65535/47911532171_10db5248fa_n.jpg",
    "id_album": "-1017029057",
    "description": "CardcaptorSakura_915589",
    "title": "CardcaptorSakura_915589",
    "link_img": "https://live.staticflickr.com/65535/47911532171_334d8142fa_o.jpg",
    "id_image": "CardcaptorSakura_915589",
    "count_view": 0
  },
  {
    "link_thumb": "https://live.staticflickr.com/65535/46995584515_d353557e99_n.jpg",
    "id_album": "-1017029057",
    "description": "CardcaptorSakura_915803",
    "title": "CardcaptorSakura_915803",
    "link_img": "https://live.staticflickr.com/65535/46995584515_77d1f32f93_o.jpg",
    "id_image": "CardcaptorSakura_915803",
    "count_view": 0
  },
  {
    "link_thumb": "https://live.staticflickr.com/65535/46995585005_79e88b8d76_n.jpg",
    "id_album": "-1017029057",
    "description": "CardcaptorSakura_915826",
    "title": "CardcaptorSakura_915826",
    "link_img": "https://live.staticflickr.com/65535/46995585005_b79b0ce2e4_o.jpg",
    "id_image": "CardcaptorSakura_915826",
    "count_view": 0
  },
  {
    "link_thumb": "https://live.staticflickr.com/65535/47859539102_69dd0b6e21_n.jpg",
    "id_album": "-1017029057",
    "description": "CardcaptorSakura_915827",
    "title": "CardcaptorSakura_915827",
    "link_img": "https://live.staticflickr.com/65535/47859539102_f205d776bd_o.jpg",
    "id_image": "CardcaptorSakura_915827",
    "count_view": 0
  },
  {
    "link_thumb": "https://live.staticflickr.com/65535/46995586465_e16ce217cd_n.jpg",
    "id_album": "-1017029057",
    "description": "CardcaptorSakura_917048",
    "title": "CardcaptorSakura_917048",
    "link_img": "https://live.staticflickr.com/65535/46995586465_ca2b8aef49_o.jpg",
    "id_image": "CardcaptorSakura_917048",
    "count_view": 0
  },
  {
    "link_thumb": "https://live.staticflickr.com/65535/47122196404_7e16e15186_n.jpg",
    "id_album": "-1017029057",
    "description": "CardcaptorSakura_917049",
    "title": "CardcaptorSakura_917049",
    "link_img": "https://live.staticflickr.com/65535/47122196404_aa5eaa7287_o.jpg",
    "id_image": "CardcaptorSakura_917049",
    "count_view": 0
  },
  {
    "link_thumb": "https://live.staticflickr.com/65535/40944933763_d340b16fd8_n.jpg",
    "id_album": "-1017029057",
    "description": "CardcaptorSakura_917058",
    "title": "CardcaptorSakura_917058",
    "link_img": "https://live.staticflickr.com/65535/40944933763_2c4e962a6e_o.jpg",
    "id_image": "CardcaptorSakura_917058",
    "count_view": 0
  },
  {
    "link_thumb": "https://live.staticflickr.com/65535/46995587845_cb6f7c7f3a_n.jpg",
    "id_album": "-1017029057",
    "description": "CardcaptorSakura_917060",
    "title": "CardcaptorSakura_917060",
    "link_img": "https://live.staticflickr.com/65535/46995587845_5c8b09c31b_o.jpg",
    "id_image": "CardcaptorSakura_917060",
    "count_view": 0
  },
  {
    "link_thumb": "https://live.staticflickr.com/65535/46995588235_3e816db164_n.jpg",
    "id_album": "-1017029057",
    "description": "CardcaptorSakura_917063",
    "title": "CardcaptorSakura_917063",
    "link_img": "https://live.staticflickr.com/65535/46995588235_b3b95676bc_o.jpg",
    "id_image": "CardcaptorSakura_917063",
    "count_view": 0
  },
  {
    "link_thumb": "https://live.staticflickr.com/65535/47859541702_fecf508cc8_n.jpg",
    "id_album": "-1017029057",
    "description": "CardcaptorSakura_917134",
    "title": "CardcaptorSakura_917134",
    "link_img": "https://live.staticflickr.com/65535/47859541702_4acd63753f_o.jpg",
    "id_image": "CardcaptorSakura_917134",
    "count_view": 0
  },
  {
    "link_thumb": "https://live.staticflickr.com/65535/47859541912_d53cbaeae1_n.jpg",
    "id_album": "-1017029057",
    "description": "CardcaptorSakura_917142",
    "title": "CardcaptorSakura_917142",
    "link_img": "https://live.staticflickr.com/65535/47859541912_166eee7395_o.jpg",
    "id_image": "CardcaptorSakura_917142",
    "count_view": 0
  },
  {
    "link_thumb": "https://live.staticflickr.com/65535/47911537671_f0e4d92db0_n.jpg",
    "id_album": "-1017029057",
    "description": "CardcaptorSakura_917478",
    "title": "CardcaptorSakura_917478",
    "link_img": "https://live.staticflickr.com/65535/47911537671_d59d5c7d1f_o.jpg",
    "id_image": "CardcaptorSakura_917478",
    "count_view": 0
  },
  {
    "link_thumb": "https://live.staticflickr.com/65535/47911538071_cc3cb58fa5_n.jpg",
    "id_album": "-1017029057",
    "description": "CardcaptorSakura_917611",
    "title": "CardcaptorSakura_917611",
    "link_img": "https://live.staticflickr.com/65535/47911538071_6c172fe8d9_o.jpg",
    "id_image": "CardcaptorSakura_917611",
    "count_view": 0
  },
  {
    "link_thumb": "https://live.staticflickr.com/65535/46995590315_94ef3ce7c9_n.jpg",
    "id_album": "-1017029057",
    "description": "CardcaptorSakura_917882",
    "title": "CardcaptorSakura_917882",
    "link_img": "https://live.staticflickr.com/65535/46995590315_7ca7be6a67_o.jpg",
    "id_image": "CardcaptorSakura_917882",
    "count_view": 0
  },
  {
    "link_thumb": "https://live.staticflickr.com/65535/46995590835_3b80802bf8_n.jpg",
    "id_album": "-1017029057",
    "description": "CardcaptorSakura_918335",
    "title": "CardcaptorSakura_918335",
    "link_img": "https://live.staticflickr.com/65535/46995590835_22e1324333_o.jpg",
    "id_image": "CardcaptorSakura_918335",
    "count_view": 0
  },
  {
    "link_thumb": "https://live.staticflickr.com/65535/46995592015_b316aaa162_n.jpg",
    "id_album": "-1017029057",
    "description": "CardcaptorSakura_918671",
    "title": "CardcaptorSakura_918671",
    "link_img": "https://live.staticflickr.com/65535/46995592015_bfa6550e17_o.jpg",
    "id_image": "CardcaptorSakura_918671",
    "count_view": 0
  },
  {
    "link_thumb": "https://live.staticflickr.com/65535/40944938723_9bd99f6c11_n.jpg",
    "id_album": "-1017029057",
    "description": "CardcaptorSakura_918900",
    "title": "CardcaptorSakura_918900",
    "link_img": "https://live.staticflickr.com/65535/40944938723_28051d5b94_o.jpg",
    "id_image": "CardcaptorSakura_918900",
    "count_view": 0
  },
  {
    "link_thumb": "https://live.staticflickr.com/65535/40944939033_57342715af_n.jpg",
    "id_album": "-1017029057",
    "description": "CardcaptorSakura_919276",
    "title": "CardcaptorSakura_919276",
    "link_img": "https://live.staticflickr.com/65535/40944939033_9ed3bf12cb_o.jpg",
    "id_image": "CardcaptorSakura_919276",
    "count_view": 0
  },
  {
    "link_thumb": "https://live.staticflickr.com/65535/47859544712_8d77bd897a_n.jpg",
    "id_album": "-1017029057",
    "description": "CardcaptorSakura_919296",
    "title": "CardcaptorSakura_919296",
    "link_img": "https://live.staticflickr.com/65535/47859544712_5a06fa3c30_o.jpg",
    "id_image": "CardcaptorSakura_919296",
    "count_view": 0
  },
  {
    "link_thumb": "https://live.staticflickr.com/65535/46995596435_9694f0aab2_n.jpg",
    "id_album": "-1017029057",
    "description": "CardcaptorSakura_919313",
    "title": "CardcaptorSakura_919313",
    "link_img": "https://live.staticflickr.com/65535/46995596435_768c7f186e_o.jpg",
    "id_image": "CardcaptorSakura_919313",
    "count_view": 0
  },
  {
    "link_thumb": "https://live.staticflickr.com/65535/40944941133_97f85ec6f0_n.jpg",
    "id_album": "-1017029057",
    "description": "CardcaptorSakura_919317",
    "title": "CardcaptorSakura_919317",
    "link_img": "https://live.staticflickr.com/65535/40944941133_ae386a2bb1_o.jpg",
    "id_image": "CardcaptorSakura_919317",
    "count_view": 0
  },
  {
    "link_thumb": "https://live.staticflickr.com/65535/46995598515_fd116b2f17_n.jpg",
    "id_album": "-1017029057",
    "description": "CardcaptorSakura_919328",
    "title": "CardcaptorSakura_919328",
    "link_img": "https://live.staticflickr.com/65535/46995598515_d3591b779f_o.jpg",
    "id_image": "CardcaptorSakura_919328",
    "count_view": 0
  },
  {
    "link_thumb": "https://live.staticflickr.com/65535/47911545511_6f069cbb9e_n.jpg",
    "id_album": "-1017029057",
    "description": "CardcaptorSakura_919329",
    "title": "CardcaptorSakura_919329",
    "link_img": "https://live.staticflickr.com/65535/47911545511_b5f7f55aa2_o.jpg",
    "id_image": "CardcaptorSakura_919329",
    "count_view": 0
  },
  {
    "link_thumb": "https://live.staticflickr.com/65535/40944944223_f12a647fbf_n.jpg",
    "id_album": "-1017029057",
    "description": "CardcaptorSakura_919330",
    "title": "CardcaptorSakura_919330",
    "link_img": "https://live.staticflickr.com/65535/40944944223_cca6e3cb2f_o.jpg",
    "id_image": "CardcaptorSakura_919330",
    "count_view": 0
  },
  {
    "link_thumb": "https://live.staticflickr.com/65535/47911546321_f5d6fe5403_n.jpg",
    "id_album": "-1017029057",
    "description": "CardcaptorSakura_919331",
    "title": "CardcaptorSakura_919331",
    "link_img": "https://live.staticflickr.com/65535/47911546321_374a11f718_o.jpg",
    "id_image": "CardcaptorSakura_919331",
    "count_view": 0
  },
  {
    "link_thumb": "https://live.staticflickr.com/65535/47859551212_50602b2ddc_n.jpg",
    "id_album": "-1017029057",
    "description": "CardcaptorSakura_919338",
    "title": "CardcaptorSakura_919338",
    "link_img": "https://live.staticflickr.com/65535/47859551212_6d21cc39ef_o.jpg",
    "id_image": "CardcaptorSakura_919338",
    "count_view": 0
  },
  {
    "link_thumb": "https://live.staticflickr.com/65535/40944948373_a57fdc21f0_n.jpg",
    "id_album": "-1017029057",
    "description": "CardcaptorSakura_919339",
    "title": "CardcaptorSakura_919339",
    "link_img": "https://live.staticflickr.com/65535/40944948373_fea0c590ec_o.jpg",
    "id_image": "CardcaptorSakura_919339",
    "count_view": 0
  },
  {
    "link_thumb": "https://live.staticflickr.com/65535/40944949013_023225ec31_n.jpg",
    "id_album": "-1017029057",
    "description": "CardcaptorSakura_919340",
    "title": "CardcaptorSakura_919340",
    "link_img": "https://live.staticflickr.com/65535/40944949013_efc434f3eb_o.jpg",
    "id_image": "CardcaptorSakura_919340",
    "count_view": 0
  },
  {
    "link_thumb": "https://live.staticflickr.com/65535/47911549461_a0c0d1427a_n.jpg",
    "id_album": "-1017029057",
    "description": "CardcaptorSakura_919341",
    "title": "CardcaptorSakura_919341",
    "link_img": "https://live.staticflickr.com/65535/47911549461_6a5ddb3242_o.jpg",
    "id_image": "CardcaptorSakura_919341",
    "count_view": 0
  },
  {
    "link_thumb": "https://live.staticflickr.com/65535/46995604025_38fb05c1be_n.jpg",
    "id_album": "-1017029057",
    "description": "CardcaptorSakura_919342",
    "title": "CardcaptorSakura_919342",
    "link_img": "https://live.staticflickr.com/65535/46995604025_d15fab5513_o.jpg",
    "id_image": "CardcaptorSakura_919342",
    "count_view": 0
  },
  {
    "link_thumb": "https://live.staticflickr.com/65535/47911550311_fe11fc6a40_n.jpg",
    "id_album": "-1017029057",
    "description": "CardcaptorSakura_919343",
    "title": "CardcaptorSakura_919343",
    "link_img": "https://live.staticflickr.com/65535/47911550311_da486b6459_o.jpg",
    "id_image": "CardcaptorSakura_919343",
    "count_view": 0
  },
  {
    "link_thumb": "https://live.staticflickr.com/65535/47911551371_58df4c0fe6_n.jpg",
    "id_album": "-1017029057",
    "description": "CardcaptorSakura_919346",
    "title": "CardcaptorSakura_919346",
    "link_img": "https://live.staticflickr.com/65535/47911551371_11cb358865_o.jpg",
    "id_image": "CardcaptorSakura_919346",
    "count_view": 0
  },
  {
    "link_thumb": "https://live.staticflickr.com/65535/40944954423_eec989aab2_n.jpg",
    "id_album": "-1017029057",
    "description": "CardcaptorSakura_919347",
    "title": "CardcaptorSakura_919347",
    "link_img": "https://live.staticflickr.com/65535/40944954423_63287b167b_o.jpg",
    "id_image": "CardcaptorSakura_919347",
    "count_view": 0
  },
  {
    "link_thumb": "https://live.staticflickr.com/65535/46995612185_fc0b409e9e_n.jpg",
    "id_album": "-1017029057",
    "description": "CardcaptorSakura_919351",
    "title": "CardcaptorSakura_919351",
    "link_img": "https://live.staticflickr.com/65535/46995612185_8f3b7e6962_o.jpg",
    "id_image": "CardcaptorSakura_919351",
    "count_view": 0
  },
  {
    "link_thumb": "https://live.staticflickr.com/65535/47911557321_38747277b7_n.jpg",
    "id_album": "-1017029057",
    "description": "CardcaptorSakura_919855",
    "title": "CardcaptorSakura_919855",
    "link_img": "https://live.staticflickr.com/65535/47911557321_48edb2e304_o.jpg",
    "id_image": "CardcaptorSakura_919855",
    "count_view": 0
  },
  {
    "link_thumb": "https://live.staticflickr.com/65535/47859566282_419ca02e56_n.jpg",
    "id_album": "-1017029057",
    "description": "CardcaptorSakura_919857",
    "title": "CardcaptorSakura_919857",
    "link_img": "https://live.staticflickr.com/65535/47859566282_efe21d3b2e_o.jpg",
    "id_image": "CardcaptorSakura_919857",
    "count_view": 0
  },
  {
    "link_thumb": "https://live.staticflickr.com/65535/47122225724_6343af9137_n.jpg",
    "id_album": "-1017029057",
    "description": "CardcaptorSakura_919858",
    "title": "CardcaptorSakura_919858",
    "link_img": "https://live.staticflickr.com/65535/47122225724_f4836f519e_o.jpg",
    "id_image": "CardcaptorSakura_919858",
    "count_view": 0
  },
  {
    "link_thumb": "https://live.staticflickr.com/65535/47122226284_c83c9da92e_n.jpg",
    "id_album": "-1017029057",
    "description": "CardcaptorSakura_919860",
    "title": "CardcaptorSakura_919860",
    "link_img": "https://live.staticflickr.com/65535/47122226284_d8c5b23698_o.jpg",
    "id_image": "CardcaptorSakura_919860",
    "count_view": 0
  },
  {
    "link_thumb": "https://live.staticflickr.com/65535/47859568662_3b2c5c1b4e_n.jpg",
    "id_album": "-1017029057",
    "description": "CardcaptorSakura_919864",
    "title": "CardcaptorSakura_919864",
    "link_img": "https://live.staticflickr.com/65535/47859568662_bf3a81b7d6_o.jpg",
    "id_image": "CardcaptorSakura_919864",
    "count_view": 0
  },
  {
    "link_thumb": "https://live.staticflickr.com/65535/47122227354_0ab7ce126d_n.jpg",
    "id_album": "-1017029057",
    "description": "CardcaptorSakura_919865",
    "title": "CardcaptorSakura_919865",
    "link_img": "https://live.staticflickr.com/65535/47122227354_ef315f3f23_o.jpg",
    "id_image": "CardcaptorSakura_919865",
    "count_view": 0
  },
  {
    "link_thumb": "https://live.staticflickr.com/65535/47859569882_d233419004_n.jpg",
    "id_album": "-1017029057",
    "description": "CardcaptorSakura_919866",
    "title": "CardcaptorSakura_919866",
    "link_img": "https://live.staticflickr.com/65535/47859569882_edeea037fa_o.jpg",
    "id_image": "CardcaptorSakura_919866",
    "count_view": 0
  },
  {
    "link_thumb": "https://live.staticflickr.com/65535/40944967083_63d2be8ed5_n.jpg",
    "id_album": "-1017029057",
    "description": "CardcaptorSakura_920032",
    "title": "CardcaptorSakura_920032",
    "link_img": "https://live.staticflickr.com/65535/40944967083_bab7a3ac78_o.jpg",
    "id_image": "CardcaptorSakura_920032",
    "count_view": 0
  },
  {
    "link_thumb": "https://live.staticflickr.com/65535/47911564071_b464066e0d_n.jpg",
    "id_album": "-1017029057",
    "description": "CardcaptorSakura_920454",
    "title": "CardcaptorSakura_920454",
    "link_img": "https://live.staticflickr.com/65535/47911564071_db665cb80a_o.jpg",
    "id_image": "CardcaptorSakura_920454",
    "count_view": 0
  },
  {
    "link_thumb": "https://live.staticflickr.com/65535/47122232584_d38053aa43_n.jpg",
    "id_album": "-1017029057",
    "description": "CardcaptorSakura_921223",
    "title": "CardcaptorSakura_921223",
    "link_img": "https://live.staticflickr.com/65535/47122232584_70d8b4e528_o.jpg",
    "id_image": "CardcaptorSakura_921223",
    "count_view": 0
  },
  {
    "link_thumb": "https://live.staticflickr.com/65535/46995622495_a77b670de4_n.jpg",
    "id_album": "-1017029057",
    "description": "CardcaptorSakura_926230",
    "title": "CardcaptorSakura_926230",
    "link_img": "https://live.staticflickr.com/65535/46995622495_8aa91a0d31_o.jpg",
    "id_image": "CardcaptorSakura_926230",
    "count_view": 0
  },
  {
    "link_thumb": "https://live.staticflickr.com/65535/47859575642_a5f09f0f78_n.jpg",
    "id_album": "-1017029057",
    "description": "CardcaptorSakura_926455",
    "title": "CardcaptorSakura_926455",
    "link_img": "https://live.staticflickr.com/65535/47859575642_001a6e7bf3_o.jpg",
    "id_image": "CardcaptorSakura_926455",
    "count_view": 0
  },
  {
    "link_thumb": "https://live.staticflickr.com/65535/47859578522_abb42c6b56_n.jpg",
    "id_album": "-1017029057",
    "description": "CardcaptorSakura_930933",
    "title": "CardcaptorSakura_930933",
    "link_img": "https://live.staticflickr.com/65535/47859578522_e4c93a4ba5_o.jpg",
    "id_image": "CardcaptorSakura_930933",
    "count_view": 0
  },
  {
    "link_thumb": "https://live.staticflickr.com/65535/47122238014_494b6f0809_n.jpg",
    "id_album": "-1017029057",
    "description": "CardcaptorSakura_932091",
    "title": "CardcaptorSakura_932091",
    "link_img": "https://live.staticflickr.com/65535/47122238014_162d86377c_o.jpg",
    "id_image": "CardcaptorSakura_932091",
    "count_view": 0
  },
  {
    "link_thumb": "https://live.staticflickr.com/65535/47859580592_67b68708df_n.jpg",
    "id_album": "-1017029057",
    "description": "CardcaptorSakura_934857",
    "title": "CardcaptorSakura_934857",
    "link_img": "https://live.staticflickr.com/65535/47859580592_79d0808160_o.jpg",
    "id_image": "CardcaptorSakura_934857",
    "count_view": 0
  },
  {
    "link_thumb": "https://live.staticflickr.com/65535/46995626615_049991b8f6_n.jpg",
    "id_album": "-1017029057",
    "description": "CardcaptorSakura_934858",
    "title": "CardcaptorSakura_934858",
    "link_img": "https://live.staticflickr.com/65535/46995626615_ff2bbfe639_o.jpg",
    "id_image": "CardcaptorSakura_934858",
    "count_view": 0
  },
  {
    "link_thumb": "https://live.staticflickr.com/65535/47859582082_57c1009d6d_n.jpg",
    "id_album": "-1017029057",
    "description": "CardcaptorSakura_934864",
    "title": "CardcaptorSakura_934864",
    "link_img": "https://live.staticflickr.com/65535/47859582082_6b667d1a72_o.jpg",
    "id_image": "CardcaptorSakura_934864",
    "count_view": 0
  },
  {
    "link_thumb": "https://live.staticflickr.com/65535/47859582862_c284fd18b3_n.jpg",
    "id_album": "-1017029057",
    "description": "CardcaptorSakura_934868",
    "title": "CardcaptorSakura_934868",
    "link_img": "https://live.staticflickr.com/65535/47859582862_909e29a11e_o.jpg",
    "id_image": "CardcaptorSakura_934868",
    "count_view": 0
  },
  {
    "link_thumb": "https://live.staticflickr.com/65535/46995629925_628ab76399_n.jpg",
    "id_album": "-1017029057",
    "description": "CardcaptorSakura_937274",
    "title": "CardcaptorSakura_937274",
    "link_img": "https://live.staticflickr.com/65535/46995629925_d9343c19db_o.jpg",
    "id_image": "CardcaptorSakura_937274",
    "count_view": 0
  },
  {
    "link_thumb": "https://live.staticflickr.com/65535/47859585192_dc7a2b8868_n.jpg",
    "id_album": "-1017029057",
    "description": "CardcaptorSakura_937546",
    "title": "CardcaptorSakura_937546",
    "link_img": "https://live.staticflickr.com/65535/47859585192_51a0dc06bc_o.jpg",
    "id_image": "CardcaptorSakura_937546",
    "count_view": 0
  },
  {
    "link_thumb": "https://live.staticflickr.com/65535/46995633375_216b4203bf_n.jpg",
    "id_album": "-1017029057",
    "description": "CardcaptorSakura_941715",
    "title": "CardcaptorSakura_941715",
    "link_img": "https://live.staticflickr.com/65535/46995633375_ef782eeca3_o.jpg",
    "id_image": "CardcaptorSakura_941715",
    "count_view": 0
  },
  {
    "link_thumb": "https://live.staticflickr.com/65535/40944983333_013f3becb2_n.jpg",
    "id_album": "-1017029057",
    "description": "CardcaptorSakura_944221",
    "title": "CardcaptorSakura_944221",
    "link_img": "https://live.staticflickr.com/65535/40944983333_9cc132e851_o.jpg",
    "id_image": "CardcaptorSakura_944221",
    "count_view": 0
  },
  {
    "link_thumb": "https://live.staticflickr.com/65535/40944983963_c10d7e8df4_n.jpg",
    "id_album": "-1017029057",
    "description": "CardcaptorSakura_945081",
    "title": "CardcaptorSakura_945081",
    "link_img": "https://live.staticflickr.com/65535/40944983963_898a451598_o.jpg",
    "id_image": "CardcaptorSakura_945081",
    "count_view": 0
  },
  {
    "link_thumb": "https://live.staticflickr.com/65535/47122246844_d54f610e5c_n.jpg",
    "id_album": "-1017029057",
    "description": "CardcaptorSakura_947727",
    "title": "CardcaptorSakura_947727",
    "link_img": "https://live.staticflickr.com/65535/47122246844_5f44dd23dd_o.jpg",
    "id_image": "CardcaptorSakura_947727",
    "count_view": 0
  },
  {
    "link_thumb": "https://live.staticflickr.com/65535/47859589362_2c220c1960_n.jpg",
    "id_album": "-1017029057",
    "description": "CardcaptorSakura_948029",
    "title": "CardcaptorSakura_948029",
    "link_img": "https://live.staticflickr.com/65535/47859589362_2bcf4df372_o.jpg",
    "id_image": "CardcaptorSakura_948029",
    "count_view": 0
  },
  {
    "link_thumb": "https://live.staticflickr.com/65535/46995639175_8f440dbc72_n.jpg",
    "id_album": "-1017029057",
    "description": "CardcaptorSakura_953822",
    "title": "CardcaptorSakura_953822",
    "link_img": "https://live.staticflickr.com/65535/46995639175_221c8b4368_o.jpg",
    "id_image": "CardcaptorSakura_953822",
    "count_view": 0
  },
  {
    "link_thumb": "https://live.staticflickr.com/65535/47859591212_249ddda01b_n.jpg",
    "id_album": "-1017029057",
    "description": "CardcaptorSakura_954393",
    "title": "CardcaptorSakura_954393",
    "link_img": "https://live.staticflickr.com/65535/47859591212_12b25317ea_o.jpg",
    "id_image": "CardcaptorSakura_954393",
    "count_view": 0
  },
  {
    "link_thumb": "https://live.staticflickr.com/65535/47122256134_01de9320b9_n.jpg",
    "id_album": "-1017029057",
    "description": "CardcaptorSakura_967523",
    "title": "CardcaptorSakura_967523",
    "link_img": "https://live.staticflickr.com/65535/47122256134_78d1a5d811_o.jpg",
    "id_image": "CardcaptorSakura_967523",
    "count_view": 0
  },
  {
    "link_thumb": "https://live.staticflickr.com/65535/46995644325_48c1e18ae0_n.jpg",
    "id_album": "-1017029057",
    "description": "CardcaptorSakura_967659",
    "title": "CardcaptorSakura_967659",
    "link_img": "https://live.staticflickr.com/65535/46995644325_703fb8d519_o.jpg",
    "id_image": "CardcaptorSakura_967659",
    "count_view": 0
  },
  {
    "link_thumb": "https://live.staticflickr.com/65535/47911585181_9869cdaba7_n.jpg",
    "id_album": "-1017029057",
    "description": "CardcaptorSakura_967665",
    "title": "CardcaptorSakura_967665",
    "link_img": "https://live.staticflickr.com/65535/47911585181_91959c89fc_o.jpg",
    "id_image": "CardcaptorSakura_967665",
    "count_view": 0
  },
  {
    "link_thumb": "https://live.staticflickr.com/65535/47122257724_fc985ba500_n.jpg",
    "id_album": "-1017029057",
    "description": "CardcaptorSakura_967668",
    "title": "CardcaptorSakura_967668",
    "link_img": "https://live.staticflickr.com/65535/47122257724_acf4cc5faa_o.jpg",
    "id_image": "CardcaptorSakura_967668",
    "count_view": 0
  },
  {
    "link_thumb": "https://live.staticflickr.com/65535/47122258274_3e95f71605_n.jpg",
    "id_album": "-1017029057",
    "description": "CardcaptorSakura_967669",
    "title": "CardcaptorSakura_967669",
    "link_img": "https://live.staticflickr.com/65535/47122258274_b2cdb231fd_o.jpg",
    "id_image": "CardcaptorSakura_967669",
    "count_view": 0
  },
  {
    "link_thumb": "https://live.staticflickr.com/65535/40944995093_af56413a61_n.jpg",
    "id_album": "-1017029057",
    "description": "CardcaptorSakura_967670",
    "title": "CardcaptorSakura_967670",
    "link_img": "https://live.staticflickr.com/65535/40944995093_56ee5bdef6_o.jpg",
    "id_image": "CardcaptorSakura_967670",
    "count_view": 0
  },
  {
    "link_thumb": "https://live.staticflickr.com/65535/47911588701_10abb41cf7_n.jpg",
    "id_album": "-1017029057",
    "description": "CardcaptorSakura_967675",
    "title": "CardcaptorSakura_967675",
    "link_img": "https://live.staticflickr.com/65535/47911588701_6f63006094_o.jpg",
    "id_image": "CardcaptorSakura_967675",
    "count_view": 0
  },
  {
    "link_thumb": "https://live.staticflickr.com/65535/47859600322_0885cd2ec6_n.jpg",
    "id_album": "-1017029057",
    "description": "CardcaptorSakura_967720",
    "title": "CardcaptorSakura_967720",
    "link_img": "https://live.staticflickr.com/65535/47859600322_8db4310afe_o.jpg",
    "id_image": "CardcaptorSakura_967720",
    "count_view": 0
  },
  {
    "link_thumb": "https://live.staticflickr.com/65535/47122260764_a70b1ae7ce_n.jpg",
    "id_album": "-1017029057",
    "description": "CardcaptorSakura_967725",
    "title": "CardcaptorSakura_967725",
    "link_img": "https://live.staticflickr.com/65535/47122260764_aefecda48e_o.jpg",
    "id_image": "CardcaptorSakura_967725",
    "count_view": 0
  },
  {
    "link_thumb": "https://live.staticflickr.com/65535/46995647605_dfee24f444_n.jpg",
    "id_album": "-1017029057",
    "description": "CardcaptorSakura_968395",
    "title": "CardcaptorSakura_968395",
    "link_img": "https://live.staticflickr.com/65535/46995647605_77148419c5_o.jpg",
    "id_image": "CardcaptorSakura_968395",
    "count_view": 0
  },
  {
    "link_thumb": "https://live.staticflickr.com/65535/47122475754_fb55927539_n.jpg",
    "id_album": "-1017029057",
    "description": "CardcaptorSakura_971168",
    "title": "CardcaptorSakura_971168",
    "link_img": "https://live.staticflickr.com/65535/47122475754_2fdbeea1e8_o.jpg",
    "id_image": "CardcaptorSakura_971168",
    "count_view": 0
  },
  {
    "link_thumb": "https://live.staticflickr.com/65535/40944999733_6bafc94006_n.jpg",
    "id_album": "-1017029057",
    "description": "CardcaptorSakura_974373",
    "title": "CardcaptorSakura_974373",
    "link_img": "https://live.staticflickr.com/65535/40944999733_9f262ac803_o.jpg",
    "id_image": "CardcaptorSakura_974373",
    "count_view": 0
  },
  {
    "link_thumb": "https://live.staticflickr.com/65535/46995860265_0db22b3b93_n.jpg",
    "id_album": "-1017029057",
    "description": "CardcaptorSakura_978056",
    "title": "CardcaptorSakura_978056",
    "link_img": "https://live.staticflickr.com/65535/46995860265_427b592133_o.jpg",
    "id_image": "CardcaptorSakura_978056",
    "count_view": 0
  },
  {
    "link_thumb": "https://live.staticflickr.com/65535/47955587173_8352c7a70b_n.jpg",
    "id_album": "-1017029057",
    "description": "Crossover_226724",
    "title": "Crossover_226724",
    "link_img": "https://live.staticflickr.com/65535/47955587173_dd14ba046b_o.jpg",
    "id_image": "Crossover_226724",
    "count_view": 0
  },
  {
    "link_thumb": "https://live.staticflickr.com/65535/47955715381_5ba518f431_n.jpg",
    "id_album": "-1017029057",
    "description": "Crossover_677419",
    "title": "Crossover_677419",
    "link_img": "https://live.staticflickr.com/65535/47955715381_9ccb3173ba_o.jpg",
    "id_image": "Crossover_677419",
    "count_view": 0
  },
  {
    "link_thumb": "https://live.staticflickr.com/65535/47955699157_745a51239f_n.jpg",
    "id_album": "-1017029057",
    "description": "Crossover_694579",
    "title": "Crossover_694579",
    "link_img": "https://live.staticflickr.com/65535/47955699157_d182a1ee44_o.jpg",
    "id_image": "Crossover_694579",
    "count_view": 0
  }
]